140, 145, 143 710
139, 144, 142 616
138, 143, 141 405
141, 146, 144 313
139, 142, 140 301
138, 144, 139 277
138, 144, 143 247
137, 142, 140 245
137, 144, 141 221
136, 144, 143 217
137, 143, 138 216
140, 143, 141 211
139, 144, 143 176
140, 146, 145 156
142, 145, 143 154
149, 150, 146 154
141, 144, 142 148
139, 145, 140 139
141, 145, 140 136
142, 146, 141 135
151, 152, 148 133
137, 143, 142 129
139, 145, 144 122
143, 147, 142 122
140, 144, 139 122
140, 146, 141 116
138, 145, 142 111
142, 147, 145 109
150, 151, 147 108
140, 145, 144 106
152, 153, 149 95
143, 146, 144 93
147, 151, 146 93
144, 148, 143 89
135, 143, 142 86
148, 149, 145 85
142, 146, 140 72
152, 151, 147 65
141, 145, 146 62
143, 147, 141 62
138, 145, 140 62
144, 147, 145 60
138, 143, 142 60
103, 111, 110 55
148, 149, 147 53
146, 150, 145 53
144, 148, 142 53
145, 146, 142 52
139, 143, 138 51
146, 147, 145 50
145, 146, 144 48
146, 149, 147 47
104, 112, 111 46
141, 146, 145 44
146, 147, 143 44
104, 112, 112 44
144, 149, 147 43
152, 153, 151 41
144, 146, 140 41
137, 145, 144 40
137, 140, 138 40
142, 147, 146 38
153, 154, 150 38
145, 149, 144 38
135, 140, 138 38
136, 143, 140 36
141, 145, 139 35
136, 141, 139 34
134, 140, 139 34
135, 144, 141 33
145, 147, 141 32
140, 147, 144 31
139, 146, 143 31
153, 154, 152 29
136, 142, 141 29
149, 150, 148 28
155, 154, 150 27
148, 152, 146 27
134, 142, 141 27
105, 113, 113 26
141, 147, 142 25
136, 142, 137 23
141, 147, 146 22
143, 145, 145 22
135, 141, 136 22
134, 139, 137 22
135, 141, 140 22
105, 111, 110 22
151, 153, 147 20
103, 108, 109 20
153, 152, 148 19
147, 150, 148 19
142, 148, 143 19
104, 109, 110 19
101, 107, 106 19
107, 112, 111 19
151, 152, 150 18
149, 153, 148 17
147, 151, 145 17
133, 141, 140 17
134, 143, 140 17
106, 111, 110 17
154, 153, 149 16
138, 141, 139 16
132, 141, 138 16
103, 111, 111 16
101, 109, 108 16
155, 156, 152 15
143, 148, 147 15
149, 153, 147 15
147, 148, 144 15
147, 149, 143 15
146, 148, 142 15
140, 144, 138 15
130, 138, 137 15
105, 116, 114 15
153, 150, 146 14
146, 150, 144 14
137, 144, 137 14
115, 123, 122 14
100, 108, 107 14
105, 114, 117 14
105, 110, 111 14
154, 152, 151 13
150, 151, 149 13
137, 146, 143 13
136, 141, 140 13
124, 132, 131 13
107, 115, 115 13
143, 148, 146 12
150, 148, 147 12
143, 145, 146 12
138, 147, 144 12
145, 149, 143 12
138, 145, 138 12
119, 125, 124 12
118, 126, 125 12
102, 108, 107 12
106, 114, 114 12
147, 148, 146 11
144, 145, 141 11
138, 142, 137 11
137, 141, 136 11
133, 139, 138 11
110, 118, 117 11
109, 117, 116 11
104, 110, 109 11
100, 110, 110 11
151, 149, 148 10
132, 140, 139 10
133, 141, 141 10
148, 152, 147 9
157, 157, 151 9
148, 151, 149 9
154, 151, 147 9
136, 143, 138 9
133, 140, 137 9
104, 113, 117 9
158, 154, 153 8
151, 150, 146 8
152, 154, 148 8
152, 150, 149 8
137, 144, 139 8
133, 144, 142 8
124, 132, 132 8
104, 109, 108 8
108, 116, 116 8
103, 108, 107 8
149, 152, 150 7
149, 151, 145 7
144, 150, 145 7
143, 145, 139 7
142, 144, 138 7
126, 134, 133 7
116, 124, 123 7
106, 114, 113 7
102, 110, 110 7
145, 148, 146 6
140, 145, 146 6
150, 154, 149 6
148, 148, 148 6
150, 154, 148 6
137, 142, 141 6
135, 142, 139 6
134, 145, 143 6
135, 143, 143 6
131, 139, 139 6
128, 136, 135 6
125, 135, 135 6
121, 129, 128 6
110, 118, 118 6
112, 120, 120 6
103, 109, 108 6
102, 107, 106 6
108, 113, 112 6
144, 146, 146 5
145, 150, 148 5
149, 147, 146 5
150, 152, 146 5
143, 144, 140 5
136, 139, 137 5
134, 141, 138 5
131, 142, 140 5
132, 140, 140 5
132, 143, 141 5
138, 146, 145 5
131, 139, 138 5
129, 137, 136 5
123, 131, 130 5
123, 128, 127 5
122, 130, 130 5
119, 127, 126 5
117, 125, 124 5
110, 116, 115 5
109, 115, 114 5
116, 124, 124 5
104, 108, 109 5
99, 107, 106 5
105, 115, 115 5
104, 113, 116 5
101, 111, 111 5
97, 105, 104 5
105, 112, 115 5
102, 110, 109 5
156, 152, 151 4
143, 149, 144 4
141, 142, 138 4
134, 140, 135 4
130, 141, 139 4
127, 135, 134 4
125, 133, 132 4
120, 126, 125 4
114, 124, 124 4
114, 123, 126 4
117, 125, 125 4
102, 111, 108 4
105, 110, 109 4
106, 116, 116 4
105, 114, 118 4
107, 114, 117 4
104, 111, 108 4
103, 112, 116 4
102, 107, 108 4
106, 112, 111 4
108, 110, 110 4
142, 148, 147 3
156, 153, 149 3
158, 158, 152 3
145, 151, 146 3
153, 149, 148 3
149, 149, 149 3
145, 147, 147 3
146, 148, 148 3
148, 150, 144 3
139, 141, 141 3
134, 144, 144 3
125, 132, 129 3
124, 134, 134 3
121, 132, 130 3
122, 130, 129 3
123, 131, 131 3
116, 122, 121 3
111, 117, 116 3
107, 115, 114 3
108, 114, 113 3
113, 121, 120 3
111, 119, 118 3
109, 117, 117 3
111, 119, 119 3
103, 112, 109 3
104, 114, 114 3
103, 114, 118 3
106, 113, 116 3
106, 108, 108 3
109, 111, 112 3
157, 154, 149 2
155, 153, 152 2
152, 148, 147 2
148, 146, 145 2
132, 138, 137 2
140, 142, 142 2
136, 145, 142 2
133, 143, 143 2
136, 144, 144 2
134, 142, 142 2
135, 140, 139 2
129, 140, 138 2
131, 141, 141 2
132, 142, 142 2
133, 142, 145 2
127, 133, 132 2
124, 131, 128 2
123, 130, 127 2
124, 129, 128 2
122, 127, 126 2
121, 127, 126 2
124, 136, 138 2
126, 135, 138 2
129, 137, 137 2
114, 122, 121 2
113, 122, 119 2
111, 116, 115 2
113, 118, 117 2
113, 123, 123 2
112, 124, 126 2
108, 119, 117 2
109, 120, 118 2
103, 110, 107 2
106, 115, 118 2
104, 115, 119 2
106, 115, 119 2
102, 113, 111 2
105, 109, 110 2
100, 106, 105 2
99, 105, 104 2
99, 109, 109 2
100, 111, 109 2
105, 112, 109 2
107, 109, 110 2
107, 109, 109 2
105, 113, 120 2
109, 114, 113 2
150, 153, 151 1
155, 152, 148 1
153, 151, 150 1
155, 156, 154 1
152, 149, 145 1
151, 147, 146 1
151, 155, 150 1
147, 149, 149 1
144, 145, 143 1
142, 143, 139 1
135, 142, 135 1
136, 143, 136 1
140, 141, 139 1
135, 146, 144 1
134, 139, 138 1
137, 139, 139 1
138, 140, 140 1
130, 140, 140 1
131, 143, 143 1
130, 138, 138 1
126, 132, 131 1
122, 129, 126 1
123, 128, 126 1
127, 136, 139 1
128, 135, 138 1
128, 136, 136 1
127, 135, 135 1
122, 133, 131 1
120, 131, 129 1
120, 128, 127 1
112, 121, 118 1
111, 120, 117 1
112, 119, 116 1
111, 118, 115 1
110, 117, 114 1
112, 117, 116 1
115, 125, 125 1
113, 122, 125 1
115, 124, 127 1
116, 123, 126 1
115, 123, 123 1
112, 120, 119 1
109, 119, 119 1
108, 118, 118 1
106, 117, 115 1
105, 113, 112 1
106, 115, 112 1
105, 114, 111 1
104, 113, 110 1
102, 112, 112 1
101, 112, 110 1
102, 111, 115 1
101, 109, 109 1
103, 107, 108 1
106, 108, 109 1
107, 113, 118 1
108, 110, 111 1
111, 111, 111 1
110, 110, 110 1
