127, 132, 130 716
128, 133, 131 546
126, 131, 129 476
129, 132, 130 431
132, 135, 133 373
127, 131, 126 363
128, 132, 127 320
126, 132, 127 317
125, 130, 128 292
130, 133, 131 284
127, 133, 132 272
125, 131, 130 234
130, 135, 133 175
128, 131, 129 175
127, 130, 128 161
131, 132, 128 136
126, 132, 131 126
125, 132, 129 116
129, 133, 128 103
133, 136, 134 100
134, 135, 131 91
134, 137, 135 89
132, 136, 131 84
138, 139, 135 75
130, 134, 129 73
136, 137, 133 71
137, 138, 134 66
131, 136, 135 64
124, 131, 128 63
127, 132, 131 56
134, 135, 133 55
130, 131, 127 55
135, 136, 132 52
136, 137, 135 50
96, 104, 104 50
126, 133, 130 47
127, 133, 128 45
137, 138, 136 44
131, 134, 132 43
132, 133, 129 42
95, 103, 103 41
133, 138, 137 39
126, 130, 125 39
131, 136, 134 38
128, 134, 129 38
133, 137, 132 35
130, 136, 131 35
100, 105, 103 35
126, 129, 127 31
102, 107, 106 30
97, 105, 105 29
98, 104, 103 29
134, 138, 133 28
124, 129, 127 28
99, 105, 104 28
94, 102, 102 28
131, 135, 130 27
99, 106, 103 25
139, 140, 136 24
135, 136, 134 24
124, 130, 129 24
102, 107, 105 24
99, 104, 103 24
132, 137, 136 23
132, 133, 131 23
129, 135, 130 23
131, 132, 130 22
123, 131, 130 21
136, 138, 132 20
103, 109, 108 18
137, 139, 133 17
123, 129, 128 17
101, 107, 106 17
97, 103, 102 17
97, 102, 101 17
99, 104, 102 17
130, 136, 135 16
135, 137, 137 16
134, 139, 138 16
129, 134, 132 16
131, 137, 132 15
98, 103, 104 15
125, 131, 126 14
129, 130, 128 14
124, 132, 131 14
122, 130, 129 14
116, 123, 120 14
97, 102, 103 14
103, 108, 106 14
138, 139, 137 13
118, 123, 121 13
109, 114, 112 13
102, 110, 109 13
103, 108, 107 13
126, 130, 131 12
115, 121, 120 12
98, 103, 102 12
193, 191, 191 12
132, 137, 135 11
133, 131, 130 11
126, 133, 126 11
124, 129, 128 11
102, 108, 107 11
101, 108, 105 11
100, 105, 104 11
96, 103, 106 11
140, 138, 137 10
137, 137, 137 10
128, 129, 127 10
106, 113, 110 10
97, 105, 104 10
98, 103, 106 10
194, 192, 192 10
135, 138, 136 9
116, 124, 123 9
105, 110, 109 9
100, 106, 105 9
101, 109, 108 9
100, 107, 104 9
94, 100, 99 9
91, 97, 96 9
96, 104, 103 9
98, 106, 105 9
101, 103, 103 9
104, 109, 108 9
99, 104, 105 9
139, 137, 136 8
134, 136, 136 8
140, 137, 132 8
125, 130, 131 8
127, 131, 132 8
119, 124, 122 8
99, 103, 104 8
98, 102, 103 8
96, 101, 100 8
98, 105, 108 8
95, 102, 105 8
190, 190, 190 8
140, 139, 135 7
134, 138, 132 7
133, 134, 132 7
129, 130, 126 7
129, 131, 132 7
123, 131, 131 7
97, 104, 107 7
94, 103, 106 7
100, 102, 102 7
101, 103, 104 7
105, 105, 105 7
104, 109, 107 7
100, 101, 99 7
189, 189, 189 7
142, 139, 135 6
128, 133, 132 6
128, 130, 131 6
124, 132, 132 6
127, 130, 134 6
125, 130, 129 6
123, 128, 126 6
114, 122, 121 6
107, 114, 111 6
105, 111, 110 6
104, 112, 111 6
99, 101, 101 6
94, 101, 104 6
102, 106, 107 6
102, 104, 104 6
101, 106, 105 6
100, 104, 109 6
201, 201, 201 6
192, 190, 190 6
185, 189, 200 6
142, 138, 133 5
127, 134, 131 5
126, 131, 132 5
127, 132, 135 5
117, 123, 122 5
110, 116, 115 5
117, 125, 125 5
118, 126, 125 5
117, 125, 124 5
115, 123, 122 5
111, 119, 118 5
106, 111, 110 5
105, 113, 113 5
97, 101, 102 5
93, 99, 98 5
88, 96, 95 5
99, 104, 107 5
96, 102, 107 5
92, 98, 97 5
98, 104, 109 5
98, 102, 107 5
199, 198, 200 5
202, 202, 202 5
235, 235, 235 5
232, 231, 233 5
192, 191, 193 5
134, 142, 149 5
187, 185, 185 5
191, 190, 192 5
191, 189, 189 5
138, 138, 138 4
141, 140, 136 4
135, 139, 134 4
134, 136, 130 4
132, 136, 130 4
138, 138, 132 4
126, 131, 130 4
128, 128, 128 4
124, 130, 125 4
122, 130, 130 4
123, 130, 133 4
125, 132, 135 4
122, 127, 125 4
117, 124, 127 4
107, 115, 114 4
108, 114, 113 4
104, 110, 109 4
95, 101, 100 4
89, 97, 96 4
93, 102, 105 4
98, 106, 106 4
98, 105, 102 4
93, 101, 101 4
94, 103, 107 4
100, 102, 103 4
98, 101, 105 4
104, 106, 107 4
104, 104, 104 4
105, 110, 108 4
99, 103, 108 4
97, 103, 108 4
104, 107, 105 4
116, 115, 117 4
100, 107, 110 4
193, 193, 193 4
197, 197, 197 4
207, 207, 207 4
234, 234, 234 4
201, 200, 202 4
192, 189, 191 4
188, 190, 200 4
180, 179, 181 4
193, 192, 194 4
194, 193, 195 4
186, 189, 203 4
190, 188, 188 4
138, 140, 134 3
135, 137, 131 3
133, 132, 128 3
125, 128, 126 3
127, 128, 126 3
126, 131, 134 3
125, 130, 133 3
125, 133, 133 3
118, 124, 123 3
112, 118, 117 3
111, 117, 116 3
115, 124, 127 3
116, 122, 121 3
107, 112, 110 3
106, 111, 109 3
107, 112, 111 3
102, 107, 108 3
106, 114, 114 3
106, 114, 113 3
105, 113, 112 3
100, 108, 107 3
95, 104, 107 3
100, 104, 105 3
96, 102, 101 3
99, 102, 106 3
99, 102, 107 3
94, 101, 110 3
95, 100, 99 3
98, 101, 106 3
103, 105, 105 3
97, 102, 105 3
106, 109, 107 3
105, 108, 106 3
110, 111, 109 3
109, 110, 108 3
108, 108, 108 3
111, 111, 111 3
112, 112, 112 3
110, 110, 110 3
101, 102, 100 3
98, 98, 98 3
103, 108, 109 3
101, 106, 109 3
101, 104, 109 3
92, 99, 102 3
95, 96, 94 3
118, 115, 117 3
126, 126, 126 3
99, 105, 110 3
99, 106, 109 3
171, 173, 174 3
173, 175, 176 3
179, 179, 179 3
192, 192, 192 3
195, 195, 195 3
200, 199, 201 3
218, 218, 218 3
137, 140, 148 3
174, 180, 179 3
220, 220, 220 3
221, 221, 221 3
225, 223, 223 3
183, 185, 195 3
180, 185, 194 3
160, 166, 171 3
167, 171, 172 3
196, 195, 197 3
205, 203, 203 3
208, 203, 204 3
203, 203, 203 3
197, 195, 195 3
191, 194, 202 3
142, 151, 155 3
182, 181, 183 3
190, 185, 186 3
189, 184, 185 3
183, 188, 203 3
140, 148, 155 3
191, 187, 192 3
190, 189, 191 3
139, 140, 138 2
141, 139, 138 2
133, 135, 135 2
138, 136, 135 2
141, 138, 134 2
133, 137, 131 2
133, 134, 130 2
121, 129, 128 2
123, 130, 127 2
130, 131, 129 2
128, 131, 135 2
123, 132, 129 2
125, 133, 132 2
120, 127, 124 2
122, 129, 132 2
120, 131, 135 2
123, 133, 133 2
117, 122, 120 2
115, 122, 119 2
118, 123, 122 2
120, 122, 122 2
117, 122, 121 2
106, 112, 111 2
113, 124, 128 2
109, 117, 116 2
108, 116, 115 2
108, 113, 111 2
105, 114, 117 2
105, 112, 115 2
102, 111, 114 2
103, 111, 110 2
97, 106, 109 2
97, 101, 106 2
97, 100, 108 2
95, 101, 108 2
101, 106, 104 2
102, 102, 102 2
92, 100, 100 2
103, 105, 106 2
102, 104, 105 2
96, 101, 110 2
100, 105, 106 2
105, 107, 108 2
100, 105, 108 2
104, 105, 103 2
102, 105, 103 2
99, 102, 100 2
98, 101, 99 2
110, 109, 111 2
109, 108, 110 2
110, 107, 109 2
97, 97, 97 2
102, 107, 110 2
95, 102, 99 2
100, 103, 101 2
93, 96, 94 2
113, 113, 113 2
116, 116, 116 2
125, 126, 124 2
127, 127, 127 2
109, 114, 115 2
108, 113, 114 2
100, 106, 111 2
143, 145, 145 2
160, 158, 157 2
161, 159, 158 2
175, 178, 176 2
196, 196, 196 2
202, 199, 201 2
201, 198, 200 2
218, 216, 215 2
216, 216, 216 2
228, 225, 227 2
134, 137, 141 2
133, 136, 141 2
135, 138, 143 2
137, 139, 147 2
146, 153, 156 2
147, 154, 157 2
154, 159, 160 2
156, 161, 162 2
162, 166, 167 2
164, 168, 169 2
169, 175, 174 2
184, 188, 189 2
192, 194, 195 2
226, 227, 225 2
232, 230, 230 2
238, 239, 237 2
232, 229, 231 2
228, 228, 228 2
173, 176, 181 2
176, 179, 184 2
163, 169, 174 2
197, 196, 198 2
204, 205, 203 2
210, 205, 206 2
211, 207, 206 2
207, 206, 208 2
208, 207, 209 2
206, 205, 207 2
205, 205, 205 2
205, 206, 204 2
206, 206, 206 2
200, 197, 199 2
198, 196, 196 2
193, 190, 192 2
189, 192, 200 2
189, 191, 201 2
186, 188, 199 2
116, 122, 133 2
145, 151, 156 2
150, 155, 158 2
152, 157, 160 2
155, 160, 161 2
172, 174, 175 2
175, 174, 178 2
176, 175, 179 2
179, 178, 180 2
182, 182, 182 2
191, 186, 187 2
197, 194, 196 2
195, 193, 193 2
194, 194, 194 2
191, 191, 191 2
194, 191, 193 2
189, 186, 188 2
187, 189, 199 2
184, 189, 198 2
185, 188, 202 2
183, 189, 202 2
138, 146, 153 2
139, 147, 154 2
142, 150, 157 2
150, 155, 156 2
149, 157, 157 2
164, 167, 171 2
180, 180, 180 2
187, 186, 188 2
188, 188, 188 2
190, 187, 189 2
142, 138, 137 1
141, 137, 136 1
141, 138, 133 1
132, 130, 129 1
134, 130, 129 1
122, 133, 131 1
128, 132, 133 1
129, 130, 134 1
128, 129, 133 1
126, 129, 133 1
124, 131, 134 1
122, 131, 134 1
129, 132, 136 1
126, 133, 136 1
123, 132, 135 1
121, 133, 135 1
120, 129, 132 1
121, 130, 134 1
120, 128, 127 1
122, 128, 127 1
121, 127, 126 1
120, 126, 125 1
119, 124, 123 1
113, 119, 118 1
115, 120, 119 1
114, 119, 118 1
109, 115, 114 1
116, 122, 127 1
114, 123, 127 1
113, 125, 129 1
116, 125, 128 1
114, 120, 119 1
110, 115, 113 1
107, 114, 117 1
106, 113, 116 1
104, 110, 115 1
102, 111, 115 1
101, 112, 116 1
102, 112, 119 1
101, 113, 119 1
103, 112, 115 1
104, 111, 114 1
104, 112, 112 1
91, 99, 98 1
90, 98, 97 1
93, 102, 106 1
94, 102, 109 1
93, 103, 110 1
93, 105, 111 1
90, 96, 95 1
96, 100, 105 1
94, 100, 107 1
93, 101, 108 1
91, 101, 108 1
92, 102, 109 1
99, 107, 106 1
103, 103, 103 1
95, 100, 109 1
100, 103, 107 1
101, 102, 106 1
101, 101, 107 1
99, 101, 109 1
98, 101, 109 1
95, 104, 108 1
99, 107, 107 1
107, 105, 105 1
108, 106, 106 1
101, 107, 112 1
100, 109, 113 1
100, 109, 112 1
98, 107, 110 1
95, 106, 104 1
95, 103, 102 1
94, 102, 101 1
102, 109, 106 1
103, 110, 107 1
107, 110, 108 1
108, 109, 107 1
106, 107, 105 1
105, 106, 104 1
101, 104, 102 1
103, 106, 104 1
109, 109, 109 1
111, 108, 110 1
106, 106, 106 1
99, 99, 99 1
99, 98, 100 1
98, 97, 99 1
100, 103, 108 1
96, 105, 108 1
96, 100, 101 1
99, 101, 102 1
96, 103, 100 1
98, 100, 100 1
101, 99, 98 1
100, 98, 97 1
96, 97, 95 1
94, 96, 96 1
96, 98, 99 1
98, 100, 101 1
105, 107, 107 1
106, 108, 108 1
114, 114, 114 1
115, 115, 115 1
117, 117, 117 1
119, 119, 119 1
124, 124, 124 1
126, 127, 125 1
129, 129, 129 1
130, 130, 130 1
131, 131, 131 1
132, 131, 133 1
131, 130, 132 1
109, 114, 117 1
107, 112, 115 1
106, 111, 114 1
104, 109, 112 1
102, 106, 111 1
102, 105, 110 1
94, 100, 105 1
93, 99, 104 1
95, 101, 106 1
103, 108, 111 1
107, 112, 113 1
110, 115, 114 1
112, 120, 119 1
117, 122, 123 1
118, 123, 124 1
121, 125, 126 1
125, 127, 128 1
126, 128, 129 1
132, 134, 134 1
136, 138, 138 1
137, 139, 139 1
138, 140, 140 1
139, 141, 141 1
141, 143, 143 1
142, 144, 144 1
142, 145, 143 1
143, 146, 144 1
147, 148, 146 1
148, 149, 147 1
149, 150, 148 1
150, 151, 149 1
155, 153, 152 1
157, 155, 155 1
159, 157, 157 1
159, 157, 156 1
162, 160, 159 1
163, 161, 160 1
161, 164, 162 1
162, 164, 164 1
164, 166, 166 1
168, 170, 171 1
177, 176, 178 1
178, 177, 179 1
178, 179, 177 1
177, 180, 178 1
182, 184, 184 1
188, 190, 190 1
192, 194, 194 1
204, 204, 204 1
210, 210, 210 1
215, 213, 212 1
219, 217, 216 1
217, 217, 217 1
219, 219, 219 1
135, 138, 142 1
136, 139, 143 1
134, 137, 142 1
135, 137, 145 1
136, 138, 146 1
136, 139, 144 1
135, 141, 148 1
136, 142, 149 1
138, 144, 151 1
133, 139, 146 1
124, 130, 137 1
110, 116, 123 1
100, 106, 113 1
105, 111, 116 1
111, 117, 122 1
125, 131, 136 1
126, 132, 137 1
127, 133, 138 1
128, 134, 139 1
129, 135, 140 1
130, 137, 140 1
132, 139, 142 1
134, 141, 144 1
137, 144, 147 1
139, 146, 149 1
143, 150, 153 1
148, 155, 158 1
149, 156, 159 1
151, 159, 159 1
158, 163, 164 1
168, 173, 172 1
170, 176, 175 1
173, 179, 178 1
177, 181, 182 1
196, 198, 199 1
192, 197, 196 1
194, 199, 198 1
195, 200, 199 1
198, 200, 200 1
202, 204, 204 1
205, 207, 208 1
206, 208, 209 1
207, 209, 210 1
210, 209, 211 1
212, 211, 213 1
213, 212, 214 1
215, 215, 215 1
223, 223, 223 1
223, 224, 222 1
224, 225, 223 1
228, 226, 225 1
229, 227, 227 1
234, 232, 232 1
231, 229, 229 1
235, 233, 233 1
237, 235, 234 1
238, 236, 235 1
239, 237, 236 1
240, 238, 237 1
241, 239, 238 1
241, 244, 242 1
240, 242, 242 1
239, 241, 241 1
241, 240, 242 1
239, 238, 240 1
237, 236, 238 1
235, 234, 236 1
234, 233, 235 1
236, 237, 235 1
235, 237, 237 1
233, 235, 235 1
231, 233, 233 1
233, 233, 233 1
233, 230, 232 1
231, 231, 231 1
229, 229, 229 1
226, 226, 226 1
227, 225, 225 1
226, 224, 224 1
224, 222, 222 1
222, 222, 222 1
220, 217, 219 1
219, 216, 218 1
174, 177, 182 1
177, 179, 187 1
178, 180, 188 1
180, 182, 190 1
180, 181, 191 1
181, 182, 192 1
182, 183, 193 1
181, 183, 191 1
182, 184, 192 1
182, 185, 193 1
178, 183, 192 1
170, 175, 184 1
143, 148, 157 1
109, 114, 123 1
101, 106, 115 1
114, 120, 127 1
122, 128, 135 1
143, 151, 158 1
144, 152, 159 1
145, 153, 160 1
146, 155, 159 1
148, 157, 161 1
150, 159, 163 1
154, 160, 165 1
155, 161, 166 1
158, 164, 169 1
161, 167, 172 1
162, 168, 173 1
162, 169, 172 1
165, 170, 173 1
166, 171, 172 1
168, 172, 173 1
168, 173, 174 1
179, 185, 184 1
182, 188, 187 1
189, 191, 192 1
190, 192, 193 1
188, 193, 192 1
191, 193, 193 1
191, 193, 194 1
194, 196, 197 1
195, 197, 198 1
203, 204, 202 1
204, 202, 202 1
209, 204, 205 1
210, 206, 205 1
204, 203, 205 1
198, 198, 198 1
187, 189, 200 1
188, 190, 201 1
187, 193, 204 1
192, 198, 209 1
193, 199, 210 1
163, 169, 180 1
100, 106, 117 1
127, 133, 144 1
132, 140, 147 1
133, 141, 148 1
135, 143, 150 1
136, 145, 149 1
137, 146, 150 1
139, 148, 152 1
141, 150, 154 1
146, 152, 159 1
147, 153, 160 1
154, 157, 161 1
155, 159, 160 1
156, 160, 161 1
157, 162, 163 1
159, 164, 165 1
160, 165, 166 1
169, 171, 172 1
170, 174, 175 1
178, 177, 181 1
183, 182, 184 1
181, 181, 181 1
184, 182, 182 1
185, 183, 183 1
186, 184, 184 1
192, 188, 187 1
194, 193, 197 1
195, 194, 198 1
196, 194, 194 1
195, 192, 194 1
186, 188, 198 1
184, 188, 199 1
186, 190, 201 1
187, 194, 209 1
192, 199, 214 1
169, 176, 191 1
126, 133, 148 1
107, 114, 129 1
120, 127, 142 1
132, 139, 154 1
129, 136, 145 1
131, 138, 147 1
133, 140, 149 1
136, 144, 151 1
141, 149, 156 1
144, 150, 155 1
146, 152, 157 1
148, 153, 156 1
149, 154, 157 1
150, 158, 158 1
159, 163, 164 1
160, 164, 165 1
164, 166, 167 1
162, 165, 169 1
166, 167, 171 1
167, 168, 172 1
169, 170, 174 1
171, 172, 176 1
172, 173, 177 1
173, 172, 176 1
174, 173, 177 1
180, 182, 183 1
182, 180, 180 1
183, 180, 182 1
184, 181, 183 1
185, 182, 184 1
186, 183, 185 1
188, 186, 186 1
187, 187, 187 1
189, 188, 192 1
189, 187, 187 1
