73, 80, 83 155
71, 80, 84 146
72, 81, 85 124
73, 82, 86 111
70, 79, 83 102
112, 120, 127 96
71, 80, 83 92
73, 82, 85 91
74, 81, 84 88
76, 85, 89 86
69, 78, 82 85
72, 81, 84 84
77, 86, 90 82
108, 116, 123 81
70, 79, 82 81
75, 84, 88 79
111, 119, 126 78
73, 81, 81 73
76, 85, 88 72
78, 87, 90 68
109, 117, 124 66
71, 81, 81 66
77, 86, 89 63
113, 121, 128 62
71, 82, 86 62
76, 83, 86 61
115, 123, 130 60
75, 82, 85 59
75, 84, 87 57
74, 83, 87 54
71, 78, 81 53
76, 86, 86 53
79, 88, 91 53
107, 114, 123 53
112, 119, 128 52
107, 115, 122 51
72, 82, 82 50
78, 88, 88 49
77, 87, 87 48
75, 83, 83 48
70, 81, 85 47
65, 73, 80 45
73, 81, 88 44
69, 78, 81 44
74, 80, 85 43
77, 84, 87 43
68, 77, 81 43
108, 115, 124 42
105, 113, 120 41
78, 87, 91 40
72, 80, 87 39
76, 84, 91 39
114, 122, 129 38
104, 112, 119 37
75, 87, 89 36
105, 112, 121 36
70, 80, 80 36
113, 120, 129 35
79, 89, 89 34
80, 89, 92 33
68, 77, 80 33
110, 118, 125 32
73, 83, 83 31
75, 85, 85 31
75, 80, 81 31
62, 71, 75 30
129, 137, 144 29
69, 80, 84 29
69, 79, 79 29
111, 118, 127 28
74, 85, 89 28
117, 126, 135 28
71, 79, 86 27
76, 81, 82 27
77, 82, 83 27
113, 123, 130 26
74, 83, 86 26
132, 140, 147 26
71, 79, 79 26
109, 116, 119 26
116, 124, 131 25
80, 90, 90 25
73, 84, 88 25
69, 74, 73 25
99, 106, 115 25
106, 115, 118 25
106, 114, 121 24
80, 88, 87 24
77, 85, 92 24
79, 87, 86 24
118, 127, 136 24
72, 83, 87 24
128, 136, 143 24
132, 141, 145 23
109, 116, 125 23
64, 72, 79 23
72, 79, 82 23
108, 112, 123 23
104, 111, 120 23
75, 80, 83 22
71, 76, 74 22
70, 82, 84 22
108, 117, 121 22
118, 126, 133 21
73, 79, 84 21
102, 109, 118 21
75, 78, 83 21
107, 116, 119 21
76, 84, 84 20
133, 141, 148 20
106, 113, 122 20
75, 83, 90 20
101, 108, 117 20
111, 120, 129 20
119, 128, 137 19
118, 128, 135 19
114, 121, 130 19
75, 87, 87 19
81, 89, 88 19
70, 78, 85 19
130, 138, 145 19
93, 101, 108 19
67, 74, 77 19
79, 86, 89 19
66, 72, 77 19
100, 107, 116 19
68, 79, 83 19
101, 109, 116 18
76, 88, 88 18
74, 86, 88 18
74, 82, 82 18
67, 76, 80 18
61, 70, 74 18
66, 74, 81 18
70, 75, 78 18
70, 75, 74 18
129, 138, 142 17
82, 90, 90 17
69, 76, 79 17
76, 81, 84 17
110, 117, 120 17
103, 109, 116 17
73, 79, 78 17
70, 76, 75 17
72, 80, 79 17
100, 108, 115 16
77, 88, 86 16
85, 93, 100 16
68, 75, 78 16
78, 85, 88 16
65, 71, 76 16
67, 78, 82 16
110, 117, 126 15
102, 110, 117 15
74, 82, 89 15
72, 80, 80 15
70, 78, 78 15
97, 104, 113 15
109, 118, 122 15
73, 76, 80 15
108, 115, 118 15
71, 76, 75 15
119, 129, 136 14
119, 127, 134 14
81, 89, 89 14
119, 126, 135 14
80, 87, 90 14
92, 100, 107 14
75, 81, 86 14
71, 83, 85 14
111, 118, 121 14
103, 111, 118 13
80, 91, 89 13
131, 140, 144 13
94, 102, 109 13
117, 127, 134 13
112, 122, 129 13
134, 142, 149 13
72, 77, 78 13
63, 72, 76 13
71, 76, 79 13
128, 137, 141 13
95, 102, 111 13
77, 82, 85 13
116, 126, 133 13
68, 71, 76 13
74, 78, 83 13
102, 108, 115 13
73, 76, 81 13
74, 76, 84 13
109, 117, 117 13
71, 73, 73 13
107, 113, 118 13
114, 124, 131 12
82, 89, 92 12
62, 71, 74 12
120, 130, 137 12
123, 133, 140 12
74, 79, 82 12
71, 75, 76 12
74, 79, 80 12
107, 111, 122 12
98, 105, 114 12
103, 109, 114 12
97, 102, 111 12
75, 79, 84 12
105, 114, 117 12
102, 110, 110 12
130, 139, 143 11
66, 75, 79 11
125, 135, 142 11
75, 80, 78 11
73, 78, 79 11
103, 110, 119 11
84, 94, 101 11
75, 78, 82 11
81, 91, 98 11
69, 79, 86 11
69, 73, 74 11
70, 81, 79 11
70, 72, 72 11
71, 77, 72 11
106, 112, 117 11
99, 107, 114 10
78, 86, 93 10
68, 76, 83 10
86, 94, 101 10
71, 77, 82 10
80, 88, 88 10
126, 136, 143 10
70, 77, 80 10
120, 129, 138 10
70, 80, 87 10
66, 73, 76 10
61, 70, 73 10
74, 80, 79 10
94, 99, 108 10
70, 78, 77 10
70, 74, 75 10
71, 78, 75 10
106, 112, 119 10
107, 113, 120 10
79, 81, 81 10
125, 134, 143 9
83, 88, 87 9
81, 89, 96 9
63, 72, 75 9
123, 132, 141 9
121, 131, 138 9
116, 122, 127 9
95, 103, 110 9
73, 85, 87 9
115, 121, 126 9
71, 76, 77 9
79, 87, 87 9
68, 73, 72 9
127, 135, 142 9
77, 80, 84 9
115, 125, 132 9
64, 71, 80 9
102, 108, 113 9
74, 77, 82 9
66, 80, 86 9
105, 114, 118 9
107, 114, 117 9
70, 75, 76 8
79, 87, 94 8
79, 90, 88 8
79, 88, 92 8
116, 123, 132 8
72, 84, 86 8
114, 120, 125 8
112, 121, 125 8
78, 84, 89 8
77, 83, 90 8
73, 78, 81 8
100, 106, 117 8
88, 96, 103 8
111, 121, 128 8
110, 119, 128 8
67, 79, 81 8
105, 111, 118 8
103, 110, 113 8
78, 83, 86 8
75, 77, 85 8
71, 74, 78 8
77, 78, 82 8
71, 73, 74 8
72, 77, 75 8
101, 110, 114 8
72, 79, 76 8
69, 71, 71 8
133, 142, 146 7
124, 133, 142 7
97, 105, 112 7
82, 88, 87 7
2, 0, 0 7
7, 0, 0 7
81, 86, 85 7
5, 0, 0 7
80, 91, 88 7
78, 89, 87 7
74, 84, 84 7
98, 106, 113 7
71, 81, 88 7
131, 139, 146 7
76, 82, 87 7
81, 86, 84 7
127, 136, 140 7
76, 88, 90 7
94, 101, 110 7
131, 141, 148 7
130, 140, 147 7
59, 67, 74 7
106, 111, 120 7
78, 88, 95 7
104, 109, 118 7
112, 117, 120 7
104, 110, 117 7
104, 111, 114 7
72, 77, 80 7
76, 80, 85 7
70, 73, 77 7
65, 73, 73 7
69, 74, 75 7
72, 76, 77 7
71, 79, 78 7
75, 76, 86 7
72, 78, 77 7
71, 77, 76 7
73, 81, 80 7
70, 75, 73 7
110, 120, 127 7
71, 78, 71 7
73, 77, 72 7
80, 81, 79 7
109, 119, 126 7
100, 108, 108 7
117, 123, 128 6
96, 104, 111 6
77, 79, 79 6
80, 89, 93 6
79, 90, 87 6
82, 90, 89 6
76, 87, 85 6
88, 97, 101 6
80, 85, 84 6
118, 125, 134 6
75, 86, 90 6
76, 81, 79 6
72, 78, 83 6
80, 88, 95 6
69, 74, 77 6
74, 77, 75 6
69, 75, 74 6
89, 97, 104 6
116, 125, 134 6
67, 75, 82 6
64, 70, 75 6
68, 78, 85 6
58, 66, 73 6
82, 92, 99 6
106, 115, 119 6
99, 104, 113 6
93, 99, 106 6
56, 67, 71 6
69, 77, 77 6
68, 80, 86 6
67, 79, 83 6
73, 77, 78 6
108, 117, 120 6
126, 134, 141 6
110, 118, 118 6
69, 70, 74 6
72, 74, 75 6
72, 74, 74 6
72, 77, 76 6
73, 75, 75 6
105, 111, 116 6
101, 109, 109 6
95, 102, 105 6
69, 71, 72 6
81, 82, 80 6
73, 77, 71 6
108, 112, 117 6
86, 91, 90 6
121, 130, 139 5
116, 125, 129 5
92, 101, 105 5
1, 1, 1 5
9, 0, 0 5
78, 89, 86 5
4, 0, 0 5
82, 87, 86 5
65, 74, 77 5
78, 81, 79 5
76, 81, 80 5
67, 73, 78 5
73, 78, 76 5
99, 105, 116 5
92, 99, 108 5
90, 98, 105 5
96, 103, 112 5
113, 122, 131 5
112, 121, 130 5
114, 123, 132 5
107, 112, 121 5
69, 81, 83 5
83, 93, 100 5
126, 135, 139 5
69, 72, 77 5
74, 77, 81 5
64, 78, 84 5
66, 78, 82 5
68, 78, 78 5
104, 113, 116 5
70, 71, 75 5
69, 77, 76 5
70, 72, 73 5
73, 78, 77 5
80, 82, 82 5
106, 113, 116 5
97, 104, 107 5
92, 99, 102 5
68, 70, 71 5
79, 80, 78 5
108, 114, 119 5
103, 111, 111 5
66, 72, 71 5
67, 73, 72 5
99, 107, 107 5
94, 101, 104 5
63, 68, 67 5
155, 158, 156 5
161, 161, 161 5
114, 125, 129 4
87, 95, 102 4
70, 76, 81 4
82, 87, 88 4
6, 1, 0 4
12, 0, 0 4
5, 1, 0 4
81, 90, 93 4
81, 91, 91 4
93, 102, 106 4
91, 100, 104 4
77, 82, 81 4
81, 87, 86 4
68, 73, 74 4
76, 79, 77 4
74, 86, 86 4
79, 84, 83 4
72, 82, 89 4
78, 84, 91 4
78, 83, 81 4
77, 81, 82 4
74, 79, 78 4
123, 130, 139 4
91, 98, 107 4
117, 125, 132 4
106, 110, 121 4
126, 137, 141 4
65, 72, 81 4
79, 89, 96 4
69, 81, 81 4
60, 68, 75 4
76, 86, 93 4
68, 80, 82 4
105, 112, 115 4
94, 100, 107 4
74, 78, 79 4
125, 134, 138 4
100, 105, 114 4
82, 91, 100 4
59, 68, 72 4
76, 79, 83 4
62, 77, 80 4
54, 74, 79 4
65, 78, 80 4
79, 84, 85 4
70, 77, 74 4
75, 78, 76 4
76, 78, 78 4
80, 80, 80 4
78, 80, 80 4
93, 100, 103 4
68, 74, 73 4
74, 81, 78 4
71, 78, 73 4
98, 106, 106 4
73, 75, 76 4
93, 91, 91 4
156, 160, 161 4
154, 158, 159 4
162, 164, 164 4
134, 143, 147 3
126, 135, 144 3
115, 122, 131 3
83, 88, 89 3
115, 124, 128 3
67, 72, 73 3
66, 75, 78 3
127, 137, 144 3
120, 128, 135 3
72, 83, 81 3
8, 3, 2 3
85, 90, 89 3
117, 124, 133 3
77, 83, 88 3
63, 71, 78 3
116, 122, 133 3
78, 86, 85 3
73, 76, 74 3
67, 72, 71 3
83, 88, 86 3
109, 114, 123 3
78, 83, 84 3
78, 81, 85 3
79, 83, 84 3
91, 99, 106 3
73, 85, 85 3
115, 124, 133 3
127, 138, 142 3
76, 82, 89 3
125, 133, 140 3
75, 85, 92 3
69, 77, 84 3
110, 119, 123 3
111, 117, 122 3
113, 118, 121 3
101, 107, 114 3
100, 106, 113 3
56, 68, 70 3
59, 68, 71 3
68, 80, 80 3
67, 79, 79 3
68, 80, 84 3
66, 78, 84 3
123, 132, 136 3
96, 101, 110 3
90, 96, 103 3
66, 82, 88 3
65, 75, 82 3
57, 68, 72 3
65, 79, 85 3
64, 77, 85 3
101, 106, 115 3
95, 100, 109 3
93, 98, 107 3
58, 67, 71 3
60, 76, 82 3
63, 82, 89 3
58, 69, 77 3
104, 113, 117 3
68, 76, 75 3
63, 69, 68 3
58, 67, 70 3
75, 77, 78 3
75, 79, 80 3
78, 80, 81 3
80, 79, 81 3
75, 81, 76 3
74, 80, 75 3
73, 79, 74 3
118, 129, 133 3
75, 77, 77 3
81, 81, 81 3
73, 80, 77 3
80, 84, 79 3
108, 116, 116 3
100, 109, 113 3
96, 103, 106 3
62, 68, 67 3
74, 78, 73 3
82, 83, 81 3
79, 79, 79 3
83, 81, 80 3
86, 87, 83 3
107, 116, 120 3
60, 66, 65 3
72, 79, 72 3
72, 76, 70 3
72, 78, 73 3
96, 104, 104 3
106, 105, 101 3
80, 83, 81 3
127, 131, 132 3
129, 131, 132 3
111, 116, 119 3
100, 109, 112 3
97, 105, 105 3
105, 113, 113 3
128, 130, 130 3
127, 130, 128 3
156, 158, 159 3
159, 158, 160 3
162, 160, 160 3
157, 159, 160 3
127, 136, 145 2
122, 131, 140 2
118, 124, 129 2
17, 5, 3 2
11, 0, 0 2
81, 93, 87 2
81, 92, 89 2
71, 77, 88 2
61, 71, 71 2
62, 73, 71 2
64, 75, 72 2
75, 88, 86 2
14, 2, 0 2
8, 1, 0 2
77, 80, 78 2
77, 84, 93 2
67, 76, 79 2
64, 74, 74 2
124, 134, 141 2
79, 82, 80 2
75, 86, 84 2
114, 123, 127 2
83, 72, 68 2
89, 98, 102 2
52, 56, 57 2
44, 45, 43 2
113, 122, 126 2
7, 2, 0 2
4, 1, 0 2
69, 75, 80 2
78, 83, 82 2
39, 38, 34 2
43, 41, 40 2
81, 86, 87 2
80, 86, 91 2
58, 60, 60 2
117, 123, 134 2
66, 70, 71 2
67, 71, 72 2
80, 86, 85 2
80, 85, 86 2
76, 80, 75 2
77, 81, 76 2
127, 134, 143 2
125, 132, 141 2
121, 128, 137 2
101, 107, 118 2
98, 104, 115 2
97, 103, 114 2
63, 69, 74 2
93, 100, 109 2
78, 82, 83 2
106, 112, 123 2
128, 138, 145 2
60, 69, 73 2
85, 95, 102 2
84, 92, 99 2
129, 139, 146 2
128, 139, 143 2
87, 96, 100 2
75, 81, 88 2
105, 110, 119 2
122, 130, 137 2
121, 129, 136 2
96, 102, 109 2
90, 96, 101 2
88, 94, 99 2
70, 73, 78 2
67, 77, 77 2
74, 80, 87 2
66, 76, 83 2
65, 81, 87 2
67, 79, 85 2
63, 79, 85 2
66, 84, 91 2
62, 78, 85 2
64, 72, 72 2
69, 72, 76 2
69, 81, 85 2
60, 79, 84 2
64, 83, 90 2
61, 74, 82 2
63, 73, 73 2
121, 130, 134 2
97, 101, 112 2
90, 95, 104 2
69, 69, 75 2
72, 75, 79 2
73, 75, 83 2
61, 80, 87 2
62, 80, 87 2
58, 74, 81 2
58, 71, 79 2
61, 72, 70 2
64, 72, 71 2
63, 71, 70 2
111, 119, 119 2
71, 74, 79 2
78, 79, 83 2
66, 79, 81 2
51, 73, 78 2
62, 81, 88 2
62, 71, 68 2
91, 97, 104 2
89, 95, 102 2
65, 72, 75 2
68, 69, 73 2
68, 72, 73 2
75, 76, 80 2
69, 80, 78 2
64, 82, 89 2
60, 70, 77 2
64, 73, 70 2
67, 74, 71 2
120, 131, 135 2
117, 128, 132 2
98, 104, 111 2
97, 103, 110 2
66, 74, 74 2
79, 78, 80 2
62, 76, 75 2
57, 76, 79 2
67, 83, 89 2
123, 131, 138 2
107, 117, 117 2
102, 111, 115 2
102, 109, 112 2
100, 107, 110 2
96, 102, 107 2
93, 99, 104 2
91, 97, 102 2
68, 76, 76 2
67, 75, 75 2
81, 85, 86 2
82, 86, 87 2
81, 83, 84 2
74, 79, 77 2
73, 84, 82 2
68, 83, 85 2
73, 85, 89 2
81, 85, 80 2
119, 130, 134 2
90, 97, 100 2
88, 95, 98 2
75, 83, 82 2
58, 66, 65 2
61, 69, 68 2
65, 71, 70 2
108, 118, 125 2
86, 94, 94 2
64, 70, 69 2
82, 80, 79 2
83, 81, 81 2
79, 75, 74 2
76, 75, 71 2
70, 74, 69 2
83, 91, 91 2
58, 64, 63 2
69, 76, 73 2
86, 87, 85 2
87, 88, 86 2
92, 90, 90 2
102, 101, 97 2
101, 102, 98 2
130, 132, 133 2
138, 137, 133 2
109, 113, 118 2
102, 111, 114 2
62, 67, 66 2
68, 70, 70 2
67, 69, 69 2
82, 87, 85 2
85, 90, 88 2
97, 103, 102 2
102, 108, 107 2
132, 135, 133 2
155, 151, 150 2
155, 159, 160 2
92, 94, 94 2
103, 108, 106 2
146, 151, 149 2
138, 143, 141 2
158, 162, 163 2
159, 163, 164 2
159, 165, 164 2
151, 159, 159 2
154, 156, 156 2
157, 159, 159 2
158, 161, 159 2
163, 165, 165 2
164, 163, 165 2
167, 165, 164 2
166, 169, 167 2
158, 160, 161 2
160, 159, 161 2
162, 160, 159 2
160, 161, 159 2
94, 103, 107 1
78, 86, 86 1
62, 66, 67 1
39, 41, 42 1
10, 0, 0 1
25, 12, 10 1
36, 24, 20 1
49, 37, 33 1
57, 45, 41 1
33, 21, 17 1
11, 2, 0 1
8, 0, 0 1
13, 11, 10 1
57, 57, 57 1
83, 90, 93 1
79, 86, 95 1
75, 81, 92 1
72, 78, 91 1
65, 71, 84 1
57, 67, 67 1
58, 69, 67 1
68, 79, 76 1
74, 85, 82 1
59, 63, 64 1
38, 40, 40 1
5, 3, 3 1
12, 3, 0 1
13, 1, 0 1
33, 18, 15 1
48, 33, 30 1
53, 41, 37 1
51, 39, 35 1
22, 10, 8 1
12, 10, 9 1
54, 55, 53 1
78, 85, 94 1
76, 82, 93 1
74, 80, 91 1
69, 75, 86 1
66, 76, 76 1
67, 78, 76 1
65, 76, 74 1
67, 78, 75 1
71, 82, 79 1
76, 87, 84 1
122, 132, 139 1
76, 89, 87 1
64, 69, 70 1
57, 61, 62 1
37, 39, 39 1
16, 4, 2 1
28, 16, 12 1
25, 13, 9 1
20, 5, 2 1
19, 4, 1 1
39, 24, 21 1
65, 53, 49 1
55, 43, 39 1
54, 42, 40 1
31, 22, 19 1
11, 9, 8 1
53, 54, 52 1
74, 81, 90 1
135, 144, 148 1
64, 68, 69 1
48, 50, 51 1
13, 13, 13 1
9, 2, 0 1
43, 34, 31 1
66, 55, 51 1
27, 12, 9 1
15, 3, 0 1
37, 25, 21 1
47, 36, 32 1
72, 63, 60 1
57, 48, 45 1
10, 8, 7 1
49, 50, 48 1
81, 88, 91 1
120, 127, 136 1
19, 21, 21 1
20, 15, 12 1
70, 63, 60 1
91, 82, 79 1
93, 84, 80 1
86, 77, 73 1
36, 25, 21 1
15, 4, 0 1
19, 10, 7 1
33, 24, 21 1
32, 25, 22 1
8, 3, 0 1
5, 2, 0 1
3, 4, 2 1
58, 62, 63 1
29, 31, 32 1
0, 0, 0 1
19, 14, 11 1
19, 12, 9 1
24, 18, 13 1
31, 25, 20 1
14, 5, 2 1
10, 1, 0 1
3, 2, 0 1
5, 6, 4 1
45, 48, 46 1
65, 74, 78 1
61, 65, 66 1
37, 41, 42 1
11, 13, 13 1
3, 1, 0 1
6, 3, 0 1
8, 5, 1 1
10, 7, 3 1
13, 10, 6 1
8, 7, 3 1
10, 9, 5 1
9, 10, 8 1
16, 19, 17 1
51, 54, 52 1
64, 73, 77 1
68, 74, 79 1
63, 68, 71 1
48, 52, 53 1
35, 37, 38 1
28, 30, 30 1
33, 33, 33 1
37, 38, 36 1
39, 37, 36 1
42, 41, 37 1
38, 36, 36 1
42, 40, 39 1
38, 36, 35 1
42, 43, 41 1
45, 46, 44 1
41, 42, 40 1
42, 45, 43 1
46, 49, 47 1
63, 66, 64 1
60, 65, 68 1
56, 60, 61 1
57, 60, 58 1
59, 60, 58 1
58, 59, 57 1
58, 59, 55 1
61, 62, 58 1
60, 62, 62 1
54, 56, 56 1
59, 61, 61 1
53, 56, 54 1
59, 62, 60 1
58, 61, 59 1
60, 63, 61 1
66, 69, 67 1
69, 72, 70 1
68, 73, 71 1
67, 71, 66 1
66, 70, 65 1
66, 71, 69 1
67, 72, 70 1
69, 74, 72 1
62, 70, 77 1
76, 81, 90 1
79, 85, 90 1
77, 83, 82 1
90, 97, 106 1
72, 84, 84 1
71, 83, 83 1
129, 140, 144 1
108, 113, 122 1
70, 82, 82 1
86, 95, 99 1
66, 78, 80 1
63, 70, 79 1
124, 133, 137 1
92, 98, 105 1
66, 77, 81 1
67, 81, 87 1
68, 82, 88 1
67, 77, 84 1
110, 116, 121 1
65, 80, 83 1
66, 81, 84 1
65, 77, 83 1
87, 93, 100 1
83, 92, 101 1
65, 84, 89 1
67, 85, 92 1
67, 83, 90 1
65, 81, 88 1
65, 76, 84 1
63, 75, 81 1
62, 74, 80 1
64, 73, 76 1
122, 131, 135 1
86, 92, 99 1
81, 90, 99 1
64, 79, 82 1
62, 78, 84 1
61, 77, 83 1
59, 78, 83 1
62, 81, 86 1
65, 84, 91 1
66, 85, 92 1
63, 81, 88 1
61, 77, 84 1
62, 75, 83 1
61, 72, 80 1
60, 71, 79 1
62, 72, 72 1
112, 119, 122 1
87, 92, 101 1
55, 66, 70 1
67, 70, 74 1
68, 71, 75 1
63, 78, 81 1
58, 74, 80 1
55, 74, 79 1
55, 75, 80 1
57, 76, 83 1
60, 79, 86 1
60, 76, 83 1
59, 72, 80 1
109, 118, 121 1
88, 93, 102 1
56, 65, 69 1
71, 72, 76 1
72, 75, 80 1
60, 77, 80 1
58, 75, 78 1
57, 74, 77 1
56, 73, 76 1
50, 72, 77 1
54, 76, 82 1
57, 79, 85 1
59, 77, 84 1
57, 70, 78 1
57, 68, 76 1
58, 67, 76 1
59, 70, 67 1
61, 70, 67 1
120, 129, 133 1
99, 105, 112 1
98, 103, 112 1
81, 92, 96 1
78, 89, 93 1
55, 64, 67 1
60, 69, 72 1
64, 71, 74 1
75, 75, 81 1
62, 77, 79 1
60, 75, 77 1
59, 74, 76 1
59, 74, 77 1
56, 76, 81 1
59, 79, 84 1
62, 82, 87 1
63, 83, 88 1
64, 80, 87 1
60, 72, 78 1
66, 73, 70 1
108, 118, 118 1
103, 112, 116 1
101, 107, 112 1
100, 106, 111 1
85, 94, 98 1
84, 93, 97 1
83, 92, 96 1
54, 63, 66 1
59, 69, 69 1
60, 70, 70 1
71, 82, 80 1
77, 79, 80 1
66, 78, 78 1
63, 77, 76 1
58, 77, 80 1
62, 81, 84 1
68, 84, 90 1
69, 83, 89 1
69, 81, 87 1
101, 108, 111 1
98, 104, 109 1
97, 103, 108 1
94, 100, 105 1
92, 98, 103 1
86, 95, 98 1
85, 94, 97 1
82, 91, 94 1
57, 65, 65 1
61, 69, 69 1
62, 70, 70 1
72, 75, 73 1
75, 81, 80 1
76, 78, 79 1
80, 84, 85 1
82, 84, 85 1
67, 82, 84 1
68, 83, 86 1
75, 87, 91 1
68, 72, 77 1
70, 74, 79 1
107, 115, 115 1
99, 106, 109 1
85, 95, 95 1
83, 93, 93 1
66, 74, 73 1
62, 70, 69 1
74, 78, 72 1
74, 82, 81 1
75, 80, 79 1
83, 84, 82 1
81, 80, 82 1
75, 82, 79 1
77, 84, 81 1
83, 89, 88 1
84, 90, 89 1
77, 89, 91 1
76, 77, 81 1
79, 81, 82 1
83, 82, 84 1
84, 83, 85 1
87, 88, 84 1
88, 89, 85 1
123, 134, 138 1
104, 110, 115 1
86, 93, 96 1
84, 92, 92 1
65, 73, 72 1
57, 65, 64 1
70, 77, 70 1
70, 76, 71 1
70, 77, 72 1
72, 79, 74 1
79, 77, 76 1
81, 79, 78 1
80, 78, 78 1
81, 79, 79 1
82, 80, 80 1
77, 76, 72 1
74, 75, 71 1
73, 74, 70 1
71, 75, 70 1
71, 74, 72 1
86, 91, 89 1
88, 93, 91 1
88, 98, 98 1
93, 101, 101 1
97, 102, 103 1
96, 101, 102 1
96, 100, 101 1
95, 99, 100 1
95, 97, 98 1
94, 96, 97 1
98, 97, 99 1
101, 100, 102 1
104, 103, 105 1
107, 104, 106 1
109, 107, 107 1
105, 104, 100 1
106, 107, 103 1
124, 135, 139 1
109, 114, 117 1
99, 108, 112 1
88, 96, 96 1
76, 84, 83 1
86, 88, 88 1
83, 85, 85 1
84, 82, 81 1
86, 84, 83 1
85, 86, 84 1
88, 89, 87 1
89, 89, 89 1
101, 97, 96 1
101, 98, 94 1
102, 99, 95 1
101, 100, 96 1
98, 102, 97 1
100, 104, 99 1
102, 106, 101 1
105, 108, 106 1
108, 111, 109 1
112, 115, 113 1
115, 118, 116 1
118, 121, 119 1
120, 125, 126 1
123, 128, 129 1
126, 131, 132 1
127, 132, 133 1
131, 133, 134 1
131, 130, 132 1
130, 129, 131 1
132, 131, 133 1
136, 134, 134 1
137, 135, 135 1
138, 136, 136 1
139, 137, 137 1
139, 138, 134 1
137, 136, 132 1
140, 139, 135 1
111, 122, 126 1
109, 115, 120 1
99, 108, 111 1
91, 98, 101 1
87, 94, 97 1
85, 93, 93 1
76, 82, 81 1
57, 63, 62 1
61, 67, 66 1
65, 67, 68 1
67, 69, 70 1
75, 79, 74 1
76, 80, 74 1
77, 81, 75 1
78, 82, 77 1
82, 85, 83 1
80, 85, 83 1
82, 88, 83 1
83, 89, 84 1
84, 89, 87 1
88, 92, 93 1
90, 94, 95 1
92, 96, 97 1
93, 97, 98 1
94, 98, 99 1
94, 100, 99 1
96, 102, 101 1
100, 106, 105 1
104, 112, 112 1
112, 117, 118 1
119, 124, 125 1
124, 129, 130 1
127, 132, 131 1
132, 134, 134 1
125, 127, 127 1
124, 126, 126 1
131, 134, 132 1
135, 136, 134 1
137, 138, 136 1
138, 139, 137 1
139, 140, 138 1
141, 142, 140 1
142, 143, 141 1
143, 144, 142 1
145, 146, 144 1
150, 150, 150 1
151, 151, 151 1
153, 153, 153 1
155, 155, 155 1
158, 156, 156 1
157, 155, 155 1
156, 154, 154 1
155, 153, 153 1
154, 152, 151 1
155, 153, 152 1
156, 154, 153 1
155, 156, 152 1
156, 157, 153 1
155, 159, 154 1
153, 157, 152 1
154, 157, 155 1
156, 159, 157 1
158, 157, 159 1
157, 156, 158 1
158, 158, 158 1
159, 159, 159 1
160, 159, 155 1
159, 158, 154 1
159, 157, 156 1
160, 158, 157 1
159, 160, 158 1
112, 123, 127 1
102, 113, 117 1
104, 114, 121 1
105, 115, 122 1
106, 116, 123 1
111, 115, 120 1
98, 107, 110 1
97, 106, 109 1
89, 95, 100 1
87, 93, 98 1
93, 98, 99 1
91, 96, 97 1
88, 93, 94 1
85, 90, 91 1
59, 65, 64 1
61, 66, 65 1
65, 70, 69 1
74, 76, 77 1
85, 91, 90 1
88, 94, 93 1
91, 96, 95 1
94, 96, 96 1
95, 97, 97 1
99, 101, 101 1
98, 103, 102 1
99, 105, 104 1
103, 110, 107 1
102, 107, 105 1
102, 107, 106 1
107, 112, 111 1
114, 119, 117 1
120, 125, 123 1
123, 128, 126 1
124, 127, 125 1
122, 126, 121 1
120, 124, 119 1
127, 131, 126 1
129, 131, 131 1
133, 135, 135 1
140, 142, 142 1
146, 149, 147 1
148, 153, 151 1
147, 152, 150 1
142, 147, 145 1
141, 146, 144 1
139, 144, 142 1
140, 145, 144 1
142, 147, 146 1
144, 149, 148 1
147, 152, 151 1
148, 153, 152 1
149, 154, 153 1
151, 155, 156 1
157, 162, 161 1
159, 164, 163 1
158, 164, 163 1
156, 161, 162 1
150, 157, 160 1
148, 155, 158 1
148, 153, 156 1
149, 154, 157 1
152, 157, 160 1
152, 156, 157 1
155, 157, 157 1
156, 158, 158 1
157, 160, 158 1
159, 162, 160 1
160, 163, 161 1
161, 163, 163 1
179, 181, 181 1
172, 174, 174 1
164, 166, 166 1
163, 162, 164 1
165, 166, 164 1
166, 167, 165 1
167, 168, 166 1
165, 168, 166 1
165, 170, 168 1
164, 169, 167 1
163, 168, 166 1
162, 167, 165 1
160, 164, 165 1
157, 161, 162 1
162, 162, 162 1
161, 162, 160 1
