118, 123, 121 702
118, 124, 123 622
120, 123, 121 572
122, 125, 123 513
119, 124, 122 436
121, 124, 122 419
119, 122, 120 349
123, 126, 124 305
120, 125, 124 277
121, 126, 125 272
117, 123, 122 218
119, 125, 124 166
122, 127, 126 121
123, 127, 122 106
125, 129, 124 106
118, 124, 119 103
117, 122, 120 98
128, 129, 125 92
120, 125, 123 90
123, 124, 122 87
124, 125, 123 80
117, 123, 118 77
122, 126, 121 76
125, 128, 126 72
121, 125, 120 72
125, 126, 122 66
124, 125, 121 66
127, 128, 124 62
124, 129, 128 60
129, 130, 126 60
130, 131, 127 52
89, 97, 97 50
95, 101, 100 49
127, 131, 126 42
124, 128, 123 40
121, 126, 124 38
126, 127, 123 37
88, 96, 96 34
90, 98, 98 33
87, 95, 95 33
126, 128, 122 32
96, 102, 101 31
181, 178, 180 29
180, 179, 181 29
128, 130, 124 28
115, 123, 122 27
116, 124, 123 27
126, 130, 125 26
117, 125, 125 26
128, 129, 127 25
128, 132, 126 25
130, 132, 126 25
127, 129, 123 25
120, 122, 122 25
97, 102, 100 25
96, 101, 100 25
98, 103, 102 24
97, 102, 101 24
180, 177, 179 24
100, 105, 104 23
98, 103, 101 22
182, 179, 181 22
118, 125, 122 21
94, 100, 99 21
120, 126, 125 20
116, 122, 121 19
118, 123, 122 19
117, 124, 121 19
99, 104, 103 19
97, 103, 102 19
182, 182, 182 19
123, 128, 127 18
128, 132, 127 18
121, 123, 123 18
114, 119, 117 18
94, 102, 101 18
87, 96, 100 18
129, 131, 125 17
92, 98, 97 17
89, 96, 99 17
126, 125, 121 16
119, 124, 123 16
92, 97, 96 16
109, 117, 116 15
98, 104, 103 15
97, 105, 104 15
91, 97, 96 15
99, 104, 102 15
131, 133, 127 14
121, 122, 120 14
119, 121, 121 14
104, 110, 109 14
182, 181, 183 14
90, 96, 95 13
183, 183, 183 13
127, 131, 125 12
123, 129, 124 12
89, 95, 94 12
184, 182, 182 12
123, 128, 126 11
120, 124, 119 11
118, 121, 119 11
116, 123, 120 11
118, 126, 126 11
117, 125, 124 11
105, 110, 108 11
96, 101, 99 11
96, 100, 101 11
180, 178, 178 11
174, 173, 175 11
123, 125, 125 10
124, 129, 127 10
123, 124, 120 10
122, 123, 121 10
122, 123, 119 10
118, 123, 124 10
97, 103, 98 10
95, 100, 99 10
91, 96, 95 10
92, 97, 98 10
98, 100, 100 10
187, 185, 185 10
186, 184, 184 10
181, 180, 182 10
183, 181, 181 10
129, 133, 128 9
116, 124, 124 9
119, 124, 125 9
94, 99, 98 9
93, 99, 98 9
99, 101, 101 9
194, 194, 194 9
181, 181, 181 9
183, 180, 182 9
126, 129, 127 8
125, 126, 124 8
116, 121, 119 8
117, 122, 121 8
90, 96, 101 8
98, 104, 99 8
96, 98, 98 8
195, 195, 195 8
182, 180, 180 8
170, 179, 193 8
129, 133, 127 7
122, 127, 125 7
116, 126, 126 7
103, 109, 108 7
104, 112, 111 7
101, 106, 104 7
97, 101, 102 7
93, 98, 97 7
104, 104, 104 7
185, 183, 183 7
180, 182, 192 7
135, 144, 148 7
169, 178, 192 7
115, 125, 125 6
115, 121, 120 6
115, 124, 127 6
112, 117, 115 6
95, 102, 99 6
95, 99, 100 6
90, 95, 94 6
88, 97, 100 6
96, 103, 100 6
86, 95, 99 6
88, 94, 99 6
88, 95, 98 6
100, 105, 103 6
98, 102, 103 6
99, 103, 104 6
105, 105, 105 6
91, 94, 102 6
91, 94, 92 6
188, 188, 188 6
197, 197, 197 6
139, 144, 145 6
175, 174, 176 6
179, 178, 180 6
170, 180, 198 6
132, 134, 128 5
125, 130, 129 5
127, 128, 126 5
124, 130, 125 5
125, 127, 121 5
116, 122, 117 5
117, 124, 127 5
115, 124, 128 5
120, 127, 124 5
113, 118, 116 5
112, 121, 125 5
114, 120, 115 5
110, 118, 117 5
99, 106, 103 5
98, 106, 105 5
96, 104, 104 5
97, 104, 101 5
96, 102, 97 5
95, 100, 98 5
85, 94, 97 5
90, 99, 102 5
100, 103, 101 5
103, 103, 103 5
91, 91, 91 5
95, 93, 92 5
119, 119, 119 5
190, 190, 190 5
228, 228, 228 5
227, 227, 227 5
196, 196, 196 5
131, 138, 141 5
180, 180, 180 5
178, 176, 176 5
175, 179, 190 5
179, 176, 178 5
181, 177, 182 5
132, 142, 149 5
133, 144, 148 5
124, 126, 120 4
118, 125, 128 4
115, 122, 119 4
113, 119, 118 4
112, 119, 116 4
112, 117, 116 4
113, 118, 117 4
108, 116, 115 4
104, 110, 105 4
92, 100, 99 4
96, 105, 108 4
97, 105, 105 4
96, 104, 103 4
95, 103, 102 4
94, 98, 99 4
89, 94, 93 4
87, 95, 102 4
87, 96, 99 4
97, 99, 99 4
97, 97, 97 4
91, 98, 101 4
89, 97, 96 4
98, 101, 99 4
101, 102, 100 4
104, 102, 101 4
103, 101, 100 4
93, 96, 94 4
101, 106, 107 4
172, 172, 172 4
171, 171, 171 4
186, 186, 186 4
192, 192, 192 4
149, 154, 155 4
159, 163, 164 4
187, 186, 188 4
191, 191, 191 4
182, 185, 193 4
176, 176, 176 4
183, 182, 184 4
184, 183, 185 4
132, 139, 142 4
133, 140, 143 4
169, 171, 172 4
176, 175, 177 4
185, 182, 184 4
129, 135, 142 4
131, 137, 142 4
136, 143, 146 4
171, 173, 174 4
170, 178, 191 4
152, 157, 160 4
174, 173, 177 4
178, 177, 179 4
124, 126, 126 3
129, 130, 128 3
124, 127, 125 3
129, 128, 124 3
118, 122, 117 3
114, 124, 124 3
116, 119, 117 3
115, 121, 126 3
118, 126, 125 3
110, 115, 114 3
104, 109, 108 3
108, 116, 123 3
109, 115, 120 3
108, 118, 118 3
110, 116, 115 3
103, 111, 110 3
104, 111, 108 3
104, 109, 107 3
103, 109, 104 3
98, 104, 111 3
95, 104, 107 3
98, 106, 106 3
99, 107, 106 3
93, 97, 98 3
87, 93, 92 3
86, 95, 98 3
91, 96, 97 3
90, 99, 103 3
89, 98, 102 3
93, 95, 95 3
90, 97, 100 3
101, 103, 103 3
102, 104, 104 3
96, 96, 96 3
93, 98, 99 3
91, 95, 96 3
90, 98, 97 3
99, 102, 100 3
105, 103, 102 3
98, 98, 98 3
90, 90, 90 3
92, 96, 91 3
90, 93, 91 3
92, 95, 93 3
94, 92, 91 3
109, 109, 109 3
109, 108, 110 3
120, 120, 120 3
154, 152, 151 3
155, 153, 152 3
154, 157, 155 3
168, 168, 168 3
179, 177, 177 3
212, 210, 210 3
211, 211, 211 3
127, 130, 135 3
141, 146, 147 3
151, 156, 157 3
189, 192, 190 3
221, 221, 221 3
230, 228, 228 3
225, 225, 225 3
225, 224, 226 3
218, 216, 216 3
173, 177, 188 3
154, 159, 160 3
156, 161, 162 3
158, 162, 163 3
160, 164, 165 3
184, 187, 185 3
197, 195, 195 3
190, 188, 188 3
175, 178, 192 3
137, 142, 143 3
139, 146, 149 3
142, 147, 150 3
166, 168, 168 3
175, 175, 175 3
179, 179, 179 3
184, 184, 184 3
180, 182, 193 3
174, 179, 194 3
129, 135, 140 3
137, 144, 147 3
138, 145, 148 3
165, 167, 168 3
138, 144, 149 3
155, 159, 160 3
170, 172, 173 3
169, 177, 190 3
132, 138, 143 3
144, 151, 154 3
153, 158, 161 3
169, 178, 191 3
169, 179, 197 3
130, 138, 145 3
135, 141, 146 3
147, 154, 157 3
170, 171, 175 3
178, 174, 179 3
180, 176, 181 3
129, 136, 145 3
132, 140, 147 3
135, 141, 148 3
126, 130, 124 2
124, 131, 124 2
125, 132, 125 2
127, 126, 122 2
119, 123, 118 2
117, 122, 123 2
119, 126, 129 2
115, 120, 118 2
119, 127, 126 2
111, 117, 112 2
113, 119, 114 2
115, 121, 116 2
111, 118, 115 2
111, 116, 115 2
109, 114, 113 2
108, 113, 112 2
106, 111, 110 2
107, 112, 111 2
107, 116, 119 2
108, 117, 120 2
107, 115, 114 2
108, 116, 116 2
105, 111, 110 2
100, 106, 101 2
103, 108, 106 2
99, 107, 114 2
96, 104, 111 2
98, 104, 109 2
85, 93, 92 2
90, 98, 105 2
89, 97, 104 2
88, 96, 103 2
88, 97, 101 2
91, 99, 99 2
89, 95, 100 2
86, 94, 94 2
89, 98, 101 2
86, 94, 101 2
100, 102, 102 2
92, 98, 103 2
95, 95, 95 2
92, 95, 100 2
93, 97, 102 2
91, 97, 102 2
100, 104, 99 2
107, 105, 105 2
105, 103, 103 2
99, 99, 99 2
102, 102, 102 2
102, 101, 103 2
103, 99, 104 2
101, 101, 101 2
94, 94, 94 2
93, 93, 93 2
96, 101, 102 2
95, 100, 103 2
94, 96, 104 2
91, 97, 104 2
89, 95, 102 2
92, 94, 94 2
90, 95, 93 2
93, 94, 92 2
100, 100, 100 2
107, 107, 107 2
111, 107, 112 2
123, 123, 123 2
102, 107, 108 2
90, 96, 103 2
92, 98, 105 2
106, 114, 113 2
135, 138, 136 2
137, 140, 138 2
173, 171, 171 2
187, 187, 187 2
189, 189, 189 2
192, 191, 193 2
193, 192, 194 2
195, 192, 194 2
211, 209, 209 2
209, 209, 209 2
128, 131, 135 2
128, 133, 142 2
156, 160, 161 2
166, 172, 171 2
169, 175, 174 2
191, 193, 193 2
201, 202, 200 2
203, 204, 202 2
220, 221, 219 2
224, 222, 222 2
232, 230, 229 2
233, 231, 230 2
233, 233, 233 2
224, 224, 224 2
229, 227, 227 2
226, 226, 226 2
217, 215, 215 2
214, 214, 214 2
213, 213, 213 2
167, 170, 175 2
168, 171, 176 2
170, 172, 180 2
173, 175, 186 2
143, 148, 149 2
158, 163, 166 2
196, 194, 194 2
199, 197, 197 2
200, 198, 197 2
195, 193, 193 2
194, 193, 195 2
191, 189, 189 2
188, 186, 186 2
183, 186, 194 2
176, 179, 194 2
135, 140, 141 2
136, 141, 142 2
138, 143, 144 2
161, 165, 166 2
163, 165, 166 2
164, 166, 166 2
170, 172, 172 2
172, 174, 174 2
173, 175, 175 2
177, 177, 177 2
185, 185, 185 2
187, 184, 186 2
179, 181, 191 2
177, 180, 194 2
173, 178, 193 2
141, 149, 149 2
146, 151, 152 2
153, 157, 158 2
161, 163, 163 2
166, 168, 169 2
167, 169, 170 2
174, 176, 177 2
178, 175, 177 2
184, 181, 183 2
174, 178, 189 2
170, 177, 194 2
171, 178, 195 2
172, 179, 196 2
175, 182, 201 2
127, 133, 140 2
128, 134, 141 2
130, 136, 141 2
140, 147, 150 2
144, 152, 152 2
164, 168, 169 2
168, 172, 173 2
178, 178, 178 2
171, 179, 192 2
170, 177, 192 2
173, 181, 198 2
173, 180, 199 2
135, 142, 145 2
132, 143, 147 2
136, 145, 148 2
151, 156, 159 2
155, 160, 163 2
156, 161, 164 2
168, 170, 171 2
171, 179, 196 2
127, 134, 143 2
128, 136, 143 2
136, 142, 147 2
131, 143, 149 2
133, 143, 150 2
141, 150, 153 2
143, 149, 154 2
145, 151, 156 2
148, 155, 158 2
165, 169, 170 2
168, 169, 173 2
169, 170, 174 2
171, 172, 176 2
168, 177, 191 2
169, 180, 200 2
136, 142, 149 2
139, 148, 152 2
142, 148, 153 2
165, 168, 172 2
171, 170, 174 2
174, 170, 175 2
178, 177, 181 2
131, 132, 128 1
125, 131, 126 1
126, 127, 125 1
122, 124, 124 1
115, 123, 123 1
120, 125, 126 1
117, 124, 119 1
115, 118, 116 1
113, 122, 126 1
114, 120, 125 1
116, 122, 127 1
113, 123, 123 1
114, 120, 119 1
112, 118, 117 1
112, 118, 113 1
109, 115, 110 1
110, 116, 111 1
109, 117, 124 1
107, 115, 122 1
106, 114, 121 1
109, 115, 122 1
110, 116, 121 1
109, 117, 117 1
111, 119, 119 1
110, 118, 118 1
102, 108, 103 1
101, 107, 102 1
102, 107, 105 1
98, 105, 102 1
101, 106, 105 1
98, 106, 113 1
97, 105, 112 1
95, 103, 103 1
99, 105, 104 1
88, 94, 93 1
91, 99, 106 1
91, 99, 98 1
86, 94, 93 1
84, 93, 96 1
93, 101, 100 1
85, 94, 98 1
91, 100, 103 1
94, 101, 98 1
92, 96, 101 1
92, 101, 105 1
94, 103, 107 1
87, 97, 97 1
95, 101, 96 1
98, 102, 97 1
101, 105, 100 1
100, 101, 99 1
102, 100, 100 1
101, 99, 98 1
102, 100, 99 1
103, 102, 104 1
104, 101, 103 1
92, 92, 92 1
95, 100, 101 1
93, 95, 103 1
93, 99, 106 1
90, 94, 95 1
88, 96, 95 1
95, 96, 94 1
94, 95, 93 1
92, 93, 91 1
96, 94, 93 1
97, 95, 94 1
106, 104, 104 1
106, 104, 103 1
106, 106, 106 1
111, 108, 110 1
110, 110, 110 1
112, 112, 112 1
117, 117, 117 1
118, 118, 118 1
122, 122, 122 1
124, 124, 124 1
125, 125, 125 1
127, 127, 127 1
103, 108, 109 1
101, 106, 109 1
99, 104, 107 1
98, 103, 106 1
97, 102, 105 1
97, 99, 107 1
96, 98, 106 1
92, 95, 103 1
83, 89, 96 1
93, 99, 104 1
97, 102, 103 1
95, 102, 105 1
100, 105, 106 1
103, 107, 108 1
107, 113, 112 1
111, 117, 116 1
117, 119, 119 1
130, 131, 129 1
131, 132, 130 1
131, 134, 132 1
133, 136, 134 1
134, 137, 135 1
138, 139, 137 1
139, 140, 138 1
140, 141, 139 1
142, 143, 141 1
144, 145, 143 1
149, 147, 146 1
151, 149, 149 1
152, 150, 150 1
153, 151, 150 1
156, 158, 158 1
161, 161, 161 1
165, 165, 165 1
170, 170, 170 1
175, 173, 173 1
182, 180, 179 1
194, 190, 195 1
200, 200, 200 1
203, 203, 203 1
208, 206, 206 1
210, 210, 210 1
216, 214, 214 1
221, 219, 219 1
119, 122, 126 1
121, 124, 128 1
122, 126, 127 1
126, 130, 131 1
126, 129, 133 1
127, 130, 134 1
126, 127, 137 1
127, 128, 138 1
128, 129, 139 1
127, 129, 139 1
128, 130, 140 1
129, 131, 141 1
129, 134, 143 1
131, 136, 145 1
115, 120, 129 1
106, 111, 120 1
92, 97, 106 1
91, 96, 105 1
97, 102, 111 1
101, 107, 114 1
115, 120, 121 1
122, 127, 128 1
124, 130, 129 1
125, 131, 130 1
126, 132, 131 1
128, 134, 133 1
131, 137, 136 1
134, 140, 139 1
137, 143, 142 1
140, 146, 145 1
142, 147, 148 1
142, 149, 152 1
146, 151, 154 1
154, 158, 159 1
161, 167, 166 1
164, 170, 169 1
168, 174, 173 1
172, 177, 176 1
176, 181, 180 1
184, 186, 186 1
190, 193, 191 1
194, 195, 193 1
198, 199, 197 1
205, 205, 205 1
206, 206, 206 1
206, 208, 208 1
208, 210, 210 1
211, 213, 213 1
212, 214, 214 1
213, 216, 214 1
216, 217, 215 1
219, 220, 218 1
227, 225, 225 1
228, 226, 226 1
231, 229, 228 1
232, 232, 232 1
231, 231, 231 1
230, 230, 230 1
229, 229, 229 1
226, 223, 225 1
225, 222, 224 1
225, 221, 226 1
222, 222, 222 1
219, 219, 219 1
220, 218, 218 1
219, 217, 217 1
215, 215, 215 1
215, 213, 213 1
169, 172, 176 1
167, 170, 174 1
169, 172, 177 1
170, 173, 178 1
169, 171, 179 1
171, 171, 183 1
172, 172, 184 1
172, 174, 185 1
174, 176, 187 1
172, 176, 187 1
165, 169, 180 1
136, 140, 151 1
98, 102, 113 1
96, 100, 111 1
105, 109, 120 1
112, 116, 127 1
134, 139, 142 1
137, 142, 145 1
140, 145, 148 1
145, 150, 151 1
147, 152, 153 1
152, 157, 158 1
157, 162, 163 1
158, 163, 164 1
154, 161, 164 1
157, 162, 165 1
160, 165, 166 1
163, 169, 168 1
172, 178, 177 1
175, 180, 179 1
179, 181, 181 1
182, 184, 184 1
186, 187, 185 1
187, 188, 186 1
193, 195, 195 1
194, 196, 196 1
193, 196, 194 1
194, 197, 195 1
197, 198, 196 1
198, 196, 196 1
201, 199, 198 1
198, 198, 198 1
194, 191, 193 1
193, 190, 192 1
193, 189, 194 1
184, 187, 195 1
181, 184, 192 1
181, 183, 194 1
181, 182, 196 1
180, 181, 195 1
178, 179, 193 1
176, 179, 193 1
179, 184, 199 1
185, 190, 205 1
190, 195, 210 1
157, 162, 177 1
105, 111, 124 1
98, 104, 117 1
109, 115, 128 1
121, 127, 140 1
126, 132, 137 1
129, 136, 139 1
133, 138, 141 1
134, 139, 140 1
144, 149, 152 1
145, 150, 153 1
146, 149, 153 1
147, 151, 152 1
149, 153, 154 1
153, 158, 159 1
162, 166, 167 1
164, 166, 167 1
165, 167, 167 1
169, 169, 169 1
174, 176, 176 1
175, 177, 177 1
181, 179, 179 1
181, 179, 178 1
185, 184, 186 1
188, 185, 187 1
178, 180, 190 1
182, 184, 195 1
175, 178, 193 1
175, 180, 195 1
176, 180, 198 1
177, 181, 199 1
181, 188, 205 1
188, 195, 212 1
166, 173, 190 1
116, 123, 140 1
99, 106, 123 1
112, 119, 136 1
126, 133, 150 1
124, 130, 135 1
127, 133, 138 1
130, 137, 140 1
134, 142, 142 1
140, 145, 146 1
137, 143, 148 1
141, 146, 149 1
143, 148, 151 1
144, 149, 150 1
142, 150, 150 1
152, 156, 157 1
156, 158, 159 1
154, 159, 158 1
156, 161, 160 1
160, 162, 162 1
162, 164, 164 1
173, 175, 176 1
171, 173, 173 1
173, 173, 173 1
186, 183, 185 1
176, 180, 191 1
173, 176, 190 1
174, 177, 191 1
173, 177, 195 1
174, 180, 199 1
167, 174, 193 1
125, 132, 151 1
103, 110, 129 1
117, 123, 142 1
132, 138, 157 1
139, 145, 150 1
139, 149, 149 1
141, 151, 151 1
149, 152, 156 1
152, 155, 159 1
151, 155, 156 1
166, 170, 171 1
169, 173, 174 1
172, 174, 175 1
177, 174, 176 1
173, 180, 197 1
172, 179, 198 1
171, 181, 199 1
174, 184, 202 1
175, 185, 203 1
166, 176, 194 1
128, 138, 156 1
100, 110, 128 1
115, 122, 141 1
127, 134, 153 1
135, 144, 147 1
137, 146, 149 1
140, 149, 152 1
147, 152, 155 1
148, 153, 156 1
149, 154, 157 1
150, 155, 158 1
157, 161, 162 1
164, 169, 170 1
166, 171, 172 1
168, 173, 174 1
168, 177, 190 1
169, 177, 194 1
170, 178, 195 1
171, 180, 200 1
171, 182, 202 1
173, 184, 204 1
167, 176, 196 1
129, 138, 158 1
101, 110, 130 1
114, 124, 142 1
124, 134, 152 1
125, 132, 141 1
128, 135, 144 1
129, 137, 144 1
133, 139, 144 1
134, 140, 145 1
133, 145, 147 1
135, 147, 149 1
138, 150, 152 1
145, 152, 155 1
146, 153, 156 1
154, 159, 162 1
160, 165, 168 1
161, 166, 169 1
163, 168, 171 1
173, 172, 174 1
177, 173, 178 1
179, 178, 182 1
169, 179, 196 1
168, 180, 198 1
169, 181, 199 1
170, 181, 201 1
172, 183, 203 1
166, 177, 197 1
127, 139, 157 1
100, 112, 130 1
113, 125, 143 1
121, 133, 151 1
126, 133, 142 1
131, 139, 146 1
131, 142, 150 1
132, 144, 148 1
133, 145, 149 1
137, 148, 152 1
138, 149, 153 1
140, 149, 153 1
141, 150, 154 1
144, 150, 155 1
151, 158, 161 1
153, 160, 163 1
155, 162, 165 1
156, 163, 166 1
158, 165, 168 1
162, 165, 169 1
163, 166, 170 1
167, 168, 172 1
172, 171, 173 1
173, 172, 176 1
172, 171, 175 1
175, 174, 178 1
176, 175, 179 1
177, 176, 180 1
