95, 104, 108 156
94, 103, 107 147
95, 102, 105 147
90, 98, 105 145
94, 101, 104 132
93, 102, 106 127
92, 101, 105 117
96, 103, 106 105
93, 103, 103 95
91, 100, 104 93
129, 137, 144 92
135, 142, 151 90
85, 96, 100 84
130, 138, 145 82
97, 106, 109 76
91, 99, 106 76
92, 100, 107 74
134, 141, 150 67
136, 143, 152 66
89, 96, 99 64
94, 102, 109 63
90, 99, 103 61
96, 102, 107 58
128, 136, 143 58
93, 100, 103 56
94, 103, 106 56
97, 106, 110 53
98, 108, 108 53
98, 107, 110 53
96, 105, 109 52
95, 103, 103 52
99, 108, 111 50
88, 96, 103 49
89, 97, 104 49
93, 101, 108 48
132, 141, 150 48
97, 107, 107 47
131, 141, 148 47
99, 109, 109 45
88, 97, 101 45
84, 95, 99 45
128, 134, 139 45
90, 97, 100 43
93, 102, 105 43
87, 95, 102 41
94, 104, 104 41
120, 130, 137 39
95, 104, 107 38
90, 101, 105 37
88, 95, 98 37
99, 105, 110 37
127, 135, 142 37
86, 97, 101 37
130, 140, 147 37
83, 94, 98 37
83, 92, 96 33
97, 104, 107 33
95, 101, 106 33
101, 109, 109 32
81, 90, 94 32
88, 99, 103 31
153, 160, 169 30
97, 103, 108 30
126, 134, 141 30
132, 140, 147 30
141, 150, 159 29
92, 101, 104 29
80, 89, 93 29
131, 138, 141 29
135, 141, 148 28
153, 162, 171 27
137, 144, 153 27
98, 103, 106 27
130, 137, 140 27
133, 140, 149 26
129, 136, 145 26
119, 126, 135 26
96, 105, 108 26
96, 108, 108 26
148, 157, 166 25
98, 105, 108 25
134, 142, 149 25
131, 137, 142 25
82, 91, 95 24
154, 162, 169 24
136, 141, 150 24
93, 96, 101 24
151, 158, 167 23
89, 98, 102 23
95, 103, 110 23
86, 95, 99 23
152, 162, 169 23
117, 127, 134 23
82, 93, 97 23
85, 94, 97 23
79, 88, 92 22
94, 102, 102 22
127, 133, 138 22
139, 148, 157 21
138, 147, 156 21
131, 139, 146 21
130, 136, 143 21
130, 136, 141 21
129, 135, 140 21
88, 96, 96 21
140, 149, 158 20
122, 129, 138 20
99, 106, 109 20
99, 104, 107 20
131, 140, 149 20
137, 142, 151 20
95, 98, 103 20
132, 139, 148 19
84, 93, 97 19
92, 102, 102 19
154, 161, 170 19
87, 96, 100 19
155, 163, 170 19
95, 100, 103 19
93, 97, 98 19
142, 151, 160 18
130, 137, 146 18
84, 94, 94 18
96, 101, 104 18
119, 129, 136 18
118, 128, 135 18
132, 138, 143 18
92, 96, 101 18
88, 98, 98 18
98, 107, 111 17
137, 146, 155 17
87, 94, 97 17
96, 104, 103 17
116, 126, 133 17
141, 149, 156 17
87, 96, 99 17
94, 98, 103 17
95, 95, 101 17
99, 108, 112 16
89, 100, 104 16
87, 98, 102 16
84, 96, 98 16
93, 96, 100 16
92, 95, 93 16
147, 156, 165 15
91, 98, 101 15
95, 105, 105 15
85, 95, 95 15
133, 141, 148 15
106, 116, 123 15
100, 107, 110 15
95, 103, 102 15
88, 96, 95 15
90, 96, 95 15
126, 132, 137 15
124, 130, 135 15
86, 94, 101 14
103, 108, 109 14
93, 99, 104 14
121, 131, 138 14
104, 114, 121 14
135, 143, 150 14
125, 133, 140 14
142, 147, 156 14
86, 95, 98 14
93, 97, 102 14
146, 155, 164 13
92, 94, 94 13
96, 104, 104 13
133, 142, 151 13
131, 137, 144 13
84, 93, 96 13
90, 99, 102 13
96, 99, 104 13
91, 92, 102 13
82, 90, 89 13
83, 91, 90 13
90, 98, 98 13
150, 157, 166 12
87, 93, 98 12
100, 109, 112 12
152, 159, 168 12
91, 102, 106 12
131, 138, 147 12
126, 133, 142 12
95, 97, 97 12
97, 108, 106 12
97, 102, 105 12
78, 87, 91 12
85, 95, 102 12
88, 97, 100 12
135, 140, 149 12
90, 92, 102 12
90, 95, 96 12
91, 94, 99 12
91, 94, 98 12
95, 96, 100 12
97, 101, 96 12
124, 131, 134 12
152, 161, 170 11
99, 104, 105 11
99, 107, 114 11
113, 120, 129 11
120, 127, 136 11
134, 143, 152 11
93, 98, 97 11
133, 142, 152 11
124, 134, 141 11
123, 133, 140 11
114, 124, 131 11
98, 108, 115 11
75, 85, 92 11
94, 99, 102 11
134, 140, 147 11
86, 96, 96 11
133, 139, 146 11
89, 97, 97 11
129, 136, 139 11
87, 95, 94 11
123, 129, 134 11
90, 95, 94 11
81, 91, 91 10
127, 134, 143 10
98, 104, 103 10
111, 118, 127 10
151, 161, 168 10
149, 159, 166 10
113, 123, 130 10
110, 120, 127 10
112, 122, 129 10
76, 86, 93 10
129, 139, 146 10
128, 138, 145 10
87, 97, 104 10
86, 96, 103 10
139, 144, 153 10
92, 95, 99 10
93, 95, 103 10
123, 132, 136 10
125, 131, 136 10
94, 95, 93 10
144, 153, 162 9
116, 123, 132 9
97, 105, 112 9
88, 94, 99 9
98, 102, 103 9
96, 100, 101 9
118, 125, 134 9
125, 132, 141 9
153, 161, 168 9
151, 159, 166 9
107, 117, 124 9
105, 115, 122 9
94, 100, 105 9
148, 158, 165 9
140, 150, 157 9
133, 143, 150 9
103, 113, 120 9
149, 157, 164 9
139, 147, 154 9
140, 148, 155 9
127, 137, 144 9
81, 92, 96 9
92, 97, 100 9
122, 130, 137 9
148, 155, 164 9
83, 92, 95 9
140, 145, 154 9
138, 143, 152 9
91, 97, 102 9
90, 96, 101 9
121, 129, 136 9
80, 90, 90 9
130, 138, 138 9
90, 98, 97 9
89, 96, 93 9
89, 95, 94 9
90, 94, 95 9
95, 98, 96 9
94, 97, 95 9
94, 98, 93 9
92, 96, 91 9
143, 152, 161 8
139, 146, 155 8
138, 145, 154 8
109, 117, 124 8
98, 106, 106 8
97, 101, 102 8
149, 158, 167 8
98, 106, 113 8
96, 104, 111 8
135, 144, 153 8
115, 122, 131 8
92, 97, 98 8
142, 150, 157 8
137, 145, 152 8
123, 131, 138 8
141, 146, 155 8
130, 139, 143 8
97, 100, 105 8
90, 93, 101 8
88, 100, 102 8
83, 95, 99 8
122, 131, 135 8
90, 92, 100 8
88, 94, 93 8
86, 94, 93 8
122, 128, 133 8
93, 96, 94 8
95, 99, 94 8
91, 96, 94 8
145, 154, 163 7
127, 133, 144 7
102, 109, 112 7
105, 113, 120 7
100, 109, 113 7
102, 107, 108 7
136, 145, 154 7
121, 128, 137 7
155, 162, 171 7
97, 103, 102 7
96, 102, 101 7
100, 106, 111 7
153, 163, 170 7
148, 156, 163 7
136, 144, 151 7
84, 94, 101 7
93, 98, 101 7
93, 101, 101 7
145, 150, 159 7
143, 148, 157 7
91, 96, 99 7
96, 99, 103 7
93, 98, 99 7
95, 100, 98 7
96, 101, 99 7
92, 98, 103 7
94, 97, 102 7
94, 96, 104 7
92, 95, 100 7
92, 96, 97 7
85, 97, 103 7
82, 91, 94 7
83, 93, 93 7
132, 138, 145 7
120, 128, 135 7
92, 92, 104 7
96, 100, 95 7
83, 88, 89 7
140, 147, 156 6
126, 130, 141 6
81, 89, 96 6
92, 99, 102 6
101, 108, 111 6
99, 106, 115 6
5, 0, 0 6
80, 89, 92 6
111, 119, 126 6
96, 106, 106 6
128, 135, 144 6
117, 124, 133 6
154, 163, 172 6
97, 102, 103 6
123, 130, 139 6
106, 114, 121 6
114, 122, 129 6
102, 108, 107 6
86, 93, 96 6
139, 149, 156 6
122, 132, 139 6
93, 103, 110 6
146, 154, 161 6
144, 152, 159 6
74, 84, 91 6
124, 132, 139 6
89, 101, 103 6
87, 99, 105 6
96, 100, 105 6
128, 137, 141 6
124, 133, 137 6
81, 90, 93 6
84, 92, 91 6
90, 91, 101 6
90, 93, 98 6
136, 142, 149 6
84, 92, 92 6
112, 118, 123 6
179, 183, 178 6
98, 104, 115 5
77, 86, 90 5
82, 92, 92 5
99, 107, 107 5
122, 128, 139 5
108, 116, 123 5
98, 103, 104 5
112, 119, 128 5
96, 102, 109 5
87, 92, 91 5
96, 97, 95 5
94, 99, 98 5
99, 104, 103 5
132, 142, 149 5
97, 107, 114 5
138, 148, 155 5
137, 147, 154 5
92, 102, 109 5
85, 92, 95 5
150, 155, 164 5
97, 101, 106 5
95, 99, 104 5
90, 102, 104 5
149, 154, 163 5
94, 97, 105 5
89, 98, 101 5
93, 93, 105 5
90, 95, 98 5
80, 91, 89 5
83, 94, 92 5
134, 139, 148 5
90, 97, 94 5
91, 99, 99 5
97, 99, 100 5
82, 90, 90 5
89, 97, 96 5
128, 135, 138 5
90, 95, 93 5
88, 92, 87 5
162, 159, 155 5
178, 182, 177 5
181, 185, 180 5
175, 179, 180 5
184, 181, 177 5
186, 190, 185 5
120, 126, 137 4
119, 125, 136 4
97, 105, 105 4
9, 0, 0 4
99, 103, 104 4
112, 120, 127 4
92, 94, 95 4
100, 105, 106 4
102, 110, 110 4
95, 99, 100 4
124, 131, 140 4
80, 88, 95 4
95, 100, 99 4
101, 107, 106 4
116, 124, 131 4
93, 95, 95 4
91, 90, 86 4
118, 126, 133 4
79, 89, 96 4
146, 156, 163 4
144, 154, 161 4
142, 152, 159 4
141, 151, 158 4
136, 146, 153 4
134, 144, 151 4
91, 100, 103 4
92, 99, 108 4
117, 126, 135 4
115, 124, 133 4
87, 95, 95 4
109, 118, 128 4
98, 107, 116 4
90, 94, 99 4
129, 138, 142 4
129, 135, 142 4
103, 112, 122 4
85, 97, 101 4
81, 95, 101 4
80, 94, 100 4
149, 156, 165 4
91, 93, 103 4
94, 95, 105 4
83, 95, 101 4
81, 92, 90 4
96, 94, 100 4
119, 127, 134 4
83, 90, 93 4
96, 95, 99 4
91, 95, 96 4
95, 97, 98 4
88, 95, 92 4
97, 99, 99 4
96, 99, 97 4
97, 100, 98 4
92, 98, 97 4
121, 127, 132 4
111, 117, 124 4
85, 93, 92 4
91, 94, 92 4
98, 103, 102 4
99, 103, 98 4
145, 149, 144 4
86, 92, 91 4
179, 181, 182 4
128, 134, 145 3
128, 132, 143 3
127, 131, 142 3
114, 121, 130 3
93, 95, 96 3
86, 85, 87 3
101, 106, 107 3
87, 97, 97 3
89, 99, 99 3
100, 108, 108 3
6, 1, 0 3
101, 103, 103 3
100, 108, 115 3
125, 131, 142 3
123, 129, 140 3
10, 3, 0 3
95, 107, 107 3
94, 98, 99 3
61, 57, 56 3
92, 103, 107 3
57, 53, 52 3
91, 96, 95 3
103, 105, 105 3
95, 100, 101 3
93, 94, 92 3
103, 109, 108 3
98, 109, 107 3
103, 104, 102 3
102, 105, 103 3
89, 99, 106 3
78, 88, 95 3
115, 125, 132 3
109, 119, 126 3
147, 155, 162 3
111, 121, 128 3
113, 122, 131 3
110, 119, 129 3
106, 115, 125 3
94, 103, 112 3
85, 94, 98 3
85, 97, 99 3
94, 97, 101 3
88, 100, 106 3
87, 99, 103 3
85, 99, 105 3
91, 95, 100 3
84, 100, 106 3
82, 94, 98 3
81, 93, 97 3
100, 109, 118 3
84, 96, 100 3
127, 136, 140 3
76, 85, 89 3
92, 93, 103 3
94, 94, 100 3
75, 91, 98 3
75, 89, 95 3
82, 89, 92 3
84, 91, 94 3
93, 94, 98 3
80, 92, 98 3
87, 93, 92 3
131, 139, 139 3
85, 96, 94 3
94, 99, 97 3
129, 137, 137 3
87, 96, 93 3
89, 94, 97 3
89, 93, 94 3
97, 95, 95 3
95, 95, 95 3
91, 97, 96 3
119, 125, 130 3
110, 116, 123 3
80, 88, 88 3
82, 87, 88 3
89, 94, 95 3
92, 97, 95 3
89, 94, 92 3
117, 123, 128 3
116, 122, 127 3
115, 121, 126 3
101, 106, 109 3
94, 95, 91 3
95, 96, 94 3
128, 127, 123 3
87, 92, 93 3
148, 152, 153 3
137, 143, 150 3
123, 130, 133 3
82, 86, 87 3
83, 87, 88 3
85, 91, 90 3
169, 173, 174 3
182, 186, 181 3
180, 184, 179 3
183, 180, 182 3
116, 123, 126 3
114, 119, 118 3
142, 145, 143 3
147, 152, 151 3
170, 173, 171 3
178, 182, 183 3
179, 184, 185 3
184, 187, 191 3
129, 133, 144 2
124, 128, 139 2
113, 121, 128 2
15, 2, 0 2
14, 0, 0 2
80, 60, 59 2
12, 0, 0 2
9, 1, 1 2
4, 0, 0 2
71, 71, 71 2
98, 100, 100 2
101, 107, 120 2
82, 90, 97 2
73, 82, 86 2
77, 86, 89 2
13, 1, 0 2
100, 105, 104 2
96, 102, 113 2
100, 106, 117 2
86, 92, 97 2
7, 0, 0 2
100, 110, 110 2
97, 104, 113 2
97, 109, 109 2
125, 129, 140 2
121, 127, 138 2
7, 2, 1 2
16, 7, 4 2
102, 102, 102 2
104, 106, 106 2
102, 100, 100 2
96, 101, 102 2
11, 4, 1 2
22, 13, 10 2
10, 1, 0 2
13, 6, 3 2
103, 101, 101 2
57, 54, 50 2
56, 53, 49 2
62, 59, 55 2
110, 118, 125 2
98, 99, 97 2
92, 91, 87 2
92, 97, 96 2
99, 101, 101 2
105, 104, 100 2
101, 100, 96 2
101, 102, 100 2
101, 106, 105 2
99, 105, 104 2
110, 117, 126 2
108, 118, 125 2
98, 104, 109 2
135, 145, 152 2
97, 103, 110 2
138, 146, 153 2
102, 112, 119 2
150, 158, 165 2
143, 151, 158 2
77, 87, 94 2
147, 152, 161 2
111, 120, 130 2
108, 117, 127 2
102, 112, 122 2
95, 98, 102 2
90, 100, 100 2
92, 98, 105 2
84, 98, 104 2
144, 149, 158 2
100, 109, 119 2
85, 94, 103 2
95, 97, 105 2
85, 101, 107 2
87, 101, 107 2
86, 98, 104 2
111, 120, 129 2
102, 111, 121 2
93, 96, 104 2
83, 102, 107 2
84, 103, 108 2
85, 104, 109 2
79, 93, 99 2
93, 94, 104 2
80, 102, 108 2
81, 103, 109 2
82, 104, 110 2
82, 100, 107 2
84, 95, 93 2
126, 135, 139 2
108, 114, 125 2
103, 112, 121 2
102, 111, 120 2
95, 105, 112 2
72, 94, 99 2
78, 102, 108 2
74, 90, 96 2
82, 93, 91 2
121, 130, 134 2
72, 81, 85 2
69, 91, 96 2
108, 115, 124 2
105, 112, 121 2
102, 110, 117 2
95, 94, 98 2
72, 92, 97 2
132, 139, 142 2
109, 116, 125 2
79, 86, 89 2
81, 88, 91 2
88, 97, 94 2
96, 95, 97 2
95, 94, 96 2
94, 99, 100 2
92, 100, 100 2
84, 96, 96 2
102, 108, 113 2
90, 93, 97 2
96, 94, 94 2
94, 96, 96 2
91, 99, 98 2
98, 101, 99 2
91, 96, 97 2
93, 98, 96 2
93, 99, 98 2
90, 101, 99 2
90, 103, 105 2
90, 105, 108 2
101, 104, 102 2
116, 122, 129 2
108, 114, 121 2
108, 114, 119 2
84, 89, 90 2
97, 102, 101 2
94, 101, 98 2
98, 105, 102 2
99, 111, 113 2
110, 108, 107 2
78, 83, 84 2
76, 81, 82 2
81, 86, 87 2
83, 91, 91 2
93, 94, 90 2
87, 91, 86 2
115, 119, 120 2
114, 117, 121 2
127, 125, 124 2
145, 151, 158 2
141, 147, 154 2
127, 134, 137 2
114, 120, 125 2
85, 93, 93 2
89, 94, 93 2
98, 102, 97 2
112, 116, 117 2
116, 121, 120 2
128, 129, 125 2
126, 130, 125 2
128, 132, 127 2
143, 147, 142 2
156, 164, 171 2
120, 127, 130 2
102, 105, 109 2
102, 106, 107 2
76, 80, 81 2
81, 85, 86 2
88, 93, 92 2
86, 94, 94 2
119, 119, 119 2
117, 123, 122 2
160, 165, 164 2
175, 179, 174 2
181, 180, 182 2
178, 180, 181 2
88, 92, 93 2
104, 110, 109 2
107, 113, 112 2
143, 146, 144 2
182, 182, 182 2
180, 184, 185 2
179, 182, 180 2
178, 181, 179 2
182, 185, 183 2
183, 186, 190 2
183, 187, 188 2
184, 188, 183 2
185, 189, 184 2
180, 182, 183 2
177, 182, 183 2
180, 179, 181 2
182, 181, 183 2
186, 183, 179 2
104, 112, 119 1
57, 54, 56 1
14, 9, 11 1
6, 0, 1 1
15, 3, 3 1
21, 4, 1 1
37, 21, 15 1
55, 36, 31 1
71, 51, 50 1
47, 27, 26 1
32, 14, 13 1
20, 5, 3 1
11, 0, 0 1
15, 6, 3 1
14, 12, 12 1
100, 106, 119 1
96, 102, 115 1
90, 96, 109 1
89, 95, 108 1
88, 94, 107 1
83, 91, 98 1
79, 87, 94 1
71, 80, 83 1
60, 57, 59 1
18, 13, 14 1
9, 1, 2 1
16, 1, 0 1
17, 1, 0 1
18, 2, 0 1
26, 7, 2 1
45, 24, 23 1
68, 47, 46 1
73, 53, 52 1
37, 19, 18 1
19, 4, 2 1
14, 1, 0 1
12, 3, 0 1
8, 0, 0 1
13, 11, 10 1
100, 102, 102 1
100, 104, 105 1
101, 107, 118 1
93, 99, 112 1
91, 97, 110 1
87, 93, 106 1
85, 93, 100 1
78, 87, 90 1
61, 59, 59 1
21, 16, 17 1
13, 5, 6 1
13, 3, 3 1
14, 2, 0 1
13, 0, 0 1
27, 11, 5 1
38, 22, 16 1
38, 19, 14 1
18, 0, 0 1
23, 3, 2 1
49, 29, 28 1
81, 63, 62 1
74, 56, 55 1
64, 49, 47 1
43, 30, 28 1
17, 5, 3 1
15, 11, 10 1
71, 69, 69 1
99, 99, 99 1
103, 108, 107 1
101, 108, 117 1
98, 105, 114 1
96, 103, 112 1
93, 99, 110 1
91, 101, 101 1
99, 111, 111 1
94, 96, 97 1
91, 90, 92 1
67, 65, 65 1
32, 27, 28 1
32, 19, 17 1
63, 51, 47 1
87, 72, 69 1
102, 86, 80 1
106, 90, 84 1
45, 27, 26 1
16, 0, 0 1
20, 2, 1 1
50, 35, 33 1
62, 47, 45 1
88, 75, 73 1
70, 58, 56 1
12, 8, 7 1
69, 65, 64 1
104, 102, 102 1
96, 96, 96 1
94, 106, 106 1
126, 132, 143 1
70, 70, 70 1
38, 36, 36 1
11, 2, 0 1
43, 31, 29 1
86, 75, 71 1
109, 97, 93 1
107, 95, 91 1
99, 85, 79 1
54, 41, 39 1
17, 4, 2 1
19, 6, 4 1
27, 15, 13 1
46, 34, 32 1
45, 36, 33 1
12, 7, 6 1
99, 97, 97 1
104, 104, 104 1
101, 101, 101 1
77, 77, 77 1
50, 48, 48 1
28, 19, 15 1
38, 27, 23 1
44, 33, 29 1
13, 4, 1 1
9, 2, 0 1
8, 3, 2 1
101, 96, 97 1
106, 104, 104 1
108, 106, 106 1
80, 82, 82 1
59, 59, 59 1
11, 9, 9 1
11, 9, 8 1
7, 3, 2 1
8, 3, 0 1
14, 7, 4 1
17, 10, 7 1
16, 9, 6 1
19, 12, 9 1
22, 17, 14 1
20, 15, 12 1
18, 13, 10 1
16, 11, 8 1
15, 10, 7 1
14, 10, 9 1
30, 26, 25 1
75, 71, 70 1
105, 103, 103 1
109, 107, 107 1
84, 89, 88 1
69, 71, 71 1
51, 51, 51 1
55, 55, 55 1
58, 56, 55 1
59, 57, 56 1
56, 52, 51 1
59, 56, 52 1
66, 63, 59 1
64, 60, 59 1
70, 68, 67 1
85, 83, 82 1
98, 96, 96 1
103, 103, 103 1
108, 108, 108 1
107, 107, 107 1
81, 86, 85 1
72, 74, 74 1
77, 79, 79 1
79, 79, 79 1
78, 78, 78 1
74, 75, 73 1
73, 71, 70 1
77, 75, 74 1
80, 78, 77 1
83, 80, 76 1
84, 81, 77 1
85, 82, 78 1
88, 85, 81 1
81, 78, 74 1
86, 85, 81 1
84, 83, 79 1
85, 84, 80 1
86, 84, 83 1
89, 87, 86 1
92, 93, 91 1
96, 109, 107 1
85, 90, 89 1
89, 91, 91 1
91, 93, 93 1
93, 93, 93 1
90, 90, 90 1
89, 88, 84 1
94, 93, 89 1
102, 104, 104 1
105, 110, 109 1
95, 108, 106 1
107, 115, 122 1
95, 101, 100 1
100, 99, 95 1
104, 103, 99 1
101, 102, 98 1
104, 105, 103 1
102, 107, 106 1
99, 110, 108 1
96, 106, 113 1
90, 100, 107 1
91, 101, 108 1
80, 90, 97 1
154, 164, 171 1
82, 92, 99 1
83, 93, 100 1
126, 136, 143 1
145, 153, 160 1
93, 100, 109 1
101, 111, 118 1
94, 104, 111 1
116, 125, 134 1
112, 121, 131 1
103, 113, 123 1
100, 110, 120 1
99, 108, 118 1
84, 93, 102 1
96, 98, 106 1
84, 99, 102 1
114, 123, 132 1
112, 121, 130 1
107, 116, 126 1
105, 114, 124 1
101, 111, 121 1
76, 87, 91 1
86, 98, 102 1
86, 100, 106 1
146, 151, 160 1
91, 94, 102 1
92, 95, 103 1
83, 97, 103 1
88, 104, 110 1
88, 102, 108 1
109, 118, 127 1
95, 104, 113 1
73, 83, 90 1
74, 85, 89 1
96, 96, 102 1
77, 96, 101 1
78, 97, 102 1
79, 99, 104 1
78, 100, 105 1
85, 104, 111 1
85, 103, 110 1
82, 98, 105 1
80, 96, 103 1
82, 96, 102 1
78, 94, 100 1
77, 93, 99 1
111, 117, 128 1
105, 111, 122 1
97, 95, 101 1
73, 93, 98 1
73, 95, 101 1
73, 97, 103 1
76, 100, 106 1
79, 103, 109 1
81, 100, 107 1
79, 97, 104 1
75, 93, 100 1
76, 92, 99 1
125, 134, 138 1
106, 112, 123 1
93, 93, 99 1
89, 95, 100 1
87, 99, 101 1
86, 98, 100 1
69, 94, 98 1
72, 96, 102 1
75, 99, 105 1
77, 101, 107 1
80, 99, 106 1
78, 96, 103 1
77, 93, 100 1
76, 89, 97 1
81, 89, 88 1
106, 113, 122 1
101, 109, 116 1
79, 88, 91 1
92, 93, 97 1
88, 99, 97 1
83, 96, 98 1
82, 95, 97 1
81, 94, 96 1
76, 98, 103 1
77, 102, 106 1
81, 103, 108 1
82, 101, 108 1
81, 97, 104 1
79, 91, 97 1
81, 93, 99 1
115, 123, 130 1
107, 114, 123 1
103, 111, 118 1
73, 82, 85 1
76, 85, 88 1
79, 90, 88 1
89, 92, 97 1
97, 94, 96 1
98, 95, 97 1
83, 95, 95 1
77, 94, 97 1
76, 95, 98 1
78, 97, 100 1
81, 102, 104 1
84, 104, 109 1
85, 105, 110 1
84, 92, 99 1
120, 129, 133 1
109, 115, 122 1
107, 113, 120 1
105, 111, 116 1
77, 84, 87 1
80, 87, 90 1
88, 93, 96 1
96, 98, 98 1
93, 100, 97 1
92, 100, 99 1
87, 102, 104 1
87, 102, 105 1
92, 107, 110 1
89, 101, 105 1
85, 89, 94 1
87, 91, 96 1
97, 100, 104 1
99, 102, 100 1
152, 157, 166 1
128, 136, 136 1
120, 126, 131 1
117, 123, 130 1
114, 120, 127 1
112, 118, 125 1
106, 112, 117 1
104, 110, 115 1
78, 85, 88 1
75, 82, 85 1
78, 86, 86 1
96, 94, 93 1
94, 100, 99 1
102, 109, 106 1
105, 112, 109 1
101, 110, 113 1
98, 110, 112 1
91, 92, 96 1
98, 97, 101 1
100, 99, 103 1
102, 101, 105 1
105, 104, 108 1
108, 106, 105 1
109, 107, 106 1
108, 109, 107 1
113, 119, 126 1
108, 112, 117 1
105, 109, 114 1
103, 107, 112 1
102, 107, 110 1
86, 91, 94 1
80, 85, 86 1
86, 91, 92 1
97, 95, 94 1
96, 101, 100 1
97, 104, 101 1
89, 93, 88 1
87, 93, 88 1
89, 95, 90 1
92, 98, 93 1
97, 103, 98 1
102, 108, 103 1
107, 113, 108 1
111, 117, 112 1
117, 122, 123 1
119, 124, 125 1
117, 125, 125 1
116, 124, 124 1
115, 123, 123 1
115, 120, 123 1
117, 118, 122 1
118, 117, 121 1
117, 116, 118 1
121, 118, 120 1
124, 121, 123 1
126, 123, 125 1
128, 125, 127 1
130, 127, 129 1
156, 163, 172 1
144, 150, 157 1
110, 116, 121 1
108, 113, 116 1
104, 109, 112 1
100, 105, 108 1
74, 79, 80 1
79, 84, 85 1
85, 90, 91 1
88, 93, 94 1
95, 96, 92 1
91, 95, 90 1
95, 102, 99 1
93, 97, 92 1
99, 104, 102 1
113, 117, 118 1
115, 120, 119 1
119, 124, 123 1
121, 126, 125 1
121, 126, 124 1
127, 128, 124 1
127, 131, 126 1
129, 133, 128 1
133, 137, 132 1
135, 139, 134 1
138, 142, 137 1
141, 145, 140 1
145, 151, 146 1
147, 149, 150 1
148, 150, 151 1
147, 152, 153 1
148, 153, 154 1
149, 153, 154 1
151, 153, 154 1
152, 151, 153 1
153, 150, 152 1
155, 152, 154 1
159, 154, 156 1
160, 155, 157 1
161, 156, 158 1
160, 157, 159 1
140, 146, 153 1
118, 124, 129 1
111, 117, 122 1
109, 115, 120 1
107, 113, 118 1
109, 112, 116 1
105, 108, 112 1
85, 89, 90 1
80, 84, 85 1
84, 90, 89 1
98, 103, 101 1
102, 103, 101 1
103, 104, 100 1
102, 106, 101 1
104, 108, 103 1
106, 110, 105 1
112, 116, 111 1
113, 117, 112 1
115, 116, 114 1
117, 118, 116 1
118, 119, 117 1
119, 120, 118 1
113, 118, 119 1
114, 119, 120 1
115, 120, 121 1
118, 124, 123 1
120, 125, 126 1
121, 126, 127 1
129, 134, 135 1
133, 138, 139 1
137, 143, 142 1
139, 146, 143 1
141, 148, 145 1
142, 146, 141 1
146, 150, 145 1
147, 151, 146 1
148, 152, 147 1
149, 153, 148 1
150, 154, 149 1
152, 156, 151 1
153, 156, 154 1
154, 157, 155 1
156, 159, 157 1
158, 161, 159 1
159, 162, 160 1
161, 166, 165 1
162, 167, 166 1
163, 167, 168 1
164, 168, 169 1
162, 166, 167 1
161, 164, 168 1
170, 173, 177 1
169, 174, 173 1
170, 175, 174 1
171, 176, 175 1
172, 177, 176 1
176, 180, 175 1
176, 180, 181 1
179, 178, 180 1
180, 177, 179 1
181, 178, 180 1
184, 181, 183 1
152, 160, 167 1
127, 133, 140 1
135, 141, 146 1
133, 139, 144 1
122, 129, 132 1
118, 125, 128 1
117, 124, 127 1
113, 119, 124 1
110, 113, 117 1
106, 109, 113 1
104, 108, 109 1
84, 88, 89 1
87, 91, 92 1
105, 111, 110 1
109, 115, 114 1
111, 117, 116 1
113, 118, 117 1
119, 125, 124 1
119, 127, 126 1
120, 128, 127 1
121, 129, 128 1
123, 129, 128 1
123, 128, 129 1
125, 129, 130 1
126, 130, 131 1
141, 144, 142 1
144, 147, 145 1
144, 149, 147 1
144, 149, 148 1
146, 151, 150 1
148, 153, 152 1
149, 154, 153 1
152, 157, 156 1
169, 170, 168 1
171, 172, 170 1
170, 174, 169 1
172, 176, 171 1
174, 178, 173 1
178, 179, 177 1
179, 180, 178 1
180, 181, 179 1
184, 182, 182 1
185, 183, 183 1
180, 185, 186 1
181, 187, 186 1
180, 186, 185 1
179, 184, 187 1
178, 183, 186 1
177, 182, 185 1
178, 183, 184 1
179, 185, 184 1
178, 185, 182 1
177, 184, 181 1
177, 181, 176 1
180, 183, 181 1
184, 187, 185 1
186, 189, 187 1
188, 191, 189 1
191, 194, 192 1
193, 196, 194 1
194, 197, 195 1
193, 198, 197 1
189, 194, 193 1
184, 189, 188 1
181, 185, 186 1
182, 185, 189 1
182, 186, 187 1
182, 187, 186 1
181, 186, 185 1
187, 191, 186 1
176, 181, 182 1
183, 182, 184 1
187, 184, 180 1
185, 184, 180 1
186, 185, 181 1
