77, 86, 90 239
78, 88, 88 188
78, 87, 91 182
79, 89, 89 135
77, 87, 87 118
78, 87, 90 117
82, 90, 90 103
126, 134, 141 99
76, 86, 86 95
80, 88, 88 95
76, 85, 89 91
79, 88, 92 89
71, 80, 84 74
77, 86, 89 73
79, 88, 91 72
79, 86, 89 72
81, 88, 91 71
81, 91, 91 70
75, 85, 85 68
125, 133, 140 64
128, 136, 143 63
79, 85, 90 61
127, 135, 142 60
85, 89, 90 60
72, 81, 85 60
78, 85, 88 59
80, 87, 90 59
75, 84, 88 57
83, 91, 91 56
70, 79, 83 55
121, 129, 136 55
78, 86, 93 54
75, 83, 90 52
81, 89, 89 52
84, 89, 90 51
76, 84, 91 51
130, 138, 145 50
120, 129, 133 50
74, 81, 84 49
76, 85, 88 48
122, 130, 137 47
77, 85, 92 46
129, 137, 144 45
83, 90, 93 45
121, 130, 134 45
72, 82, 82 42
82, 89, 92 41
73, 83, 83 41
76, 87, 91 40
73, 82, 86 40
80, 89, 92 38
79, 87, 87 37
73, 81, 88 36
84, 92, 92 36
75, 86, 90 36
123, 131, 138 35
82, 90, 89 34
147, 155, 162 34
107, 115, 122 33
80, 90, 90 33
80, 89, 93 33
118, 126, 133 33
80, 86, 91 33
123, 132, 136 33
135, 143, 150 32
134, 142, 149 32
122, 128, 133 32
112, 120, 127 31
74, 82, 89 31
79, 85, 92 30
74, 83, 87 29
119, 127, 134 29
142, 150, 157 28
74, 84, 84 27
69, 78, 82 27
122, 131, 135 27
80, 85, 88 27
105, 113, 120 26
124, 132, 139 26
81, 86, 87 26
114, 122, 129 25
120, 128, 135 25
126, 133, 142 24
121, 131, 138 24
80, 85, 86 24
113, 121, 128 23
108, 116, 123 23
115, 123, 130 23
81, 87, 92 23
77, 83, 88 23
109, 117, 124 22
101, 109, 116 22
82, 88, 93 22
74, 84, 91 22
82, 87, 86 22
141, 149, 156 21
127, 134, 143 21
104, 112, 119 21
111, 119, 126 21
106, 114, 121 21
75, 85, 92 21
73, 80, 83 21
78, 84, 89 21
146, 154, 161 21
99, 107, 114 20
72, 80, 87 20
80, 88, 95 20
121, 128, 137 20
119, 128, 132 20
117, 126, 130 20
120, 130, 137 20
69, 77, 84 19
136, 144, 151 19
80, 84, 85 19
131, 137, 144 19
81, 86, 85 19
114, 123, 127 18
117, 127, 134 18
148, 155, 164 17
133, 141, 148 17
100, 108, 115 17
71, 79, 86 17
80, 83, 87 17
79, 87, 94 17
116, 124, 131 17
98, 106, 113 17
81, 90, 93 17
83, 88, 89 17
79, 83, 88 17
71, 80, 83 17
81, 89, 88 17
74, 83, 86 17
133, 139, 144 17
81, 85, 86 17
137, 145, 152 16
73, 82, 85 16
121, 127, 132 16
117, 125, 132 15
80, 84, 89 15
119, 130, 134 15
81, 87, 86 15
76, 81, 79 15
70, 78, 85 14
75, 84, 87 14
76, 86, 93 14
144, 152, 159 14
82, 88, 87 14
78, 80, 88 14
78, 82, 83 14
120, 127, 136 13
88, 97, 106 13
75, 81, 86 13
73, 81, 81 13
145, 153, 160 13
142, 149, 158 13
78, 86, 86 13
74, 80, 79 13
71, 81, 81 13
78, 84, 91 13
128, 134, 141 13
143, 151, 158 12
140, 148, 155 12
138, 146, 153 12
131, 139, 146 12
84, 91, 94 12
103, 111, 118 12
102, 110, 117 12
149, 156, 165 12
84, 88, 89 12
76, 88, 90 12
69, 78, 81 12
135, 141, 146 12
123, 133, 140 12
79, 84, 87 12
119, 129, 136 12
118, 124, 129 12
82, 87, 88 12
73, 84, 88 12
127, 133, 140 12
118, 125, 128 12
83, 85, 85 12
84, 86, 86 12
81, 83, 83 12
75, 80, 78 12
132, 140, 147 11
125, 132, 141 11
85, 90, 91 11
122, 129, 138 11
70, 79, 82 11
72, 81, 84 11
76, 83, 86 11
77, 84, 93 11
72, 80, 80 11
70, 78, 78 11
91, 101, 108 11
97, 105, 112 11
118, 127, 131 11
73, 84, 82 11
120, 131, 135 11
80, 83, 88 11
117, 123, 128 11
83, 89, 88 11
68, 83, 86 11
118, 127, 130 11
78, 83, 82 11
83, 89, 94 10
68, 77, 81 10
75, 78, 76 10
80, 83, 81 10
125, 134, 138 10
81, 92, 90 10
134, 143, 147 10
79, 84, 85 10
80, 82, 90 10
78, 83, 84 10
70, 82, 86 10
73, 83, 90 10
129, 135, 142 10
118, 129, 133 10
116, 126, 126 10
139, 147, 154 9
123, 130, 139 9
118, 125, 134 9
65, 74, 77 9
86, 91, 90 9
77, 89, 91 9
71, 79, 79 9
148, 156, 163 9
141, 148, 157 9
66, 74, 81 9
122, 132, 139 9
113, 122, 126 9
147, 156, 160 9
74, 79, 80 9
130, 136, 143 9
78, 82, 87 9
78, 83, 86 9
82, 87, 85 9
83, 88, 86 9
83, 83, 83 9
82, 84, 84 9
141, 150, 159 8
85, 91, 90 8
81, 90, 94 8
77, 88, 92 8
80, 87, 96 8
77, 81, 86 8
77, 80, 84 8
86, 95, 104 8
81, 85, 90 8
80, 82, 82 8
119, 128, 131 8
116, 125, 129 8
115, 124, 128 8
70, 79, 88 8
66, 75, 78 8
132, 138, 143 8
69, 77, 77 8
90, 102, 108 8
77, 83, 90 8
72, 83, 87 8
77, 82, 85 8
144, 151, 160 8
143, 150, 159 8
79, 84, 83 8
77, 82, 80 8
119, 126, 129 8
144, 153, 162 7
143, 152, 161 7
123, 128, 137 7
119, 126, 135 7
110, 118, 125 7
5, 0, 0 7
79, 86, 95 7
86, 89, 87 7
75, 82, 85 7
74, 83, 92 7
81, 86, 89 7
92, 102, 109 7
124, 133, 137 7
93, 103, 110 7
134, 140, 145 7
146, 155, 159 7
109, 119, 126 7
134, 141, 144 7
81, 84, 88 7
79, 82, 90 7
72, 78, 83 7
118, 128, 135 7
132, 138, 145 7
116, 122, 127 7
77, 84, 87 7
75, 80, 83 7
75, 80, 81 7
77, 81, 82 7
80, 82, 83 7
81, 83, 84 7
117, 124, 127 7
113, 117, 118 7
145, 154, 163 6
83, 91, 90 6
12, 0, 0 6
88, 93, 94 6
142, 151, 160 6
65, 73, 80 6
146, 155, 164 6
87, 96, 105 6
92, 101, 110 6
74, 82, 82 6
67, 76, 80 6
79, 82, 86 6
80, 87, 84 6
81, 88, 85 6
83, 88, 91 6
80, 91, 89 6
133, 142, 146 6
73, 79, 84 6
139, 148, 152 6
135, 144, 148 6
64, 73, 76 6
69, 77, 76 6
70, 78, 77 6
73, 77, 78 6
78, 81, 89 6
72, 77, 78 6
76, 82, 87 6
80, 88, 87 6
80, 81, 85 6
117, 128, 132 6
82, 84, 85 6
83, 86, 84 6
79, 84, 82 6
74, 79, 77 6
117, 125, 125 6
121, 126, 135 5
86, 91, 92 5
79, 85, 96 5
147, 154, 163 5
124, 131, 140 5
67, 75, 82 5
13, 1, 0 5
75, 87, 89 5
91, 100, 109 5
68, 76, 83 5
85, 90, 89 5
78, 81, 86 5
76, 84, 84 5
89, 98, 107 5
83, 92, 101 5
85, 88, 86 5
66, 75, 79 5
139, 146, 155 5
137, 144, 153 5
126, 135, 139 5
116, 125, 128 5
95, 105, 112 5
94, 104, 111 5
85, 94, 103 5
78, 87, 96 5
130, 139, 143 5
129, 138, 142 5
67, 76, 79 5
65, 74, 78 5
137, 146, 150 5
131, 137, 142 5
64, 73, 77 5
142, 151, 155 5
141, 150, 154 5
136, 142, 147 5
105, 115, 122 5
102, 111, 120 5
100, 109, 118 5
71, 79, 78 5
105, 114, 123 5
77, 80, 88 5
67, 79, 83 5
96, 106, 113 5
77, 79, 87 5
113, 119, 124 5
88, 99, 107 5
77, 80, 85 5
79, 83, 84 5
117, 126, 129 5
75, 81, 80 5
82, 88, 83 5
81, 87, 82 5
146, 153, 162 5
102, 106, 107 5
78, 83, 81 5
80, 85, 83 5
83, 88, 87 5
87, 90, 88 5
88, 91, 89 5
74, 74, 74 5
167, 172, 171 5
168, 173, 172 5
169, 173, 174 5
14, 1, 0 4
78, 81, 85 4
81, 79, 78 4
78, 85, 94 4
84, 90, 95 4
82, 91, 95 4
83, 79, 78 4
84, 90, 89 4
90, 99, 108 4
74, 85, 89 4
75, 77, 77 4
76, 79, 77 4
74, 77, 75 4
84, 87, 85 4
74, 78, 79 4
82, 89, 86 4
97, 104, 113 4
65, 75, 82 4
84, 93, 102 4
79, 88, 97 4
76, 87, 85 4
128, 137, 141 4
95, 102, 111 4
130, 136, 141 4
66, 76, 76 4
136, 145, 149 4
129, 135, 140 4
106, 116, 123 4
99, 108, 117 4
98, 107, 116 4
97, 106, 115 4
80, 89, 98 4
73, 78, 79 4
80, 83, 91 4
128, 134, 139 4
67, 75, 75 4
68, 76, 76 4
112, 121, 125 4
88, 100, 106 4
71, 76, 77 4
80, 86, 85 4
68, 80, 82 4
134, 137, 145 4
111, 120, 124 4
116, 126, 133 4
115, 121, 126 4
107, 117, 124 4
69, 85, 91 4
142, 148, 153 4
68, 75, 78 4
79, 87, 86 4
116, 120, 125 4
80, 89, 86 4
79, 79, 85 4
72, 78, 77 4
84, 86, 87 4
83, 89, 84 4
85, 85, 85 4
115, 127, 129 4
117, 120, 124 4
114, 117, 121 4
108, 113, 114 4
80, 85, 84 4
85, 83, 83 4
86, 83, 85 4
86, 85, 87 4
83, 87, 82 4
88, 85, 87 4
77, 80, 78 4
111, 115, 116 4
107, 111, 112 4
86, 84, 84 4
85, 80, 81 4
90, 95, 93 4
95, 103, 102 4
112, 116, 117 4
94, 96, 97 4
118, 123, 124 4
100, 102, 103 4
124, 129, 138 3
122, 127, 136 3
116, 123, 132 3
82, 91, 94 3
11, 0, 0 3
84, 80, 79 3
88, 86, 85 3
65, 75, 75 3
82, 90, 97 3
6, 1, 0 3
86, 87, 85 3
78, 84, 95 3
64, 72, 79 3
68, 78, 78 3
76, 79, 83 3
7, 2, 0 3
79, 80, 78 3
80, 86, 97 3
74, 79, 82 3
98, 105, 114 3
4, 0, 0 3
74, 80, 85 3
147, 156, 165 3
82, 91, 100 3
117, 124, 133 3
85, 81, 80 3
74, 76, 76 3
76, 78, 78 3
79, 82, 80 3
73, 81, 80 3
77, 79, 79 3
78, 85, 82 3
83, 90, 87 3
115, 124, 127 3
66, 75, 84 3
63, 72, 81 3
99, 106, 115 3
67, 76, 85 3
64, 74, 81 3
90, 100, 107 3
63, 73, 80 3
68, 77, 86 3
68, 77, 80 3
78, 89, 87 3
132, 141, 145 3
65, 74, 83 3
75, 86, 84 3
74, 85, 83 3
72, 79, 82 3
71, 80, 89 3
71, 78, 81 3
145, 154, 158 3
144, 153, 157 3
143, 152, 156 3
127, 136, 140 3
110, 120, 127 3
104, 113, 122 3
96, 105, 114 3
94, 103, 112 3
71, 77, 82 3
144, 148, 153 3
138, 142, 147 3
133, 139, 146 3
108, 117, 121 3
77, 82, 83 3
69, 81, 85 3
67, 82, 85 3
68, 79, 83 3
71, 82, 86 3
69, 84, 87 3
114, 120, 125 3
66, 73, 76 3
76, 82, 89 3
73, 85, 89 3
66, 83, 86 3
82, 92, 99 3
66, 77, 81 3
78, 79, 89 3
69, 88, 93 3
71, 90, 95 3
61, 73, 77 3
117, 121, 126 3
67, 77, 77 3
79, 78, 87 3
79, 88, 85 3
70, 83, 85 3
60, 72, 76 3
60, 81, 83 3
71, 88, 91 3
113, 116, 121 3
82, 89, 84 3
76, 84, 83 3
64, 84, 85 3
119, 125, 130 3
117, 122, 125 3
116, 119, 123 3
110, 115, 118 3
109, 114, 117 3
105, 110, 113 3
71, 77, 76 3
82, 85, 83 3
84, 89, 87 3
86, 88, 89 3
113, 118, 119 3
104, 108, 109 3
101, 105, 106 3
70, 75, 74 3
72, 77, 75 3
75, 80, 79 3
85, 87, 87 3
87, 84, 86 3
85, 84, 86 3
79, 86, 79 3
85, 89, 84 3
78, 90, 90 3
114, 126, 126 3
113, 125, 125 3
110, 114, 115 3
88, 86, 86 3
75, 83, 83 3
97, 105, 104 3
109, 114, 115 3
103, 107, 108 3
101, 103, 104 3
98, 100, 101 3
98, 96, 96 3
75, 75, 75 3
98, 103, 102 3
163, 162, 164 3
164, 163, 165 3
172, 170, 169 3
170, 171, 169 3
172, 172, 172 3
134, 139, 138 3
161, 166, 165 3
170, 175, 174 3
171, 176, 175 3
169, 176, 171 3
178, 179, 177 3
114, 121, 130 2
95, 103, 110 2
91, 99, 106 2
49, 48, 52 2
8, 5, 7 2
7, 0, 0 2
91, 89, 88 2
89, 94, 95 2
85, 93, 93 2
77, 83, 94 2
80, 86, 99 2
75, 81, 94 2
61, 70, 73 2
70, 80, 80 2
94, 102, 109 2
89, 97, 104 2
84, 89, 92 2
15, 3, 1 2
9, 0, 0 2
82, 80, 79 2
88, 89, 87 2
88, 96, 103 2
82, 92, 92 2
77, 78, 76 2
75, 82, 91 2
92, 100, 107 2
83, 87, 92 2
50, 43, 40 2
8, 1, 0 2
87, 92, 91 2
84, 92, 99 2
93, 82, 78 2
12, 5, 2 2
95, 104, 113 2
93, 102, 111 2
16, 4, 2 2
20, 11, 8 2
76, 83, 92 2
49, 42, 39 2
51, 46, 45 2
59, 61, 62 2
68, 66, 65 2
89, 90, 88 2
94, 103, 113 2
73, 76, 80 2
72, 74, 74 2
78, 81, 79 2
85, 90, 88 2
79, 91, 91 2
79, 86, 83 2
138, 145, 154 2
101, 108, 117 2
100, 107, 116 2
76, 85, 94 2
62, 71, 80 2
64, 73, 82 2
124, 133, 142 2
124, 134, 141 2
96, 104, 111 2
138, 147, 151 2
89, 99, 106 2
104, 114, 121 2
135, 142, 145 2
108, 118, 125 2
101, 110, 119 2
110, 119, 128 2
109, 118, 127 2
107, 116, 125 2
137, 144, 147 2
79, 82, 87 2
135, 138, 146 2
110, 119, 123 2
107, 116, 120 2
105, 114, 118 2
105, 111, 116 2
102, 111, 115 2
101, 110, 114 2
99, 108, 112 2
86, 97, 101 2
66, 74, 74 2
69, 74, 75 2
73, 78, 77 2
74, 82, 81 2
71, 82, 80 2
80, 86, 93 2
140, 144, 149 2
137, 141, 146 2
87, 99, 105 2
70, 75, 76 2
79, 81, 89 2
66, 81, 84 2
136, 140, 145 2
97, 107, 114 2
90, 101, 109 2
87, 97, 104 2
68, 84, 90 2
65, 80, 83 2
71, 83, 87 2
70, 85, 88 2
63, 78, 81 2
64, 76, 80 2
137, 143, 148 2
77, 88, 86 2
63, 80, 83 2
67, 87, 92 2
68, 88, 93 2
60, 75, 78 2
118, 122, 127 2
115, 119, 124 2
114, 118, 123 2
71, 83, 85 2
68, 83, 85 2
67, 82, 84 2
60, 77, 80 2
62, 73, 77 2
120, 126, 131 2
115, 125, 132 2
120, 124, 129 2
114, 117, 122 2
76, 81, 84 2
78, 87, 84 2
72, 84, 84 2
70, 84, 83 2
69, 75, 82 2
116, 119, 124 2
115, 118, 123 2
111, 117, 122 2
108, 114, 119 2
97, 103, 108 2
68, 76, 75 2
80, 80, 86 2
81, 88, 83 2
82, 87, 90 2
83, 86, 90 2
71, 85, 84 2
113, 118, 121 2
108, 113, 116 2
106, 111, 114 2
104, 109, 112 2
103, 108, 111 2
102, 107, 110 2
101, 106, 109 2
100, 105, 108 2
73, 80, 77 2
72, 77, 76 2
76, 81, 80 2
77, 82, 81 2
81, 82, 86 2
83, 84, 88 2
82, 83, 87 2
86, 85, 89 2
87, 87, 87 2
75, 88, 86 2
68, 84, 83 2
83, 83, 89 2
119, 124, 127 2
115, 119, 120 2
107, 112, 113 2
106, 111, 112 2
105, 110, 111 2
100, 104, 105 2
95, 98, 102 2
71, 76, 74 2
74, 79, 78 2
82, 82, 82 2
84, 82, 82 2
82, 86, 81 2
84, 88, 83 2
77, 89, 89 2
93, 93, 93 2
96, 94, 94 2
118, 123, 126 2
115, 118, 122 2
114, 118, 119 2
105, 109, 110 2
99, 103, 104 2
98, 102, 103 2
91, 93, 94 2
89, 84, 85 2
82, 89, 82 2
78, 79, 75 2
94, 99, 97 2
95, 102, 99 2
109, 107, 106 2
102, 104, 105 2
73, 76, 74 2
81, 86, 84 2
83, 81, 81 2
82, 80, 80 2
85, 91, 86 2
91, 91, 91 2
95, 95, 95 2
97, 95, 95 2
127, 133, 132 2
130, 136, 135 2
132, 137, 136 2
147, 145, 145 2
120, 129, 132 2
117, 127, 127 2
116, 121, 122 2
115, 120, 121 2
113, 116, 120 2
89, 91, 91 2
84, 89, 88 2
88, 90, 90 2
101, 97, 96 2
99, 104, 103 2
101, 106, 105 2
103, 108, 107 2
122, 124, 124 2
140, 145, 143 2
146, 152, 147 2
173, 171, 170 2
168, 169, 167 2
169, 172, 170 2
173, 175, 175 2
171, 173, 173 2
175, 173, 173 2
173, 170, 172 2
115, 123, 123 2
112, 117, 118 2
99, 102, 106 2
78, 78, 78 2
78, 77, 79 2
96, 101, 99 2
114, 119, 118 2
163, 161, 161 2
170, 168, 168 2
163, 168, 169 2
171, 176, 174 2
170, 177, 172 2
177, 179, 180 2
181, 183, 184 2
173, 172, 174 2
180, 180, 180 2
172, 174, 174 2
175, 172, 174 2
125, 130, 139 1
83, 91, 98 1
86, 91, 94 1
74, 75, 79 1
9, 4, 6 1
11, 1, 1 1
27, 15, 11 1
39, 24, 21 1
65, 47, 46 1
63, 45, 44 1
42, 27, 25 1
23, 8, 6 1
11, 2, 0 1
10, 0, 0 1
8, 0, 0 1
16, 11, 10 1
61, 56, 55 1
86, 94, 94 1
77, 83, 96 1
74, 80, 91 1
66, 72, 83 1
63, 70, 79 1
61, 68, 77 1
62, 70, 77 1
61, 69, 76 1
60, 69, 73 1
60, 69, 72 1
61, 71, 71 1
62, 72, 72 1
72, 73, 77 1
9, 6, 8 1
8, 3, 5 1
6, 0, 1 1
12, 2, 2 1
14, 2, 2 1
14, 0, 0 1
27, 12, 9 1
38, 23, 20 1
52, 37, 34 1
64, 49, 47 1
52, 39, 37 1
23, 10, 8 1
13, 4, 1 1
9, 2, 0 1
12, 8, 7 1
55, 51, 50 1
76, 82, 95 1
71, 78, 87 1
74, 81, 90 1
63, 72, 76 1
62, 71, 75 1
93, 101, 108 1
81, 89, 96 1
71, 72, 76 1
48, 47, 51 1
4, 0, 1 1
10, 2, 2 1
23, 11, 7 1
20, 8, 4 1
22, 7, 4 1
15, 3, 0 1
36, 24, 20 1
66, 53, 51 1
58, 46, 44 1
42, 33, 30 1
26, 17, 14 1
10, 3, 0 1
4, 1, 0 1
8, 5, 1 1
49, 47, 46 1
87, 92, 93 1
71, 81, 88 1
76, 88, 88 1
120, 125, 134 1
68, 71, 75 1
55, 54, 58 1
20, 17, 19 1
5, 0, 2 1
10, 2, 3 1
23, 13, 13 1
40, 28, 26 1
63, 51, 49 1
81, 69, 65 1
84, 72, 68 1
31, 19, 15 1
18, 6, 2 1
34, 22, 20 1
48, 36, 34 1
68, 59, 56 1
5, 2, 0 1
10, 9, 5 1
49, 48, 44 1
78, 79, 77 1
85, 86, 84 1
75, 87, 87 1
74, 86, 86 1
93, 100, 109 1
89, 96, 105 1
74, 77, 81 1
59, 60, 64 1
27, 26, 30 1
2, 0, 1 1
7, 1, 2 1
30, 22, 22 1
67, 58, 55 1
90, 78, 76 1
45, 33, 29 1
22, 10, 8 1
44, 35, 32 1
41, 32, 29 1
6, 3, 0 1
44, 43, 39 1
78, 77, 73 1
84, 85, 83 1
87, 88, 86 1
85, 92, 101 1
63, 64, 68 1
36, 35, 39 1
4, 1, 3 1
7, 2, 4 1
23, 15, 15 1
28, 21, 18 1
30, 21, 18 1
36, 27, 24 1
21, 8, 6 1
15, 6, 3 1
10, 1, 0 1
9, 4, 1 1
49, 46, 42 1
86, 82, 81 1
64, 67, 71 1
43, 44, 48 1
6, 5, 9 1
3, 0, 2 1
2, 0, 0 1
5, 1, 0 1
14, 5, 2 1
17, 10, 7 1
12, 7, 6 1
21, 16, 15 1
55, 50, 49 1
80, 76, 75 1
90, 86, 85 1
93, 89, 88 1
69, 72, 77 1
53, 56, 60 1
45, 46, 50 1
39, 38, 40 1
40, 39, 41 1
47, 45, 45 1
48, 46, 46 1
48, 46, 45 1
50, 46, 45 1
46, 42, 41 1
54, 47, 44 1
53, 46, 43 1
49, 44, 41 1
50, 45, 42 1
53, 49, 48 1
56, 52, 51 1
71, 67, 66 1
89, 87, 86 1
150, 157, 166 1
93, 102, 112 1
73, 77, 82 1
66, 69, 73 1
61, 64, 68 1
61, 62, 66 1
62, 62, 62 1
61, 61, 61 1
62, 63, 61 1
66, 67, 65 1
67, 63, 62 1
69, 65, 64 1
70, 66, 65 1
67, 65, 64 1
65, 63, 62 1
66, 64, 63 1
69, 67, 66 1
71, 69, 68 1
72, 70, 69 1
83, 84, 82 1
90, 99, 109 1
75, 83, 82 1
82, 86, 91 1
75, 79, 84 1
69, 73, 74 1
71, 73, 74 1
70, 73, 71 1
72, 75, 73 1
149, 157, 164 1
140, 149, 158 1
91, 100, 110 1
89, 98, 108 1
73, 82, 91 1
79, 81, 81 1
85, 92, 89 1
75, 84, 93 1
77, 86, 95 1
69, 78, 87 1
79, 90, 88 1
131, 140, 144 1
69, 79, 79 1
72, 83, 81 1
103, 113, 120 1
81, 84, 92 1
136, 143, 146 1
140, 149, 153 1
133, 140, 143 1
141, 145, 150 1
136, 139, 147 1
119, 131, 135 1
104, 113, 117 1
100, 109, 113 1
96, 107, 111 1
93, 104, 108 1
92, 103, 107 1
91, 102, 106 1
87, 98, 102 1
80, 91, 95 1
72, 80, 79 1
78, 84, 83 1
68, 80, 84 1
67, 79, 81 1
68, 77, 87 1
70, 76, 83 1
81, 92, 96 1
67, 74, 77 1
70, 81, 85 1
69, 81, 83 1
121, 132, 136 1
82, 93, 97 1
72, 84, 88 1
69, 81, 87 1
67, 84, 87 1
68, 85, 88 1
66, 78, 82 1
67, 78, 82 1
139, 143, 148 1
135, 139, 144 1
92, 104, 110 1
91, 103, 109 1
79, 80, 90 1
71, 86, 89 1
66, 80, 86 1
63, 82, 87 1
64, 83, 88 1
65, 84, 89 1
67, 86, 91 1
63, 79, 85 1
65, 77, 81 1
69, 76, 79 1
98, 108, 115 1
89, 100, 108 1
86, 97, 105 1
63, 74, 78 1
65, 82, 85 1
62, 79, 82 1
59, 79, 84 1
60, 80, 85 1
62, 82, 87 1
64, 84, 89 1
69, 89, 94 1
72, 92, 97 1
72, 91, 96 1
66, 85, 90 1
62, 78, 84 1
61, 76, 79 1
119, 123, 128 1
90, 100, 110 1
64, 75, 79 1
81, 90, 87 1
72, 84, 86 1
65, 83, 84 1
64, 81, 84 1
61, 78, 81 1
56, 79, 81 1
57, 80, 82 1
57, 79, 84 1
60, 82, 87 1
63, 85, 90 1
70, 90, 95 1
66, 82, 88 1
59, 74, 77 1
61, 72, 76 1
66, 72, 77 1
141, 147, 152 1
109, 118, 122 1
106, 115, 119 1
103, 112, 116 1
98, 107, 111 1
97, 106, 110 1
95, 104, 108 1
94, 103, 107 1
93, 102, 106 1
73, 78, 81 1
80, 79, 88 1
77, 86, 83 1
82, 85, 90 1
71, 83, 83 1
64, 82, 83 1
63, 81, 82 1
62, 80, 81 1
62, 83, 85 1
65, 86, 88 1
67, 88, 90 1
68, 87, 90 1
70, 89, 92 1
71, 75, 80 1
70, 75, 78 1
140, 146, 151 1
122, 129, 132 1
122, 126, 131 1
112, 118, 123 1
110, 116, 121 1
109, 115, 120 1
106, 112, 117 1
104, 110, 115 1
103, 109, 114 1
102, 108, 113 1
100, 106, 111 1
98, 104, 109 1
86, 92, 97 1
76, 81, 82 1
79, 80, 84 1
78, 78, 84 1
83, 90, 85 1
84, 87, 91 1
85, 86, 90 1
85, 85, 91 1
84, 84, 90 1
72, 85, 83 1
69, 83, 82 1
67, 83, 82 1
66, 86, 87 1
68, 88, 89 1
73, 88, 91 1
71, 86, 88 1
67, 80, 82 1
62, 74, 76 1
76, 79, 87 1
76, 80, 85 1
145, 152, 161 1
139, 145, 150 1
121, 126, 129 1
120, 125, 128 1
112, 117, 120 1
111, 116, 119 1
101, 104, 112 1
97, 101, 106 1
94, 98, 103 1
92, 96, 101 1
89, 94, 97 1
68, 73, 74 1
69, 75, 74 1
70, 76, 75 1
71, 78, 75 1
71, 76, 75 1
73, 79, 78 1
76, 82, 81 1
83, 85, 86 1
87, 86, 90 1
76, 83, 80 1
77, 84, 81 1
77, 85, 84 1
73, 86, 84 1
70, 86, 85 1
70, 85, 87 1
73, 88, 90 1
75, 88, 90 1
74, 87, 89 1
74, 86, 88 1
73, 85, 87 1
72, 76, 77 1
75, 79, 80 1
79, 81, 82 1
84, 85, 89 1
85, 87, 88 1
114, 126, 128 1
113, 125, 127 1
111, 116, 117 1
110, 115, 116 1
103, 108, 109 1
97, 100, 105 1
98, 101, 105 1
97, 100, 104 1
90, 93, 97 1
73, 78, 76 1
84, 83, 85 1
83, 82, 84 1
82, 81, 83 1
87, 85, 84 1
85, 83, 82 1
83, 81, 80 1
80, 81, 79 1
84, 93, 90 1
86, 95, 92 1
87, 96, 93 1
80, 92, 92 1
90, 90, 90 1
94, 92, 98 1
94, 93, 97 1
95, 94, 98 1
95, 94, 96 1
94, 94, 94 1
127, 133, 138 1
118, 130, 136 1
117, 129, 135 1
116, 128, 130 1
115, 127, 127 1
118, 121, 125 1
108, 112, 113 1
95, 96, 100 1
91, 92, 96 1
89, 91, 92 1
73, 75, 75 1
74, 81, 78 1
86, 81, 82 1
90, 85, 86 1
88, 83, 84 1
86, 86, 86 1
81, 84, 82 1
79, 83, 78 1
80, 84, 79 1
88, 84, 83 1
87, 83, 82 1
79, 77, 76 1
77, 78, 74 1
78, 82, 77 1
97, 103, 102 1
94, 100, 99 1
95, 100, 99 1
97, 99, 99 1
101, 101, 101 1
103, 103, 103 1
107, 105, 105 1
112, 108, 107 1
110, 106, 111 1
111, 107, 112 1
113, 110, 112 1
113, 111, 111 1
112, 110, 110 1
126, 132, 139 1
116, 121, 124 1
109, 113, 114 1
88, 90, 91 1
81, 79, 79 1
82, 78, 77 1
84, 79, 80 1
83, 80, 82 1
84, 81, 83 1
84, 90, 85 1
86, 92, 87 1
89, 89, 89 1
99, 97, 97 1
100, 97, 99 1
103, 99, 98 1
105, 101, 100 1
106, 102, 101 1
108, 104, 103 1
110, 108, 107 1
112, 111, 107 1
112, 113, 109 1
113, 114, 110 1
114, 115, 111 1
114, 117, 115 1
116, 119, 117 1
118, 121, 119 1
122, 125, 123 1
125, 128, 126 1
126, 129, 127 1
124, 130, 129 1
125, 131, 130 1
128, 134, 133 1
131, 137, 136 1
131, 136, 135 1
132, 134, 134 1
135, 135, 135 1
137, 137, 137 1
141, 139, 139 1
142, 140, 139 1
145, 141, 140 1
146, 142, 141 1
145, 141, 146 1
146, 143, 145 1
147, 144, 146 1
120, 127, 130 1
118, 126, 126 1
68, 70, 70 1
76, 76, 76 1
87, 89, 89 1
90, 92, 92 1
99, 95, 94 1
102, 98, 97 1
103, 98, 99 1
105, 100, 101 1
104, 102, 102 1
105, 103, 103 1
106, 103, 105 1
107, 104, 106 1
106, 105, 107 1
102, 107, 106 1
104, 110, 109 1
106, 112, 111 1
108, 114, 113 1
111, 117, 116 1
113, 119, 118 1
123, 125, 125 1
127, 129, 129 1
135, 138, 136 1
140, 143, 141 1
142, 145, 143 1
138, 143, 141 1
136, 142, 137 1
138, 144, 139 1
141, 147, 142 1
145, 151, 146 1
150, 152, 152 1
152, 154, 154 1
154, 156, 156 1
157, 159, 159 1
159, 161, 161 1
161, 163, 163 1
164, 166, 166 1
166, 168, 168 1
163, 165, 165 1
163, 163, 163 1
162, 162, 162 1
167, 164, 166 1
169, 166, 168 1
169, 167, 166 1
170, 168, 167 1
169, 170, 168 1
167, 170, 168 1
168, 171, 169 1
170, 173, 171 1
166, 171, 170 1
174, 172, 171 1
173, 169, 168 1
173, 169, 174 1
172, 170, 170 1
171, 169, 168 1
118, 128, 128 1
116, 124, 124 1
114, 122, 122 1
114, 119, 120 1
107, 112, 115 1
101, 104, 108 1
100, 103, 107 1
95, 97, 98 1
90, 92, 93 1
70, 72, 72 1
77, 77, 77 1
79, 78, 80 1
80, 79, 81 1
78, 80, 80 1
88, 93, 91 1
91, 96, 94 1
106, 108, 109 1
107, 109, 110 1
109, 111, 112 1
112, 117, 116 1
118, 124, 123 1
123, 129, 128 1
136, 141, 140 1
138, 143, 142 1
142, 144, 144 1
144, 146, 146 1
146, 148, 148 1
147, 149, 149 1
146, 145, 147 1
149, 149, 149 1
151, 151, 151 1
154, 154, 154 1
167, 162, 163 1
162, 157, 158 1
161, 159, 159 1
164, 162, 162 1
162, 161, 163 1
162, 167, 166 1
165, 170, 169 1
172, 177, 176 1
174, 180, 179 1
173, 179, 178 1
168, 174, 173 1
166, 171, 172 1
169, 174, 175 1
172, 177, 178 1
169, 174, 173 1
172, 177, 175 1
173, 178, 176 1
170, 175, 173 1
170, 177, 174 1
169, 176, 173 1
175, 177, 178 1
176, 178, 179 1
178, 180, 181 1
179, 181, 182 1
180, 182, 183 1
173, 175, 176 1
168, 170, 171 1
170, 172, 173 1
172, 171, 173 1
175, 174, 176 1
177, 177, 177 1
178, 178, 178 1
179, 179, 179 1
177, 178, 176 1
174, 177, 175 1
172, 175, 173 1
170, 172, 172 1
169, 171, 171 1
168, 170, 170 1
173, 173, 173 1
174, 174, 174 1
176, 174, 174 1
174, 172, 172 1
173, 171, 171 1
