74, 82, 82 255
73, 80, 83 242
71, 78, 81 183
72, 79, 82 179
75, 82, 85 163
73, 81, 81 161
74, 81, 84 133
75, 83, 83 112
72, 80, 80 109
75, 80, 81 102
113, 121, 128 99
76, 83, 86 92
71, 79, 79 81
70, 80, 80 80
76, 81, 82 77
69, 76, 79 73
71, 81, 81 71
68, 75, 78 71
70, 79, 82 69
74, 85, 83 68
67, 74, 77 65
75, 83, 90 58
134, 142, 149 57
112, 120, 127 57
66, 73, 76 57
69, 79, 79 54
67, 73, 78 51
76, 84, 83 51
70, 77, 80 50
113, 122, 131 49
75, 80, 83 48
72, 82, 82 47
73, 83, 83 46
73, 79, 84 46
135, 143, 150 45
67, 78, 82 44
69, 78, 82 43
75, 79, 80 42
69, 77, 77 41
73, 82, 86 40
117, 126, 135 39
71, 80, 83 39
114, 121, 130 37
74, 79, 82 37
71, 80, 84 37
113, 119, 124 35
114, 123, 132 35
115, 123, 130 34
114, 120, 127 33
70, 78, 85 33
73, 82, 85 32
69, 78, 81 31
77, 81, 82 31
114, 120, 125 29
66, 72, 77 29
77, 82, 85 29
76, 80, 81 29
115, 122, 131 28
106, 113, 122 28
71, 77, 82 28
114, 122, 129 27
75, 84, 88 27
70, 78, 78 27
72, 78, 83 26
76, 79, 84 26
133, 141, 148 25
116, 125, 134 25
115, 121, 128 25
105, 112, 121 25
98, 105, 114 25
112, 118, 123 25
72, 81, 84 25
73, 78, 81 25
69, 74, 75 25
100, 107, 116 24
76, 85, 89 24
72, 80, 79 24
75, 79, 84 24
77, 82, 83 24
71, 76, 75 24
74, 79, 80 24
121, 129, 136 24
69, 77, 84 24
108, 115, 124 23
74, 84, 84 23
110, 117, 120 23
124, 134, 141 22
104, 111, 120 22
102, 109, 118 22
74, 80, 85 22
97, 104, 113 22
115, 121, 126 22
65, 72, 75 22
75, 78, 83 21
101, 108, 117 21
99, 106, 115 21
65, 73, 73 21
77, 80, 84 21
74, 83, 87 20
106, 114, 121 20
111, 117, 122 20
72, 81, 85 20
108, 113, 122 20
68, 77, 81 20
107, 114, 123 19
113, 120, 129 19
132, 140, 147 19
111, 119, 126 19
71, 79, 86 19
74, 81, 78 19
119, 129, 136 18
76, 82, 87 18
118, 128, 135 18
108, 116, 123 18
113, 119, 126 18
73, 84, 82 18
111, 118, 127 18
68, 76, 76 18
70, 79, 83 18
111, 118, 121 18
71, 75, 76 18
116, 123, 132 17
73, 77, 82 17
136, 144, 151 17
73, 79, 78 17
123, 133, 140 16
115, 124, 133 16
94, 102, 109 16
112, 119, 128 16
116, 122, 127 16
130, 138, 145 16
64, 71, 74 16
69, 73, 74 16
108, 117, 121 16
68, 76, 83 16
78, 80, 80 16
73, 80, 77 16
120, 130, 137 15
78, 85, 88 15
72, 75, 73 15
77, 84, 87 15
75, 81, 80 15
76, 81, 84 15
66, 76, 76 15
109, 114, 123 15
112, 114, 125 15
107, 112, 121 15
106, 115, 119 15
94, 101, 110 14
125, 135, 142 14
72, 83, 81 14
72, 77, 76 14
123, 129, 136 14
66, 77, 81 14
67, 77, 84 14
109, 118, 122 14
107, 114, 117 14
74, 77, 82 13
101, 109, 116 13
117, 127, 134 13
62, 70, 77 13
117, 123, 128 13
120, 128, 135 13
77, 79, 80 13
70, 76, 75 13
107, 113, 118 13
108, 115, 118 13
122, 132, 139 12
121, 131, 138 12
118, 127, 136 12
75, 81, 86 12
64, 70, 75 12
76, 82, 81 12
107, 115, 122 12
98, 106, 113 12
68, 78, 78 12
75, 83, 82 12
112, 118, 125 12
97, 105, 112 12
72, 77, 80 12
71, 76, 79 12
75, 82, 79 12
122, 129, 138 12
120, 127, 136 12
114, 124, 131 12
129, 137, 144 12
110, 114, 125 12
114, 123, 127 12
110, 112, 122 12
78, 78, 84 12
68, 72, 73 12
69, 79, 86 12
109, 116, 119 12
96, 103, 112 11
65, 71, 76 11
78, 83, 86 11
68, 74, 79 11
69, 73, 78 11
76, 84, 91 11
109, 117, 124 11
105, 113, 120 11
104, 112, 119 11
126, 136, 143 11
65, 74, 78 11
117, 123, 130 11
131, 139, 146 11
64, 72, 72 11
66, 76, 83 11
77, 80, 85 11
75, 78, 82 11
79, 79, 85 11
77, 79, 79 11
71, 76, 74 11
76, 85, 88 10
74, 78, 83 10
77, 81, 86 10
110, 116, 123 10
118, 124, 131 10
103, 110, 119 10
73, 77, 78 10
70, 75, 76 10
109, 113, 124 10
79, 80, 84 10
128, 136, 143 10
95, 103, 110 10
84, 92, 99 10
122, 130, 137 10
68, 73, 74 10
69, 74, 77 10
122, 128, 133 10
70, 74, 75 10
82, 88, 93 9
70, 74, 79 9
71, 74, 79 9
7, 0, 0 9
70, 73, 71 9
71, 79, 78 9
102, 110, 117 9
92, 100, 107 9
116, 122, 129 9
67, 77, 77 9
119, 127, 134 9
122, 128, 135 9
123, 131, 138 9
68, 79, 83 9
134, 141, 150 9
120, 126, 131 9
73, 78, 77 9
79, 88, 97 9
67, 70, 74 9
107, 116, 120 9
70, 75, 78 9
69, 74, 73 9
134, 143, 147 8
74, 83, 86 8
57, 66, 69 8
89, 93, 98 8
75, 85, 85 8
70, 76, 81 8
73, 81, 80 8
127, 137, 144 8
77, 80, 78 8
71, 75, 80 8
110, 115, 124 8
90, 97, 106 8
61, 69, 76 8
121, 128, 137 8
119, 126, 135 8
113, 123, 130 8
116, 124, 131 8
85, 92, 101 8
81, 88, 97 8
59, 68, 72 8
79, 81, 82 8
133, 140, 149 8
68, 73, 76 8
74, 77, 81 8
105, 109, 114 8
71, 74, 72 8
70, 79, 76 8
71, 80, 77 8
92, 99, 108 7
79, 86, 89 7
59, 67, 67 7
70, 78, 77 7
128, 138, 145 7
76, 80, 85 7
74, 77, 75 7
76, 84, 84 7
110, 117, 126 7
68, 71, 69 7
72, 79, 76 7
75, 80, 79 7
123, 130, 139 7
71, 76, 77 7
67, 75, 75 7
113, 118, 127 7
118, 126, 133 7
82, 89, 98 7
106, 111, 120 7
132, 139, 148 7
124, 130, 135 7
68, 78, 85 7
76, 79, 83 7
66, 78, 82 7
121, 127, 132 7
74, 78, 79 7
72, 76, 77 7
111, 120, 124 7
99, 105, 112 7
76, 78, 79 7
72, 78, 77 7
76, 79, 77 7
138, 144, 149 6
125, 136, 140 6
109, 116, 125 6
74, 82, 89 6
75, 82, 91 6
79, 84, 87 6
5, 0, 0 6
4, 0, 0 6
77, 83, 88 6
117, 124, 133 6
100, 108, 115 6
96, 104, 111 6
77, 77, 83 6
75, 84, 87 6
91, 99, 106 6
72, 75, 80 6
64, 70, 77 6
71, 73, 73 6
74, 79, 78 6
124, 131, 140 6
118, 125, 134 6
115, 122, 125 6
69, 76, 85 6
117, 125, 132 6
113, 124, 128 6
112, 123, 127 6
125, 131, 138 6
124, 130, 137 6
111, 116, 125 6
113, 115, 126 6
63, 70, 73 6
126, 134, 141 6
104, 109, 118 6
107, 113, 120 6
118, 124, 129 6
110, 120, 127 6
67, 71, 72 6
108, 112, 123 6
109, 118, 121 6
131, 138, 147 6
115, 124, 128 6
108, 117, 120 6
109, 115, 120 6
78, 80, 81 6
73, 76, 74 6
69, 72, 70 6
77, 81, 76 6
71, 75, 70 6
72, 76, 71 6
112, 117, 120 6
155, 158, 156 6
80, 85, 88 5
69, 77, 76 5
68, 71, 75 5
64, 73, 76 5
66, 74, 74 5
73, 76, 81 5
138, 144, 151 5
92, 96, 101 5
111, 117, 124 5
86, 92, 97 5
67, 67, 67 5
73, 78, 79 5
76, 81, 80 5
108, 114, 125 5
88, 95, 104 5
63, 70, 79 5
129, 136, 145 5
78, 85, 94 5
59, 67, 74 5
95, 102, 111 5
121, 127, 134 5
113, 122, 126 5
83, 90, 99 5
86, 94, 101 5
124, 132, 139 5
83, 93, 100 5
83, 91, 98 5
105, 110, 119 5
85, 93, 100 5
112, 119, 122 5
63, 71, 71 5
135, 142, 151 5
130, 137, 146 5
110, 119, 122 5
109, 112, 120 5
81, 90, 99 5
65, 77, 81 5
62, 74, 78 5
62, 71, 75 5
123, 129, 134 5
65, 70, 71 5
64, 73, 77 5
109, 120, 124 5
103, 109, 116 5
102, 108, 115 5
77, 78, 82 5
107, 118, 122 5
75, 77, 78 5
68, 73, 72 5
78, 79, 83 5
69, 74, 72 5
75, 80, 78 5
104, 111, 114 5
72, 77, 75 5
78, 82, 77 5
83, 90, 87 5
139, 145, 150 4
127, 138, 142 4
76, 76, 82 4
9, 0, 0 4
82, 85, 83 4
77, 83, 82 4
70, 73, 78 4
137, 143, 148 4
91, 95, 100 4
68, 72, 77 4
74, 82, 81 4
88, 92, 97 4
73, 78, 76 4
89, 95, 100 4
74, 74, 74 4
74, 76, 76 4
69, 76, 73 4
105, 115, 122 4
78, 82, 83 4
72, 77, 78 4
109, 115, 126 4
127, 134, 143 4
126, 133, 142 4
84, 91, 100 4
77, 84, 93 4
119, 125, 132 4
111, 113, 124 4
62, 68, 73 4
58, 67, 71 4
70, 77, 86 4
85, 95, 102 4
79, 86, 95 4
91, 101, 108 4
84, 94, 101 4
60, 69, 73 4
108, 114, 121 4
127, 133, 138 4
125, 131, 136 4
60, 71, 75 4
68, 70, 71 4
69, 71, 72 4
69, 80, 78 4
61, 76, 79 4
64, 75, 79 4
61, 72, 76 4
68, 77, 80 4
63, 72, 76 4
67, 76, 80 4
64, 79, 82 4
88, 96, 103 4
62, 82, 87 4
100, 106, 113 4
58, 67, 70 4
108, 119, 123 4
104, 110, 117 4
97, 103, 110 4
70, 75, 74 4
69, 75, 74 4
63, 65, 65 4
68, 73, 71 4
107, 116, 119 4
105, 114, 118 4
105, 112, 115 4
80, 85, 86 4
68, 75, 72 4
104, 112, 112 4
105, 108, 113 4
159, 164, 163 4
166, 164, 164 4
106, 112, 111 4
159, 161, 161 4
129, 140, 144 3
126, 137, 141 3
75, 75, 81 3
11, 0, 0 3
70, 76, 83 3
133, 142, 146 3
128, 139, 143 3
61, 70, 73 3
62, 71, 74 3
93, 97, 102 3
69, 72, 77 3
2, 0, 0 3
67, 71, 76 3
78, 82, 87 3
71, 72, 70 3
83, 89, 94 3
63, 69, 74 3
71, 74, 78 3
76, 81, 79 3
78, 83, 81 3
110, 118, 125 3
68, 71, 79 3
83, 81, 81 3
69, 71, 71 3
67, 70, 68 3
81, 81, 81 3
76, 76, 76 3
70, 77, 74 3
78, 83, 82 3
87, 94, 103 3
76, 83, 92 3
60, 67, 76 3
125, 132, 141 3
60, 68, 75 3
128, 135, 144 3
112, 122, 129 3
112, 117, 126 3
130, 136, 143 3
87, 95, 102 3
62, 69, 72 3
87, 97, 104 3
64, 71, 80 3
71, 78, 87 3
82, 90, 97 3
103, 108, 117 3
65, 75, 82 3
82, 92, 99 3
130, 136, 141 3
78, 88, 95 3
60, 66, 71 3
69, 70, 74 3
71, 82, 80 3
62, 77, 80 3
61, 73, 77 3
63, 78, 81 3
81, 91, 98 3
77, 88, 96 3
57, 67, 74 3
65, 69, 74 3
60, 77, 80 3
63, 79, 85 3
70, 81, 89 3
66, 71, 72 3
67, 75, 82 3
107, 113, 124 3
73, 76, 80 3
79, 78, 87 3
110, 119, 123 3
76, 77, 81 3
65, 78, 80 3
53, 65, 69 3
96, 102, 109 3
73, 76, 84 3
106, 117, 121 3
76, 78, 78 3
105, 111, 116 3
101, 105, 110 3
100, 104, 109 3
99, 103, 108 3
88, 94, 99 3
87, 93, 98 3
61, 65, 66 3
71, 77, 76 3
68, 77, 74 3
69, 78, 75 3
74, 80, 79 3
77, 84, 81 3
75, 78, 76 3
96, 100, 105 3
76, 77, 75 3
85, 86, 82 3
106, 113, 116 3
90, 94, 99 3
67, 68, 66 3
68, 69, 67 3
81, 80, 82 3
76, 80, 75 3
103, 106, 111 3
102, 105, 110 3
99, 102, 107 3
73, 75, 75 3
86, 87, 85 3
123, 128, 127 3
77, 82, 80 3
137, 140, 138 3
154, 154, 154 3
156, 161, 160 3
157, 162, 161 3
137, 144, 141 3
161, 165, 166 3
160, 165, 164 3
161, 159, 158 3
135, 144, 148 2
130, 141, 145 2
73, 81, 88 2
68, 69, 73 2
5, 0, 1 2
41, 26, 23 2
9, 2, 0 2
6, 2, 1 2
3, 1, 0 2
1, 2, 0 2
79, 82, 80 2
59, 68, 71 2
59, 67, 66 2
62, 70, 69 2
15, 3, 0 2
7, 2, 1 2
74, 72, 71 2
74, 75, 73 2
60, 67, 70 2
61, 69, 69 2
63, 71, 70 2
68, 76, 75 2
5, 4, 6 2
3, 0, 2 2
9, 4, 3 2
79, 75, 74 2
83, 79, 78 2
66, 75, 78 2
79, 67, 63 2
83, 81, 80 2
75, 86, 84 2
78, 84, 89 2
77, 78, 76 2
139, 145, 152 2
0, 0, 1 2
7, 3, 2 2
8, 3, 0 2
5, 3, 2 2
61, 70, 74 2
0, 0, 0 2
91, 98, 107 2
44, 39, 38 2
77, 75, 75 2
85, 91, 96 2
64, 60, 59 2
64, 68, 69 2
72, 72, 72 2
79, 79, 79 2
90, 96, 101 2
76, 83, 80 2
77, 82, 81 2
137, 145, 152 2
129, 135, 146 2
127, 133, 144 2
106, 115, 124 2
66, 73, 82 2
69, 75, 80 2
86, 93, 102 2
89, 96, 105 2
67, 74, 83 2
93, 100, 109 2
68, 75, 84 2
111, 115, 126 2
62, 69, 78 2
129, 135, 142 2
127, 133, 140 2
111, 122, 126 2
80, 87, 96 2
120, 126, 133 2
128, 134, 141 2
126, 132, 139 2
111, 113, 123 2
73, 79, 86 2
88, 98, 105 2
113, 120, 123 2
63, 71, 78 2
102, 107, 116 2
89, 99, 106 2
86, 96, 103 2
61, 68, 71 2
108, 112, 117 2
90, 99, 108 2
88, 97, 106 2
85, 94, 103 2
79, 89, 96 2
62, 66, 71 2
66, 69, 73 2
70, 81, 79 2
67, 79, 83 2
62, 73, 77 2
108, 111, 119 2
107, 111, 116 2
61, 71, 78 2
63, 75, 79 2
60, 74, 80 2
62, 74, 80 2
63, 72, 75 2
62, 72, 79 2
66, 70, 71 2
65, 80, 83 2
63, 77, 83 2
62, 78, 84 2
60, 72, 78 2
60, 72, 76 2
78, 89, 97 2
57, 77, 82 2
64, 83, 88 2
61, 80, 85 2
60, 69, 72 2
107, 111, 122 2
106, 110, 121 2
66, 71, 74 2
77, 79, 87 2
51, 73, 78 2
55, 77, 82 2
57, 79, 84 2
52, 66, 72 2
98, 104, 111 2
65, 70, 73 2
66, 78, 80 2
64, 77, 79 2
57, 72, 75 2
119, 125, 130 2
106, 112, 119 2
95, 101, 108 2
67, 72, 71 2
67, 72, 75 2
75, 76, 80 2
72, 75, 83 2
59, 74, 76 2
52, 75, 77 2
54, 66, 70 2
59, 66, 69 2
64, 76, 76 2
56, 76, 77 2
104, 108, 113 2
102, 106, 111 2
98, 102, 107 2
97, 101, 106 2
65, 67, 67 2
79, 81, 81 2
74, 79, 77 2
61, 77, 76 2
70, 75, 73 2
116, 125, 129 2
95, 99, 104 2
63, 68, 69 2
69, 70, 68 2
67, 69, 69 2
70, 72, 72 2
73, 82, 79 2
78, 81, 79 2
71, 77, 72 2
75, 77, 77 2
72, 74, 74 2
75, 75, 75 2
78, 78, 78 2
75, 76, 74 2
80, 89, 86 2
106, 110, 115 2
94, 98, 103 2
86, 90, 91 2
78, 83, 84 2
64, 69, 68 2
64, 66, 66 2
66, 66, 66 2
73, 77, 72 2
68, 74, 69 2
91, 97, 96 2
99, 100, 96 2
102, 101, 97 2
107, 115, 115 2
104, 107, 112 2
101, 104, 109 2
98, 101, 106 2
83, 87, 88 2
75, 81, 76 2
82, 86, 81 2
97, 101, 96 2
112, 117, 115 2
118, 123, 121 2
125, 125, 125 2
134, 130, 129 2
135, 134, 130 2
108, 114, 119 2
103, 111, 111 2
106, 109, 114 2
100, 103, 108 2
96, 99, 104 2
88, 92, 93 2
69, 75, 70 2
84, 91, 88 2
86, 94, 93 2
90, 93, 91 2
112, 113, 117 2
112, 116, 117 2
126, 132, 131 2
134, 139, 137 2
146, 148, 148 2
156, 157, 155 2
154, 157, 155 2
156, 161, 159 2
163, 165, 165 2
161, 163, 163 2
85, 91, 86 2
84, 90, 89 2
91, 96, 95 2
125, 130, 129 2
125, 130, 128 2
136, 144, 143 2
162, 161, 163 2
162, 164, 165 2
163, 165, 166 2
167, 169, 170 2
164, 168, 169 2
159, 165, 164 2
160, 166, 165 2
160, 164, 165 2
168, 170, 171 2
163, 162, 164 2
166, 166, 166 2
166, 169, 167 2
158, 163, 162 2
162, 160, 160 2
140, 146, 151 1
95, 98, 106 1
88, 94, 101 1
70, 73, 77 1
44, 43, 47 1
3, 2, 4 1
2, 0, 1 1
24, 12, 8 1
48, 35, 33 1
49, 36, 34 1
30, 18, 16 1
10, 1, 0 1
10, 11, 9 1
54, 57, 55 1
78, 84, 83 1
72, 78, 85 1
69, 75, 82 1
66, 72, 79 1
60, 66, 73 1
55, 64, 68 1
58, 65, 68 1
58, 66, 66 1
66, 74, 73 1
94, 97, 105 1
89, 92, 100 1
65, 66, 70 1
43, 42, 46 1
4, 3, 5 1
5, 2, 4 1
13, 4, 1 1
14, 0, 0 1
19, 4, 1 1
31, 14, 11 1
48, 31, 28 1
56, 41, 39 1
44, 29, 27 1
23, 10, 8 1
17, 5, 3 1
12, 2, 2 1
9, 7, 6 1
56, 54, 53 1
80, 81, 79 1
83, 84, 82 1
57, 65, 65 1
65, 73, 72 1
132, 141, 145 1
77, 86, 89 1
62, 63, 67 1
41, 40, 44 1
18, 7, 3 1
20, 8, 4 1
24, 9, 6 1
25, 4, 2 1
24, 3, 1 1
41, 22, 19 1
61, 41, 40 1
60, 42, 41 1
45, 30, 28 1
28, 15, 13 1
15, 3, 3 1
10, 5, 4 1
57, 52, 51 1
76, 72, 71 1
85, 81, 80 1
65, 74, 77 1
67, 76, 79 1
103, 111, 118 1
87, 91, 96 1
77, 86, 90 1
79, 85, 90 1
64, 65, 69 1
47, 48, 52 1
12, 11, 13 1
12, 7, 6 1
37, 28, 25 1
62, 50, 48 1
31, 10, 8 1
18, 0, 0 1
20, 1, 0 1
47, 29, 28 1
40, 22, 21 1
76, 61, 59 1
50, 37, 35 1
47, 42, 41 1
78, 74, 73 1
129, 139, 146 1
70, 71, 75 1
53, 54, 58 1
21, 20, 24 1
25, 20, 19 1
68, 61, 58 1
90, 81, 78 1
93, 82, 78 1
86, 75, 71 1
12, 0, 0 1
14, 2, 0 1
16, 4, 2 1
43, 34, 31 1
33, 25, 25 1
11, 3, 3 1
40, 38, 37 1
58, 59, 63 1
28, 29, 33 1
0, 1, 2 1
3, 1, 1 1
19, 14, 13 1
21, 14, 11 1
27, 18, 15 1
34, 25, 22 1
13, 6, 3 1
0, 1, 0 1
37, 40, 38 1
59, 62, 66 1
37, 38, 42 1
8, 9, 13 1
7, 2, 0 1
10, 5, 2 1
6, 1, 0 1
11, 8, 4 1
9, 5, 4 1
4, 2, 1 1
3, 4, 2 1
12, 13, 11 1
47, 48, 46 1
63, 66, 71 1
48, 51, 55 1
32, 35, 39 1
28, 32, 33 1
32, 34, 35 1
33, 35, 35 1
39, 39, 39 1
39, 37, 36 1
42, 38, 37 1
38, 34, 33 1
38, 33, 30 1
41, 36, 33 1
44, 39, 36 1
43, 38, 37 1
45, 40, 39 1
45, 41, 40 1
47, 42, 43 1
49, 44, 45 1
50, 45, 46 1
64, 62, 62 1
79, 77, 77 1
82, 80, 80 1
68, 71, 76 1
60, 63, 67 1
49, 52, 56 1
53, 56, 60 1
55, 59, 60 1
51, 55, 56 1
58, 60, 60 1
56, 56, 56 1
59, 57, 56 1
61, 59, 58 1
60, 57, 53 1
62, 59, 55 1
61, 57, 56 1
62, 58, 57 1
59, 55, 54 1
65, 60, 61 1
64, 59, 60 1
69, 64, 65 1
71, 66, 67 1
78, 73, 74 1
83, 78, 79 1
81, 79, 79 1
65, 71, 78 1
62, 67, 70 1
64, 69, 72 1
64, 69, 70 1
68, 68, 68 1
72, 73, 71 1
73, 74, 72 1
71, 71, 71 1
77, 77, 77 1
137, 144, 153 1
63, 69, 76 1
80, 84, 89 1
130, 136, 147 1
126, 132, 143 1
124, 130, 141 1
118, 122, 127 1
105, 114, 123 1
78, 81, 86 1
128, 134, 145 1
125, 131, 142 1
112, 116, 127 1
61, 68, 77 1
131, 137, 144 1
93, 101, 108 1
90, 98, 105 1
89, 97, 104 1
90, 100, 107 1
67, 72, 73 1
114, 119, 128 1
110, 116, 121 1
64, 74, 81 1
126, 132, 137 1
126, 130, 135 1
125, 129, 134 1
123, 127, 132 1
110, 113, 121 1
109, 113, 118 1
100, 109, 118 1
83, 92, 101 1
70, 81, 85 1
64, 76, 80 1
82, 91, 100 1
69, 80, 84 1
68, 80, 82 1
61, 75, 81 1
107, 110, 118 1
105, 108, 116 1
69, 81, 87 1
57, 66, 70 1
59, 76, 79 1
131, 137, 142 1
106, 109, 117 1
78, 87, 96 1
61, 73, 79 1
58, 66, 73 1
61, 67, 72 1
72, 76, 81 1
61, 78, 81 1
60, 76, 82 1
57, 78, 80 1
56, 76, 81 1
60, 80, 85 1
58, 74, 80 1
55, 71, 77 1
57, 71, 77 1
56, 70, 76 1
57, 69, 75 1
57, 69, 73 1
59, 70, 74 1
125, 133, 140 1
122, 131, 135 1
105, 111, 118 1
78, 87, 97 1
58, 75, 78 1
57, 74, 77 1
50, 72, 77 1
53, 75, 80 1
59, 81, 86 1
66, 86, 91 1
62, 81, 86 1
56, 75, 80 1
53, 69, 75 1
54, 68, 74 1
53, 67, 73 1
54, 66, 72 1
121, 130, 134 1
76, 87, 95 1
56, 66, 73 1
72, 75, 79 1
69, 74, 83 1
70, 75, 84 1
71, 76, 85 1
65, 77, 79 1
59, 74, 77 1
58, 73, 76 1
47, 72, 74 1
48, 73, 75 1
49, 74, 76 1
50, 75, 79 1
58, 80, 85 1
65, 85, 90 1
56, 72, 78 1
51, 67, 73 1
93, 99, 106 1
76, 86, 93 1
71, 81, 88 1
63, 68, 71 1
66, 72, 71 1
67, 73, 72 1
66, 78, 78 1
63, 76, 78 1
61, 74, 76 1
51, 74, 76 1
54, 77, 79 1
57, 80, 82 1
60, 81, 83 1
61, 82, 84 1
63, 82, 85 1
64, 83, 86 1
62, 79, 82 1
56, 67, 71 1
57, 68, 72 1
62, 70, 70 1
64, 70, 69 1
127, 135, 142 1
110, 121, 125 1
109, 115, 122 1
101, 107, 114 1
94, 100, 107 1
92, 98, 105 1
90, 96, 103 1
89, 95, 102 1
87, 93, 100 1
80, 88, 95 1
77, 85, 92 1
61, 66, 69 1
63, 67, 68 1
65, 69, 70 1
68, 79, 77 1
67, 79, 79 1
65, 77, 77 1
63, 77, 76 1
55, 75, 76 1
57, 77, 78 1
61, 81, 82 1
62, 82, 83 1
64, 82, 83 1
63, 80, 83 1
67, 82, 85 1
60, 72, 74 1
136, 143, 152 1
102, 108, 113 1
103, 109, 114 1
94, 100, 105 1
92, 98, 103 1
80, 86, 91 1
60, 65, 66 1
68, 70, 70 1
67, 72, 70 1
81, 80, 84 1
60, 76, 75 1
63, 79, 78 1
66, 82, 81 1
69, 83, 82 1
66, 79, 81 1
64, 76, 78 1
59, 64, 65 1
71, 73, 74 1
103, 107, 112 1
89, 94, 97 1
86, 91, 94 1
83, 88, 91 1
81, 86, 89 1
62, 66, 67 1
79, 78, 80 1
80, 79, 81 1
72, 79, 74 1
78, 79, 77 1
78, 87, 84 1
81, 90, 87 1
73, 86, 84 1
70, 72, 73 1
80, 78, 78 1
85, 83, 83 1
83, 87, 82 1
116, 126, 133 1
106, 115, 118 1
89, 93, 94 1
81, 86, 87 1
61, 66, 65 1
71, 78, 75 1
82, 82, 82 1
80, 83, 81 1
75, 82, 77 1
74, 81, 76 1
73, 79, 74 1
75, 79, 74 1
78, 76, 76 1
76, 74, 73 1
75, 73, 72 1
69, 73, 68 1
68, 72, 67 1
66, 72, 67 1
79, 86, 83 1
86, 93, 90 1
88, 95, 92 1
85, 91, 90 1
86, 92, 91 1
88, 94, 93 1
92, 98, 97 1
89, 95, 94 1
88, 93, 92 1
85, 90, 89 1
86, 88, 88 1
88, 88, 88 1
91, 89, 89 1
94, 92, 92 1
99, 94, 95 1
101, 96, 97 1
102, 97, 98 1
98, 99, 95 1
115, 125, 132 1
105, 113, 113 1
91, 95, 96 1
87, 91, 92 1
60, 65, 64 1
62, 64, 64 1
65, 65, 65 1
66, 67, 65 1
74, 78, 73 1
72, 81, 78 1
76, 75, 77 1
77, 76, 78 1
78, 77, 79 1
80, 80, 80 1
84, 83, 85 1
84, 86, 86 1
83, 85, 85 1
80, 85, 84 1
83, 88, 87 1
79, 85, 84 1
79, 85, 80 1
78, 84, 79 1
79, 83, 78 1
80, 84, 79 1
84, 87, 85 1
86, 86, 86 1
89, 87, 87 1
90, 88, 88 1
92, 90, 90 1
93, 91, 90 1
95, 93, 92 1
97, 95, 94 1
99, 97, 96 1
98, 99, 97 1
99, 100, 98 1
99, 103, 98 1
99, 105, 100 1
101, 106, 104 1
104, 109, 107 1
109, 114, 112 1
115, 120, 118 1
114, 119, 117 1
121, 126, 125 1
124, 126, 126 1
123, 125, 125 1
128, 126, 126 1
132, 127, 128 1
135, 130, 129 1
133, 132, 128 1
134, 133, 129 1
136, 135, 131 1
108, 116, 116 1
102, 110, 110 1
107, 110, 115 1
97, 100, 105 1
65, 70, 69 1
63, 68, 67 1
66, 68, 68 1
70, 76, 71 1
77, 85, 84 1
78, 86, 85 1
79, 87, 86 1
79, 88, 85 1
82, 91, 88 1
84, 92, 91 1
88, 96, 95 1
91, 93, 93 1
92, 94, 94 1
96, 95, 97 1
99, 98, 100 1
101, 100, 102 1
102, 101, 103 1
102, 102, 102 1
102, 104, 104 1
104, 106, 106 1
106, 108, 108 1
110, 112, 113 1
112, 114, 115 1
113, 115, 116 1
116, 118, 119 1
125, 127, 128 1
132, 134, 135 1
134, 136, 137 1
134, 139, 138 1
133, 138, 137 1
129, 135, 134 1
128, 135, 132 1
131, 138, 135 1
139, 142, 140 1
141, 144, 142 1
142, 145, 143 1
143, 145, 145 1
148, 150, 150 1
152, 152, 152 1
153, 153, 153 1
157, 155, 155 1
154, 152, 151 1
156, 154, 153 1
158, 156, 155 1
157, 158, 156 1
153, 158, 156 1
156, 159, 157 1
162, 164, 164 1
163, 163, 163 1
168, 164, 163 1
167, 163, 162 1
165, 163, 162 1
164, 163, 159 1
163, 162, 158 1
161, 160, 156 1
160, 159, 155 1
111, 121, 128 1
107, 117, 124 1
113, 118, 121 1
102, 109, 112 1
103, 110, 113 1
95, 98, 103 1
94, 97, 102 1
93, 96, 101 1
90, 94, 95 1
84, 89, 90 1
65, 67, 68 1
66, 68, 69 1
70, 69, 71 1
79, 84, 82 1
82, 87, 85 1
83, 88, 86 1
84, 89, 87 1
84, 90, 85 1
87, 92, 91 1
90, 95, 94 1
93, 95, 96 1
94, 96, 97 1
96, 98, 99 1
97, 99, 100 1
98, 102, 103 1
100, 104, 105 1
101, 105, 106 1
103, 107, 108 1
103, 108, 109 1
104, 109, 110 1
104, 110, 109 1
105, 111, 110 1
108, 114, 113 1
110, 116, 115 1
121, 127, 126 1
124, 129, 128 1
127, 132, 130 1
128, 133, 131 1
124, 132, 132 1
126, 134, 134 1
129, 137, 136 1
132, 140, 139 1
143, 150, 147 1
146, 153, 150 1
145, 152, 149 1
138, 146, 145 1
140, 148, 147 1
140, 148, 148 1
141, 149, 149 1
149, 152, 150 1
149, 151, 151 1
151, 153, 153 1
154, 156, 157 1
159, 158, 160 1
161, 160, 164 1
162, 161, 165 1
166, 165, 167 1
161, 163, 164 1
155, 157, 158 1
151, 153, 154 1
152, 154, 155 1
154, 155, 159 1
158, 158, 164 1
161, 161, 167 1
169, 171, 172 1
165, 169, 170 1
161, 166, 167 1
160, 165, 163 1
159, 163, 164 1
162, 166, 167 1
174, 176, 177 1
172, 174, 175 1
164, 163, 165 1
164, 162, 162 1
167, 165, 165 1
164, 167, 165 1
167, 170, 168 1
164, 169, 167 1
163, 168, 166 1
164, 166, 166 1
160, 162, 162 1
161, 161, 161 1
160, 160, 160 1
160, 158, 157 1
162, 160, 159 1
