74, 81, 84 227
72, 79, 82 176
73, 80, 83 173
69, 77, 77 141
73, 81, 88 137
75, 82, 85 132
71, 79, 79 128
72, 80, 80 122
73, 82, 86 116
68, 76, 76 112
73, 81, 81 111
75, 83, 90 108
71, 78, 81 107
74, 82, 82 104
75, 83, 83 99
72, 80, 87 88
74, 80, 85 85
114, 121, 130 73
71, 79, 86 68
72, 81, 85 67
70, 78, 85 65
73, 82, 85 61
72, 81, 84 60
80, 85, 88 58
76, 84, 84 57
76, 83, 86 55
113, 122, 131 52
109, 116, 125 51
108, 115, 124 49
112, 119, 128 48
129, 137, 144 47
78, 86, 85 46
106, 114, 121 46
108, 116, 123 44
130, 138, 145 43
113, 120, 129 42
78, 85, 88 41
75, 84, 88 40
70, 78, 78 40
107, 115, 122 40
112, 121, 130 39
111, 118, 127 39
128, 136, 143 39
71, 77, 82 36
110, 115, 124 35
75, 81, 86 34
70, 79, 83 34
76, 85, 89 33
114, 119, 128 33
74, 83, 87 32
75, 83, 82 32
64, 71, 74 32
66, 74, 74 31
75, 79, 84 31
69, 77, 84 31
119, 126, 135 30
127, 135, 142 30
109, 114, 123 30
122, 130, 137 29
74, 82, 89 29
69, 78, 82 29
71, 80, 84 29
109, 115, 122 29
126, 134, 141 28
67, 75, 75 28
108, 115, 118 27
132, 140, 147 27
77, 86, 90 27
70, 80, 87 27
110, 117, 126 26
73, 79, 84 26
107, 114, 123 26
101, 109, 116 26
81, 86, 89 25
63, 70, 73 25
133, 141, 148 25
76, 80, 85 25
66, 73, 76 24
65, 72, 75 24
100, 108, 115 24
65, 71, 76 24
109, 117, 124 23
71, 74, 78 23
107, 114, 117 23
103, 110, 113 23
75, 80, 83 23
99, 107, 114 23
68, 78, 85 23
108, 114, 119 22
113, 118, 127 22
120, 127, 136 22
66, 72, 77 22
69, 79, 86 22
120, 128, 135 21
109, 116, 119 21
78, 87, 91 21
76, 84, 83 21
74, 79, 82 21
75, 79, 80 21
107, 112, 121 21
121, 129, 136 20
104, 111, 114 20
77, 84, 87 20
81, 84, 88 20
79, 86, 89 20
102, 110, 117 20
73, 77, 78 20
67, 74, 77 19
68, 75, 78 19
78, 83, 84 19
108, 113, 122 19
71, 76, 75 19
79, 87, 86 18
119, 127, 134 18
70, 75, 74 18
105, 113, 120 18
77, 82, 83 18
71, 80, 83 18
106, 116, 123 18
74, 83, 86 17
102, 109, 112 17
72, 82, 82 17
131, 139, 146 17
111, 120, 129 17
97, 105, 112 17
110, 116, 123 17
70, 74, 75 17
73, 78, 81 17
68, 79, 83 17
73, 76, 80 17
108, 111, 119 17
69, 75, 74 17
125, 135, 142 16
74, 82, 81 16
116, 124, 131 16
70, 79, 82 16
79, 87, 87 16
77, 79, 79 16
115, 120, 129 16
72, 78, 83 16
108, 114, 121 16
107, 113, 120 16
67, 78, 82 16
75, 78, 82 16
124, 132, 139 15
62, 71, 74 15
105, 112, 115 15
106, 113, 122 15
75, 78, 83 15
66, 71, 74 15
72, 77, 76 15
78, 82, 83 15
98, 106, 113 15
106, 111, 120 15
93, 101, 108 14
79, 85, 90 14
113, 123, 130 14
115, 123, 130 14
71, 81, 81 14
107, 113, 118 14
65, 70, 73 14
117, 124, 133 14
110, 120, 127 14
106, 112, 119 14
67, 77, 84 14
105, 109, 114 14
104, 107, 115 14
74, 77, 81 14
71, 77, 76 14
125, 133, 140 13
118, 126, 133 13
76, 81, 84 13
78, 86, 86 13
74, 77, 82 13
78, 80, 80 13
118, 125, 134 13
104, 112, 119 13
111, 116, 125 13
113, 121, 128 13
71, 75, 76 13
75, 78, 86 13
70, 81, 85 13
78, 80, 81 13
115, 122, 131 12
106, 113, 116 12
79, 88, 92 12
77, 83, 88 12
78, 84, 89 12
65, 73, 73 12
64, 70, 77 12
70, 76, 81 12
109, 115, 120 12
73, 78, 79 12
73, 75, 83 12
70, 76, 75 12
67, 72, 71 12
69, 74, 73 12
102, 110, 110 12
103, 109, 114 11
4, 0, 0 11
82, 87, 90 11
84, 92, 99 11
77, 85, 85 11
111, 121, 128 11
116, 123, 132 11
64, 70, 75 11
69, 75, 80 11
104, 109, 118 11
74, 79, 80 11
106, 115, 119 11
73, 76, 74 11
109, 110, 120 11
75, 84, 87 10
82, 85, 89 10
80, 86, 91 10
123, 131, 138 10
64, 72, 72 10
76, 82, 87 10
81, 85, 86 10
73, 83, 83 10
79, 84, 87 10
76, 81, 82 10
75, 80, 81 10
110, 119, 128 10
72, 76, 77 10
72, 75, 79 10
65, 71, 78 9
62, 69, 72 9
76, 84, 91 9
96, 103, 106 9
68, 77, 81 9
80, 80, 80 9
85, 94, 98 9
71, 76, 77 9
81, 89, 96 9
95, 103, 110 9
94, 102, 109 9
59, 67, 74 9
105, 112, 121 9
93, 102, 106 9
117, 123, 130 9
129, 138, 142 9
116, 122, 127 9
65, 79, 85 9
115, 121, 128 9
69, 78, 75 9
110, 115, 118 9
77, 79, 80 9
78, 81, 79 9
126, 136, 143 8
110, 117, 120 8
97, 103, 110 8
5, 0, 0 8
81, 85, 90 8
82, 91, 95 8
71, 79, 78 8
85, 93, 100 8
101, 108, 111 8
76, 85, 88 8
90, 98, 105 8
78, 78, 78 8
112, 120, 127 8
103, 111, 118 8
80, 88, 95 8
107, 117, 124 8
105, 110, 119 8
75, 81, 80 8
105, 108, 116 8
66, 71, 72 8
76, 78, 79 8
68, 76, 75 8
67, 73, 68 8
127, 137, 144 7
102, 108, 113 7
86, 94, 101 7
95, 102, 105 7
81, 81, 81 7
82, 82, 82 7
99, 106, 109 7
76, 78, 78 7
64, 68, 69 7
78, 83, 82 7
74, 78, 83 7
74, 76, 76 7
112, 117, 126 7
63, 69, 76 7
62, 68, 73 7
73, 83, 90 7
79, 83, 84 7
121, 128, 137 7
114, 122, 129 7
109, 118, 127 7
122, 128, 135 7
117, 122, 131 7
104, 110, 117 7
62, 68, 75 7
72, 76, 81 7
66, 78, 82 7
65, 77, 81 7
108, 112, 117 7
67, 71, 72 7
79, 81, 81 7
107, 116, 120 7
65, 70, 69 7
81, 82, 80 7
66, 71, 69 7
156, 158, 159 7
117, 125, 132 6
114, 124, 131 6
104, 110, 115 6
81, 90, 94 6
72, 80, 79 6
80, 88, 87 6
97, 104, 107 6
73, 76, 81 6
79, 79, 79 6
65, 71, 70 6
72, 74, 74 6
78, 84, 83 6
87, 96, 100 6
86, 95, 99 6
61, 67, 74 6
109, 119, 126 6
58, 65, 74 6
106, 115, 124 6
121, 127, 134 6
68, 74, 79 6
64, 73, 77 6
73, 76, 84 6
69, 78, 81 6
64, 78, 84 6
113, 119, 126 6
105, 111, 118 6
101, 107, 114 6
66, 72, 79 6
74, 75, 85 6
63, 78, 81 6
70, 79, 76 6
76, 79, 83 6
105, 114, 118 6
74, 78, 79 6
69, 74, 75 6
66, 70, 71 6
106, 115, 118 6
103, 111, 111 6
72, 75, 73 6
110, 112, 120 6
115, 122, 125 6
111, 118, 121 5
106, 112, 117 5
100, 106, 113 5
80, 78, 77 5
77, 85, 84 5
101, 107, 112 5
97, 103, 108 5
92, 100, 107 5
63, 72, 75 5
73, 85, 87 5
67, 73, 78 5
61, 70, 73 5
67, 76, 80 5
80, 89, 93 5
89, 97, 104 5
114, 120, 131 5
60, 68, 75 5
124, 131, 140 5
126, 133, 142 5
87, 95, 102 5
78, 85, 94 5
123, 130, 139 5
61, 67, 72 5
94, 103, 107 5
59, 65, 72 5
60, 66, 71 5
76, 79, 87 5
124, 130, 137 5
105, 114, 123 5
118, 124, 131 5
114, 120, 127 5
105, 110, 113 5
69, 80, 84 5
74, 76, 84 5
67, 79, 83 5
116, 122, 129 5
102, 108, 115 5
94, 100, 107 5
74, 77, 85 5
59, 65, 70 5
75, 77, 85 5
104, 106, 116 5
63, 66, 74 5
74, 74, 86 5
63, 82, 89 5
75, 76, 80 5
113, 119, 124 5
73, 78, 77 5
112, 121, 125 5
103, 111, 110 5
70, 75, 73 5
88, 96, 96 5
67, 72, 70 5
73, 77, 72 5
73, 77, 71 5
111, 116, 119 5
108, 110, 118 5
130, 140, 147 4
95, 101, 108 4
66, 75, 79 4
64, 73, 76 4
60, 58, 57 4
90, 88, 88 4
58, 67, 70 4
91, 99, 106 4
82, 86, 87 4
77, 81, 86 4
80, 78, 78 4
80, 87, 90 4
98, 105, 108 4
72, 75, 80 4
70, 77, 80 4
81, 86, 85 4
65, 72, 69 4
93, 100, 103 4
69, 76, 79 4
77, 80, 85 4
71, 76, 79 4
73, 75, 75 4
72, 78, 77 4
79, 84, 83 4
77, 81, 82 4
79, 84, 85 4
62, 70, 77 4
70, 75, 76 4
61, 68, 77 4
61, 70, 74 4
111, 115, 126 4
110, 118, 125 4
96, 104, 111 4
84, 94, 101 4
82, 89, 98 4
108, 117, 126 4
57, 64, 73 4
107, 116, 125 4
90, 99, 103 4
83, 91, 98 4
118, 123, 132 4
116, 121, 130 4
119, 125, 132 4
113, 117, 128 4
79, 87, 94 4
68, 76, 83 4
112, 118, 125 4
99, 105, 110 4
67, 79, 85 4
65, 77, 83 4
66, 69, 77 4
99, 105, 112 4
57, 66, 70 4
65, 74, 78 4
96, 102, 109 4
60, 67, 70 4
97, 102, 111 4
72, 77, 80 4
75, 75, 87 4
95, 100, 109 4
67, 70, 78 4
77, 78, 82 4
65, 69, 74 4
66, 70, 75 4
76, 80, 81 4
109, 112, 120 4
63, 67, 68 4
65, 69, 70 4
108, 110, 120 4
66, 71, 70 4
74, 78, 73 4
80, 79, 81 4
81, 80, 82 4
82, 80, 79 4
74, 77, 75 4
106, 111, 114 4
68, 73, 72 4
71, 76, 74 4
73, 79, 74 4
114, 121, 124 4
112, 119, 122 4
101, 109, 109 4
97, 105, 105 4
69, 74, 72 4
66, 72, 67 4
111, 113, 121 4
100, 108, 108 4
156, 153, 155 4
160, 158, 158 4
158, 160, 160 4
128, 138, 145 3
114, 123, 132 3
105, 111, 116 3
65, 74, 77 3
2, 0, 1 3
5, 0, 1 3
7, 0, 0 3
6, 1, 0 3
79, 77, 77 3
86, 84, 84 3
84, 85, 89 3
69, 77, 76 3
95, 101, 106 3
70, 78, 77 3
3, 0, 2 3
9, 0, 0 3
73, 81, 80 3
94, 101, 104 3
84, 82, 82 3
78, 82, 87 3
2, 0, 0 3
8, 3, 0 3
0, 0, 1 3
46, 42, 41 3
80, 82, 82 3
60, 69, 72 3
70, 80, 80 3
124, 134, 141 3
68, 79, 77 3
98, 105, 114 3
94, 101, 110 3
90, 97, 106 3
95, 102, 111 3
91, 98, 107 3
93, 100, 109 3
63, 69, 74 3
127, 134, 143 3
122, 129, 138 3
112, 116, 127 3
59, 66, 75 3
60, 69, 73 3
108, 118, 125 3
63, 69, 80 3
105, 115, 122 3
74, 80, 87 3
64, 71, 80 3
82, 90, 97 3
74, 81, 90 3
92, 101, 105 3
91, 100, 104 3
60, 66, 73 3
120, 126, 133 3
103, 108, 117 3
84, 93, 97 3
128, 137, 141 3
117, 123, 128 3
106, 110, 115 3
100, 106, 111 3
57, 66, 69 3
62, 70, 70 3
63, 71, 71 3
63, 72, 76 3
64, 72, 79 3
63, 71, 78 3
61, 68, 71 3
74, 80, 79 3
69, 78, 87 3
66, 82, 89 3
67, 72, 75 3
63, 65, 75 3
73, 74, 84 3
63, 81, 88 3
102, 107, 116 3
68, 80, 86 3
62, 81, 88 3
109, 114, 115 3
69, 74, 77 3
71, 74, 79 3
72, 74, 82 3
78, 79, 83 3
109, 114, 117 3
108, 113, 116 3
66, 69, 73 3
64, 68, 73 3
76, 77, 81 3
66, 78, 78 3
107, 111, 116 3
61, 66, 67 3
75, 77, 78 3
58, 77, 82 3
111, 117, 122 3
88, 95, 98 3
68, 72, 73 3
72, 79, 76 3
70, 81, 79 3
80, 82, 83 3
117, 127, 134 3
114, 120, 125 3
110, 116, 121 3
62, 67, 66 3
63, 68, 67 3
65, 70, 68 3
77, 78, 76 3
72, 77, 75 3
80, 89, 86 3
104, 112, 112 3
92, 100, 100 3
90, 98, 98 3
61, 66, 65 3
72, 78, 73 3
82, 83, 81 3
77, 77, 77 3
75, 73, 72 3
81, 86, 84 3
105, 114, 117 3
104, 112, 111 3
93, 101, 101 3
89, 97, 97 3
65, 71, 66 3
75, 78, 76 3
124, 128, 129 3
135, 133, 133 3
69, 71, 71 3
137, 138, 136 3
152, 155, 153 3
154, 157, 155 3
153, 157, 158 3
155, 157, 158 3
156, 155, 157 3
157, 155, 155 3
159, 157, 157 3
109, 112, 117 3
84, 90, 85 3
102, 107, 108 3
124, 126, 126 3
161, 160, 162 3
163, 163, 163 3
157, 159, 160 3
162, 164, 164 3
162, 161, 165 3
164, 167, 165 3
160, 157, 159 3
88, 96, 103 2
83, 92, 96 2
74, 86, 88 2
78, 83, 86 2
41, 40, 44 2
8, 0, 0 2
10, 1, 0 2
12, 0, 0 2
11, 0, 0 2
59, 67, 67 2
64, 72, 71 2
68, 71, 75 2
10, 3, 0 2
77, 82, 85 2
67, 70, 74 2
61, 62, 66 2
79, 77, 76 2
83, 86, 90 2
80, 88, 88 2
5, 3, 2 2
81, 79, 79 2
89, 87, 87 2
83, 88, 91 2
10, 5, 2 2
7, 2, 0 2
84, 84, 84 2
80, 85, 86 2
65, 68, 73 2
41, 39, 38 2
46, 44, 43 2
82, 84, 84 2
80, 85, 84 2
112, 122, 129 2
70, 72, 72 2
116, 122, 133 2
115, 121, 132 2
97, 104, 113 2
96, 103, 112 2
78, 86, 93 2
61, 69, 76 2
70, 77, 86 2
111, 119, 126 2
110, 114, 125 2
81, 88, 97 2
79, 86, 95 2
125, 132, 141 2
71, 77, 88 2
58, 66, 73 2
73, 80, 89 2
57, 65, 72 2
128, 134, 141 2
125, 131, 138 2
80, 87, 96 2
88, 97, 101 2
127, 133, 140 2
126, 132, 139 2
118, 124, 129 2
111, 117, 124 2
104, 108, 113 2
103, 107, 112 2
98, 104, 109 2
73, 75, 76 2
98, 104, 111 2
72, 77, 78 2
66, 78, 84 2
63, 77, 83 2
115, 121, 126 2
73, 77, 82 2
70, 79, 88 2
64, 79, 82 2
64, 80, 87 2
65, 83, 90 2
62, 72, 79 2
65, 68, 76 2
99, 104, 113 2
76, 79, 84 2
68, 77, 86 2
60, 77, 80 2
62, 78, 85 2
61, 79, 86 2
66, 84, 91 2
65, 84, 91 2
108, 116, 116 2
105, 107, 117 2
100, 105, 114 2
70, 75, 78 2
61, 76, 79 2
57, 74, 77 2
55, 74, 81 2
56, 72, 79 2
57, 69, 75 2
98, 103, 112 2
67, 71, 76 2
72, 73, 83 2
70, 82, 84 2
66, 78, 80 2
60, 75, 77 2
57, 67, 74 2
59, 66, 69 2
64, 69, 72 2
68, 72, 77 2
71, 73, 81 2
77, 77, 83 2
77, 80, 84 2
63, 77, 76 2
56, 74, 75 2
55, 75, 80 2
60, 70, 77 2
109, 113, 118 2
91, 97, 102 2
68, 73, 76 2
71, 78, 75 2
62, 76, 75 2
112, 118, 123 2
96, 102, 107 2
82, 90, 90 2
66, 72, 71 2
72, 74, 75 2
74, 79, 78 2
73, 78, 76 2
73, 80, 77 2
72, 81, 78 2
79, 80, 84 2
123, 133, 140 2
107, 112, 115 2
105, 113, 113 2
63, 69, 68 2
59, 65, 64 2
64, 69, 68 2
73, 82, 79 2
79, 82, 80 2
78, 79, 77 2
80, 81, 79 2
81, 79, 78 2
81, 88, 85 2
85, 85, 85 2
111, 120, 124 2
113, 122, 126 2
88, 94, 93 2
85, 91, 90 2
82, 88, 87 2
80, 86, 85 2
60, 65, 64 2
78, 74, 73 2
76, 81, 79 2
91, 95, 96 2
104, 102, 102 2
103, 101, 101 2
113, 120, 123 2
109, 111, 119 2
108, 111, 116 2
95, 103, 103 2
94, 102, 102 2
74, 81, 78 2
75, 82, 79 2
76, 79, 77 2
77, 76, 78 2
77, 80, 78 2
91, 88, 90 2
101, 97, 96 2
100, 98, 97 2
99, 100, 96 2
128, 127, 129 2
134, 132, 132 2
136, 134, 134 2
107, 116, 119 2
91, 99, 99 2
86, 91, 90 2
67, 70, 68 2
68, 70, 70 2
68, 74, 73 2
75, 79, 74 2
77, 81, 76 2
84, 87, 85 2
82, 88, 83 2
128, 132, 133 2
129, 133, 134 2
136, 136, 136 2
152, 152, 152 2
155, 152, 154 2
155, 158, 156 2
157, 156, 158 2
158, 156, 156 2
113, 121, 121 2
95, 97, 98 2
94, 96, 97 2
102, 109, 106 2
150, 153, 151 2
159, 158, 160 2
167, 167, 167 2
152, 157, 158 2
156, 160, 161 2
161, 163, 163 2
164, 164, 164 2
166, 166, 166 2
165, 165, 165 2
160, 162, 162 2
161, 166, 164 2
131, 141, 148 1
115, 125, 132 1
64, 65, 69 1
24, 12, 8 1
38, 23, 20 1
54, 37, 34 1
58, 40, 39 1
33, 18, 16 1
16, 3, 1 1
14, 12, 11 1
85, 86, 90 1
72, 78, 85 1
70, 76, 83 1
58, 67, 71 1
60, 68, 68 1
62, 70, 69 1
62, 63, 67 1
40, 39, 43 1
5, 2, 4 1
13, 4, 1 1
12, 1, 0 1
19, 4, 1 1
33, 14, 11 1
55, 36, 33 1
59, 42, 39 1
52, 37, 34 1
23, 10, 8 1
18, 6, 4 1
14, 10, 9 1
56, 54, 53 1
90, 85, 86 1
85, 87, 88 1
79, 83, 88 1
67, 75, 74 1
129, 139, 146 1
9, 4, 3 1
17, 6, 2 1
19, 7, 3 1
24, 9, 6 1
23, 4, 1 1
21, 2, 0 1
38, 21, 18 1
70, 55, 52 1
55, 43, 39 1
45, 33, 31 1
27, 18, 15 1
12, 8, 7 1
53, 51, 50 1
87, 82, 83 1
88, 83, 84 1
83, 87, 88 1
80, 84, 89 1
82, 86, 91 1
81, 89, 88 1
76, 87, 91 1
69, 72, 76 1
65, 66, 70 1
48, 47, 51 1
12, 11, 13 1
12, 7, 6 1
36, 27, 24 1
61, 49, 47 1
80, 68, 64 1
81, 69, 65 1
29, 10, 7 1
18, 0, 0 1
19, 2, 0 1
41, 26, 23 1
50, 38, 34 1
73, 61, 59 1
53, 46, 43 1
11, 7, 6 1
48, 46, 45 1
75, 86, 90 1
70, 71, 75 1
53, 54, 58 1
21, 20, 24 1
3, 2, 4 1
26, 21, 20 1
68, 61, 58 1
89, 80, 77 1
91, 80, 76 1
84, 73, 69 1
42, 27, 24 1
18, 3, 0 1
14, 0, 0 1
14, 2, 0 1
23, 11, 9 1
37, 28, 25 1
35, 28, 25 1
6, 2, 1 1
45, 43, 42 1
78, 76, 75 1
85, 83, 83 1
81, 88, 91 1
73, 84, 88 1
58, 59, 63 1
31, 30, 34 1
7, 3, 2 1
18, 13, 12 1
19, 12, 9 1
24, 17, 14 1
34, 25, 22 1
16, 5, 1 1
15, 3, 1 1
5, 1, 0 1
47, 45, 44 1
100, 107, 110 1
37, 38, 42 1
8, 9, 13 1
0, 0, 0 1
4, 2, 1 1
12, 7, 4 1
15, 10, 9 1
8, 4, 3 1
10, 6, 5 1
7, 5, 4 1
17, 15, 14 1
55, 53, 52 1
86, 86, 86 1
47, 50, 54 1
32, 35, 39 1
30, 32, 33 1
35, 37, 38 1
36, 38, 38 1
42, 42, 42 1
43, 39, 38 1
38, 34, 33 1
38, 36, 35 1
40, 38, 37 1
43, 41, 40 1
39, 37, 36 1
50, 48, 47 1
66, 67, 65 1
70, 73, 78 1
59, 62, 66 1
52, 55, 59 1
56, 59, 63 1
58, 62, 63 1
54, 58, 59 1
60, 62, 62 1
58, 58, 58 1
61, 59, 58 1
56, 61, 59 1
55, 60, 58 1
54, 57, 55 1
61, 64, 62 1
55, 56, 54 1
66, 64, 63 1
67, 65, 64 1
70, 68, 67 1
71, 69, 69 1
74, 74, 74 1
69, 72, 77 1
65, 70, 71 1
69, 69, 69 1
68, 68, 68 1
65, 74, 71 1
72, 72, 72 1
71, 71, 71 1
77, 75, 75 1
73, 71, 71 1
76, 74, 74 1
75, 75, 75 1
83, 81, 81 1
134, 142, 149 1
92, 99, 108 1
86, 95, 98 1
77, 83, 82 1
77, 85, 92 1
89, 96, 105 1
80, 84, 85 1
88, 95, 104 1
87, 94, 103 1
77, 84, 93 1
69, 76, 85 1
60, 67, 76 1
71, 78, 87 1
82, 92, 99 1
70, 76, 87 1
61, 67, 78 1
59, 68, 72 1
83, 93, 100 1
72, 78, 89 1
121, 126, 135 1
119, 124, 133 1
65, 72, 81 1
66, 71, 80 1
119, 125, 130 1
75, 77, 87 1
76, 78, 88 1
66, 77, 81 1
104, 109, 112 1
76, 82, 81 1
72, 79, 88 1
66, 76, 83 1
63, 79, 85 1
65, 75, 82 1
64, 75, 79 1
130, 139, 143 1
76, 78, 86 1
77, 79, 87 1
71, 81, 88 1
65, 81, 88 1
64, 76, 82 1
63, 73, 80 1
64, 66, 76 1
60, 76, 82 1
61, 77, 84 1
67, 86, 93 1
62, 75, 83 1
61, 75, 81 1
62, 74, 80 1
61, 73, 79 1
61, 71, 78 1
107, 115, 115 1
106, 108, 118 1
69, 81, 83 1
68, 80, 84 1
69, 81, 87 1
67, 76, 85 1
63, 75, 79 1
59, 76, 79 1
58, 75, 78 1
55, 74, 77 1
56, 75, 78 1
54, 73, 80 1
57, 76, 83 1
59, 78, 85 1
61, 80, 87 1
60, 78, 85 1
58, 74, 81 1
57, 70, 78 1
58, 70, 76 1
56, 68, 74 1
110, 115, 116 1
101, 106, 115 1
64, 67, 75 1
71, 72, 82 1
73, 73, 85 1
67, 79, 81 1
65, 78, 80 1
62, 75, 77 1
58, 76, 77 1
56, 73, 76 1
53, 72, 75 1
54, 73, 76 1
52, 71, 78 1
53, 72, 79 1
55, 77, 83 1
58, 80, 86 1
60, 82, 88 1
60, 79, 86 1
58, 76, 83 1
56, 69, 77 1
55, 69, 75 1
61, 65, 70 1
91, 97, 104 1
88, 94, 101 1
87, 93, 100 1
63, 68, 71 1
76, 76, 82 1
69, 79, 79 1
78, 78, 84 1
68, 78, 78 1
64, 76, 76 1
63, 76, 78 1
61, 76, 78 1
59, 74, 76 1
57, 75, 76 1
56, 76, 81 1
58, 77, 84 1
60, 76, 83 1
59, 73, 79 1
59, 71, 77 1
107, 110, 118 1
94, 100, 105 1
88, 94, 99 1
87, 93, 98 1
84, 93, 96 1
83, 92, 95 1
80, 89, 92 1
78, 87, 90 1
62, 67, 68 1
67, 72, 73 1
73, 79, 78 1
79, 81, 82 1
60, 76, 75 1
60, 79, 84 1
64, 83, 88 1
67, 83, 89 1
66, 82, 88 1
67, 81, 87 1
63, 75, 81 1
71, 75, 80 1
120, 129, 138 1
118, 127, 136 1
93, 99, 104 1
92, 98, 103 1
84, 94, 94 1
84, 92, 92 1
58, 63, 64 1
59, 64, 65 1
67, 73, 72 1
68, 77, 74 1
75, 77, 77 1
81, 83, 84 1
70, 77, 74 1
72, 83, 81 1
71, 82, 80 1
67, 80, 78 1
66, 79, 77 1
65, 80, 83 1
67, 82, 85 1
70, 82, 86 1
69, 81, 85 1
92, 99, 102 1
90, 97, 100 1
87, 94, 97 1
85, 93, 92 1
82, 90, 89 1
66, 73, 70 1
67, 74, 71 1
71, 77, 72 1
70, 77, 72 1
69, 76, 71 1
69, 76, 73 1
71, 80, 77 1
78, 77, 79 1
79, 78, 80 1
84, 80, 79 1
76, 83, 80 1
83, 82, 84 1
87, 87, 87 1
110, 111, 121 1
102, 110, 109 1
87, 95, 95 1
81, 87, 86 1
60, 66, 65 1
68, 74, 69 1
71, 78, 73 1
72, 79, 74 1
80, 83, 81 1
82, 80, 80 1
83, 80, 82 1
82, 79, 81 1
81, 78, 80 1
79, 75, 74 1
72, 73, 69 1
71, 72, 68 1
69, 73, 68 1
71, 75, 70 1
84, 89, 87 1
86, 91, 89 1
88, 93, 91 1
83, 91, 91 1
85, 93, 93 1
92, 97, 98 1
91, 96, 97 1
92, 94, 95 1
91, 93, 94 1
95, 94, 96 1
97, 96, 98 1
102, 99, 101 1
106, 104, 104 1
101, 99, 99 1
107, 105, 105 1
116, 125, 129 1
99, 107, 107 1
58, 63, 62 1
68, 73, 71 1
72, 76, 71 1
70, 76, 71 1
73, 80, 75 1
76, 76, 76 1
81, 83, 83 1
83, 81, 80 1
84, 82, 81 1
85, 83, 82 1
86, 84, 83 1
87, 85, 84 1
88, 86, 85 1
87, 85, 85 1
90, 87, 89 1
95, 90, 92 1
102, 98, 97 1
101, 99, 98 1
100, 104, 99 1
102, 106, 101 1
104, 107, 105 1
108, 111, 109 1
111, 114, 112 1
114, 117, 115 1
116, 119, 117 1
118, 121, 119 1
116, 121, 122 1
117, 122, 123 1
120, 124, 125 1
122, 126, 127 1
125, 127, 128 1
127, 129, 130 1
129, 128, 130 1
132, 130, 130 1
139, 137, 137 1
122, 131, 135 1
117, 126, 130 1
110, 119, 123 1
112, 121, 124 1
108, 117, 120 1
98, 106, 106 1
87, 92, 91 1
83, 88, 87 1
65, 68, 66 1
66, 69, 67 1
68, 71, 69 1
63, 68, 66 1
64, 70, 65 1
76, 80, 75 1
80, 85, 83 1
85, 88, 86 1
83, 87, 82 1
84, 88, 83 1
82, 87, 85 1
82, 89, 86 1
84, 91, 88 1
91, 92, 90 1
92, 93, 91 1
92, 92, 92 1
94, 94, 94 1
96, 95, 97 1
99, 98, 100 1
101, 100, 102 1
101, 101, 101 1
103, 103, 103 1
104, 105, 103 1
106, 107, 105 1
106, 109, 107 1
110, 112, 112 1
112, 114, 114 1
111, 113, 114 1
110, 112, 113 1
108, 113, 114 1
106, 111, 112 1
107, 112, 113 1
112, 117, 118 1
118, 123, 124 1
125, 129, 130 1
135, 137, 137 1
133, 135, 135 1
131, 133, 133 1
132, 132, 132 1
134, 134, 134 1
135, 136, 134 1
138, 139, 137 1
139, 140, 138 1
141, 141, 141 1
143, 143, 143 1
144, 144, 144 1
149, 149, 149 1
153, 152, 154 1
153, 149, 148 1
153, 151, 150 1
154, 152, 151 1
155, 153, 152 1
153, 154, 152 1
154, 155, 153 1
155, 156, 154 1
151, 154, 152 1
155, 154, 156 1
127, 136, 140 1
114, 123, 127 1
104, 113, 117 1
111, 120, 123 1
114, 122, 122 1
112, 120, 120 1
111, 119, 119 1
110, 118, 118 1
109, 117, 117 1
106, 108, 116 1
107, 110, 115 1
91, 96, 95 1
89, 94, 93 1
82, 87, 86 1
60, 64, 65 1
61, 65, 66 1
69, 73, 74 1
71, 73, 73 1
78, 83, 81 1
80, 86, 81 1
81, 87, 82 1
88, 92, 93 1
90, 94, 95 1
92, 96, 97 1
97, 99, 100 1
98, 100, 101 1
100, 102, 103 1
100, 104, 105 1
102, 106, 107 1
103, 107, 108 1
103, 110, 107 1
104, 111, 108 1
104, 109, 108 1
105, 110, 109 1
108, 113, 112 1
113, 115, 115 1
123, 126, 124 1
124, 127, 125 1
126, 129, 127 1
127, 130, 128 1
128, 131, 129 1
132, 137, 136 1
137, 142, 141 1
145, 147, 147 1
149, 152, 150 1
148, 151, 149 1
146, 149, 147 1
144, 147, 145 1
140, 145, 143 1
139, 144, 142 1
139, 144, 143 1
142, 147, 146 1
143, 149, 148 1
151, 151, 151 1
153, 153, 153 1
163, 162, 164 1
164, 163, 165 1
156, 156, 156 1
150, 152, 152 1
152, 154, 154 1
150, 155, 156 1
148, 153, 154 1
149, 154, 155 1
155, 159, 160 1
161, 161, 161 1
160, 160, 160 1
159, 161, 161 1
162, 164, 165 1
176, 178, 179 1
174, 173, 175 1
168, 167, 169 1
162, 161, 163 1
164, 166, 166 1
163, 166, 164 1
163, 165, 165 1
158, 160, 161 1
159, 161, 162 1
158, 157, 159 1
157, 157, 157 1
159, 156, 158 1
160, 159, 161 1
