76, 84, 84 123
73, 81, 81 119
78, 85, 88 117
71, 80, 84 113
73, 80, 83 106
76, 86, 86 105
76, 83, 86 96
78, 86, 86 92
70, 79, 83 83
108, 117, 121 80
75, 85, 85 79
109, 118, 122 76
72, 81, 85 66
111, 120, 124 62
113, 123, 130 61
105, 114, 118 60
77, 86, 89 59
75, 83, 83 58
79, 87, 87 57
113, 122, 126 56
112, 121, 125 55
74, 81, 84 54
71, 79, 86 54
77, 87, 87 53
77, 86, 90 53
107, 116, 120 51
77, 83, 88 50
110, 120, 127 49
68, 77, 80 49
80, 88, 88 48
75, 82, 85 47
78, 87, 91 46
73, 83, 83 46
78, 87, 90 46
70, 78, 85 45
79, 86, 89 45
74, 82, 82 45
73, 84, 82 45
106, 115, 119 44
69, 80, 84 44
68, 79, 83 44
73, 81, 88 43
120, 128, 135 42
77, 88, 86 42
104, 113, 117 42
80, 89, 92 40
110, 119, 123 40
69, 78, 82 39
106, 114, 121 39
79, 87, 94 38
72, 80, 87 37
77, 85, 85 37
67, 78, 82 37
72, 83, 81 37
77, 85, 92 36
72, 82, 82 36
111, 121, 128 35
77, 84, 87 35
114, 122, 129 34
76, 82, 87 34
78, 81, 86 34
108, 113, 122 34
81, 89, 89 33
76, 85, 89 33
73, 82, 86 33
71, 79, 79 33
119, 127, 134 32
78, 88, 88 32
71, 78, 81 32
78, 84, 89 32
70, 75, 74 32
71, 76, 75 32
62, 71, 75 31
122, 130, 137 30
109, 119, 126 30
100, 108, 115 30
71, 81, 81 30
75, 80, 81 30
78, 86, 93 29
98, 106, 113 29
70, 79, 82 29
69, 74, 73 29
107, 115, 115 29
127, 135, 142 28
65, 74, 78 28
79, 88, 92 28
113, 121, 128 28
72, 79, 82 28
126, 134, 141 27
112, 122, 129 27
73, 82, 85 27
99, 107, 114 27
76, 84, 91 27
105, 114, 117 26
102, 111, 115 25
71, 80, 83 25
75, 81, 86 25
70, 80, 80 25
125, 133, 140 24
118, 126, 133 24
78, 89, 87 24
79, 89, 89 24
74, 84, 84 24
116, 124, 131 24
114, 123, 127 24
75, 78, 83 24
101, 110, 114 23
75, 83, 82 23
80, 87, 90 23
112, 120, 127 23
97, 105, 112 23
108, 116, 123 23
107, 115, 122 23
69, 77, 84 22
100, 109, 113 22
102, 110, 117 22
66, 77, 81 22
72, 80, 79 22
115, 123, 130 21
103, 112, 116 21
64, 73, 77 21
79, 88, 91 21
75, 80, 83 21
128, 138, 145 20
123, 131, 138 20
71, 82, 80 20
68, 76, 83 20
105, 115, 115 20
121, 129, 136 19
80, 90, 90 19
82, 90, 89 19
111, 123, 129 19
95, 103, 110 19
65, 73, 80 19
77, 81, 86 19
130, 138, 145 19
105, 113, 120 19
66, 72, 77 19
61, 70, 74 19
70, 81, 79 19
92, 100, 107 18
70, 80, 87 18
129, 137, 144 18
107, 112, 121 18
106, 117, 121 17
107, 116, 119 17
106, 115, 118 17
68, 73, 72 17
85, 93, 100 17
71, 76, 77 17
74, 80, 85 17
78, 83, 86 17
67, 74, 77 17
76, 81, 82 17
110, 116, 123 17
70, 75, 78 17
114, 124, 131 16
71, 77, 82 16
80, 88, 87 16
68, 75, 78 16
115, 124, 128 16
111, 119, 126 16
65, 71, 76 16
69, 78, 81 16
72, 80, 80 16
108, 114, 121 16
128, 136, 143 15
107, 117, 124 15
66, 75, 79 15
69, 79, 86 15
75, 84, 88 15
94, 103, 107 15
76, 81, 84 15
69, 76, 79 15
119, 128, 132 15
67, 79, 83 15
66, 79, 81 15
69, 79, 79 15
102, 112, 112 15
131, 141, 148 14
124, 132, 139 14
112, 123, 127 14
74, 82, 89 14
93, 101, 108 14
65, 74, 77 14
66, 76, 76 14
117, 125, 132 14
106, 116, 123 14
63, 72, 76 14
77, 82, 85 14
101, 109, 116 14
73, 78, 79 14
73, 81, 80 14
74, 80, 79 14
73, 79, 78 14
73, 76, 80 14
71, 79, 78 14
96, 104, 111 13
73, 79, 84 13
75, 83, 90 13
81, 87, 92 13
95, 104, 108 13
88, 96, 103 13
93, 102, 106 13
110, 118, 125 13
77, 82, 83 13
92, 101, 105 13
129, 136, 145 13
128, 135, 144 13
68, 71, 76 13
73, 76, 81 13
74, 76, 84 13
94, 102, 109 12
126, 136, 143 12
81, 89, 88 12
76, 85, 88 12
74, 83, 86 12
69, 73, 74 12
71, 76, 79 12
70, 78, 78 12
66, 78, 80 12
102, 111, 114 12
71, 84, 82 12
70, 75, 76 12
72, 77, 76 12
71, 76, 74 12
103, 111, 110 12
99, 108, 112 11
78, 80, 80 11
61, 70, 73 11
62, 71, 74 11
72, 78, 83 11
108, 118, 125 11
104, 113, 116 11
79, 85, 90 11
70, 77, 80 11
76, 80, 85 11
75, 79, 84 11
117, 126, 130 11
66, 73, 76 11
68, 78, 78 11
66, 78, 82 11
74, 79, 82 11
81, 91, 98 11
104, 114, 114 11
68, 82, 81 11
70, 82, 82 11
71, 78, 75 11
70, 77, 74 11
71, 77, 72 11
127, 137, 144 10
64, 72, 79 10
111, 122, 126 10
68, 77, 81 10
66, 74, 81 10
80, 80, 86 10
74, 78, 83 10
67, 81, 80 10
70, 74, 75 10
109, 114, 123 10
108, 116, 116 10
130, 140, 147 9
5, 0, 0 9
80, 89, 93 9
81, 89, 96 9
63, 72, 75 9
91, 99, 106 9
74, 79, 80 9
70, 81, 85 9
75, 80, 78 9
77, 83, 82 9
116, 125, 129 9
68, 80, 84 9
127, 134, 143 9
91, 100, 104 9
75, 78, 82 9
100, 109, 112 9
74, 77, 82 9
75, 77, 85 9
79, 81, 81 9
80, 91, 89 8
66, 75, 78 8
75, 87, 87 8
98, 107, 111 8
105, 116, 120 8
72, 81, 84 8
132, 139, 148 8
109, 117, 124 8
118, 127, 131 8
133, 140, 149 8
80, 85, 88 8
59, 67, 74 8
84, 94, 101 8
79, 83, 88 8
77, 80, 85 8
72, 77, 78 8
71, 77, 76 8
71, 73, 74 8
75, 81, 76 8
87, 96, 99 8
70, 75, 73 8
104, 112, 111 8
100, 111, 109 8
79, 90, 87 7
96, 105, 109 7
79, 90, 88 7
73, 77, 78 7
67, 73, 78 7
110, 122, 128 7
110, 121, 125 7
75, 84, 87 7
70, 73, 77 7
78, 82, 87 7
78, 84, 83 7
78, 81, 79 7
120, 129, 133 7
104, 112, 119 7
78, 83, 84 7
69, 77, 77 7
67, 76, 79 7
90, 99, 103 7
130, 139, 148 7
125, 134, 143 7
80, 84, 89 7
69, 76, 85 7
83, 93, 100 7
67, 79, 81 7
132, 141, 144 7
106, 116, 116 7
132, 141, 145 7
65, 73, 73 7
71, 74, 78 7
69, 74, 75 7
75, 76, 86 7
70, 76, 75 7
70, 78, 77 7
72, 79, 76 7
70, 72, 72 7
71, 78, 71 7
73, 77, 72 7
109, 111, 121 7
106, 114, 113 7
108, 117, 120 6
87, 95, 102 6
74, 83, 87 6
78, 89, 86 6
129, 139, 146 6
78, 80, 81 6
74, 82, 81 6
80, 88, 95 6
69, 71, 71 6
80, 82, 82 6
77, 80, 78 6
130, 137, 146 6
79, 85, 84 6
76, 84, 83 6
64, 70, 75 6
58, 66, 73 6
68, 75, 84 6
87, 96, 100 6
82, 92, 99 6
99, 106, 115 6
78, 88, 95 6
56, 67, 71 6
70, 83, 81 6
109, 115, 122 6
71, 75, 76 6
113, 125, 131 6
77, 77, 83 6
69, 70, 74 6
72, 74, 75 6
74, 81, 78 6
105, 112, 121 6
71, 73, 73 6
72, 77, 75 6
69, 71, 72 6
114, 120, 127 6
107, 115, 114 6
105, 113, 112 6
73, 77, 71 6
86, 91, 90 6
107, 118, 122 5
2, 0, 0 5
80, 91, 88 5
67, 76, 80 5
68, 78, 85 5
80, 86, 91 5
75, 79, 80 5
73, 78, 81 5
86, 94, 101 5
103, 111, 118 5
67, 77, 77 5
129, 138, 147 5
88, 97, 101 5
79, 89, 96 5
100, 107, 116 5
131, 140, 144 5
130, 139, 143 5
111, 114, 122 5
101, 111, 111 5
90, 100, 100 5
69, 72, 77 5
69, 74, 77 5
74, 77, 81 5
68, 80, 80 5
77, 80, 84 5
66, 82, 81 5
103, 112, 115 5
89, 98, 101 5
101, 110, 113 5
76, 79, 84 5
105, 117, 123 5
70, 71, 75 5
72, 78, 77 5
77, 78, 82 5
75, 81, 80 5
70, 72, 73 5
73, 78, 77 5
66, 72, 71 5
112, 118, 123 5
111, 117, 122 5
110, 116, 121 5
109, 115, 120 5
99, 110, 108 5
68, 70, 71 5
74, 77, 75 5
114, 120, 125 5
80, 83, 81 5
63, 68, 67 5
155, 158, 156 5
132, 142, 149 4
72, 76, 77 4
0, 0, 0 4
9, 0, 0 4
81, 88, 91 4
65, 76, 74 4
68, 73, 74 4
77, 79, 79 4
78, 82, 77 4
121, 130, 134 4
70, 82, 84 4
80, 85, 86 4
65, 75, 75 4
67, 75, 82 4
67, 80, 82 4
101, 108, 117 4
75, 85, 92 4
128, 137, 140 4
74, 78, 79 4
69, 81, 81 4
66, 78, 78 4
82, 91, 100 4
71, 83, 83 4
59, 68, 72 4
68, 80, 82 4
62, 77, 79 4
99, 108, 111 4
77, 79, 80 4
76, 82, 77 4
74, 80, 75 4
106, 114, 114 4
105, 113, 113 4
99, 109, 109 4
76, 78, 78 4
73, 80, 77 4
102, 110, 109 4
113, 119, 124 4
108, 116, 115 4
101, 112, 110 4
97, 108, 106 4
89, 99, 99 4
72, 78, 73 4
71, 78, 73 4
106, 105, 101 4
107, 113, 120 4
98, 109, 107 4
73, 75, 76 4
159, 160, 158 4
156, 158, 158 4
160, 161, 159 4
116, 126, 133 3
113, 124, 128 3
97, 106, 110 3
75, 88, 86 3
77, 85, 84 3
8, 0, 0 3
6, 1, 0 3
77, 88, 85 3
4, 0, 0 3
13, 1, 0 3
82, 86, 87 3
64, 74, 74 3
82, 90, 90 3
89, 97, 104 3
71, 81, 88 3
86, 83, 85 3
7, 1, 0 3
74, 79, 77 3
75, 78, 76 3
79, 83, 84 3
109, 121, 127 3
76, 82, 81 3
82, 83, 81 3
122, 131, 135 3
90, 98, 105 3
131, 139, 146 3
80, 86, 85 3
78, 86, 85 3
127, 136, 145 3
65, 72, 75 3
85, 95, 102 3
60, 68, 75 3
65, 78, 80 3
78, 81, 89 3
76, 82, 89 3
75, 81, 88 3
127, 136, 139 3
112, 115, 123 3
100, 110, 110 3
92, 101, 104 3
56, 68, 70 3
59, 68, 71 3
103, 113, 113 3
86, 95, 98 3
65, 83, 84 3
57, 68, 72 3
65, 85, 86 3
65, 79, 78 3
84, 93, 97 3
76, 86, 93 3
58, 67, 71 3
72, 77, 80 3
64, 79, 82 3
63, 84, 85 3
112, 124, 130 3
106, 118, 124 3
57, 70, 72 3
63, 69, 68 3
58, 67, 70 3
69, 80, 78 3
75, 82, 79 3
75, 77, 78 3
77, 84, 81 3
78, 85, 82 3
67, 75, 75 3
73, 79, 74 3
94, 103, 106 3
85, 94, 97 3
69, 76, 73 3
75, 77, 77 3
74, 79, 78 3
67, 84, 81 3
65, 73, 72 3
113, 119, 126 3
106, 111, 120 3
93, 103, 103 3
65, 71, 70 3
62, 68, 67 3
74, 78, 73 3
73, 76, 74 3
76, 80, 74 3
79, 83, 77 3
81, 83, 77 3
83, 80, 76 3
83, 81, 80 3
75, 79, 74 3
87, 88, 84 3
92, 102, 102 3
60, 66, 65 3
67, 73, 72 3
72, 79, 72 3
72, 76, 70 3
96, 103, 100 3
112, 116, 121 3
96, 107, 105 3
95, 106, 104 3
91, 101, 101 3
115, 121, 126 3
111, 113, 123 3
110, 112, 122 3
67, 72, 71 3
81, 86, 84 3
85, 90, 89 3
128, 130, 130 3
127, 130, 128 3
154, 158, 153 3
154, 159, 157 3
154, 157, 155 3
163, 168, 166 3
115, 125, 132 2
70, 76, 81 2
65, 67, 68 2
41, 41, 41 2
11, 0, 0 2
17, 2, 0 2
12, 0, 0 2
11, 2, 0 2
5, 1, 0 2
82, 87, 88 2
82, 88, 93 2
81, 92, 89 2
79, 86, 95 2
76, 82, 93 2
61, 71, 71 2
62, 73, 71 2
74, 87, 85 2
76, 87, 85 2
8, 1, 0 2
67, 78, 76 2
65, 70, 69 2
2, 2, 2 2
84, 86, 87 2
75, 86, 84 2
7, 0, 0 2
12, 8, 7 2
81, 79, 79 2
79, 87, 86 2
33, 24, 20 2
49, 44, 45 2
69, 75, 80 2
77, 89, 89 2
74, 86, 86 2
3, 1, 0 2
68, 74, 79 2
8, 5, 0 2
10, 6, 5 2
87, 84, 86 2
38, 37, 33 2
44, 43, 39 2
46, 44, 43 2
85, 84, 86 2
60, 61, 57 2
81, 83, 84 2
125, 135, 142 2
91, 98, 107 2
69, 70, 66 2
70, 71, 69 2
72, 74, 74 2
77, 81, 76 2
79, 80, 78 2
78, 79, 77 2
82, 84, 84 2
78, 83, 82 2
80, 84, 85 2
127, 136, 140 2
63, 69, 74 2
71, 83, 85 2
131, 138, 147 2
132, 140, 147 2
131, 140, 149 2
60, 69, 73 2
128, 137, 146 2
84, 92, 99 2
77, 80, 88 2
98, 105, 114 2
97, 104, 113 2
86, 95, 99 2
130, 139, 142 2
125, 134, 138 2
123, 132, 136 2
110, 113, 121 2
106, 117, 115 2
70, 73, 78 2
67, 79, 79 2
67, 83, 82 2
126, 135, 138 2
91, 100, 103 2
66, 81, 84 2
65, 80, 82 2
66, 80, 79 2
123, 134, 138 2
114, 125, 129 2
109, 120, 124 2
108, 119, 123 2
88, 97, 100 2
84, 93, 96 2
68, 79, 77 2
76, 78, 86 2
64, 82, 81 2
66, 84, 85 2
64, 72, 72 2
69, 72, 76 2
60, 81, 82 2
61, 82, 83 2
62, 82, 83 2
60, 73, 75 2
63, 73, 73 2
126, 135, 139 2
122, 134, 140 2
108, 120, 126 2
107, 119, 125 2
95, 102, 111 2
69, 69, 75 2
72, 75, 79 2
73, 75, 83 2
62, 77, 80 2
60, 77, 80 2
58, 75, 78 2
52, 76, 76 2
61, 85, 85 2
61, 84, 86 2
58, 71, 73 2
61, 72, 70 2
64, 72, 71 2
63, 71, 70 2
71, 74, 79 2
49, 75, 75 2
60, 84, 84 2
62, 71, 68 2
105, 115, 122 2
68, 69, 73 2
68, 72, 73 2
75, 76, 80 2
60, 75, 77 2
59, 74, 76 2
53, 77, 75 2
64, 73, 70 2
67, 74, 71 2
120, 130, 137 2
66, 74, 74 2
73, 75, 75 2
67, 80, 78 2
62, 76, 75 2
58, 79, 77 2
102, 110, 110 2
93, 102, 105 2
90, 99, 102 2
68, 76, 76 2
76, 78, 79 2
77, 83, 78 2
84, 85, 83 2
80, 81, 79 2
71, 80, 77 2
72, 86, 84 2
80, 84, 79 2
81, 85, 80 2
96, 106, 106 2
61, 69, 68 2
73, 78, 76 2
78, 82, 76 2
80, 79, 75 2
76, 79, 77 2
86, 84, 83 2
86, 87, 83 2
108, 114, 119 2
88, 98, 98 2
85, 93, 93 2
57, 65, 64 2
64, 70, 69 2
82, 82, 76 2
81, 78, 73 2
79, 75, 74 2
76, 75, 71 2
71, 75, 70 2
82, 88, 83 2
95, 96, 94 2
108, 104, 103 2
111, 115, 120 2
94, 105, 103 2
83, 91, 91 2
57, 63, 62 2
92, 87, 84 2
96, 89, 86 2
101, 97, 96 2
102, 101, 97 2
101, 102, 98 2
125, 130, 128 2
128, 131, 129 2
130, 131, 129 2
139, 138, 134 2
138, 137, 133 2
109, 117, 117 2
93, 104, 102 2
83, 88, 89 2
62, 67, 66 2
68, 70, 70 2
67, 69, 69 2
66, 71, 70 2
83, 88, 86 2
82, 87, 85 2
85, 90, 88 2
127, 131, 132 2
132, 135, 133 2
144, 146, 140 2
156, 153, 149 2
155, 151, 150 2
155, 159, 154 2
152, 157, 155 2
157, 158, 156 2
159, 157, 156 2
160, 158, 157 2
161, 159, 158 2
162, 160, 159 2
164, 160, 159 2
90, 95, 94 2
98, 103, 102 2
102, 109, 106 2
129, 131, 132 2
146, 151, 149 2
138, 143, 141 2
154, 158, 159 2
159, 165, 164 2
151, 159, 159 2
157, 160, 158 2
159, 163, 157 2
167, 165, 164 2
166, 169, 167 2
160, 163, 161 2
158, 163, 161 2
78, 91, 89 1
5, 0, 1 1
24, 12, 8 1
38, 23, 20 1
53, 37, 31 1
59, 42, 39 1
34, 17, 14 1
15, 2, 0 1
14, 12, 12 1
58, 58, 58 1
76, 80, 81 1
81, 85, 86 1
80, 92, 86 1
81, 93, 87 1
70, 76, 87 1
71, 77, 88 1
72, 78, 91 1
64, 70, 83 1
57, 67, 67 1
58, 69, 67 1
64, 75, 72 1
65, 76, 73 1
68, 79, 76 1
74, 85, 82 1
77, 90, 88 1
62, 64, 64 1
4, 2, 2 1
15, 6, 3 1
33, 14, 9 1
52, 33, 28 1
56, 40, 34 1
57, 40, 37 1
26, 11, 8 1
12, 3, 0 1
12, 10, 10 1
55, 55, 55 1
83, 87, 88 1
77, 84, 93 1
75, 81, 92 1
69, 75, 86 1
67, 78, 75 1
71, 82, 79 1
76, 87, 84 1
76, 89, 87 1
59, 61, 61 1
40, 40, 40 1
16, 5, 1 1
25, 13, 9 1
24, 9, 6 1
19, 3, 0 1
21, 5, 0 1
36, 20, 14 1
65, 51, 45 1
55, 40, 37 1
51, 39, 35 1
35, 23, 21 1
13, 9, 8 1
56, 54, 54 1
82, 82, 82 1
79, 81, 82 1
78, 85, 94 1
74, 81, 90 1
64, 68, 69 1
48, 50, 50 1
14, 14, 14 1
6, 2, 1 1
43, 34, 31 1
66, 55, 51 1
83, 71, 67 1
82, 70, 66 1
28, 14, 8 1
14, 0, 0 1
16, 4, 0 1
38, 26, 20 1
50, 38, 34 1
75, 64, 60 1
58, 49, 46 1
50, 48, 48 1
80, 79, 81 1
84, 83, 85 1
86, 85, 87 1
76, 88, 88 1
54, 56, 57 1
21, 21, 21 1
20, 15, 12 1
71, 64, 61 1
91, 82, 78 1
95, 84, 80 1
89, 78, 74 1
36, 26, 19 1
14, 4, 0 1
11, 1, 0 1
18, 9, 5 1
35, 26, 23 1
10, 3, 0 1
10, 2, 2 1
9, 4, 5 1
80, 78, 78 1
82, 79, 81 1
87, 86, 88 1
60, 62, 63 1
29, 31, 32 1
18, 13, 10 1
17, 10, 7 1
25, 16, 12 1
14, 8, 1 1
9, 3, 0 1
8, 2, 0 1
9, 4, 1 1
8, 3, 4 1
83, 80, 82 1
85, 82, 84 1
81, 90, 93 1
61, 65, 66 1
38, 40, 41 1
10, 12, 13 1
0, 1, 1 1
1, 1, 1 1
4, 3, 0 1
4, 1, 0 1
7, 3, 0 1
6, 3, 0 1
5, 2, 0 1
8, 5, 1 1
10, 7, 3 1
13, 10, 6 1
21, 16, 17 1
55, 53, 53 1
83, 81, 81 1
75, 87, 89 1
76, 79, 83 1
64, 67, 71 1
48, 52, 53 1
34, 38, 39 1
26, 31, 30 1
31, 33, 33 1
35, 38, 36 1
38, 39, 37 1
40, 39, 35 1
44, 41, 37 1
40, 37, 33 1
42, 41, 37 1
43, 42, 38 1
44, 42, 41 1
46, 44, 44 1
51, 49, 49 1
68, 66, 66 1
80, 80, 80 1
82, 81, 83 1
73, 85, 87 1
61, 64, 68 1
53, 57, 58 1
55, 59, 60 1
54, 59, 58 1
53, 58, 56 1
57, 60, 58 1
58, 59, 55 1
59, 58, 54 1
61, 60, 56 1
57, 58, 54 1
62, 63, 59 1
57, 58, 56 1
62, 63, 61 1
61, 62, 60 1
63, 64, 62 1
67, 67, 67 1
70, 70, 70 1
71, 71, 71 1
76, 76, 76 1
80, 86, 93 1
68, 74, 73 1
70, 71, 67 1
67, 68, 64 1
73, 74, 72 1
71, 72, 70 1
69, 70, 68 1
76, 77, 75 1
74, 76, 76 1
73, 79, 86 1
79, 84, 87 1
75, 76, 74 1
79, 82, 80 1
124, 133, 137 1
79, 84, 85 1
66, 77, 75 1
89, 98, 102 1
126, 135, 144 1
124, 133, 142 1
65, 77, 79 1
87, 97, 97 1
75, 86, 90 1
68, 84, 83 1
68, 83, 85 1
133, 142, 145 1
131, 140, 143 1
129, 138, 141 1
125, 134, 137 1
121, 132, 136 1
117, 128, 132 1
83, 92, 101 1
65, 80, 83 1
66, 80, 86 1
65, 79, 85 1
66, 86, 87 1
67, 87, 88 1
64, 82, 83 1
65, 77, 77 1
63, 75, 75 1
64, 73, 76 1
133, 142, 146 1
120, 131, 135 1
116, 127, 131 1
81, 90, 99 1
69, 81, 83 1
69, 81, 87 1
69, 81, 85 1
62, 79, 82 1
61, 78, 81 1
60, 76, 82 1
60, 80, 81 1
59, 80, 81 1
64, 85, 86 1
65, 86, 87 1
66, 87, 88 1
67, 88, 89 1
63, 81, 82 1
63, 78, 80 1
62, 75, 77 1
62, 72, 72 1
128, 137, 141 1
119, 131, 137 1
115, 127, 133 1
55, 66, 70 1
67, 70, 74 1
68, 71, 75 1
77, 76, 85 1
63, 78, 81 1
55, 74, 77 1
53, 77, 77 1
55, 79, 79 1
57, 81, 81 1
58, 84, 84 1
58, 78, 79 1
59, 77, 78 1
57, 75, 76 1
57, 72, 74 1
129, 138, 142 1
118, 130, 136 1
114, 126, 132 1
56, 65, 69 1
71, 72, 76 1
72, 75, 80 1
60, 78, 79 1
57, 74, 77 1
56, 73, 76 1
50, 76, 76 1
52, 78, 78 1
55, 81, 81 1
57, 83, 83 1
58, 79, 80 1
56, 76, 77 1
56, 74, 75 1
56, 71, 73 1
59, 70, 67 1
61, 70, 67 1
120, 132, 138 1
117, 129, 135 1
106, 113, 122 1
81, 92, 96 1
78, 89, 93 1
55, 64, 67 1
60, 69, 72 1
64, 71, 74 1
69, 75, 74 1
75, 75, 81 1
78, 79, 83 1
74, 83, 80 1
74, 85, 83 1
54, 78, 76 1
56, 80, 80 1
59, 83, 83 1
62, 80, 81 1
61, 76, 78 1
61, 73, 73 1
62, 74, 74 1
66, 73, 70 1
117, 127, 134 1
85, 94, 98 1
83, 92, 96 1
54, 63, 66 1
59, 69, 69 1
60, 70, 70 1
77, 82, 80 1
76, 83, 80 1
79, 86, 83 1
63, 77, 76 1
59, 80, 78 1
61, 82, 80 1
63, 84, 82 1
65, 86, 84 1
67, 85, 84 1
66, 84, 83 1
119, 129, 136 1
98, 107, 110 1
97, 106, 109 1
95, 104, 107 1
82, 91, 94 1
57, 65, 65 1
61, 69, 69 1
62, 70, 70 1
72, 75, 73 1
78, 84, 79 1
83, 87, 82 1
83, 86, 84 1
83, 84, 82 1
76, 81, 79 1
70, 79, 76 1
66, 83, 80 1
74, 88, 86 1
69, 82, 80 1
79, 83, 78 1
98, 108, 108 1
95, 105, 105 1
84, 94, 94 1
83, 93, 93 1
58, 66, 65 1
62, 70, 69 1
74, 78, 72 1
76, 81, 80 1
75, 80, 79 1
79, 81, 75 1
79, 80, 76 1
81, 80, 76 1
84, 79, 76 1
81, 88, 85 1
83, 90, 87 1
82, 89, 86 1
75, 89, 85 1
76, 90, 86 1
126, 133, 142 1
115, 121, 128 1
104, 111, 120 1
84, 92, 92 1
70, 77, 70 1
70, 76, 71 1
70, 77, 72 1
72, 79, 74 1
74, 79, 70 1
75, 80, 71 1
77, 82, 73 1
80, 82, 76 1
82, 77, 74 1
81, 76, 73 1
83, 78, 75 1
87, 80, 77 1
86, 79, 76 1
77, 76, 72 1
74, 75, 71 1
73, 74, 70 1
69, 73, 68 1
70, 74, 69 1
86, 91, 89 1
88, 93, 91 1
89, 98, 95 1
92, 101, 98 1
95, 102, 99 1
94, 99, 97 1
93, 98, 96 1
94, 97, 95 1
99, 97, 96 1
102, 100, 99 1
107, 103, 102 1
106, 107, 103 1
116, 122, 129 1
99, 110, 107 1
94, 104, 104 1
87, 95, 95 1
86, 94, 94 1
58, 64, 63 1
69, 77, 76 1
81, 87, 86 1
82, 87, 86 1
81, 86, 85 1
86, 88, 88 1
83, 85, 85 1
78, 83, 74 1
79, 84, 75 1
81, 86, 77 1
84, 87, 78 1
84, 86, 80 1
86, 88, 82 1
88, 90, 84 1
91, 91, 85 1
89, 89, 83 1
92, 89, 84 1
93, 90, 85 1
94, 90, 85 1
102, 99, 95 1
101, 100, 96 1
99, 103, 98 1
100, 104, 99 1
102, 106, 101 1
105, 109, 104 1
108, 112, 107 1
112, 116, 111 1
116, 119, 117 1
118, 121, 119 1
119, 125, 120 1
122, 127, 125 1
124, 129, 127 1
129, 132, 130 1
132, 130, 129 1
134, 132, 131 1
138, 134, 133 1
139, 135, 134 1
140, 136, 135 1
139, 136, 132 1
140, 139, 135 1
109, 117, 116 1
82, 88, 87 1
61, 67, 66 1
67, 69, 70 1
77, 81, 75 1
76, 80, 75 1
82, 85, 83 1
80, 85, 83 1
83, 89, 84 1
84, 89, 87 1
87, 91, 92 1
89, 93, 94 1
92, 96, 97 1
93, 97, 98 1
94, 98, 99 1
94, 100, 99 1
96, 102, 101 1
97, 103, 102 1
100, 106, 105 1
102, 108, 107 1
101, 109, 109 1
112, 117, 118 1
119, 124, 125 1
124, 129, 130 1
132, 134, 135 1
125, 127, 127 1
124, 126, 126 1
131, 134, 132 1
132, 136, 130 1
133, 137, 131 1
135, 139, 133 1
136, 140, 134 1
139, 141, 135 1
141, 143, 137 1
147, 149, 143 1
154, 153, 149 1
155, 154, 150 1
157, 154, 150 1
154, 151, 147 1
156, 151, 148 1
154, 152, 151 1
155, 153, 152 1
156, 155, 151 1
155, 156, 152 1
156, 157, 153 1
153, 158, 156 1
160, 159, 155 1
159, 158, 154 1
107, 113, 118 1
101, 109, 108 1
100, 108, 107 1
91, 102, 100 1
92, 97, 98 1
91, 96, 97 1
88, 93, 94 1
85, 90, 91 1
66, 71, 72 1
59, 65, 64 1
61, 66, 65 1
66, 70, 71 1
67, 71, 72 1
74, 76, 77 1
80, 85, 84 1
83, 88, 87 1
89, 94, 93 1
91, 96, 95 1
92, 97, 96 1
93, 98, 97 1
97, 102, 101 1
100, 105, 104 1
103, 108, 107 1
104, 109, 107 1
101, 108, 105 1
102, 107, 106 1
107, 112, 111 1
114, 119, 117 1
120, 125, 123 1
123, 128, 126 1
124, 127, 125 1
122, 126, 121 1
120, 124, 119 1
127, 131, 126 1
130, 132, 133 1
129, 131, 131 1
133, 135, 135 1
140, 142, 142 1
146, 149, 147 1
148, 153, 151 1
147, 152, 150 1
142, 147, 145 1
141, 146, 144 1
139, 144, 142 1
140, 145, 144 1
142, 147, 146 1
144, 149, 148 1
147, 152, 151 1
148, 153, 152 1
150, 155, 154 1
151, 155, 156 1
157, 161, 162 1
159, 163, 164 1
160, 164, 165 1
157, 162, 161 1
159, 164, 163 1
158, 164, 163 1
156, 161, 162 1
150, 158, 158 1
148, 156, 156 1
146, 154, 154 1
147, 155, 155 1
152, 157, 158 1
154, 159, 160 1
152, 156, 157 1
158, 162, 163 1
157, 159, 160 1
154, 156, 157 1
154, 156, 156 1
155, 157, 157 1
156, 159, 157 1
155, 159, 153 1
156, 160, 154 1
158, 162, 156 1
160, 164, 158 1
161, 165, 160 1
160, 164, 159 1
176, 180, 175 1
176, 177, 173 1
166, 167, 163 1
159, 160, 156 1
160, 161, 157 1
161, 162, 158 1
162, 161, 157 1
165, 164, 160 1
165, 166, 164 1
166, 167, 165 1
167, 168, 166 1
165, 168, 166 1
164, 169, 167 1
164, 167, 165 1
162, 165, 163 1
155, 160, 158 1
154, 159, 158 1
158, 158, 158 1
161, 162, 160 1
