121, 124, 122 1075
120, 123, 121 503
122, 125, 123 440
119, 124, 122 394
118, 124, 123 320
118, 123, 121 287
119, 123, 118 283
119, 122, 120 254
122, 126, 121 200
123, 126, 124 199
119, 125, 124 184
120, 125, 123 182
123, 127, 122 174
125, 126, 122 161
117, 123, 122 156
120, 124, 119 154
128, 129, 125 146
121, 125, 120 141
121, 122, 118 140
122, 123, 119 107
124, 125, 121 99
127, 128, 124 98
117, 122, 120 91
119, 124, 123 88
118, 124, 119 76
125, 129, 124 63
123, 124, 120 60
118, 123, 122 56
129, 130, 126 55
118, 122, 117 54
117, 123, 118 51
130, 129, 125 48
115, 123, 122 44
89, 97, 97 44
95, 101, 100 42
130, 131, 127 40
126, 130, 125 37
122, 126, 120 37
90, 98, 98 37
123, 124, 122 36
117, 124, 121 36
88, 96, 96 36
116, 124, 123 35
87, 95, 95 33
126, 127, 123 28
96, 102, 101 28
121, 125, 119 27
125, 128, 126 26
180, 179, 181 26
124, 128, 123 24
97, 102, 101 24
116, 122, 121 23
98, 103, 102 23
97, 102, 100 23
96, 101, 100 23
181, 178, 180 23
94, 100, 99 22
91, 99, 99 22
120, 126, 125 20
128, 129, 127 19
118, 125, 122 19
114, 119, 117 19
182, 179, 181 19
127, 131, 126 18
128, 130, 124 18
99, 104, 103 18
94, 102, 101 18
183, 181, 181 18
122, 127, 126 17
124, 125, 123 17
120, 124, 118 17
100, 105, 104 17
97, 103, 102 16
180, 177, 179 16
121, 126, 125 15
98, 104, 103 15
97, 105, 104 15
91, 97, 96 15
92, 97, 96 15
100, 103, 101 15
184, 182, 182 15
182, 181, 183 15
114, 124, 124 14
104, 110, 109 14
98, 103, 101 14
87, 96, 100 14
89, 96, 99 14
101, 104, 102 14
99, 102, 100 14
129, 128, 124 13
109, 117, 116 13
92, 98, 97 13
174, 173, 175 13
126, 129, 127 12
130, 130, 124 12
115, 123, 123 12
105, 110, 108 12
89, 95, 94 12
182, 182, 182 12
123, 127, 121 11
113, 123, 123 11
88, 98, 98 11
102, 105, 103 11
181, 181, 181 11
181, 180, 182 11
133, 130, 125 10
118, 121, 119 10
116, 123, 120 10
99, 109, 109 10
96, 100, 101 10
93, 99, 98 10
98, 100, 100 10
89, 97, 96 10
186, 184, 184 10
181, 179, 179 10
124, 127, 125 9
131, 131, 125 9
127, 129, 123 9
108, 118, 118 9
95, 100, 99 9
93, 98, 97 9
96, 98, 98 9
183, 183, 183 9
195, 195, 195 9
135, 144, 148 9
187, 185, 185 9
182, 180, 180 9
131, 130, 126 8
119, 123, 117 8
117, 122, 121 8
115, 125, 125 8
117, 125, 125 8
90, 96, 95 8
87, 96, 99 8
91, 98, 101 8
99, 101, 101 8
94, 102, 102 8
194, 194, 194 8
176, 175, 177 8
169, 178, 192 8
116, 121, 119 7
112, 117, 115 7
104, 112, 111 7
96, 101, 99 7
103, 106, 104 7
104, 104, 104 7
185, 183, 183 7
180, 182, 192 7
170, 178, 191 7
170, 179, 193 7
115, 121, 120 6
116, 126, 126 6
97, 101, 102 6
97, 103, 98 6
95, 102, 99 6
95, 99, 100 6
90, 100, 100 6
91, 99, 98 6
96, 103, 100 6
94, 99, 98 6
88, 97, 101 6
98, 102, 103 6
99, 103, 104 6
104, 102, 101 6
97, 102, 103 6
180, 180, 180 6
178, 178, 178 6
133, 141, 148 6
169, 178, 191 6
170, 181, 195 6
116, 124, 124 5
120, 127, 124 5
113, 118, 116 5
117, 125, 124 5
112, 117, 116 5
103, 109, 108 5
109, 118, 121 5
99, 106, 103 5
92, 100, 99 5
98, 106, 105 5
96, 104, 104 5
97, 104, 101 5
86, 95, 99 5
85, 94, 97 5
93, 100, 103 5
92, 100, 100 5
93, 101, 101 5
101, 103, 103 5
100, 101, 99 5
101, 102, 100 5
105, 105, 105 5
92, 97, 100 5
91, 94, 92 5
119, 119, 119 5
188, 188, 188 5
190, 190, 190 5
191, 191, 191 5
227, 227, 227 5
181, 184, 192 5
175, 180, 189 5
133, 139, 144 5
176, 176, 176 5
177, 177, 177 5
180, 178, 178 5
184, 184, 184 5
185, 185, 185 5
127, 135, 142 5
183, 182, 184 5
175, 179, 190 5
135, 143, 150 5
183, 180, 182 5
116, 122, 117 4
115, 122, 119 4
113, 119, 118 4
114, 120, 115 4
112, 119, 116 4
110, 118, 117 4
108, 116, 115 4
104, 109, 107 4
96, 105, 108 4
98, 106, 106 4
97, 105, 105 4
96, 104, 103 4
95, 103, 102 4
94, 98, 99 4
91, 101, 101 4
88, 95, 98 4
99, 103, 98 4
100, 104, 99 4
91, 96, 95 4
98, 101, 99 4
97, 99, 99 4
102, 104, 104 4
90, 98, 97 4
103, 101, 100 4
172, 170, 169 4
192, 192, 192 4
141, 149, 149 4
144, 152, 152 4
228, 228, 228 4
168, 171, 176 4
144, 151, 154 4
147, 154, 157 4
197, 195, 194 4
183, 186, 194 4
128, 136, 143 4
172, 172, 172 4
175, 175, 175 4
188, 186, 185 4
186, 186, 186 4
131, 137, 142 4
131, 137, 144 4
175, 174, 176 4
179, 178, 180 4
134, 142, 149 4
132, 141, 150 4
152, 157, 160 4
170, 182, 194 4
130, 137, 146 4
132, 129, 124 3
122, 123, 121 3
115, 120, 118 3
118, 126, 125 3
113, 118, 117 3
110, 115, 114 3
110, 118, 118 3
110, 116, 115 3
103, 111, 110 3
104, 111, 108 3
104, 110, 105 3
103, 109, 104 3
102, 107, 105 3
96, 102, 97 3
95, 100, 98 3
93, 97, 98 3
87, 93, 92 3
91, 100, 103 3
89, 99, 99 3
88, 97, 100 3
91, 96, 97 3
98, 102, 97 3
92, 97, 98 3
92, 99, 102 3
100, 102, 102 3
95, 100, 101 3
94, 97, 101 3
101, 101, 101 3
104, 105, 103 3
103, 103, 103 3
94, 94, 94 3
91, 91, 91 3
96, 101, 102 3
92, 96, 91 3
92, 95, 93 3
93, 96, 94 3
92, 93, 91 3
97, 95, 94 3
109, 109, 109 3
109, 108, 110 3
120, 120, 120 3
102, 107, 108 3
101, 106, 107 3
189, 189, 189 3
211, 211, 211 3
126, 129, 133 3
127, 130, 134 3
189, 192, 190 3
232, 230, 229 3
225, 224, 226 3
218, 216, 216 3
169, 172, 177 3
170, 173, 178 3
152, 159, 162 3
155, 162, 165 3
184, 187, 185 3
196, 196, 196 3
199, 197, 197 3
190, 188, 188 3
139, 146, 149 3
166, 168, 168 3
187, 186, 188 3
175, 181, 192 3
126, 135, 145 3
135, 141, 146 3
138, 144, 149 3
139, 145, 150 3
165, 167, 168 3
169, 171, 172 3
179, 179, 179 3
184, 183, 185 3
173, 179, 190 3
171, 179, 192 3
127, 134, 143 3
155, 159, 160 3
171, 173, 174 3
169, 177, 190 3
173, 182, 195 3
137, 143, 150 3
153, 158, 161 3
178, 177, 179 3
170, 183, 197 3
129, 136, 145 3
134, 141, 150 3
133, 144, 148 3
169, 170, 174 3
174, 173, 177 3
173, 172, 174 3
169, 182, 196 3
132, 139, 148 3
127, 130, 128 2
132, 132, 126 2
128, 132, 127 2
129, 129, 123 2
127, 128, 126 2
121, 123, 123 2
121, 122, 120 2
113, 122, 125 2
112, 122, 122 2
115, 124, 127 2
115, 121, 116 2
109, 114, 112 2
111, 118, 115 2
111, 116, 115 2
109, 114, 113 2
108, 113, 112 2
106, 111, 110 2
107, 112, 111 2
109, 119, 119 2
108, 117, 120 2
109, 117, 117 2
107, 115, 114 2
108, 116, 116 2
105, 111, 110 2
101, 106, 104 2
100, 105, 103 2
95, 104, 107 2
99, 107, 106 2
95, 103, 103 2
85, 93, 92 2
95, 101, 96 2
90, 99, 102 2
87, 97, 97 2
86, 94, 94 2
94, 101, 104 2
94, 99, 102 2
99, 99, 99 2
106, 105, 101 2
102, 102, 102 2
102, 101, 103 2
103, 99, 104 2
98, 98, 98 2
93, 93, 93 2
90, 90, 90 2
95, 98, 102 2
88, 96, 95 2
90, 93, 91 2
90, 95, 93 2
95, 96, 94 2
96, 94, 93 2
94, 92, 91 2
111, 107, 112 2
122, 122, 122 2
103, 108, 109 2
91, 97, 102 2
108, 114, 113 2
137, 140, 138 2
153, 151, 150 2
154, 152, 151 2
184, 186, 186 2
192, 191, 193 2
193, 192, 194 2
195, 192, 194 2
197, 197, 197 2
211, 209, 209 2
209, 209, 209 2
128, 131, 135 2
129, 135, 140 2
126, 134, 134 2
142, 150, 150 2
142, 149, 152 2
147, 155, 155 2
151, 156, 157 2
164, 172, 171 2
191, 193, 193 2
201, 202, 200 2
203, 204, 202 2
220, 221, 219 2
224, 222, 222 2
231, 229, 228 2
234, 232, 231 2
228, 230, 230 2
224, 226, 226 2
225, 225, 225 2
221, 221, 221 2
214, 214, 214 2
213, 213, 213 2
173, 176, 184 2
172, 178, 185 2
137, 146, 150 2
141, 148, 151 2
146, 153, 156 2
154, 162, 162 2
156, 163, 166 2
158, 163, 166 2
160, 165, 166 2
193, 195, 195 2
197, 195, 195 2
198, 196, 195 2
196, 194, 193 2
194, 193, 195 2
191, 189, 189 2
182, 185, 193 2
180, 183, 191 2
178, 180, 190 2
123, 130, 139 2
131, 140, 144 2
138, 145, 148 2
142, 148, 153 2
143, 150, 153 2
145, 150, 153 2
149, 157, 157 2
161, 165, 166 2
164, 166, 166 2
168, 168, 168 2
171, 171, 171 2
172, 174, 174 2
179, 177, 177 2
187, 185, 184 2
188, 186, 186 2
186, 185, 187 2
187, 184, 186 2
176, 181, 190 2
172, 178, 189 2
132, 138, 143 2
134, 143, 147 2
140, 146, 151 2
153, 157, 158 2
161, 163, 163 2
166, 168, 169 2
167, 169, 170 2
174, 176, 177 2
178, 176, 176 2
177, 175, 175 2
184, 182, 181 2
185, 183, 182 2
182, 180, 179 2
185, 182, 184 2
176, 180, 191 2
174, 178, 189 2
173, 177, 188 2
170, 179, 189 2
172, 180, 193 2
125, 132, 141 2
140, 147, 150 2
137, 146, 149 2
158, 162, 163 2
160, 164, 165 2
164, 168, 169 2
168, 172, 173 2
172, 181, 195 2
171, 182, 196 2
166, 177, 191 2
128, 135, 144 2
132, 140, 147 2
136, 145, 149 2
140, 149, 152 2
147, 152, 155 2
151, 156, 159 2
155, 160, 163 2
156, 161, 164 2
168, 170, 171 2
170, 179, 192 2
135, 142, 151 2
148, 155, 158 2
165, 169, 170 2
170, 171, 175 2
171, 172, 176 2
131, 138, 147 2
140, 149, 153 2
165, 168, 172 2
171, 170, 174 2
171, 170, 172 2
131, 128, 123 1
126, 128, 122 1
124, 128, 122 1
117, 121, 116 1
117, 124, 119 1
116, 119, 117 1
114, 123, 126 1
119, 127, 127 1
119, 127, 126 1
114, 120, 119 1
112, 118, 117 1
113, 119, 114 1
111, 117, 112 1
111, 116, 114 1
111, 119, 119 1
98, 105, 102 1
101, 106, 105 1
100, 109, 112 1
97, 106, 109 1
99, 107, 107 1
99, 105, 104 1
88, 94, 93 1
92, 101, 104 1
86, 94, 93 1
85, 94, 98 1
93, 101, 100 1
90, 97, 100 1
90, 99, 103 1
104, 107, 105 1
93, 98, 101 1
95, 105, 105 1
85, 95, 95 1
89, 100, 98 1
87, 98, 96 1
88, 99, 97 1
86, 95, 98 1
101, 105, 100 1
105, 103, 102 1
103, 102, 104 1
104, 101, 103 1
97, 97, 97 1
95, 95, 95 1
92, 92, 92 1
86, 96, 96 1
95, 97, 97 1
92, 94, 94 1
94, 95, 93 1
93, 94, 92 1
95, 93, 92 1
93, 91, 90 1
94, 97, 95 1
98, 99, 97 1
106, 104, 103 1
108, 106, 105 1
110, 108, 107 1
113, 111, 110 1
112, 110, 109 1
109, 107, 106 1
105, 106, 104 1
106, 106, 106 1
107, 107, 107 1
111, 108, 110 1
110, 110, 110 1
112, 112, 112 1
117, 117, 117 1
118, 118, 118 1
123, 123, 123 1
124, 124, 124 1
104, 109, 110 1
99, 104, 105 1
98, 101, 105 1
96, 99, 103 1
91, 96, 99 1
92, 96, 101 1
93, 99, 104 1
84, 91, 94 1
86, 93, 96 1
101, 107, 106 1
102, 108, 107 1
107, 113, 112 1
115, 117, 117 1
117, 119, 119 1
129, 130, 128 1
130, 131, 129 1
131, 132, 130 1
131, 134, 132 1
133, 136, 134 1
134, 137, 135 1
135, 138, 136 1
137, 138, 136 1
138, 139, 137 1
139, 140, 138 1
140, 141, 139 1
142, 143, 141 1
146, 144, 143 1
149, 147, 146 1
151, 149, 149 1
152, 150, 150 1
155, 153, 152 1
154, 155, 153 1
155, 156, 154 1
156, 158, 158 1
159, 162, 160 1
165, 166, 164 1
167, 168, 166 1
169, 170, 168 1
174, 172, 171 1
175, 173, 172 1
176, 177, 175 1
186, 188, 188 1
194, 190, 195 1
200, 200, 200 1
203, 203, 203 1
208, 206, 206 1
212, 210, 210 1
210, 210, 210 1
119, 122, 126 1
121, 124, 128 1
122, 125, 129 1
126, 129, 134 1
127, 130, 135 1
128, 131, 136 1
127, 131, 136 1
128, 132, 137 1
129, 133, 138 1
128, 134, 139 1
126, 132, 137 1
112, 118, 123 1
100, 106, 111 1
92, 98, 103 1
99, 105, 110 1
103, 109, 114 1
111, 120, 124 1
116, 125, 128 1
117, 126, 129 1
121, 128, 131 1
123, 130, 133 1
128, 136, 136 1
131, 139, 139 1
134, 142, 142 1
137, 145, 145 1
140, 148, 148 1
153, 158, 159 1
155, 160, 161 1
158, 164, 163 1
161, 167, 166 1
164, 170, 169 1
168, 174, 173 1
169, 175, 174 1
172, 177, 176 1
176, 181, 180 1
190, 193, 191 1
194, 195, 193 1
198, 199, 197 1
205, 205, 205 1
206, 206, 206 1
206, 208, 208 1
208, 210, 210 1
211, 213, 213 1
212, 214, 214 1
215, 216, 214 1
216, 217, 215 1
219, 220, 218 1
223, 221, 221 1
225, 223, 223 1
227, 225, 225 1
229, 227, 227 1
233, 231, 230 1
231, 232, 230 1
228, 229, 227 1
227, 228, 226 1
226, 227, 225 1
229, 227, 226 1
230, 228, 227 1
229, 229, 229 1
226, 226, 226 1
226, 223, 225 1
225, 222, 224 1
225, 221, 226 1
224, 224, 224 1
222, 222, 222 1
219, 219, 219 1
220, 218, 218 1
219, 217, 217 1
217, 215, 215 1
215, 215, 215 1
167, 170, 175 1
171, 173, 181 1
172, 174, 182 1
172, 175, 183 1
174, 177, 185 1
173, 179, 186 1
171, 177, 184 1
160, 166, 173 1
124, 130, 137 1
97, 103, 110 1
98, 104, 111 1
107, 113, 120 1
115, 121, 128 1
129, 138, 142 1
132, 141, 145 1
150, 157, 160 1
155, 163, 163 1
154, 161, 164 1
152, 161, 164 1
157, 162, 163 1
158, 163, 164 1
159, 164, 165 1
161, 169, 169 1
167, 175, 174 1
172, 178, 177 1
174, 180, 179 1
177, 182, 181 1
182, 184, 184 1
185, 187, 187 1
186, 187, 185 1
187, 188, 186 1
194, 196, 196 1
195, 196, 194 1
196, 197, 195 1
197, 198, 196 1
196, 194, 194 1
198, 196, 196 1
199, 197, 196 1
193, 194, 192 1
192, 193, 191 1
193, 193, 193 1
192, 194, 195 1
194, 191, 193 1
193, 190, 192 1
193, 189, 194 1
184, 187, 195 1
180, 187, 196 1
188, 195, 204 1
184, 191, 200 1
140, 147, 156 1
99, 106, 115 1
98, 105, 114 1
111, 118, 127 1
125, 133, 140 1
130, 139, 143 1
134, 140, 145 1
134, 141, 144 1
135, 142, 145 1
136, 143, 146 1
137, 144, 147 1
138, 147, 151 1
146, 151, 154 1
148, 153, 154 1
151, 159, 159 1
162, 166, 167 1
164, 166, 167 1
165, 167, 167 1
169, 169, 169 1
170, 172, 172 1
174, 176, 176 1
175, 177, 177 1
178, 179, 177 1
186, 184, 183 1
187, 187, 187 1
188, 185, 187 1
179, 181, 191 1
181, 183, 193 1
182, 184, 194 1
177, 182, 191 1
174, 180, 191 1
182, 191, 201 1
184, 193, 203 1
151, 160, 170 1
108, 117, 127 1
101, 110, 120 1
117, 126, 136 1
121, 129, 136 1
124, 132, 139 1
126, 134, 141 1
128, 137, 141 1
143, 148, 151 1
149, 154, 155 1
154, 158, 159 1
154, 159, 158 1
156, 161, 160 1
160, 162, 162 1
162, 164, 164 1
173, 175, 176 1
171, 173, 173 1
173, 173, 173 1
178, 175, 177 1
183, 181, 180 1
186, 183, 185 1
175, 184, 197 1
176, 185, 198 1
157, 166, 179 1
117, 126, 139 1
103, 112, 125 1
121, 129, 142 1
124, 132, 145 1
136, 144, 151 1
139, 148, 151 1
141, 151, 151 1
146, 151, 152 1
149, 153, 154 1
152, 156, 157 1
151, 155, 156 1
156, 160, 161 1
163, 165, 166 1
166, 170, 171 1
169, 173, 174 1
172, 174, 175 1
170, 172, 173 1
184, 181, 183 1
171, 180, 190 1
173, 181, 194 1
172, 183, 197 1
174, 185, 199 1
126, 137, 151 1
99, 110, 124 1
115, 124, 138 1
125, 134, 148 1
121, 130, 139 1
126, 133, 142 1
132, 138, 145 1
138, 144, 151 1
136, 145, 148 1
135, 144, 147 1
148, 153, 156 1
149, 154, 157 1
150, 155, 158 1
157, 161, 162 1
159, 163, 164 1
164, 169, 170 1
166, 171, 172 1
168, 173, 174 1
171, 180, 193 1
172, 185, 199 1
127, 138, 152 1
100, 111, 125 1
114, 125, 139 1
123, 134, 148 1
123, 132, 142 1
125, 134, 144 1
127, 133, 144 1
129, 137, 144 1
130, 138, 145 1
131, 139, 146 1
135, 147, 149 1
141, 150, 153 1
145, 152, 155 1
154, 159, 162 1
160, 165, 168 1
161, 166, 169 1
163, 168, 171 1
166, 169, 173 1
177, 176, 178 1
171, 180, 194 1
171, 184, 198 1
164, 177, 191 1
126, 139, 153 1
99, 112, 126 1
111, 124, 138 1
120, 133, 147 1
124, 133, 143 1
128, 134, 145 1
129, 135, 146 1
133, 140, 149 1
131, 140, 149 1
134, 145, 149 1
137, 148, 152 1
141, 147, 152 1
144, 148, 153 1
139, 148, 152 1
141, 150, 154 1
143, 149, 154 1
144, 150, 155 1
145, 151, 156 1
151, 158, 161 1
153, 160, 163 1
158, 165, 168 1
162, 165, 169 1
163, 166, 170 1
167, 168, 172 1
168, 169, 173 1
172, 171, 173 1
173, 172, 176 1
