133, 138, 136 636
135, 140, 138 620
134, 139, 137 482
137, 140, 138 381
139, 142, 140 312
136, 139, 137 311
135, 139, 134 295
133, 139, 138 252
133, 139, 134 236
135, 138, 136 233
134, 137, 135 171
134, 138, 133 167
136, 141, 140 156
140, 143, 141 151
132, 138, 137 144
132, 137, 135 144
138, 143, 142 131
135, 140, 139 124
139, 140, 136 107
145, 147, 141 98
137, 141, 136 97
138, 139, 135 97
143, 144, 142 96
132, 138, 133 91
134, 140, 135 86
141, 142, 138 85
141, 144, 142 80
147, 144, 140 80
132, 139, 136 78
138, 141, 139 74
146, 148, 142 72
103, 110, 107 67
144, 145, 143 64
133, 140, 137 64
142, 143, 141 60
102, 110, 110 60
136, 137, 135 59
138, 137, 133 58
134, 141, 134 57
142, 144, 138 56
131, 138, 135 53
144, 146, 140 51
137, 142, 140 49
148, 145, 140 48
148, 145, 141 48
135, 142, 135 47
136, 142, 141 44
142, 143, 139 44
137, 142, 141 42
133, 140, 135 40
136, 140, 135 39
101, 109, 109 39
130, 138, 137 38
140, 137, 133 37
136, 137, 133 36
141, 142, 140 35
103, 111, 111 35
134, 140, 139 33
146, 142, 141 32
143, 145, 139 29
137, 138, 136 27
104, 109, 107 27
133, 136, 134 25
131, 137, 136 25
103, 108, 107 25
147, 143, 142 24
136, 140, 134 24
102, 109, 112 24
106, 111, 110 24
137, 141, 135 23
104, 110, 109 23
139, 137, 136 21
105, 110, 109 21
137, 138, 134 20
139, 138, 134 20
104, 109, 108 20
140, 139, 135 19
131, 139, 138 19
134, 141, 138 18
129, 137, 136 18
115, 122, 119 18
98, 104, 103 18
103, 108, 109 18
138, 142, 136 17
134, 139, 138 17
133, 140, 133 17
125, 130, 128 17
106, 113, 110 17
104, 111, 108 17
103, 108, 106 17
103, 109, 108 17
138, 143, 141 16
136, 141, 139 16
146, 143, 139 16
131, 136, 134 16
130, 136, 135 16
100, 109, 113 16
135, 141, 136 15
105, 109, 110 15
107, 115, 114 14
105, 112, 109 14
106, 111, 109 13
147, 145, 137 12
135, 139, 133 12
137, 136, 132 12
133, 138, 137 12
99, 105, 104 12
104, 112, 112 12
109, 109, 109 12
147, 144, 139 11
105, 111, 110 11
107, 112, 110 11
107, 109, 109 11
147, 148, 144 10
141, 138, 134 10
141, 136, 133 10
117, 122, 120 10
102, 104, 104 10
100, 108, 108 10
104, 109, 110 10
103, 110, 113 10
243, 243, 243 10
203, 201, 201 10
149, 146, 141 9
136, 141, 142 9
135, 141, 140 9
126, 131, 129 9
123, 131, 130 9
106, 112, 111 9
103, 107, 108 9
101, 107, 106 9
105, 110, 108 9
199, 198, 200 9
150, 147, 139 8
147, 143, 138 8
139, 143, 137 8
132, 139, 134 8
135, 136, 134 8
130, 137, 134 8
129, 135, 134 8
102, 108, 107 8
101, 110, 113 8
104, 111, 114 8
102, 110, 109 8
102, 107, 108 8
101, 109, 116 8
202, 202, 202 8
201, 200, 202 8
213, 213, 213 8
201, 201, 201 8
202, 200, 200 8
201, 199, 199 8
148, 146, 138 7
134, 138, 132 7
131, 139, 139 7
129, 139, 139 7
121, 126, 125 7
112, 114, 114 7
111, 119, 118 7
102, 106, 107 7
103, 105, 105 7
102, 107, 106 7
100, 105, 104 7
104, 108, 109 7
106, 110, 111 7
214, 214, 214 7
200, 199, 201 7
149, 147, 139 6
135, 136, 132 6
128, 138, 138 6
119, 125, 124 6
120, 126, 125 6
110, 115, 114 6
104, 106, 106 6
101, 110, 114 6
104, 112, 111 6
101, 106, 105 6
107, 112, 111 6
111, 113, 113 6
103, 103, 103 6
102, 102, 102 6
209, 209, 209 6
212, 212, 212 6
197, 194, 196 6
196, 194, 194 6
199, 199, 199 6
146, 143, 138 5
138, 142, 137 5
139, 143, 138 5
140, 144, 138 5
140, 141, 137 5
133, 137, 131 5
133, 137, 132 5
128, 139, 137 5
130, 140, 140 5
129, 136, 133 5
131, 136, 135 5
127, 134, 131 5
121, 126, 124 5
113, 119, 118 5
124, 132, 131 5
117, 125, 124 5
111, 116, 115 5
109, 115, 114 5
112, 120, 120 5
108, 116, 115 5
103, 111, 110 5
97, 103, 102 5
101, 106, 107 5
106, 108, 108 5
104, 106, 116 5
101, 108, 111 5
109, 111, 111 5
108, 110, 110 5
111, 111, 111 5
102, 103, 101 5
210, 209, 211 5
199, 196, 198 5
199, 197, 197 5
192, 195, 209 5
196, 193, 195 5
197, 195, 195 5
132, 140, 140 4
128, 135, 132 4
118, 124, 123 4
124, 132, 132 4
125, 133, 132 4
122, 130, 129 4
121, 127, 126 4
114, 122, 121 4
107, 113, 112 4
113, 121, 120 4
101, 105, 106 4
100, 110, 110 4
107, 107, 107 4
105, 112, 115 4
104, 109, 112 4
106, 113, 116 4
110, 112, 112 4
103, 104, 102 4
187, 187, 187 4
204, 204, 204 4
209, 208, 210 4
244, 244, 244 4
202, 201, 203 4
158, 162, 167 4
180, 179, 183 4
148, 147, 143 3
145, 146, 137 3
131, 140, 137 3
132, 140, 139 3
126, 138, 138 3
131, 141, 141 3
127, 133, 132 3
124, 129, 127 3
116, 122, 121 3
121, 131, 131 3
122, 131, 134 3
118, 126, 125 3
116, 124, 123 3
115, 121, 120 3
110, 115, 113 3
109, 114, 113 3
110, 120, 120 3
112, 120, 119 3
106, 114, 113 3
102, 111, 114 3
100, 111, 115 3
101, 109, 108 3
101, 103, 103 3
99, 107, 107 3
102, 107, 105 3
105, 107, 107 3
100, 108, 115 3
105, 108, 116 3
105, 106, 116 3
106, 110, 115 3
106, 108, 109 3
107, 109, 110 3
110, 110, 110 3
104, 103, 105 3
106, 103, 105 3
107, 109, 119 3
106, 108, 118 3
100, 107, 110 3
101, 104, 102 3
113, 113, 113 3
120, 117, 119 3
131, 132, 130 3
107, 114, 117 3
185, 185, 185 3
207, 206, 208 3
210, 207, 209 3
223, 223, 223 3
234, 231, 233 3
237, 235, 235 3
203, 202, 204 3
217, 216, 218 3
242, 242, 242 3
236, 234, 234 3
167, 173, 178 3
216, 213, 215 3
208, 208, 208 3
210, 208, 208 3
204, 202, 202 3
201, 198, 200 3
200, 197, 199 3
195, 197, 208 3
149, 158, 162 3
181, 180, 184 3
203, 203, 203 3
202, 199, 201 3
193, 196, 211 3
140, 148, 155 3
198, 196, 196 3
142, 145, 143 2
148, 148, 142 2
136, 135, 131 2
133, 141, 140 2
130, 138, 138 2
133, 135, 135 2
134, 136, 136 2
134, 142, 141 2
127, 137, 137 2
126, 136, 136 2
127, 139, 141 2
128, 136, 135 2
127, 135, 134 2
124, 131, 128 2
120, 125, 124 2
123, 125, 125 2
117, 123, 122 2
121, 133, 135 2
120, 128, 127 2
114, 121, 118 2
111, 118, 115 2
108, 120, 122 2
109, 120, 124 2
110, 119, 122 2
110, 118, 117 2
109, 117, 116 2
105, 113, 112 2
108, 114, 113 2
110, 116, 115 2
100, 106, 105 2
102, 111, 115 2
100, 104, 105 2
100, 109, 112 2
99, 110, 114 2
104, 104, 104 2
108, 113, 112 2
103, 108, 111 2
105, 107, 108 2
112, 109, 111 2
108, 110, 111 2
106, 105, 107 2
107, 104, 106 2
101, 101, 101 2
108, 105, 107 2
104, 108, 113 2
103, 106, 110 2
113, 115, 115 2
114, 114, 114 2
117, 116, 118 2
118, 117, 119 2
129, 129, 129 2
139, 136, 138 2
117, 119, 127 2
107, 108, 118 2
108, 115, 118 2
121, 125, 126 2
134, 133, 135 2
144, 146, 146 2
148, 150, 150 2
149, 152, 150 2
200, 200, 200 2
208, 207, 209 2
210, 210, 210 2
226, 224, 223 2
141, 143, 153 2
142, 144, 154 2
144, 144, 156 2
144, 145, 155 2
132, 138, 143 2
153, 159, 164 2
163, 166, 171 2
168, 171, 175 2
177, 180, 184 2
195, 194, 196 2
213, 212, 214 2
215, 214, 216 2
226, 226, 226 2
228, 228, 228 2
230, 230, 230 2
233, 234, 232 2
237, 237, 237 2
244, 241, 243 2
245, 243, 243 2
246, 244, 243 2
243, 245, 246 2
243, 242, 244 2
240, 242, 242 2
244, 243, 245 2
245, 244, 246 2
235, 235, 235 2
183, 184, 194 2
188, 190, 201 2
190, 190, 204 2
190, 195, 204 2
164, 173, 177 2
200, 199, 203 2
215, 215, 215 2
216, 216, 216 2
196, 198, 209 2
196, 197, 211 2
193, 197, 208 2
193, 196, 210 2
139, 145, 152 2
143, 149, 156 2
151, 157, 164 2
152, 158, 165 2
161, 165, 170 2
164, 167, 171 2
171, 172, 176 2
174, 175, 179 2
176, 177, 181 2
178, 177, 181 2
179, 178, 182 2
182, 181, 185 2
188, 187, 189 2
188, 188, 188 2
195, 193, 193 2
195, 192, 194 2
195, 193, 192 2
191, 194, 208 2
194, 196, 214 2
194, 197, 212 2
191, 196, 211 2
141, 149, 156 2
142, 150, 157 2
157, 161, 166 2
183, 182, 184 2
193, 190, 192 2
192, 189, 191 2
196, 194, 193 2
197, 196, 198 2
145, 146, 144 1
150, 147, 142 1
149, 146, 138 1
146, 142, 137 1
139, 144, 143 1
141, 143, 137 1
148, 144, 139 1
140, 144, 139 1
136, 143, 140 1
137, 143, 142 1
128, 140, 140 1
127, 139, 139 1
130, 135, 133 1
125, 137, 137 1
126, 138, 140 1
127, 132, 130 1
123, 130, 127 1
122, 129, 126 1
123, 128, 126 1
122, 127, 125 1
119, 124, 123 1
122, 127, 126 1
120, 130, 130 1
119, 131, 133 1
120, 132, 134 1
124, 131, 134 1
121, 129, 128 1
119, 127, 126 1
115, 123, 122 1
118, 123, 121 1
116, 121, 119 1
110, 117, 114 1
109, 116, 113 1
112, 117, 116 1
111, 121, 121 1
111, 120, 123 1
109, 118, 121 1
112, 119, 122 1
111, 117, 116 1
108, 113, 111 1
107, 114, 111 1
103, 113, 113 1
102, 112, 112 1
101, 111, 111 1
105, 113, 113 1
100, 108, 107 1
99, 107, 106 1
100, 105, 106 1
105, 110, 111 1
104, 110, 115 1
106, 109, 117 1
106, 107, 117 1
106, 108, 116 1
105, 110, 113 1
99, 108, 111 1
99, 109, 109 1
98, 108, 108 1
101, 112, 110 1
101, 105, 110 1
102, 107, 110 1
110, 109, 111 1
106, 110, 105 1
108, 109, 107 1
109, 110, 108 1
113, 111, 111 1
111, 109, 109 1
113, 111, 110 1
112, 113, 111 1
111, 112, 110 1
110, 111, 109 1
107, 110, 108 1
105, 104, 106 1
106, 106, 106 1
110, 112, 120 1
111, 113, 121 1
109, 112, 120 1
108, 111, 119 1
105, 107, 117 1
105, 107, 115 1
97, 104, 107 1
97, 103, 108 1
94, 100, 105 1
100, 106, 111 1
99, 106, 109 1
103, 106, 111 1
104, 107, 112 1
104, 107, 111 1
102, 105, 109 1
102, 105, 103 1
103, 104, 100 1
104, 101, 103 1
103, 100, 102 1
103, 101, 101 1
102, 100, 100 1
104, 102, 101 1
100, 102, 102 1
102, 104, 105 1
104, 106, 107 1
115, 115, 115 1
117, 117, 117 1
119, 119, 119 1
121, 121, 121 1
123, 123, 123 1
127, 127, 127 1
130, 131, 129 1
132, 132, 132 1
133, 133, 133 1
134, 134, 134 1
135, 135, 135 1
137, 137, 137 1
139, 139, 139 1
141, 138, 140 1
144, 141, 143 1
145, 143, 143 1
116, 118, 126 1
114, 116, 124 1
111, 113, 123 1
109, 111, 121 1
108, 110, 120 1
107, 107, 119 1
107, 109, 117 1
107, 111, 116 1
106, 112, 117 1
107, 113, 118 1
111, 117, 124 1
100, 106, 113 1
101, 107, 112 1
102, 108, 113 1
98, 105, 108 1
109, 116, 119 1
110, 117, 120 1
110, 113, 118 1
111, 114, 119 1
112, 115, 120 1
113, 116, 120 1
114, 117, 121 1
116, 119, 123 1
119, 122, 126 1
122, 126, 127 1
125, 127, 128 1
126, 128, 129 1
128, 130, 131 1
133, 132, 134 1
136, 138, 138 1
137, 139, 139 1
138, 140, 141 1
140, 142, 143 1
142, 144, 145 1
145, 147, 147 1
147, 149, 149 1
150, 153, 151 1
154, 155, 151 1
156, 157, 155 1
158, 159, 157 1
160, 160, 160 1
162, 162, 162 1
165, 162, 164 1
167, 164, 166 1
168, 166, 166 1
166, 164, 164 1
167, 165, 164 1
169, 167, 166 1
169, 170, 168 1
171, 172, 170 1
172, 172, 172 1
173, 173, 173 1
174, 176, 176 1
176, 178, 179 1
178, 180, 181 1
179, 181, 182 1
181, 183, 183 1
182, 184, 184 1
183, 185, 185 1
186, 186, 186 1
188, 190, 190 1
193, 195, 195 1
197, 199, 199 1
199, 201, 201 1
200, 202, 202 1
202, 204, 204 1
206, 206, 206 1
207, 207, 207 1
212, 209, 211 1
211, 208, 210 1
217, 217, 217 1
222, 220, 219 1
224, 222, 221 1
225, 225, 225 1
229, 229, 229 1
232, 232, 232 1
236, 233, 235 1
143, 145, 153 1
140, 142, 150 1
141, 143, 151 1
141, 142, 152 1
140, 142, 152 1
144, 147, 155 1
145, 148, 156 1
146, 149, 157 1
145, 151, 158 1
150, 156, 163 1
152, 157, 166 1
140, 145, 154 1
123, 128, 137 1
107, 113, 120 1
101, 107, 114 1
113, 119, 124 1
117, 123, 128 1
131, 137, 142 1
134, 140, 145 1
137, 144, 147 1
140, 147, 150 1
142, 149, 152 1
143, 152, 155 1
147, 156, 159 1
150, 157, 160 1
151, 158, 161 1
152, 159, 162 1
152, 158, 163 1
155, 161, 166 1
156, 162, 167 1
160, 163, 168 1
161, 164, 169 1
166, 169, 174 1
171, 174, 178 1
175, 178, 182 1
181, 185, 186 1
183, 185, 186 1
185, 187, 188 1
188, 190, 191 1
211, 210, 212 1
212, 211, 213 1
219, 218, 220 1
222, 221, 223 1
224, 224, 224 1
231, 231, 231 1
232, 233, 231 1
235, 236, 234 1
238, 238, 238 1
241, 238, 240 1
242, 239, 241 1
246, 247, 245 1
247, 248, 246 1
247, 247, 247 1
248, 248, 248 1
249, 249, 249 1
242, 244, 245 1
241, 243, 243 1
245, 245, 245 1
246, 243, 245 1
245, 242, 244 1
240, 240, 240 1
234, 234, 234 1
238, 236, 236 1
233, 233, 233 1
227, 224, 226 1
226, 223, 225 1
225, 222, 224 1
224, 221, 223 1
224, 222, 222 1
180, 181, 191 1
183, 185, 195 1
184, 186, 196 1
185, 187, 198 1
187, 189, 200 1
191, 191, 203 1
190, 192, 203 1
190, 192, 202 1
191, 193, 203 1
187, 191, 202 1
190, 194, 205 1
184, 188, 199 1
152, 156, 167 1
115, 119, 130 1
108, 113, 122 1
121, 126, 135 1
130, 136, 143 1
149, 155, 160 1
151, 157, 162 1
154, 160, 165 1
157, 163, 168 1
158, 167, 171 1
161, 170, 174 1
165, 174, 178 1
166, 175, 179 1
168, 174, 179 1
169, 175, 180 1
170, 173, 178 1
171, 174, 179 1
173, 176, 181 1
174, 177, 182 1
176, 179, 184 1
179, 182, 186 1
180, 183, 187 1
182, 185, 189 1
186, 187, 191 1
188, 189, 193 1
192, 193, 197 1
196, 197, 201 1
199, 198, 202 1
204, 203, 205 1
205, 204, 206 1
212, 213, 211 1
214, 215, 213 1
217, 215, 215 1
215, 213, 213 1
215, 213, 212 1
216, 214, 213 1
217, 215, 214 1
218, 216, 215 1
216, 215, 217 1
211, 211, 211 1
209, 206, 208 1
209, 207, 207 1
208, 206, 206 1
205, 203, 203 1
198, 200, 210 1
196, 198, 208 1
194, 195, 209 1
195, 195, 211 1
196, 196, 212 1
195, 198, 212 1
198, 204, 217 1
201, 206, 221 1
170, 176, 189 1
123, 129, 142 1
109, 115, 128 1
122, 128, 139 1
134, 140, 151 1
142, 148, 155 1
142, 151, 155 1
144, 153, 157 1
146, 155, 159 1
147, 156, 160 1
148, 157, 161 1
153, 159, 166 1
154, 160, 167 1
160, 164, 169 1
162, 166, 171 1
165, 168, 172 1
166, 169, 173 1
177, 176, 180 1
183, 182, 186 1
185, 184, 186 1
186, 185, 187 1
189, 190, 188 1
190, 191, 189 1
192, 192, 192 1
193, 191, 191 1
194, 192, 191 1
197, 195, 194 1
196, 196, 196 1
194, 194, 194 1
192, 195, 210 1
191, 197, 210 1
192, 197, 212 1
197, 201, 219 1
201, 205, 223 1
180, 184, 202 1
136, 141, 156 1
115, 120, 135 1
126, 132, 145 1
139, 145, 158 1
141, 147, 154 1
143, 151, 158 1
145, 153, 160 1
146, 154, 161 1
147, 155, 162 1
148, 156, 163 1
152, 155, 163 1
153, 156, 164 1
154, 157, 165 1
156, 160, 165 1
159, 164, 167 1
161, 164, 168 1
162, 165, 169 1
164, 167, 172 1
169, 169, 175 1
171, 171, 177 1
172, 172, 178 1
170, 171, 175 1
172, 173, 177 1
182, 181, 183 1
184, 183, 185 1
184, 184, 184 1
186, 187, 185 1
190, 190, 190 1
194, 192, 192 1
194, 193, 195 1
196, 195, 197 1
198, 197, 199 1
200, 198, 198 1
