74, 81, 84 175
75, 82, 85 160
76, 83, 86 133
78, 85, 88 133
76, 84, 84 106
112, 119, 128 101
75, 83, 83 92
79, 86, 89 89
73, 81, 81 88
73, 80, 83 86
109, 116, 125 79
111, 118, 127 76
80, 87, 90 76
74, 82, 82 71
74, 80, 85 69
77, 84, 87 65
78, 87, 90 63
72, 79, 82 59
76, 86, 86 59
110, 116, 121 57
75, 81, 86 56
70, 79, 83 56
71, 80, 83 55
72, 81, 85 54
78, 86, 93 49
73, 82, 86 49
72, 81, 84 49
113, 120, 129 47
107, 113, 120 47
81, 88, 91 46
71, 78, 81 46
114, 120, 131 44
108, 115, 124 44
69, 78, 82 44
79, 87, 94 43
76, 85, 88 43
79, 87, 87 42
116, 120, 131 41
78, 84, 89 41
113, 118, 127 41
110, 117, 126 40
77, 86, 89 40
70, 81, 85 40
107, 112, 121 39
73, 78, 79 37
80, 88, 88 36
71, 82, 86 35
77, 81, 86 35
73, 82, 85 35
80, 83, 88 35
75, 84, 88 34
79, 88, 92 34
108, 114, 121 34
107, 114, 123 34
76, 80, 85 34
66, 76, 76 34
128, 136, 143 33
75, 80, 81 33
114, 119, 128 33
71, 76, 77 33
122, 129, 138 32
71, 80, 84 32
75, 79, 84 31
74, 78, 83 31
99, 106, 115 31
78, 86, 86 30
72, 80, 80 30
115, 119, 130 30
70, 75, 74 30
109, 114, 123 29
109, 115, 120 29
74, 79, 82 29
114, 121, 130 28
79, 88, 91 28
100, 107, 116 28
72, 77, 76 28
70, 75, 78 27
75, 85, 85 27
109, 115, 122 27
111, 117, 122 27
107, 113, 118 27
78, 86, 85 26
74, 79, 80 26
75, 80, 83 26
69, 78, 81 25
76, 81, 84 24
70, 77, 80 24
75, 83, 82 24
71, 79, 79 24
72, 77, 78 24
71, 75, 76 24
120, 127, 136 23
76, 85, 89 23
69, 77, 77 23
76, 82, 87 23
76, 84, 83 23
65, 75, 75 23
70, 74, 75 23
77, 87, 87 22
79, 87, 86 22
73, 79, 84 22
130, 138, 145 22
72, 78, 83 22
70, 79, 82 22
72, 77, 80 22
110, 115, 124 21
81, 87, 92 21
108, 113, 122 21
110, 116, 123 21
73, 78, 81 21
75, 79, 80 21
73, 79, 86 21
74, 76, 84 21
106, 114, 121 21
115, 122, 131 20
68, 76, 76 20
123, 130, 139 19
72, 82, 82 19
78, 88, 88 19
78, 87, 91 19
82, 89, 92 19
80, 86, 91 19
78, 85, 94 19
71, 81, 81 19
129, 137, 144 19
77, 82, 85 19
72, 80, 87 19
71, 79, 86 19
126, 133, 142 18
77, 83, 88 18
78, 80, 80 18
117, 121, 132 18
106, 111, 120 18
79, 85, 90 18
131, 139, 146 18
68, 77, 81 18
101, 109, 116 18
73, 75, 83 18
75, 78, 82 18
69, 73, 74 18
119, 126, 135 17
115, 121, 132 17
77, 85, 85 17
116, 118, 129 17
132, 140, 147 17
127, 135, 142 17
106, 113, 122 17
108, 114, 119 17
70, 75, 76 17
75, 78, 83 17
108, 111, 119 17
71, 76, 75 17
102, 108, 115 16
69, 80, 84 16
74, 77, 81 16
97, 104, 113 16
74, 82, 81 16
121, 125, 136 16
106, 112, 117 16
78, 80, 88 16
121, 128, 137 15
116, 123, 132 15
112, 117, 126 15
106, 112, 119 15
71, 76, 79 15
133, 141, 148 15
113, 119, 124 15
67, 74, 77 15
67, 77, 77 15
74, 77, 82 15
125, 132, 141 14
95, 102, 111 14
79, 84, 87 14
94, 101, 110 14
66, 73, 76 14
102, 107, 116 14
114, 120, 127 14
80, 83, 87 14
104, 110, 115 14
103, 109, 114 14
117, 122, 131 14
71, 76, 74 14
118, 125, 134 13
93, 100, 109 13
113, 119, 130 13
66, 72, 77 13
105, 111, 118 13
103, 109, 116 13
118, 120, 131 13
73, 77, 82 13
75, 84, 87 13
70, 78, 85 13
102, 109, 118 13
65, 74, 77 13
103, 110, 113 13
64, 70, 75 12
74, 83, 87 12
77, 86, 90 12
63, 72, 76 12
82, 90, 90 12
92, 99, 108 12
77, 79, 79 12
104, 110, 117 12
114, 118, 129 12
78, 83, 86 12
67, 70, 74 12
72, 75, 73 12
72, 76, 77 12
101, 108, 117 12
98, 105, 114 12
119, 121, 132 12
79, 84, 85 12
120, 124, 135 12
73, 83, 83 12
70, 76, 81 12
102, 110, 117 12
69, 74, 77 12
117, 124, 133 11
80, 88, 87 11
84, 91, 100 11
112, 118, 129 11
78, 89, 87 11
132, 141, 145 11
69, 76, 79 11
126, 134, 141 11
80, 85, 86 11
120, 126, 137 11
71, 77, 82 11
78, 81, 86 11
74, 78, 79 11
107, 115, 122 11
75, 77, 85 11
76, 80, 81 11
69, 74, 73 11
127, 134, 143 10
65, 71, 76 10
80, 80, 80 10
124, 131, 140 10
136, 143, 146 10
70, 80, 80 10
71, 74, 78 10
68, 75, 78 10
78, 83, 82 10
105, 112, 121 10
64, 70, 77 10
69, 80, 78 10
70, 78, 78 10
64, 73, 76 10
73, 77, 78 10
116, 121, 130 10
115, 120, 129 10
75, 75, 87 10
76, 78, 86 10
109, 112, 120 10
71, 73, 74 10
69, 71, 72 10
70, 75, 73 10
69, 75, 80 9
79, 90, 88 9
80, 90, 90 9
77, 85, 92 9
73, 81, 88 9
117, 119, 130 9
76, 79, 83 9
81, 86, 87 9
112, 118, 123 9
86, 94, 101 9
72, 80, 79 9
113, 119, 126 9
75, 81, 80 9
109, 117, 124 9
64, 72, 71 9
75, 76, 86 9
63, 71, 71 9
73, 76, 81 9
72, 77, 75 9
67, 73, 78 8
72, 83, 87 8
5, 0, 0 8
77, 85, 84 8
73, 84, 88 8
79, 89, 89 8
63, 71, 78 8
68, 74, 79 8
64, 73, 77 8
80, 86, 93 8
103, 110, 119 8
84, 92, 99 8
120, 122, 133 8
69, 79, 86 8
65, 70, 71 8
73, 76, 80 8
70, 72, 73 8
109, 111, 119 8
107, 111, 122 7
9, 0, 0 7
81, 89, 88 7
102, 106, 117 7
64, 72, 79 7
75, 82, 91 7
87, 94, 103 7
72, 76, 81 7
79, 85, 92 7
118, 124, 135 7
73, 81, 80 7
118, 122, 133 7
104, 111, 120 7
96, 103, 112 7
68, 79, 77 7
65, 72, 75 7
130, 140, 147 7
105, 113, 120 7
105, 111, 116 7
68, 77, 80 7
64, 71, 74 7
74, 80, 87 7
71, 77, 76 7
72, 78, 77 7
106, 110, 115 7
69, 72, 76 7
72, 74, 75 7
77, 79, 80 7
78, 78, 78 7
106, 110, 121 6
103, 107, 118 6
80, 89, 92 6
80, 88, 95 6
59, 67, 74 6
62, 71, 75 6
81, 89, 89 6
68, 73, 76 6
136, 142, 147 6
111, 117, 124 6
105, 110, 119 6
103, 108, 117 6
83, 90, 99 6
69, 81, 85 6
100, 106, 111 6
131, 140, 144 6
81, 81, 81 6
75, 77, 77 6
68, 79, 83 6
80, 83, 81 6
117, 123, 134 6
69, 79, 79 6
119, 123, 134 6
80, 85, 88 6
119, 125, 136 6
127, 132, 141 6
125, 130, 139 6
67, 75, 75 6
87, 95, 102 6
91, 99, 106 6
66, 75, 78 6
109, 116, 119 6
99, 101, 111 6
67, 71, 76 6
74, 80, 79 6
108, 115, 118 6
125, 133, 140 6
66, 71, 72 6
71, 74, 79 6
79, 81, 82 6
78, 80, 81 6
70, 71, 75 6
78, 81, 79 6
80, 79, 81 6
80, 81, 79 6
110, 113, 121 6
109, 111, 121 6
158, 160, 160 6
170, 166, 165 6
86, 93, 102 5
65, 71, 78 5
4, 0, 0 5
81, 90, 87 5
77, 84, 93 5
66, 74, 74 5
111, 116, 125 5
85, 92, 101 5
62, 70, 77 5
68, 71, 75 5
96, 102, 109 5
79, 79, 79 5
75, 77, 78 5
71, 73, 73 5
78, 82, 87 5
81, 84, 82 5
79, 81, 81 5
116, 122, 133 5
68, 78, 78 5
79, 83, 88 5
80, 84, 89 5
78, 83, 84 5
88, 96, 103 5
74, 83, 86 5
122, 126, 137 5
81, 88, 97 5
58, 65, 74 5
93, 101, 108 5
94, 102, 109 5
122, 127, 136 5
92, 100, 107 5
84, 93, 97 5
118, 124, 131 5
108, 116, 123 5
105, 108, 116 5
101, 103, 113 5
80, 89, 93 5
77, 79, 87 5
106, 109, 117 5
61, 69, 69 5
64, 72, 72 5
98, 100, 111 5
60, 67, 70 5
68, 78, 85 5
107, 111, 116 5
104, 111, 114 5
90, 97, 100 5
71, 72, 76 5
102, 109, 112 5
73, 78, 77 5
102, 110, 110 5
62, 67, 65 5
69, 74, 72 5
64, 66, 66 5
69, 71, 71 5
135, 141, 148 4
113, 122, 132 4
114, 123, 133 4
104, 108, 119 4
100, 104, 115 4
86, 91, 90 4
61, 69, 76 4
131, 137, 142 4
7, 0, 0 4
82, 90, 89 4
91, 98, 107 4
67, 72, 75 4
98, 104, 111 4
82, 80, 80 4
97, 103, 108 4
8, 4, 3 4
101, 107, 114 4
82, 82, 82 4
133, 142, 146 4
129, 138, 142 4
130, 139, 143 4
95, 100, 109 4
68, 72, 77 4
101, 105, 116 4
94, 99, 108 4
78, 84, 91 4
76, 76, 76 4
72, 74, 74 4
96, 100, 111 4
80, 82, 82 4
63, 69, 76 4
129, 134, 143 4
90, 97, 106 4
121, 123, 134 4
61, 70, 74 4
128, 138, 145 4
126, 136, 143 4
125, 135, 142 4
129, 139, 146 4
127, 137, 144 4
90, 98, 105 4
79, 82, 87 4
65, 72, 81 4
80, 82, 90 4
77, 80, 85 4
83, 92, 96 4
81, 90, 94 4
61, 67, 72 4
67, 72, 73 4
102, 104, 114 4
59, 68, 71 4
69, 81, 83 4
66, 75, 79 4
117, 123, 130 4
94, 100, 107 4
103, 105, 116 4
102, 104, 115 4
101, 103, 114 4
98, 100, 110 4
62, 70, 70 4
70, 80, 87 4
82, 90, 97 4
116, 124, 131 4
93, 98, 107 4
70, 73, 77 4
72, 74, 82 4
71, 73, 81 4
64, 70, 69 4
102, 108, 113 4
76, 77, 81 4
77, 78, 82 4
101, 107, 112 4
69, 70, 74 4
78, 79, 83 4
76, 78, 79 4
75, 80, 78 4
74, 79, 77 4
75, 78, 76 4
105, 112, 115 4
104, 112, 112 4
69, 76, 73 4
72, 79, 76 4
77, 80, 78 4
79, 82, 80 4
82, 83, 81 4
103, 111, 111 4
101, 108, 111 4
63, 68, 66 4
64, 69, 67 4
83, 78, 77 4
83, 88, 87 4
87, 88, 86 4
73, 77, 72 4
73, 79, 74 4
110, 112, 120 4
90, 88, 88 4
68, 70, 70 4
155, 157, 157 4
156, 158, 158 4
162, 164, 164 4
162, 161, 163 4
134, 140, 147 3
108, 112, 123 3
1, 0, 2 3
12, 0, 0 3
5, 1, 0 3
82, 87, 86 3
61, 68, 71 3
71, 79, 78 3
130, 136, 141 3
134, 140, 145 3
8, 0, 0 3
80, 87, 96 3
104, 109, 118 3
7, 2, 1 3
12, 8, 7 3
84, 84, 84 3
134, 141, 144 3
132, 139, 142 3
130, 137, 140 3
80, 78, 78 3
81, 79, 79 3
97, 103, 110 3
65, 74, 78 3
128, 137, 141 3
42, 40, 39 3
83, 85, 85 3
76, 81, 80 3
80, 85, 84 3
68, 71, 69 3
76, 82, 81 3
81, 87, 86 3
67, 78, 82 3
81, 83, 83 3
118, 127, 137 3
89, 96, 105 3
77, 82, 83 3
134, 142, 149 3
124, 129, 138 3
76, 81, 82 3
122, 124, 135 3
123, 128, 137 3
104, 112, 119 3
84, 93, 102 3
76, 79, 87 3
111, 117, 128 3
83, 91, 98 3
81, 89, 96 3
113, 117, 128 3
121, 127, 134 3
107, 109, 117 3
101, 110, 114 3
103, 105, 115 3
94, 100, 105 3
91, 100, 104 3
86, 95, 99 3
63, 71, 70 3
128, 134, 139 3
119, 125, 132 3
109, 118, 122 3
73, 79, 78 3
74, 75, 85 3
68, 80, 84 3
64, 75, 79 3
63, 74, 78 3
60, 68, 68 3
73, 74, 84 3
122, 130, 137 3
107, 110, 118 3
104, 106, 116 3
99, 101, 112 3
69, 74, 75 3
68, 80, 82 3
62, 73, 71 3
124, 132, 139 3
120, 128, 135 3
70, 82, 84 3
63, 75, 77 3
62, 84, 89 3
88, 94, 99 3
108, 112, 117 3
92, 98, 105 3
88, 95, 98 3
71, 78, 75 3
76, 78, 78 3
74, 76, 76 3
117, 126, 135 3
100, 107, 110 3
82, 86, 87 3
83, 79, 78 3
87, 93, 92 3
74, 81, 78 3
81, 82, 80 3
77, 77, 77 3
82, 87, 85 3
86, 87, 85 3
96, 102, 107 3
89, 96, 99 3
83, 90, 87 3
61, 66, 64 3
71, 77, 72 3
95, 101, 100 3
73, 72, 74 3
74, 73, 75 3
104, 99, 96 3
111, 113, 121 3
68, 70, 71 3
137, 138, 136 3
155, 152, 154 3
158, 156, 156 3
159, 157, 156 3
161, 159, 158 3
109, 110, 120 3
163, 161, 161 3
136, 142, 149 2
115, 124, 134 2
105, 109, 120 2
98, 102, 113 2
39, 41, 42 2
75, 80, 79 2
72, 78, 89 2
133, 139, 144 2
84, 89, 88 2
66, 74, 81 2
100, 105, 114 2
98, 103, 112 2
2, 0, 0 2
10, 1, 0 2
55, 53, 53 2
85, 87, 87 2
76, 83, 92 2
100, 106, 113 2
88, 95, 104 2
76, 84, 91 2
67, 75, 82 2
2, 0, 1 2
37, 28, 25 2
6, 1, 0 2
85, 85, 85 2
68, 76, 83 2
0, 0, 1 2
7, 1, 0 2
83, 81, 81 2
86, 86, 86 2
71, 75, 80 2
37, 38, 42 2
7, 2, 0 2
45, 43, 43 2
45, 43, 42 2
82, 88, 93 2
101, 106, 115 2
59, 59, 59 2
59, 60, 58 2
67, 69, 69 2
65, 67, 67 2
66, 71, 69 2
72, 73, 71 2
94, 98, 109 2
76, 81, 79 2
74, 77, 75 2
79, 85, 84 2
119, 128, 138 2
115, 121, 128 2
114, 120, 125 2
70, 81, 79 2
123, 127, 138 2
69, 77, 76 2
118, 118, 130 2
68, 76, 75 2
78, 81, 85 2
132, 142, 149 2
131, 141, 148 2
128, 133, 142 2
84, 94, 101 2
103, 111, 118 2
59, 66, 75 2
124, 133, 142 2
122, 131, 140 2
60, 67, 76 2
60, 66, 73 2
61, 67, 74 2
62, 68, 73 2
123, 125, 136 2
99, 107, 114 2
85, 94, 98 2
67, 76, 80 2
60, 66, 71 2
65, 73, 73 2
72, 78, 85 2
132, 138, 143 2
129, 135, 140 2
127, 133, 138 2
124, 130, 135 2
120, 126, 133 2
110, 118, 125 2
108, 110, 118 2
99, 102, 110 2
67, 76, 79 2
59, 69, 69 2
65, 73, 72 2
107, 109, 119 2
70, 82, 86 2
66, 78, 82 2
65, 77, 81 2
66, 77, 81 2
63, 75, 75 2
107, 114, 117 2
105, 109, 114 2
96, 101, 110 2
66, 71, 74 2
66, 81, 84 2
65, 82, 85 2
67, 84, 87 2
68, 84, 90 2
69, 85, 91 2
65, 79, 85 2
63, 75, 79 2
63, 73, 73 2
74, 77, 85 2
76, 79, 84 2
61, 81, 86 2
68, 88, 93 2
62, 78, 84 2
129, 135, 142 2
61, 74, 76 2
63, 85, 90 2
54, 70, 76 2
61, 72, 70 2
100, 102, 113 2
92, 97, 106 2
89, 94, 103 2
72, 75, 80 2
59, 72, 74 2
55, 70, 73 2
110, 114, 119 2
64, 69, 70 2
72, 75, 79 2
77, 77, 83 2
61, 73, 75 2
60, 72, 76 2
66, 73, 70 2
67, 74, 71 2
67, 72, 70 2
90, 96, 103 2
62, 68, 67 2
65, 71, 70 2
66, 71, 70 2
77, 81, 82 2
74, 76, 77 2
61, 81, 82 2
88, 96, 96 2
82, 88, 87 2
70, 77, 74 2
70, 76, 75 2
73, 80, 77 2
72, 81, 78 2
82, 80, 79 2
80, 78, 77 2
73, 75, 75 2
66, 82, 81 2
92, 98, 103 2
91, 97, 102 2
84, 90, 89 2
83, 89, 88 2
67, 68, 72 2
68, 69, 73 2
70, 77, 72 2
73, 82, 79 2
79, 80, 78 2
85, 86, 84 2
95, 101, 106 2
89, 95, 94 2
60, 65, 63 2
69, 72, 70 2
74, 78, 73 2
72, 78, 73 2
72, 79, 74 2
81, 80, 82 2
77, 78, 76 2
81, 73, 73 2
80, 73, 70 2
77, 72, 69 2
91, 92, 90 2
96, 102, 101 2
95, 97, 97 2
106, 104, 103 2
105, 103, 102 2
105, 110, 113 2
93, 100, 103 2
92, 99, 102 2
58, 63, 61 2
70, 72, 72 2
75, 82, 79 2
76, 75, 77 2
77, 76, 78 2
104, 96, 96 2
125, 130, 129 2
126, 131, 130 2
129, 131, 131 2
140, 136, 135 2
138, 136, 135 2
109, 112, 117 2
95, 103, 110 2
64, 67, 65 2
68, 67, 69 2
77, 81, 76 2
84, 88, 83 2
81, 86, 84 2
81, 88, 85 2
107, 112, 113 2
130, 132, 132 2
136, 136, 136 2
152, 152, 152 2
154, 154, 154 2
156, 153, 155 2
158, 153, 152 2
159, 154, 153 2
158, 154, 153 2
158, 156, 155 2
155, 158, 156 2
154, 156, 156 2
157, 159, 159 2
107, 110, 115 2
85, 90, 89 2
103, 108, 107 2
149, 152, 150 2
164, 163, 165 2
165, 167, 167 2
159, 161, 161 2
159, 164, 163 2
164, 166, 166 2
159, 162, 160 2
161, 161, 161 2
132, 138, 145 1
131, 137, 144 1
128, 135, 144 1
109, 113, 124 1
107, 110, 124 1
106, 109, 123 1
65, 73, 80 1
62, 65, 69 1
11, 3, 3 1
14, 3, 0 1
21, 9, 5 1
37, 25, 21 1
56, 37, 34 1
57, 40, 37 1
34, 17, 14 1
18, 3, 0 1
8, 1, 0 1
16, 14, 13 1
60, 60, 60 1
81, 91, 91 1
73, 80, 89 1
65, 71, 82 1
63, 70, 73 1
112, 121, 131 1
61, 64, 68 1
40, 42, 43 1
6, 1, 2 1
13, 1, 0 1
12, 1, 0 1
17, 5, 1 1
33, 14, 9 1
55, 36, 31 1
59, 42, 39 1
54, 37, 34 1
25, 10, 7 1
19, 7, 3 1
14, 2, 0 1
14, 12, 11 1
56, 56, 56 1
74, 80, 91 1
69, 75, 86 1
135, 141, 146 1
111, 120, 130 1
60, 63, 67 1
15, 4, 0 1
26, 14, 10 1
23, 11, 5 1
21, 5, 0 1
19, 3, 0 1
38, 22, 16 1
71, 56, 53 1
57, 42, 39 1
47, 35, 31 1
30, 18, 16 1
14, 10, 9 1
84, 86, 86 1
83, 91, 90 1
131, 138, 141 1
129, 136, 139 1
63, 66, 70 1
46, 47, 51 1
12, 11, 13 1
14, 7, 4 1
63, 52, 48 1
80, 69, 65 1
78, 67, 63 1
26, 12, 6 1
14, 0, 0 1
16, 4, 0 1
39, 27, 23 1
50, 38, 34 1
73, 62, 58 1
58, 46, 44 1
53, 48, 49 1
87, 87, 87 1
80, 89, 86 1
53, 54, 58 1
21, 20, 22 1
7, 4, 6 1
26, 21, 20 1
68, 61, 58 1
91, 82, 79 1
92, 83, 79 1
84, 75, 71 1
39, 29, 22 1
15, 5, 0 1
11, 0, 0 1
11, 2, 0 1
20, 11, 7 1
37, 28, 24 1
10, 3, 0 1
48, 43, 44 1
89, 89, 89 1
56, 59, 63 1
28, 29, 33 1
19, 14, 13 1
20, 13, 10 1
24, 17, 14 1
32, 26, 21 1
9, 5, 0 1
11, 5, 0 1
12, 5, 2 1
50, 45, 46 1
85, 83, 83 1
135, 142, 145 1
99, 105, 112 1
59, 62, 66 1
8, 9, 13 1
3, 1, 1 1
7, 4, 0 1
6, 3, 0 1
8, 5, 0 1
5, 2, 0 1
9, 6, 2 1
11, 8, 4 1
14, 11, 7 1
22, 17, 18 1
69, 77, 84 1
64, 67, 72 1
47, 50, 54 1
32, 34, 35 1
36, 35, 37 1
39, 39, 39 1
39, 37, 36 1
35, 36, 32 1
39, 40, 36 1
40, 41, 37 1
45, 44, 40 1
40, 39, 35 1
44, 42, 41 1
50, 48, 48 1
66, 66, 66 1
127, 136, 140 1
77, 83, 90 1
59, 62, 67 1
54, 57, 61 1
57, 60, 64 1
60, 62, 63 1
57, 59, 60 1
63, 63, 63 1
61, 62, 60 1
58, 62, 57 1
57, 61, 56 1
55, 58, 56 1
64, 65, 63 1
56, 57, 55 1
65, 66, 64 1
67, 68, 66 1
71, 71, 71 1
73, 73, 73 1
99, 104, 113 1
97, 102, 111 1
65, 68, 73 1
65, 69, 70 1
68, 73, 71 1
72, 72, 72 1
77, 82, 81 1
80, 86, 85 1
132, 139, 148 1
110, 114, 125 1
99, 103, 114 1
73, 78, 76 1
76, 79, 77 1
120, 129, 138 1
120, 129, 139 1
116, 125, 135 1
70, 77, 86 1
71, 82, 80 1
122, 128, 139 1
117, 126, 136 1
121, 127, 138 1
67, 78, 76 1
70, 78, 77 1
119, 119, 131 1
60, 69, 73 1
74, 84, 84 1
85, 95, 102 1
61, 68, 77 1
66, 73, 82 1
89, 97, 104 1
85, 93, 100 1
126, 131, 140 1
124, 126, 136 1
100, 108, 115 1
62, 69, 72 1
122, 128, 135 1
111, 118, 121 1
110, 118, 118 1
106, 108, 118 1
89, 98, 102 1
57, 67, 67 1
60, 71, 69 1
66, 74, 73 1
69, 73, 78 1
78, 77, 86 1
78, 77, 87 1
79, 78, 88 1
71, 83, 87 1
66, 78, 78 1
64, 76, 76 1
109, 117, 117 1
106, 108, 116 1
92, 101, 105 1
90, 99, 103 1
58, 68, 68 1
68, 82, 88 1
69, 83, 89 1
69, 81, 87 1
68, 80, 86 1
65, 77, 77 1
124, 130, 137 1
116, 122, 129 1
108, 117, 121 1
95, 101, 108 1
58, 67, 70 1
70, 86, 92 1
65, 81, 87 1
61, 73, 73 1
118, 126, 133 1
65, 76, 80 1
66, 78, 80 1
60, 81, 83 1
60, 80, 85 1
63, 83, 88 1
66, 86, 91 1
67, 87, 92 1
68, 87, 92 1
64, 83, 88 1
61, 77, 83 1
61, 75, 81 1
59, 73, 79 1
60, 75, 78 1
61, 74, 72 1
60, 73, 71 1
130, 136, 143 1
121, 129, 136 1
117, 125, 132 1
104, 106, 117 1
61, 73, 77 1
62, 75, 77 1
53, 75, 80 1
54, 76, 81 1
55, 77, 82 1
57, 79, 84 1
61, 83, 88 1
64, 86, 91 1
64, 84, 89 1
59, 79, 84 1
57, 76, 81 1
56, 75, 80 1
57, 73, 79 1
55, 69, 75 1
56, 70, 76 1
115, 123, 130 1
83, 89, 94 1
70, 74, 79 1
74, 74, 86 1
62, 74, 76 1
50, 75, 77 1
51, 76, 78 1
52, 77, 79 1
54, 79, 83 1
58, 83, 87 1
58, 78, 83 1
55, 74, 79 1
55, 71, 77 1
56, 71, 74 1
59, 70, 68 1
61, 69, 68 1
62, 70, 69 1
87, 93, 98 1
84, 90, 95 1
83, 90, 93 1
62, 67, 68 1
63, 68, 69 1
75, 76, 80 1
76, 76, 82 1
61, 75, 74 1
55, 78, 80 1
56, 79, 81 1
57, 80, 82 1
58, 81, 83 1
61, 84, 86 1
63, 86, 88 1
65, 86, 88 1
64, 85, 87 1
62, 81, 84 1
60, 79, 82 1
59, 76, 79 1
59, 74, 77 1
62, 73, 77 1
109, 113, 118 1
103, 106, 114 1
85, 92, 95 1
83, 91, 91 1
63, 69, 68 1
65, 70, 69 1
77, 83, 82 1
60, 80, 81 1
62, 82, 83 1
65, 85, 86 1
66, 86, 87 1
68, 86, 87 1
67, 80, 82 1
65, 78, 80 1
119, 128, 137 1
106, 113, 116 1
101, 104, 112 1
93, 99, 106 1
88, 93, 94 1
86, 91, 92 1
60, 66, 65 1
59, 65, 64 1
61, 67, 66 1
64, 69, 68 1
68, 73, 72 1
77, 82, 80 1
81, 85, 86 1
82, 84, 85 1
81, 83, 84 1
84, 80, 79 1
81, 79, 78 1
65, 81, 80 1
67, 83, 82 1
71, 87, 86 1
75, 89, 88 1
73, 86, 88 1
71, 83, 85 1
67, 79, 81 1
78, 82, 83 1
121, 130, 139 1
116, 125, 134 1
90, 96, 101 1
88, 94, 93 1
65, 72, 69 1
60, 67, 64 1
73, 76, 74 1
78, 77, 79 1
83, 80, 82 1
85, 80, 79 1
84, 79, 78 1
80, 76, 75 1
79, 75, 74 1
79, 77, 76 1
82, 85, 83 1
83, 86, 84 1
73, 75, 76 1
87, 85, 85 1
123, 132, 141 1
99, 105, 110 1
93, 99, 104 1
76, 83, 80 1
65, 70, 68 1
70, 69, 73 1
71, 70, 74 1
68, 75, 72 1
71, 78, 73 1
70, 79, 76 1
78, 79, 77 1
77, 78, 74 1
78, 79, 75 1
79, 80, 76 1
80, 72, 72 1
78, 73, 70 1
75, 72, 68 1
76, 73, 69 1
77, 75, 74 1
84, 85, 83 1
91, 94, 92 1
90, 96, 95 1
92, 98, 97 1
95, 100, 99 1
93, 98, 97 1
97, 97, 97 1
99, 99, 99 1
104, 102, 102 1
106, 104, 104 1
109, 104, 105 1
110, 105, 106 1
108, 106, 105 1
101, 109, 109 1
91, 98, 101 1
83, 88, 86 1
57, 62, 60 1
65, 68, 66 1
71, 74, 72 1
73, 72, 76 1
70, 76, 71 1
72, 76, 71 1
69, 75, 70 1
73, 80, 75 1
76, 77, 75 1
80, 84, 85 1
83, 85, 86 1
80, 81, 77 1
81, 82, 78 1
83, 84, 82 1
91, 89, 89 1
93, 88, 89 1
94, 89, 91 1
103, 95, 95 1
105, 97, 97 1
103, 98, 95 1
106, 101, 98 1
106, 103, 99 1
110, 106, 105 1
112, 110, 109 1
115, 113, 112 1
118, 116, 115 1
119, 120, 118 1
122, 122, 122 1
120, 125, 123 1
122, 127, 125 1
124, 129, 127 1
128, 130, 130 1
131, 131, 131 1
132, 132, 132 1
135, 133, 133 1
137, 135, 135 1
139, 135, 134 1
139, 137, 136 1
137, 135, 134 1
140, 138, 137 1
112, 118, 125 1
111, 112, 122 1
110, 111, 121 1
106, 111, 114 1
97, 106, 110 1
94, 103, 107 1
88, 93, 92 1
87, 92, 91 1
69, 68, 70 1
70, 69, 71 1
67, 69, 70 1
75, 79, 74 1
76, 80, 75 1
80, 85, 83 1
84, 87, 85 1
85, 88, 86 1
83, 87, 82 1
82, 88, 83 1
82, 89, 86 1
92, 93, 91 1
93, 93, 93 1
94, 94, 94 1
97, 96, 98 1
99, 98, 100 1
101, 100, 102 1
102, 101, 103 1
102, 102, 102 1
104, 104, 104 1
107, 108, 106 1
107, 110, 108 1
108, 110, 110 1
109, 111, 111 1
111, 113, 113 1
112, 114, 115 1
106, 111, 112 1
111, 116, 117 1
118, 123, 124 1
125, 129, 130 1
128, 132, 133 1
129, 133, 134 1
136, 138, 138 1
133, 135, 135 1
132, 134, 134 1
135, 136, 134 1
138, 139, 137 1
139, 140, 138 1
141, 142, 140 1
143, 143, 143 1
145, 145, 145 1
149, 149, 149 1
154, 149, 148 1
155, 150, 149 1
157, 152, 151 1
160, 155, 152 1
159, 155, 154 1
158, 158, 158 1
159, 159, 159 1
161, 159, 159 1
162, 160, 160 1
164, 159, 160 1
164, 160, 159 1
163, 159, 158 1
160, 158, 157 1
113, 121, 128 1
110, 112, 122 1
110, 109, 118 1
108, 111, 116 1
104, 109, 112 1
98, 107, 111 1
97, 105, 112 1
96, 104, 111 1
90, 95, 94 1
89, 94, 93 1
62, 67, 66 1
57, 62, 61 1
66, 68, 68 1
90, 90, 96 1
92, 93, 97 1
94, 95, 99 1
95, 97, 98 1
94, 96, 97 1
94, 96, 96 1
97, 99, 100 1
98, 100, 101 1
100, 102, 103 1
102, 104, 105 1
104, 106, 107 1
103, 107, 108 1
103, 108, 106 1
102, 107, 106 1
104, 109, 108 1
108, 113, 112 1
114, 118, 119 1
119, 123, 124 1
121, 126, 125 1
122, 127, 126 1
125, 128, 126 1
124, 127, 125 1
125, 129, 124 1
127, 131, 126 1
128, 131, 129 1
129, 132, 130 1
126, 130, 131 1
127, 130, 134 1
127, 132, 131 1
128, 133, 132 1
132, 137, 136 1
139, 142, 140 1
145, 148, 146 1
150, 153, 151 1
148, 151, 149 1
146, 149, 147 1
142, 147, 145 1
140, 145, 143 1
139, 144, 143 1
138, 144, 143 1
141, 147, 146 1
143, 149, 148 1
151, 152, 150 1
156, 155, 157 1
159, 158, 160 1
161, 160, 164 1
163, 162, 164 1
166, 166, 166 1
167, 167, 167 1
157, 159, 160 1
156, 158, 159 1
150, 158, 158 1
148, 156, 156 1
148, 153, 154 1
149, 154, 155 1
151, 156, 157 1
154, 159, 160 1
155, 160, 161 1
156, 160, 161 1
160, 165, 164 1
161, 163, 163 1
158, 161, 159 1
160, 162, 162 1
176, 178, 179 1
173, 175, 176 1
168, 167, 169 1
161, 160, 162 1
167, 162, 163 1
168, 163, 164 1
169, 164, 165 1
170, 165, 166 1
168, 166, 165 1
167, 165, 165 1
166, 164, 164 1
164, 162, 162 1
162, 159, 161 1
160, 159, 161 1
155, 160, 159 1
162, 160, 159 1
159, 160, 158 1
160, 161, 159 1
