79, 88, 92 297
77, 86, 90 221
80, 87, 90 207
81, 88, 91 186
78, 87, 91 186
76, 85, 89 167
79, 86, 89 116
81, 89, 89 115
82, 90, 90 96
79, 88, 91 87
126, 134, 141 86
80, 89, 93 76
79, 85, 90 70
79, 87, 87 68
121, 128, 137 68
80, 90, 90 67
76, 84, 91 65
128, 136, 143 64
83, 90, 93 64
81, 90, 93 62
119, 126, 135 59
120, 127, 136 59
80, 86, 91 58
123, 131, 138 58
127, 135, 142 57
122, 130, 137 57
77, 86, 89 51
84, 91, 94 49
78, 84, 89 48
75, 84, 87 47
81, 92, 90 46
80, 88, 88 45
80, 82, 90 44
78, 86, 93 42
78, 85, 88 42
81, 90, 94 39
77, 85, 92 39
130, 138, 145 38
129, 137, 144 38
82, 89, 92 36
122, 129, 138 36
81, 91, 91 35
79, 89, 89 35
121, 130, 139 34
81, 86, 85 34
81, 83, 91 34
78, 82, 83 33
75, 83, 82 33
142, 149, 158 32
143, 151, 158 31
135, 143, 150 31
118, 125, 134 31
125, 132, 141 30
83, 91, 91 30
82, 87, 86 30
75, 84, 88 30
81, 85, 86 30
147, 155, 162 29
83, 88, 87 29
76, 87, 91 29
72, 80, 87 28
82, 91, 94 28
81, 87, 92 28
78, 87, 90 27
80, 85, 88 27
81, 86, 89 27
73, 82, 85 27
114, 119, 128 26
82, 87, 90 26
83, 88, 89 26
76, 84, 84 26
72, 82, 82 26
132, 140, 147 25
125, 133, 140 25
74, 85, 89 25
76, 85, 88 24
120, 128, 135 24
120, 130, 137 24
78, 86, 86 23
147, 154, 163 23
82, 88, 87 23
74, 82, 81 23
79, 87, 94 22
80, 89, 92 22
115, 123, 130 22
144, 152, 159 21
73, 81, 88 21
73, 80, 83 21
124, 132, 139 21
144, 151, 160 21
121, 129, 136 21
129, 136, 145 21
73, 83, 83 21
81, 86, 87 21
123, 129, 136 21
136, 144, 151 20
133, 141, 148 20
146, 153, 162 20
108, 113, 122 20
79, 84, 87 20
76, 83, 86 20
142, 150, 157 19
127, 134, 143 19
70, 78, 85 19
75, 83, 90 19
80, 88, 95 19
74, 82, 82 19
80, 91, 89 19
70, 79, 82 19
71, 80, 83 19
80, 85, 86 19
80, 84, 85 19
139, 147, 154 18
126, 133, 142 18
75, 83, 83 18
77, 82, 83 18
118, 124, 131 18
109, 114, 123 18
117, 123, 130 18
82, 87, 88 18
134, 142, 149 17
131, 139, 146 17
86, 89, 93 17
118, 126, 133 17
75, 82, 85 17
115, 120, 129 17
74, 85, 83 17
74, 83, 86 17
121, 131, 138 17
123, 130, 139 16
77, 83, 88 16
82, 88, 93 16
128, 135, 144 16
107, 112, 121 16
77, 84, 87 16
76, 86, 93 16
72, 81, 84 16
131, 137, 144 16
79, 87, 86 16
69, 77, 84 15
75, 81, 86 15
74, 81, 84 15
99, 104, 113 15
145, 152, 161 15
146, 154, 161 14
140, 148, 155 14
137, 145, 152 14
114, 121, 130 14
74, 82, 89 14
114, 122, 129 14
84, 90, 89 14
128, 132, 143 14
127, 132, 141 14
120, 126, 133 14
113, 118, 127 14
104, 109, 118 14
103, 108, 117 14
101, 106, 115 14
102, 107, 116 14
78, 83, 86 14
74, 83, 80 14
121, 127, 132 14
141, 149, 156 13
71, 79, 86 13
83, 89, 94 13
148, 155, 164 13
81, 83, 83 13
128, 133, 142 13
122, 131, 140 13
111, 116, 125 13
110, 115, 124 13
106, 111, 120 13
120, 129, 138 13
76, 81, 82 13
73, 84, 82 13
75, 86, 90 13
136, 142, 147 13
134, 140, 145 13
118, 128, 135 13
79, 81, 89 13
94, 101, 110 12
116, 123, 132 12
93, 100, 109 12
72, 81, 85 12
73, 81, 81 12
116, 124, 131 12
117, 124, 133 12
122, 128, 135 12
73, 82, 86 12
83, 87, 88 12
76, 86, 86 12
82, 84, 92 12
80, 83, 91 12
130, 136, 143 12
80, 88, 87 12
79, 84, 83 12
148, 156, 163 11
83, 94, 92 11
117, 125, 132 11
79, 86, 95 11
92, 99, 108 11
77, 82, 85 11
80, 85, 84 11
83, 89, 88 11
84, 89, 90 11
141, 148, 157 11
134, 140, 147 11
129, 135, 142 11
124, 130, 137 11
125, 127, 135 11
79, 82, 86 11
81, 86, 84 11
83, 86, 84 11
138, 146, 153 10
113, 120, 129 10
78, 85, 94 10
75, 82, 91 10
73, 79, 84 10
113, 121, 128 10
82, 92, 92 10
76, 82, 87 10
74, 78, 79 10
134, 141, 150 10
116, 121, 130 10
79, 83, 84 10
79, 84, 85 10
83, 86, 90 10
84, 88, 89 10
100, 105, 114 10
77, 81, 82 10
77, 87, 94 10
80, 89, 86 10
83, 88, 86 10
78, 81, 85 10
76, 79, 77 10
107, 115, 122 9
74, 80, 85 9
74, 81, 90 9
77, 79, 79 9
83, 85, 85 9
136, 143, 152 9
135, 142, 151 9
69, 78, 82 9
82, 87, 85 9
76, 87, 85 9
74, 84, 84 9
73, 78, 79 9
135, 141, 146 9
132, 138, 145 9
119, 127, 134 9
80, 84, 89 9
80, 83, 87 9
123, 127, 132 9
81, 88, 85 9
78, 81, 86 9
80, 87, 84 9
75, 80, 79 9
77, 80, 78 9
123, 128, 137 8
122, 127, 136 8
112, 119, 128 8
107, 114, 123 8
105, 112, 121 8
111, 118, 127 8
112, 120, 127 8
83, 88, 91 8
84, 89, 88 8
143, 150, 159 8
129, 133, 144 8
133, 140, 149 8
105, 110, 119 8
75, 85, 85 8
121, 127, 134 8
119, 125, 132 8
78, 83, 84 8
76, 80, 85 8
82, 90, 89 8
123, 132, 141 8
73, 77, 78 8
72, 77, 78 8
75, 84, 81 8
78, 80, 88 8
79, 84, 82 8
79, 82, 80 8
86, 91, 94 7
72, 78, 83 7
85, 87, 87 7
130, 137, 146 7
127, 133, 140 7
89, 96, 105 7
68, 77, 81 7
75, 79, 84 7
97, 102, 111 7
69, 76, 79 7
133, 139, 144 7
81, 82, 92 7
124, 126, 134 7
67, 76, 79 7
79, 82, 87 7
82, 84, 84 7
84, 86, 86 7
117, 127, 134 7
121, 128, 131 7
84, 89, 87 7
84, 87, 85 7
75, 78, 76 7
145, 153, 160 6
81, 89, 96 6
77, 85, 85 6
105, 113, 120 6
85, 88, 92 6
109, 117, 124 6
110, 118, 125 6
88, 95, 104 6
71, 80, 84 6
97, 103, 114 6
91, 98, 107 6
85, 87, 95 6
76, 78, 78 6
77, 84, 93 6
79, 90, 88 6
81, 84, 88 6
112, 117, 126 6
87, 94, 103 6
75, 86, 84 6
127, 131, 142 6
75, 78, 82 6
74, 83, 87 6
73, 82, 79 6
138, 144, 149 6
74, 80, 79 6
74, 78, 83 6
133, 139, 146 6
75, 85, 92 6
73, 85, 89 6
125, 131, 138 6
125, 128, 136 6
78, 89, 87 6
116, 118, 126 6
76, 81, 80 6
120, 126, 131 6
80, 86, 85 6
80, 85, 83 6
119, 125, 130 6
112, 116, 121 6
75, 80, 78 6
80, 82, 82 6
80, 83, 81 6
82, 83, 81 6
77, 81, 76 6
109, 116, 125 5
98, 105, 114 5
83, 91, 98 5
83, 93, 93 5
124, 131, 140 5
100, 108, 115 5
85, 90, 93 5
83, 92, 95 5
80, 87, 96 5
79, 85, 96 5
69, 77, 77 5
111, 119, 126 5
108, 116, 123 5
76, 83, 92 5
106, 114, 121 5
99, 107, 114 5
90, 97, 106 5
81, 92, 89 5
83, 90, 99 5
82, 86, 91 5
106, 113, 122 5
68, 76, 83 5
78, 80, 80 5
69, 78, 81 5
70, 80, 80 5
77, 87, 87 5
137, 144, 153 5
74, 79, 82 5
70, 77, 80 5
73, 79, 78 5
74, 79, 78 5
75, 82, 79 5
79, 83, 88 5
70, 82, 86 5
69, 81, 85 5
67, 82, 85 5
69, 85, 91 5
65, 74, 78 5
78, 82, 87 5
72, 84, 88 5
83, 90, 87 5
72, 85, 87 5
80, 83, 88 5
69, 77, 76 5
78, 83, 82 5
81, 84, 82 5
86, 89, 87 5
109, 113, 118 5
107, 111, 116 5
78, 83, 81 5
81, 87, 82 5
122, 128, 133 5
120, 127, 130 5
78, 81, 79 5
74, 74, 74 5
170, 172, 172 5
149, 157, 164 4
110, 117, 126 4
103, 110, 119 4
7, 0, 0 4
16, 1, 0 4
67, 75, 75 4
108, 115, 124 4
102, 110, 117 4
81, 79, 79 4
97, 104, 113 4
5, 0, 0 4
82, 91, 95 4
85, 92, 101 4
70, 79, 83 4
84, 86, 94 4
100, 107, 116 4
99, 106, 115 4
142, 148, 159 4
76, 81, 84 4
85, 90, 89 4
77, 88, 86 4
131, 138, 147 4
122, 132, 139 4
71, 79, 79 4
74, 79, 80 4
76, 84, 83 4
73, 78, 77 4
76, 78, 79 4
125, 130, 139 4
143, 149, 154 4
124, 127, 135 4
67, 74, 77 4
73, 84, 88 4
68, 80, 84 4
68, 75, 78 4
68, 83, 86 4
66, 78, 82 4
123, 126, 134 4
96, 105, 114 4
73, 83, 90 4
88, 99, 107 4
81, 89, 88 4
70, 85, 88 4
67, 77, 77 4
116, 118, 128 4
66, 75, 78 4
68, 76, 76 4
61, 73, 77 4
118, 121, 129 4
73, 85, 87 4
78, 88, 88 4
75, 80, 81 4
119, 128, 131 4
118, 124, 129 4
83, 85, 86 4
119, 128, 132 4
115, 119, 124 4
113, 117, 122 4
111, 115, 120 4
75, 77, 77 4
85, 88, 86 4
95, 96, 94 4
110, 114, 119 4
102, 105, 110 4
99, 102, 107 4
74, 77, 75 4
117, 126, 129 4
78, 82, 77 4
127, 136, 140 4
167, 172, 171 4
174, 174, 174 4
78, 78, 78 4
105, 107, 108 4
172, 172, 172 4
172, 174, 174 4
115, 121, 132 3
90, 98, 105 3
78, 84, 95 3
76, 82, 93 3
66, 72, 77 3
65, 73, 73 3
72, 80, 80 3
80, 81, 85 3
12, 0, 0 3
11, 1, 1 3
87, 86, 88 3
69, 75, 80 3
70, 78, 78 3
121, 126, 135 3
77, 77, 77 3
99, 108, 112 3
83, 87, 92 3
4, 0, 0 3
83, 86, 91 3
81, 81, 87 3
82, 82, 88 3
84, 84, 90 3
115, 122, 131 3
102, 109, 118 3
86, 85, 94 3
68, 64, 63 3
69, 65, 64 3
75, 75, 75 3
105, 111, 122 3
78, 80, 81 3
80, 82, 83 3
76, 82, 81 3
141, 147, 158 3
129, 132, 146 3
123, 133, 140 3
70, 77, 86 3
84, 89, 92 3
138, 145, 154 3
117, 122, 131 3
95, 102, 111 3
140, 147, 156 3
139, 146, 155 3
77, 81, 86 3
98, 103, 112 3
72, 79, 82 3
71, 77, 82 3
129, 134, 143 3
141, 147, 152 3
77, 79, 80 3
72, 81, 78 3
128, 134, 141 3
125, 127, 137 3
81, 84, 92 3
68, 77, 80 3
88, 100, 106 3
87, 97, 104 3
116, 122, 129 3
89, 100, 108 3
80, 81, 91 3
74, 86, 90 3
66, 83, 86 3
91, 100, 109 3
66, 76, 83 3
71, 76, 77 3
79, 82, 90 3
75, 87, 89 3
71, 86, 89 3
72, 91, 96 3
65, 77, 81 3
63, 74, 78 3
119, 122, 130 3
78, 89, 86 3
78, 87, 84 3
119, 129, 136 3
124, 127, 132 3
82, 89, 86 3
74, 86, 86 3
71, 77, 76 3
115, 117, 125 3
64, 84, 85 3
76, 81, 79 3
75, 81, 80 3
81, 83, 84 3
79, 81, 82 3
83, 89, 84 3
87, 89, 89 3
85, 89, 84 3
118, 127, 130 3
118, 127, 131 3
114, 118, 123 3
108, 112, 117 3
105, 109, 114 3
73, 78, 76 3
74, 79, 77 3
84, 84, 84 3
78, 90, 90 3
117, 126, 130 3
116, 119, 124 3
107, 110, 115 3
101, 104, 109 3
87, 90, 88 3
87, 85, 85 3
116, 125, 128 3
116, 123, 126 3
117, 124, 127 3
79, 81, 81 3
92, 95, 93 3
96, 96, 96 3
131, 136, 135 3
124, 129, 132 3
121, 129, 129 3
86, 91, 90 3
98, 102, 103 3
163, 163, 163 3
166, 164, 163 3
166, 167, 165 3
165, 168, 166 3
115, 124, 127 3
117, 121, 122 3
170, 175, 173 3
169, 176, 173 3
169, 171, 171 3
174, 172, 171 3
124, 129, 138 2
114, 120, 131 2
85, 90, 91 2
82, 83, 87 2
8, 3, 5 2
13, 1, 1 2
14, 1, 0 2
78, 84, 97 2
77, 83, 96 2
51, 48, 50 2
10, 0, 0 2
13, 1, 0 2
20, 1, 0 2
17, 2, 0 2
17, 4, 2 2
85, 92, 95 2
72, 79, 88 2
66, 73, 76 2
84, 87, 91 2
77, 78, 82 2
15, 5, 5 2
84, 86, 87 2
86, 93, 96 2
84, 93, 96 2
80, 86, 97 2
81, 87, 98 2
103, 111, 118 2
82, 85, 89 2
16, 0, 0 2
6, 1, 0 2
48, 46, 46 2
79, 79, 79 2
86, 86, 86 2
89, 91, 92 2
84, 90, 95 2
109, 118, 122 2
108, 117, 121 2
107, 116, 120 2
102, 111, 115 2
82, 89, 98 2
84, 87, 92 2
98, 83, 80 2
9, 1, 1 2
50, 45, 46 2
90, 90, 90 2
111, 120, 124 2
7, 2, 1 2
19, 6, 4 2
85, 80, 81 2
84, 91, 100 2
16, 8, 8 2
85, 88, 96 2
56, 46, 46 2
86, 93, 102 2
85, 85, 91 2
104, 111, 120 2
92, 98, 109 2
85, 84, 93 2
72, 76, 77 2
89, 91, 91 2
112, 118, 129 2
108, 114, 125 2
104, 110, 121 2
103, 109, 120 2
99, 105, 116 2
89, 95, 106 2
140, 146, 157 2
132, 139, 148 2
132, 133, 147 2
98, 106, 113 2
85, 89, 90 2
69, 76, 85 2
71, 78, 87 2
67, 75, 82 2
126, 132, 143 2
86, 92, 103 2
120, 126, 137 2
90, 96, 107 2
87, 93, 104 2
75, 80, 83 2
83, 89, 100 2
75, 79, 80 2
141, 147, 154 2
137, 143, 148 2
126, 131, 140 2
74, 81, 78 2
73, 77, 82 2
131, 137, 142 2
115, 119, 130 2
89, 101, 107 2
87, 99, 105 2
81, 92, 96 2
81, 87, 86 2
72, 83, 87 2
71, 82, 86 2
67, 79, 81 2
126, 129, 137 2
71, 83, 87 2
67, 79, 83 2
67, 78, 82 2
66, 78, 80 2
68, 78, 78 2
71, 79, 78 2
126, 128, 136 2
95, 104, 113 2
93, 102, 111 2
92, 101, 110 2
82, 92, 99 2
66, 75, 79 2
76, 88, 90 2
67, 84, 87 2
100, 109, 118 2
97, 106, 115 2
94, 103, 112 2
87, 98, 106 2
65, 74, 77 2
74, 86, 88 2
64, 83, 88 2
70, 89, 94 2
64, 79, 82 2
67, 76, 80 2
127, 126, 135 2
126, 125, 134 2
117, 119, 129 2
82, 91, 100 2
64, 73, 77 2
80, 85, 94 2
64, 81, 84 2
60, 75, 78 2
117, 120, 128 2
79, 88, 85 2
79, 85, 92 2
78, 84, 91 2
60, 72, 76 2
61, 72, 76 2
136, 142, 149 2
116, 119, 127 2
94, 102, 109 2
70, 78, 77 2
77, 80, 85 2
81, 84, 89 2
73, 85, 85 2
61, 82, 84 2
71, 88, 91 2
140, 146, 153 2
111, 117, 124 2
108, 114, 121 2
101, 107, 114 2
81, 82, 86 2
71, 86, 88 2
122, 129, 132 2
110, 116, 121 2
106, 112, 117 2
100, 106, 111 2
70, 75, 76 2
68, 73, 74 2
82, 85, 83 2
84, 91, 88 2
85, 87, 88 2
85, 86, 90 2
86, 88, 88 2
117, 123, 128 2
119, 123, 128 2
102, 106, 111 2
101, 105, 110 2
98, 101, 105 2
72, 77, 75 2
76, 83, 80 2
77, 82, 81 2
82, 88, 83 2
89, 87, 86 2
86, 87, 85 2
87, 94, 91 2
98, 96, 96 2
94, 95, 93 2
117, 120, 125 2
106, 109, 114 2
104, 107, 112 2
103, 106, 111 2
98, 101, 106 2
90, 92, 93 2
73, 75, 75 2
82, 86, 87 2
83, 87, 82 2
87, 91, 86 2
80, 81, 77 2
95, 100, 98 2
95, 103, 102 2
96, 104, 103 2
98, 106, 105 2
96, 102, 101 2
104, 102, 102 2
112, 108, 107 2
111, 109, 108 2
112, 111, 107 2
119, 129, 129 2
110, 113, 118 2
109, 112, 117 2
108, 111, 116 2
100, 103, 108 2
74, 76, 76 2
89, 90, 88 2
90, 91, 89 2
112, 110, 109 2
126, 129, 127 2
133, 135, 135 2
146, 142, 141 2
126, 135, 139 2
122, 131, 135 2
114, 117, 122 2
95, 97, 97 2
76, 76, 76 2
91, 96, 95 2
92, 97, 96 2
98, 100, 100 2
100, 102, 103 2
116, 124, 123 2
142, 145, 143 2
158, 160, 160 2
162, 162, 162 2
167, 165, 164 2
164, 167, 165 2
171, 173, 173 2
173, 175, 175 2
173, 173, 173 2
175, 173, 173 2
176, 174, 174 2
173, 171, 170 2
123, 128, 131 2
112, 117, 120 2
99, 101, 101 2
91, 97, 92 2
92, 98, 93 2
135, 140, 139 2
160, 162, 162 2
160, 164, 165 2
161, 165, 166 2
169, 174, 173 2
174, 176, 176 2
175, 177, 177 2
175, 175, 175 2
177, 177, 177 2
176, 177, 175 2
178, 181, 179 2
171, 173, 174 2
172, 174, 175 2
173, 172, 168 2
119, 125, 136 1
118, 124, 135 1
117, 123, 134 1
101, 108, 117 1
86, 90, 91 1
76, 75, 79 1
50, 47, 49 1
7, 1, 2 1
29, 12, 9 1
44, 25, 22 1
62, 41, 40 1
55, 35, 34 1
38, 18, 17 1
20, 2, 1 1
18, 0, 0 1
13, 0, 0 1
14, 2, 2 1
11, 0, 2 1
18, 10, 11 1
61, 55, 56 1
83, 78, 80 1
85, 80, 82 1
91, 86, 88 1
91, 88, 90 1
80, 86, 99 1
68, 74, 85 1
64, 70, 77 1
65, 71, 78 1
65, 71, 76 1
64, 71, 74 1
65, 72, 75 1
64, 72, 72 1
75, 74, 78 1
10, 5, 7 1
9, 2, 5 1
17, 0, 0 1
29, 10, 5 1
38, 19, 16 1
48, 29, 26 1
63, 44, 41 1
56, 38, 37 1
29, 14, 12 1
8, 0, 1 1
14, 8, 9 1
56, 51, 52 1
83, 80, 82 1
88, 87, 89 1
76, 82, 95 1
77, 83, 94 1
74, 80, 87 1
67, 73, 78 1
63, 70, 73 1
73, 72, 76 1
12, 7, 9 1
6, 0, 1 1
25, 8, 5 1
28, 9, 6 1
25, 6, 1 1
19, 2, 0 1
46, 29, 26 1
69, 54, 51 1
68, 53, 51 1
56, 43, 41 1
38, 26, 24 1
12, 2, 2 1
10, 5, 6 1
51, 49, 49 1
81, 81, 81 1
87, 90, 94 1
87, 92, 95 1
72, 71, 75 1
56, 52, 57 1
20, 15, 17 1
5, 0, 1 1
10, 2, 2 1
21, 12, 9 1
37, 24, 22 1
65, 50, 47 1
89, 72, 69 1
94, 75, 72 1
36, 19, 16 1
22, 5, 2 1
39, 24, 21 1
49, 36, 34 1
70, 57, 55 1
55, 43, 41 1
8, 0, 0 1
11, 6, 7 1
82, 90, 97 1
106, 115, 119 1
77, 76, 80 1
64, 60, 65 1
28, 25, 27 1
7, 2, 4 1
28, 20, 20 1
67, 55, 53 1
91, 78, 76 1
50, 33, 30 1
21, 4, 1 1
25, 12, 10 1
48, 35, 33 1
43, 31, 29 1
17, 7, 7 1
10, 4, 5 1
83, 81, 81 1
113, 122, 126 1
112, 121, 125 1
110, 119, 123 1
105, 114, 118 1
98, 107, 111 1
80, 79, 83 1
67, 66, 70 1
39, 36, 38 1
6, 3, 5 1
5, 3, 3 1
23, 15, 15 1
28, 19, 16 1
32, 20, 18 1
43, 30, 28 1
24, 6, 5 1
14, 0, 0 1
16, 4, 4 1
9, 0, 0 1
8, 2, 3 1
50, 44, 45 1
82, 77, 78 1
90, 85, 86 1
92, 90, 90 1
82, 88, 95 1
84, 87, 95 1
79, 79, 85 1
70, 69, 73 1
46, 45, 49 1
10, 9, 11 1
1, 0, 2 1
2, 0, 0 1
11, 2, 0 1
21, 8, 6 1
18, 5, 3 1
21, 9, 9 1
23, 11, 11 1
18, 6, 6 1
24, 16, 17 1
56, 50, 51 1
83, 77, 78 1
88, 83, 84 1
93, 88, 89 1
98, 93, 94 1
149, 156, 165 1
86, 89, 97 1
72, 72, 78 1
55, 56, 60 1
44, 45, 49 1
38, 40, 41 1
42, 41, 43 1
47, 47, 47 1
52, 47, 46 1
48, 43, 42 1
49, 39, 39 1
53, 43, 43 1
55, 45, 45 1
53, 45, 45 1
52, 44, 44 1
56, 48, 48 1
51, 46, 45 1
53, 47, 48 1
57, 51, 52 1
72, 67, 68 1
86, 81, 82 1
91, 86, 87 1
92, 87, 88 1
93, 99, 110 1
77, 77, 83 1
67, 68, 72 1
62, 63, 67 1
58, 61, 65 1
58, 62, 63 1
60, 62, 63 1
63, 63, 63 1
64, 64, 64 1
67, 65, 65 1
66, 64, 64 1
69, 64, 65 1
71, 66, 67 1
69, 67, 67 1
73, 71, 71 1
75, 73, 73 1
86, 84, 84 1
88, 86, 86 1
93, 91, 91 1
94, 92, 92 1
75, 78, 83 1
70, 73, 77 1
72, 75, 79 1
75, 77, 78 1
90, 92, 92 1
144, 150, 161 1
113, 119, 130 1
110, 116, 127 1
87, 87, 93 1
82, 85, 90 1
138, 144, 155 1
118, 123, 132 1
71, 81, 81 1
83, 91, 90 1
96, 104, 111 1
139, 145, 156 1
125, 131, 142 1
119, 128, 137 1
67, 74, 83 1
73, 80, 89 1
68, 75, 84 1
82, 88, 99 1
91, 97, 108 1
72, 83, 81 1
124, 133, 142 1
88, 94, 105 1
76, 79, 83 1
71, 78, 81 1
70, 76, 81 1
139, 145, 152 1
71, 77, 84 1
68, 74, 79 1
72, 78, 85 1
73, 79, 86 1
73, 86, 84 1
143, 149, 160 1
139, 145, 150 1
130, 136, 141 1
124, 126, 136 1
113, 117, 128 1
111, 115, 126 1
110, 114, 125 1
109, 113, 124 1
108, 112, 123 1
102, 108, 119 1
101, 107, 118 1
100, 106, 117 1
95, 101, 112 1
94, 100, 111 1
88, 98, 105 1
86, 97, 101 1
71, 76, 79 1
69, 80, 84 1
69, 81, 83 1
69, 79, 79 1
72, 80, 79 1
126, 127, 137 1
125, 126, 136 1
70, 75, 78 1
70, 82, 88 1
68, 85, 88 1
68, 84, 90 1
65, 80, 83 1
68, 79, 83 1
99, 108, 117 1
63, 72, 76 1
82, 83, 93 1
74, 84, 91 1
69, 84, 87 1
67, 81, 87 1
65, 84, 89 1
67, 86, 91 1
69, 88, 93 1
64, 80, 86 1
142, 148, 153 1
105, 114, 123 1
104, 113, 122 1
102, 111, 120 1
98, 107, 116 1
86, 97, 105 1
65, 82, 85 1
59, 79, 84 1
60, 80, 85 1
61, 81, 86 1
63, 83, 88 1
66, 86, 91 1
67, 87, 92 1
69, 89, 94 1
71, 91, 96 1
66, 85, 90 1
61, 77, 83 1
64, 74, 74 1
142, 148, 155 1
137, 143, 150 1
102, 112, 119 1
100, 110, 117 1
98, 108, 115 1
97, 107, 114 1
96, 106, 113 1
95, 105, 112 1
94, 104, 111 1
93, 103, 110 1
91, 101, 108 1
90, 101, 109 1
88, 97, 106 1
87, 96, 105 1
83, 82, 91 1
77, 88, 85 1
80, 86, 93 1
69, 84, 86 1
68, 83, 85 1
63, 80, 83 1
62, 79, 82 1
56, 79, 81 1
57, 80, 82 1
57, 79, 84 1
60, 82, 87 1
63, 85, 90 1
65, 87, 92 1
68, 88, 93 1
70, 90, 95 1
71, 90, 95 1
66, 82, 88 1
59, 76, 79 1
58, 73, 76 1
66, 74, 74 1
66, 74, 73 1
116, 117, 127 1
104, 112, 119 1
101, 109, 116 1
97, 105, 112 1
95, 103, 110 1
90, 99, 108 1
89, 98, 107 1
80, 80, 86 1
81, 85, 90 1
82, 85, 93 1
83, 86, 94 1
71, 84, 86 1
67, 82, 84 1
66, 81, 83 1
65, 80, 82 1
59, 82, 84 1
63, 84, 86 1
66, 87, 89 1
67, 88, 90 1
69, 88, 91 1
70, 89, 92 1
61, 76, 79 1
64, 76, 78 1
110, 116, 123 1
109, 115, 122 1
107, 113, 120 1
106, 112, 119 1
105, 111, 118 1
104, 110, 117 1
102, 108, 115 1
100, 106, 113 1
98, 104, 111 1
97, 103, 110 1
92, 100, 107 1
91, 99, 106 1
89, 97, 104 1
86, 92, 97 1
77, 80, 84 1
79, 80, 84 1
78, 86, 85 1
85, 88, 93 1
75, 87, 87 1
71, 83, 83 1
69, 83, 82 1
66, 86, 87 1
68, 88, 89 1
70, 87, 90 1
73, 88, 91 1
68, 81, 83 1
63, 75, 77 1
64, 73, 76 1
135, 141, 148 1
122, 126, 131 1
116, 122, 127 1
120, 123, 131 1
117, 119, 127 1
114, 116, 124 1
111, 117, 122 1
109, 115, 120 1
108, 114, 119 1
107, 113, 118 1
105, 111, 116 1
104, 110, 115 1
102, 108, 113 1
99, 105, 110 1
98, 104, 109 1
96, 102, 107 1
100, 104, 109 1
97, 101, 106 1
94, 98, 103 1
92, 96, 101 1
90, 95, 98 1
69, 74, 75 1
72, 78, 77 1
69, 76, 73 1
71, 78, 75 1
77, 83, 82 1
82, 84, 85 1
81, 88, 83 1
82, 89, 84 1
86, 88, 89 1
88, 87, 91 1
88, 88, 88 1
72, 88, 87 1
70, 86, 85 1
68, 84, 83 1
73, 88, 90 1
72, 87, 89 1
74, 87, 89 1
120, 124, 129 1
118, 121, 126 1
103, 107, 112 1
99, 103, 108 1
98, 102, 107 1
97, 100, 104 1
95, 98, 102 1
90, 93, 97 1
70, 74, 75 1
69, 74, 73 1
70, 75, 74 1
71, 76, 75 1
71, 76, 74 1
77, 84, 81 1
79, 85, 80 1
80, 84, 79 1
81, 85, 80 1
80, 86, 81 1
84, 83, 85 1
85, 84, 86 1
86, 85, 87 1
88, 86, 85 1
87, 88, 86 1
90, 97, 94 1
80, 92, 92 1
77, 89, 89 1
93, 93, 93 1
94, 95, 91 1
94, 96, 90 1
121, 130, 134 1
117, 121, 126 1
97, 101, 102 1
95, 97, 98 1
91, 93, 94 1
84, 88, 83 1
86, 90, 85 1
83, 83, 83 1
85, 85, 85 1
92, 88, 87 1
91, 87, 86 1
88, 84, 83 1
84, 82, 81 1
83, 81, 80 1
82, 80, 79 1
81, 82, 78 1
79, 83, 78 1
90, 95, 93 1
95, 100, 99 1
94, 99, 98 1
96, 98, 98 1
100, 100, 100 1
106, 104, 104 1
110, 106, 105 1
112, 112, 106 1
140, 149, 153 1
137, 146, 150 1
120, 129, 133 1
118, 128, 128 1
118, 122, 127 1
116, 120, 125 1
111, 114, 119 1
105, 108, 113 1
102, 104, 105 1
98, 100, 101 1
93, 95, 96 1
88, 90, 90 1
71, 73, 73 1
73, 76, 74 1
76, 80, 75 1
86, 91, 89 1
84, 90, 85 1
88, 92, 87 1
88, 89, 87 1
91, 92, 90 1
92, 93, 91 1
93, 94, 92 1
101, 99, 99 1
104, 100, 99 1
106, 102, 101 1
109, 105, 104 1
111, 110, 106 1
109, 110, 106 1
110, 111, 107 1
111, 112, 108 1
113, 114, 112 1
113, 116, 114 1
116, 119, 117 1
122, 125, 123 1
123, 129, 128 1
124, 130, 129 1
127, 133, 132 1
129, 135, 134 1
132, 137, 136 1
136, 136, 136 1
140, 138, 138 1
142, 140, 140 1
145, 141, 140 1
145, 143, 142 1
146, 144, 143 1
146, 145, 141 1
146, 146, 140 1
147, 147, 141 1
139, 148, 152 1
134, 143, 147 1
128, 137, 141 1
122, 130, 130 1
124, 128, 133 1
116, 121, 124 1
102, 104, 104 1
97, 99, 99 1
93, 95, 95 1
94, 96, 96 1
68, 70, 70 1
72, 75, 73 1
76, 82, 77 1
77, 83, 78 1
78, 84, 79 1
88, 91, 89 1
89, 92, 90 1
88, 93, 92 1
95, 98, 96 1
94, 97, 95 1
97, 100, 98 1
100, 102, 102 1
101, 103, 104 1
102, 103, 107 1
103, 104, 108 1
99, 103, 104 1
100, 104, 105 1
102, 106, 107 1
104, 108, 109 1
105, 109, 110 1
107, 111, 112 1
108, 113, 114 1
111, 116, 117 1
113, 118, 119 1
116, 122, 121 1
118, 124, 123 1
121, 126, 125 1
120, 125, 124 1
122, 124, 124 1
127, 129, 129 1
135, 137, 137 1
140, 143, 141 1
140, 145, 143 1
138, 143, 141 1
135, 142, 139 1
137, 144, 141 1
142, 147, 145 1
145, 151, 146 1
147, 151, 146 1
146, 150, 145 1
149, 150, 148 1
150, 151, 149 1
151, 152, 150 1
152, 153, 151 1
153, 154, 152 1
152, 155, 153 1
154, 156, 156 1
155, 157, 157 1
160, 160, 160 1
161, 161, 161 1
165, 163, 162 1
168, 169, 167 1
166, 169, 167 1
167, 169, 169 1
168, 170, 170 1
168, 173, 172 1
177, 173, 172 1
175, 171, 170 1
174, 170, 169 1
172, 171, 167 1
171, 170, 166 1
171, 171, 165 1
123, 129, 134 1
120, 128, 128 1
122, 127, 130 1
114, 123, 126 1
115, 122, 125 1
114, 121, 124 1
115, 120, 123 1
113, 118, 121 1
106, 110, 115 1
104, 108, 113 1
91, 93, 93 1
70, 72, 72 1
80, 80, 80 1
86, 92, 87 1
89, 95, 90 1
90, 96, 91 1
97, 102, 100 1
96, 101, 99 1
97, 102, 101 1
100, 105, 104 1
102, 107, 106 1
107, 109, 110 1
109, 111, 112 1
109, 113, 114 1
111, 115, 116 1
112, 117, 116 1
113, 118, 117 1
114, 119, 118 1
114, 118, 119 1
116, 120, 121 1
118, 122, 123 1
119, 123, 124 1
122, 126, 127 1
131, 135, 136 1
133, 137, 138 1
136, 138, 138 1
137, 139, 139 1
139, 141, 141 1
141, 143, 143 1
141, 145, 146 1
145, 149, 150 1
147, 152, 151 1
150, 155, 154 1
157, 162, 161 1
165, 167, 167 1
164, 166, 166 1
159, 161, 161 1
160, 162, 163 1
161, 163, 164 1
161, 162, 166 1
162, 163, 167 1
163, 164, 168 1
165, 169, 170 1
168, 172, 173 1
170, 174, 175 1
171, 175, 176 1
175, 179, 180 1
174, 178, 179 1
168, 173, 174 1
163, 168, 169 1
163, 169, 168 1
166, 172, 171 1
167, 175, 174 1
170, 178, 177 1
170, 176, 175 1
173, 176, 174 1
170, 177, 174 1
170, 176, 171 1
169, 175, 170 1
181, 183, 183 1
176, 176, 176 1
175, 176, 174 1
177, 180, 178 1
177, 179, 179 1
176, 178, 178 1
170, 175, 174 1
170, 172, 173 1
170, 170, 170 1
177, 172, 173 1
176, 171, 172 1
