72, 80, 79 187
69, 76, 79 173
72, 80, 80 148
67, 74, 77 146
69, 79, 79 131
72, 79, 82 126
74, 81, 84 102
68, 75, 78 101
71, 79, 78 97
75, 82, 85 94
68, 78, 78 94
69, 78, 82 94
71, 79, 79 87
73, 81, 81 86
70, 80, 80 84
71, 75, 76 84
73, 80, 83 80
71, 78, 81 75
66, 73, 76 74
111, 116, 125 69
69, 78, 81 65
71, 80, 84 62
116, 120, 131 60
112, 119, 128 58
65, 72, 75 58
64, 70, 75 55
73, 81, 80 54
68, 76, 76 53
106, 114, 121 51
117, 121, 132 49
67, 75, 75 49
108, 116, 123 47
70, 79, 83 46
115, 119, 130 45
105, 113, 120 44
64, 71, 74 43
63, 74, 78 43
69, 77, 77 42
66, 75, 79 42
99, 107, 114 41
68, 77, 80 40
67, 73, 78 40
69, 77, 76 40
72, 78, 83 38
66, 74, 74 38
130, 138, 145 37
75, 80, 81 37
111, 119, 126 37
70, 74, 75 36
69, 80, 78 36
69, 75, 80 36
113, 121, 128 36
113, 118, 127 36
113, 120, 129 35
109, 117, 124 35
66, 75, 78 33
70, 76, 81 33
75, 79, 80 33
107, 115, 122 33
69, 74, 73 33
110, 116, 123 32
70, 79, 82 32
101, 108, 117 31
70, 77, 80 31
71, 77, 82 31
68, 77, 81 31
110, 115, 124 31
71, 80, 83 30
68, 74, 79 30
114, 119, 128 30
121, 128, 137 29
112, 120, 127 29
72, 81, 85 29
70, 75, 73 29
71, 74, 79 28
63, 69, 74 28
100, 108, 115 28
100, 107, 116 27
111, 118, 127 27
102, 109, 118 26
70, 78, 78 26
65, 74, 78 26
69, 73, 74 26
94, 102, 109 25
62, 69, 72 25
109, 114, 123 25
128, 136, 143 24
122, 129, 138 24
72, 76, 77 24
105, 114, 118 24
104, 113, 117 24
61, 68, 71 24
65, 75, 75 23
116, 123, 132 23
67, 76, 79 23
70, 78, 77 23
107, 117, 124 23
67, 76, 80 23
66, 74, 81 23
68, 72, 73 23
132, 140, 147 22
74, 82, 82 22
70, 73, 78 22
95, 103, 110 22
74, 80, 79 22
119, 127, 134 22
65, 73, 80 22
64, 73, 77 22
70, 81, 79 21
106, 116, 123 21
63, 70, 73 21
65, 74, 77 21
62, 74, 78 21
125, 133, 140 20
110, 118, 125 20
93, 101, 108 20
105, 115, 122 20
69, 73, 78 19
98, 106, 113 19
65, 71, 76 19
66, 76, 76 19
104, 112, 119 19
69, 74, 72 19
107, 114, 117 19
120, 127, 136 18
76, 80, 81 18
72, 81, 84 18
109, 115, 122 18
76, 81, 80 18
74, 79, 80 18
120, 128, 135 18
116, 124, 131 18
71, 76, 74 18
108, 115, 118 18
127, 135, 142 17
70, 73, 77 17
99, 106, 115 17
61, 67, 72 17
115, 122, 131 17
108, 115, 124 17
67, 75, 82 17
115, 123, 130 17
61, 69, 69 17
66, 71, 74 17
123, 130, 139 16
66, 70, 75 16
71, 81, 81 16
68, 79, 77 16
97, 105, 112 16
103, 114, 118 16
112, 117, 126 16
101, 109, 116 16
77, 84, 93 16
104, 111, 114 16
62, 70, 70 16
68, 73, 72 16
109, 116, 119 16
129, 137, 144 15
119, 126, 135 15
67, 71, 76 15
76, 76, 82 15
59, 65, 70 15
60, 67, 70 15
62, 73, 77 15
131, 137, 144 15
72, 76, 70 15
62, 68, 73 14
76, 83, 86 14
73, 82, 85 14
71, 74, 78 14
75, 80, 79 14
72, 78, 77 14
114, 118, 129 14
69, 72, 76 14
117, 125, 132 14
128, 133, 142 14
106, 115, 119 14
67, 78, 82 14
133, 141, 148 13
118, 125, 134 13
117, 124, 133 13
68, 72, 77 13
70, 77, 74 13
69, 72, 77 13
67, 77, 77 13
69, 76, 73 13
68, 75, 72 13
92, 100, 107 13
74, 77, 81 13
108, 114, 121 13
114, 122, 129 13
103, 112, 116 13
64, 75, 79 13
70, 76, 75 13
66, 71, 72 13
68, 73, 71 13
67, 72, 70 13
65, 69, 74 12
71, 75, 80 12
126, 133, 142 12
71, 76, 79 12
74, 77, 75 12
70, 76, 83 12
131, 139, 146 12
118, 126, 133 12
104, 114, 121 12
102, 111, 115 12
70, 75, 76 12
66, 76, 83 12
132, 138, 145 12
65, 70, 68 12
70, 76, 71 12
123, 131, 138 11
104, 111, 120 11
103, 110, 119 11
125, 132, 141 11
73, 79, 78 11
91, 99, 106 11
75, 78, 76 11
72, 77, 78 11
115, 120, 129 11
104, 115, 119 11
68, 76, 83 11
121, 129, 136 11
107, 116, 120 11
69, 74, 75 11
69, 75, 74 11
114, 121, 130 10
106, 113, 122 10
76, 81, 84 10
69, 74, 77 10
65, 72, 69 10
127, 134, 143 10
110, 117, 126 10
64, 68, 73 10
73, 75, 75 10
65, 73, 73 10
80, 88, 95 10
103, 110, 113 10
67, 72, 75 10
74, 77, 82 10
61, 73, 77 10
104, 110, 115 10
107, 114, 123 9
95, 102, 111 9
70, 74, 79 9
66, 72, 77 9
75, 80, 83 9
124, 131, 140 9
87, 95, 102 9
130, 139, 148 9
85, 93, 100 9
102, 113, 117 9
103, 111, 118 9
60, 68, 68 9
71, 76, 75 9
92, 101, 110 9
74, 76, 76 9
126, 134, 141 8
73, 82, 86 8
74, 76, 77 8
4, 0, 0 8
133, 140, 149 8
131, 140, 149 8
109, 116, 125 8
70, 75, 78 8
58, 65, 74 8
79, 86, 95 8
116, 122, 129 8
96, 104, 111 8
120, 126, 133 8
56, 64, 71 8
59, 66, 69 8
103, 113, 120 8
105, 112, 115 8
80, 87, 96 8
108, 113, 122 8
114, 124, 131 8
66, 72, 71 8
72, 74, 75 8
66, 71, 69 8
102, 110, 110 8
75, 77, 77 8
105, 114, 117 8
62, 67, 66 8
134, 142, 149 7
118, 122, 133 7
5, 0, 0 7
68, 73, 76 7
72, 82, 82 7
67, 75, 74 7
72, 79, 76 7
105, 112, 121 7
67, 78, 76 7
71, 77, 76 7
88, 96, 103 7
72, 73, 77 7
72, 75, 80 7
73, 77, 78 7
68, 71, 76 7
75, 76, 80 7
66, 69, 67 7
86, 94, 101 7
83, 91, 98 7
57, 64, 73 7
115, 121, 128 7
65, 70, 73 7
61, 73, 79 7
60, 72, 78 7
108, 114, 119 7
105, 111, 116 7
64, 74, 74 7
75, 75, 81 7
107, 113, 118 7
71, 74, 72 7
69, 72, 70 7
129, 138, 142 7
66, 72, 67 7
67, 73, 68 7
106, 114, 114 7
98, 105, 114 6
93, 100, 109 6
91, 98, 107 6
75, 83, 83 6
66, 77, 75 6
74, 82, 81 6
90, 98, 105 6
60, 66, 71 6
63, 67, 72 6
75, 78, 83 6
74, 79, 78 6
58, 66, 73 6
71, 77, 84 6
118, 124, 131 6
119, 128, 132 6
84, 93, 97 6
122, 130, 137 6
130, 136, 143 6
70, 75, 74 6
60, 74, 80 6
59, 68, 71 6
89, 98, 107 6
57, 66, 70 6
115, 125, 132 6
113, 123, 130 6
102, 109, 112 6
112, 122, 129 6
64, 69, 70 6
63, 69, 68 6
111, 121, 128 6
67, 72, 71 6
68, 74, 73 6
67, 73, 72 6
75, 77, 78 6
70, 73, 71 6
65, 68, 66 6
99, 102, 106 6
105, 113, 113 6
153, 158, 157 6
154, 159, 158 6
124, 132, 139 5
73, 78, 81 5
9, 0, 0 5
68, 79, 83 5
71, 73, 74 5
70, 77, 72 5
94, 101, 110 5
68, 76, 75 5
7, 2, 0 5
127, 136, 145 5
73, 74, 78 5
82, 88, 93 5
107, 113, 120 5
62, 66, 71 5
64, 67, 65 5
78, 85, 94 5
69, 77, 84 5
59, 67, 67 5
106, 112, 117 5
73, 76, 80 5
73, 77, 82 5
66, 77, 81 5
129, 134, 143 5
123, 133, 140 5
73, 76, 81 5
67, 77, 84 5
58, 66, 66 5
78, 87, 96 5
62, 74, 76 5
61, 66, 65 5
106, 113, 116 5
65, 70, 69 5
103, 111, 111 5
60, 65, 64 5
72, 76, 71 5
98, 101, 106 5
71, 77, 72 5
69, 75, 70 5
68, 74, 69 5
102, 110, 109 5
110, 115, 118 5
111, 117, 124 4
2, 0, 0 4
64, 73, 76 4
90, 97, 106 4
69, 80, 84 4
78, 82, 83 4
97, 104, 113 4
65, 76, 74 4
134, 141, 150 4
71, 78, 75 4
74, 78, 79 4
78, 79, 77 4
129, 138, 147 4
89, 97, 104 4
72, 75, 73 4
77, 80, 78 4
84, 90, 95 4
76, 79, 77 4
73, 79, 84 4
76, 79, 84 4
77, 78, 82 4
74, 78, 83 4
77, 77, 83 4
67, 71, 72 4
77, 77, 77 4
105, 116, 120 4
84, 92, 99 4
57, 65, 72 4
117, 123, 130 4
102, 110, 117 4
81, 89, 96 4
70, 77, 86 4
120, 129, 133 4
82, 91, 95 4
68, 71, 75 4
72, 77, 76 4
62, 70, 77 4
67, 72, 73 4
62, 78, 84 4
90, 99, 108 4
71, 79, 86 4
116, 126, 133 4
105, 114, 123 4
64, 69, 72 4
61, 73, 73 4
73, 75, 76 4
66, 71, 70 4
109, 119, 126 4
63, 68, 67 4
73, 78, 76 4
72, 74, 74 4
66, 73, 70 4
67, 74, 71 4
94, 97, 102 4
78, 77, 79 4
128, 137, 141 4
104, 112, 112 4
104, 108, 109 4
102, 105, 109 4
67, 70, 68 4
103, 106, 110 4
131, 140, 144 4
151, 156, 155 4
112, 121, 125 4
103, 109, 108 4
159, 158, 160 4
112, 118, 125 3
92, 99, 108 3
67, 73, 80 3
5, 1, 0 3
7, 0, 0 3
11, 0, 0 3
71, 72, 70 3
68, 77, 74 3
69, 78, 75 3
93, 99, 106 3
83, 89, 96 3
13, 4, 1 3
76, 74, 73 3
130, 137, 146 3
82, 88, 95 3
65, 73, 72 3
67, 76, 73 3
132, 139, 148 3
77, 82, 85 3
81, 87, 94 3
75, 78, 82 3
85, 91, 96 3
76, 82, 87 3
74, 79, 82 3
4, 2, 1 3
96, 103, 112 3
78, 84, 89 3
44, 39, 38 3
80, 78, 77 3
125, 136, 144 3
88, 94, 99 3
76, 77, 81 3
71, 71, 71 3
75, 76, 74 3
73, 78, 77 3
66, 72, 79 3
66, 73, 82 3
116, 121, 130 3
82, 90, 97 3
76, 83, 92 3
119, 125, 132 3
69, 76, 85 3
59, 66, 75 3
64, 72, 79 3
118, 127, 131 3
85, 94, 98 3
79, 87, 94 3
86, 95, 99 3
71, 78, 87 3
62, 69, 78 3
59, 67, 74 3
92, 101, 105 3
63, 73, 80 3
108, 117, 121 3
61, 70, 74 3
62, 71, 75 3
60, 72, 76 3
61, 72, 76 3
60, 69, 72 3
68, 73, 74 3
73, 78, 79 3
61, 75, 81 3
61, 66, 67 3
56, 65, 69 3
60, 77, 80 3
59, 73, 79 3
57, 67, 67 3
117, 127, 134 3
93, 102, 111 3
83, 92, 101 3
57, 77, 82 3
62, 82, 87 3
106, 115, 124 3
103, 109, 114 3
97, 107, 114 3
76, 75, 84 3
56, 64, 63 3
55, 63, 62 3
60, 73, 75 3
64, 70, 69 3
72, 75, 83 3
101, 107, 112 3
96, 102, 109 3
65, 70, 71 3
66, 74, 73 3
109, 115, 120 3
68, 71, 69 3
73, 77, 72 3
97, 100, 105 3
96, 99, 104 3
93, 96, 101 3
92, 95, 100 3
71, 75, 69 3
73, 76, 74 3
76, 78, 78 3
78, 86, 85 3
73, 84, 82 3
81, 82, 80 3
110, 120, 127 3
80, 84, 85 3
63, 66, 64 3
73, 77, 71 3
96, 94, 93 3
130, 139, 143 3
101, 109, 108 3
103, 107, 108 3
90, 91, 95 3
70, 74, 68 3
71, 73, 73 3
93, 91, 90 3
95, 96, 92 3
134, 130, 129 3
82, 86, 80 3
108, 110, 111 3
153, 154, 152 3
158, 156, 155 3
89, 92, 96 3
163, 165, 166 3
159, 161, 161 3
155, 160, 159 3
155, 157, 157 3
85, 91, 98 2
74, 83, 86 2
78, 83, 84 2
79, 83, 84 2
45, 42, 44 2
4, 2, 2 2
12, 0, 0 2
6, 1, 0 2
3, 1, 0 2
74, 75, 73 2
78, 81, 79 2
54, 64, 64 2
60, 68, 67 2
57, 66, 63 2
77, 83, 90 2
14, 2, 0 2
72, 70, 69 2
81, 79, 78 2
61, 69, 68 2
129, 136, 145 2
86, 92, 99 2
68, 70, 71 2
84, 79, 78 2
88, 95, 104 2
79, 84, 87 2
12, 5, 2 2
78, 73, 72 2
71, 80, 77 2
73, 71, 70 2
128, 137, 146 2
8, 3, 0 2
8, 4, 3 2
0, 1, 0 2
126, 135, 144 2
89, 95, 100 2
77, 80, 84 2
73, 74, 72 2
76, 79, 83 2
62, 58, 57 2
60, 56, 55 2
61, 57, 56 2
126, 137, 145 2
61, 65, 70 2
74, 74, 74 2
75, 75, 75 2
79, 80, 78 2
87, 94, 103 2
75, 82, 79 2
75, 82, 91 2
65, 71, 78 2
117, 122, 131 2
121, 127, 134 2
58, 64, 69 2
120, 126, 131 2
61, 68, 77 2
60, 67, 76 2
87, 96, 100 2
83, 92, 96 2
89, 98, 102 2
88, 97, 101 2
132, 138, 143 2
63, 75, 79 2
63, 72, 76 2
89, 99, 106 2
86, 96, 103 2
83, 93, 100 2
81, 88, 97 2
78, 86, 93 2
61, 76, 79 2
59, 71, 75 2
60, 71, 75 2
119, 129, 136 2
107, 116, 125 2
101, 108, 111 2
96, 105, 114 2
86, 95, 104 2
81, 90, 99 2
72, 76, 81 2
57, 71, 77 2
124, 134, 141 2
77, 86, 96 2
74, 76, 84 2
59, 74, 77 2
55, 77, 82 2
58, 80, 85 2
52, 68, 74 2
51, 65, 71 2
108, 118, 125 2
69, 75, 82 2
61, 74, 76 2
55, 70, 73 2
52, 64, 68 2
99, 108, 112 2
73, 73, 79 2
58, 71, 73 2
52, 75, 77 2
60, 81, 83 2
55, 67, 71 2
62, 68, 67 2
60, 66, 65 2
92, 97, 106 2
60, 65, 66 2
72, 75, 79 2
56, 76, 77 2
102, 107, 110 2
97, 101, 106 2
88, 91, 99 2
81, 86, 89 2
58, 63, 64 2
65, 71, 70 2
71, 75, 70 2
74, 81, 78 2
77, 81, 82 2
78, 79, 83 2
61, 77, 76 2
122, 134, 140 2
117, 129, 135 2
104, 113, 116 2
90, 93, 98 2
89, 92, 97 2
77, 76, 78 2
74, 84, 84 2
107, 116, 119 2
87, 90, 95 2
88, 92, 93 2
85, 89, 90 2
81, 85, 86 2
78, 78, 78 2
80, 77, 79 2
68, 69, 65 2
65, 69, 64 2
84, 91, 88 2
89, 95, 94 2
88, 88, 88 2
100, 95, 96 2
101, 104, 108 2
98, 101, 105 2
95, 96, 100 2
87, 91, 92 2
84, 88, 89 2
74, 78, 73 2
85, 85, 85 2
87, 87, 87 2
90, 87, 89 2
121, 126, 125 2
124, 129, 128 2
131, 129, 128 2
111, 116, 119 2
109, 117, 117 2
103, 111, 110 2
59, 64, 63 2
68, 70, 70 2
70, 72, 72 2
72, 77, 75 2
77, 81, 76 2
84, 88, 82 2
83, 87, 81 2
86, 89, 87 2
108, 112, 113 2
123, 129, 128 2
131, 136, 134 2
134, 136, 136 2
149, 149, 149 2
152, 152, 152 2
152, 153, 151 2
150, 155, 153 2
156, 158, 158 2
161, 159, 159 2
161, 157, 156 2
158, 157, 153 2
113, 122, 126 2
109, 118, 122 2
82, 88, 83 2
92, 94, 94 2
119, 124, 123 2
123, 128, 126 2
126, 129, 127 2
138, 142, 137 2
146, 150, 144 2
136, 140, 134 2
148, 150, 150 2
157, 161, 162 2
156, 162, 161 2
158, 164, 163 2
160, 162, 162 2
164, 166, 167 2
161, 160, 162 2
162, 163, 161 2
163, 164, 162 2
162, 165, 163 2
161, 163, 163 2
157, 157, 157 2
158, 156, 156 2
135, 143, 150 1
119, 123, 134 1
94, 100, 107 1
89, 95, 102 1
78, 84, 91 1
76, 81, 82 1
68, 67, 69 1
26, 12, 6 1
39, 25, 19 1
45, 34, 30 1
46, 35, 31 1
29, 17, 15 1
8, 1, 0 1
7, 3, 2 1
8, 9, 7 1
54, 55, 53 1
80, 83, 81 1
63, 73, 73 1
57, 65, 65 1
58, 66, 65 1
59, 66, 63 1
60, 67, 62 1
59, 66, 61 1
61, 68, 63 1
65, 72, 67 1
68, 75, 70 1
69, 76, 71 1
87, 93, 100 1
72, 77, 80 1
66, 65, 67 1
5, 3, 3 1
6, 1, 2 1
10, 1, 0 1
15, 4, 0 1
14, 0, 0 1
22, 6, 0 1
30, 15, 12 1
45, 30, 27 1
53, 38, 35 1
39, 26, 24 1
20, 8, 6 1
11, 7, 6 1
56, 52, 51 1
82, 80, 79 1
60, 70, 70 1
62, 70, 69 1
59, 67, 66 1
59, 68, 65 1
62, 71, 68 1
62, 69, 64 1
63, 70, 65 1
64, 71, 66 1
67, 74, 69 1
79, 84, 85 1
63, 62, 64 1
44, 41, 43 1
6, 4, 4 1
9, 4, 1 1
18, 6, 0 1
21, 7, 1 1
24, 8, 2 1
22, 3, 0 1
21, 2, 0 1
38, 21, 18 1
60, 42, 41 1
59, 44, 42 1
43, 30, 28 1
27, 14, 12 1
13, 1, 1 1
12, 4, 4 1
56, 51, 50 1
75, 70, 69 1
79, 74, 73 1
83, 78, 77 1
66, 75, 72 1
92, 98, 105 1
88, 94, 101 1
75, 81, 88 1
65, 64, 66 1
47, 44, 46 1
12, 10, 10 1
35, 26, 22 1
61, 49, 43 1
81, 69, 63 1
81, 67, 61 1
27, 10, 7 1
16, 0, 0 1
19, 1, 0 1
40, 25, 23 1
44, 29, 27 1
79, 66, 64 1
54, 42, 40 1
8, 0, 0 1
9, 1, 1 1
46, 41, 40 1
82, 78, 77 1
70, 79, 76 1
91, 97, 104 1
75, 81, 86 1
72, 71, 73 1
52, 51, 53 1
21, 18, 20 1
6, 2, 1 1
25, 20, 17 1
66, 57, 53 1
88, 77, 73 1
93, 81, 75 1
86, 74, 68 1
37, 25, 21 1
15, 3, 1 1
41, 32, 29 1
28, 20, 20 1
10, 2, 2 1
7, 2, 1 1
39, 37, 36 1
79, 77, 76 1
90, 96, 103 1
81, 87, 92 1
74, 73, 77 1
57, 56, 58 1
29, 28, 30 1
3, 1, 1 1
19, 12, 9 1
19, 10, 6 1
27, 16, 12 1
34, 24, 17 1
9, 2, 0 1
40, 41, 39 1
71, 72, 76 1
60, 59, 63 1
39, 38, 40 1
10, 9, 11 1
0, 0, 0 1
8, 5, 1 1
10, 4, 0 1
4, 1, 0 1
10, 6, 5 1
13, 9, 8 1
5, 3, 2 1
10, 11, 9 1
44, 45, 43 1
78, 81, 85 1
63, 64, 68 1
48, 49, 53 1
36, 38, 39 1
31, 33, 34 1
33, 33, 33 1
36, 37, 35 1
43, 41, 40 1
42, 39, 35 1
45, 40, 37 1
40, 35, 32 1
37, 32, 29 1
40, 35, 34 1
39, 34, 33 1
43, 39, 38 1
41, 37, 36 1
44, 39, 40 1
46, 41, 42 1
50, 46, 45 1
63, 61, 60 1
78, 76, 75 1
71, 82, 80 1
77, 83, 88 1
69, 70, 74 1
58, 59, 63 1
52, 53, 57 1
58, 60, 61 1
57, 59, 59 1
55, 57, 57 1
61, 62, 60 1
58, 56, 55 1
62, 59, 55 1
64, 61, 57 1
64, 59, 60 1
65, 60, 61 1
63, 58, 59 1
67, 62, 63 1
70, 65, 66 1
74, 69, 70 1
77, 75, 75 1
83, 81, 80 1
68, 69, 73 1
63, 66, 70 1
66, 70, 71 1
67, 69, 69 1
70, 71, 69 1
71, 69, 68 1
69, 67, 66 1
66, 67, 65 1
72, 72, 72 1
73, 73, 73 1
70, 70, 70 1
79, 79, 79 1
127, 138, 146 1
67, 70, 75 1
71, 76, 77 1
75, 79, 84 1
77, 80, 85 1
77, 79, 79 1
78, 83, 82 1
73, 80, 89 1
65, 72, 81 1
74, 81, 90 1
67, 74, 83 1
121, 127, 132 1
117, 126, 130 1
90, 99, 103 1
112, 114, 124 1
91, 100, 104 1
72, 79, 88 1
63, 70, 79 1
60, 68, 75 1
107, 118, 122 1
81, 90, 94 1
79, 85, 92 1
74, 80, 85 1
61, 70, 73 1
62, 67, 68 1
81, 92, 96 1
78, 89, 93 1
74, 80, 87 1
62, 74, 80 1
58, 68, 68 1
102, 112, 119 1
91, 100, 109 1
81, 91, 98 1
78, 88, 95 1
72, 80, 87 1
57, 66, 69 1
59, 76, 79 1
63, 79, 85 1
59, 70, 74 1
58, 69, 73 1
60, 75, 78 1
57, 78, 80 1
56, 76, 81 1
60, 80, 85 1
63, 82, 87 1
62, 81, 86 1
59, 78, 83 1
58, 74, 80 1
56, 72, 78 1
58, 72, 78 1
57, 69, 75 1
56, 68, 72 1
56, 66, 66 1
98, 108, 115 1
77, 86, 95 1
76, 85, 94 1
58, 67, 71 1
58, 73, 76 1
56, 70, 76 1
50, 72, 77 1
51, 73, 78 1
52, 74, 79 1
53, 75, 80 1
57, 79, 84 1
59, 79, 84 1
57, 76, 81 1
53, 72, 77 1
54, 68, 74 1
52, 66, 72 1
52, 64, 70 1
55, 65, 65 1
56, 64, 64 1
118, 128, 135 1
101, 110, 114 1
88, 97, 106 1
85, 94, 103 1
80, 89, 98 1
67, 70, 74 1
68, 74, 81 1
57, 72, 75 1
56, 71, 74 1
54, 69, 72 1
47, 72, 74 1
48, 73, 75 1
49, 74, 76 1
50, 75, 79 1
56, 78, 83 1
61, 81, 86 1
54, 73, 78 1
50, 66, 72 1
53, 65, 69 1
56, 62, 61 1
104, 113, 122 1
100, 109, 113 1
85, 92, 101 1
84, 91, 100 1
82, 89, 98 1
77, 85, 92 1
63, 68, 69 1
72, 72, 78 1
57, 70, 72 1
51, 74, 76 1
54, 77, 79 1
57, 80, 82 1
62, 81, 84 1
58, 77, 80 1
56, 73, 76 1
56, 67, 71 1
57, 68, 72 1
59, 68, 72 1
61, 67, 66 1
129, 135, 142 1
99, 105, 110 1
97, 103, 110 1
89, 94, 103 1
88, 93, 102 1
87, 92, 101 1
85, 90, 99 1
58, 65, 68 1
63, 74, 72 1
63, 75, 75 1
62, 74, 74 1
55, 75, 76 1
57, 77, 78 1
61, 81, 82 1
62, 82, 83 1
63, 81, 82 1
62, 79, 82 1
58, 70, 72 1
133, 139, 146 1
120, 132, 138 1
114, 126, 132 1
104, 109, 112 1
103, 108, 111 1
101, 106, 109 1
100, 104, 109 1
98, 102, 107 1
98, 101, 109 1
96, 99, 107 1
94, 97, 105 1
92, 95, 103 1
90, 93, 101 1
89, 92, 100 1
85, 89, 94 1
83, 87, 92 1
64, 73, 70 1
65, 74, 71 1
79, 78, 82 1
62, 78, 77 1
63, 79, 78 1
65, 81, 80 1
68, 82, 81 1
66, 79, 81 1
64, 76, 78 1
61, 65, 66 1
64, 68, 69 1
69, 71, 72 1
70, 72, 73 1
131, 137, 142 1
106, 115, 118 1
104, 109, 110 1
103, 108, 109 1
102, 107, 108 1
100, 105, 108 1
98, 103, 106 1
88, 91, 96 1
86, 91, 94 1
83, 88, 91 1
61, 66, 64 1
76, 75, 77 1
77, 79, 80 1
76, 77, 75 1
75, 84, 81 1
70, 83, 81 1
81, 79, 79 1
83, 81, 81 1
84, 82, 82 1
83, 84, 82 1
82, 83, 81 1
118, 130, 136 1
100, 103, 107 1
91, 94, 99 1
62, 65, 63 1
76, 78, 79 1
77, 78, 76 1
81, 78, 80 1
75, 73, 72 1
69, 70, 68 1
68, 69, 67 1
64, 68, 63 1
80, 87, 84 1
82, 89, 86 1
85, 91, 90 1
86, 92, 91 1
87, 93, 92 1
90, 96, 95 1
91, 97, 96 1
88, 93, 92 1
85, 90, 89 1
86, 88, 88 1
91, 89, 89 1
94, 92, 92 1
99, 94, 95 1
98, 96, 95 1
100, 98, 97 1
123, 135, 141 1
97, 100, 104 1
97, 98, 102 1
96, 97, 101 1
93, 94, 98 1
91, 92, 96 1
57, 62, 60 1
71, 76, 67 1
70, 75, 66 1
76, 76, 76 1
80, 79, 81 1
81, 83, 83 1
80, 82, 82 1
77, 82, 81 1
79, 84, 83 1
75, 81, 80 1
73, 80, 77 1
75, 81, 76 1
74, 80, 75 1
80, 81, 79 1
79, 82, 80 1
81, 84, 82 1
82, 85, 83 1
89, 87, 87 1
90, 88, 88 1
93, 94, 92 1
93, 97, 92 1
96, 100, 95 1
98, 101, 99 1
100, 103, 101 1
101, 106, 104 1
105, 110, 108 1
109, 114, 112 1
111, 116, 114 1
113, 118, 116 1
115, 120, 118 1
116, 121, 119 1
118, 123, 121 1
123, 128, 127 1
125, 127, 127 1
124, 126, 126 1
125, 125, 125 1
126, 126, 126 1
129, 127, 127 1
133, 128, 129 1
134, 129, 128 1
132, 130, 129 1
135, 133, 132 1
127, 136, 140 1
94, 95, 99 1
92, 93, 97 1
83, 87, 88 1
65, 71, 66 1
66, 68, 68 1
65, 67, 67 1
69, 71, 71 1
74, 79, 77 1
75, 80, 78 1
76, 82, 77 1
78, 82, 77 1
80, 84, 78 1
85, 89, 84 1
86, 90, 85 1
88, 92, 87 1
86, 92, 87 1
87, 89, 89 1
89, 91, 91 1
91, 93, 94 1
95, 94, 96 1
96, 95, 97 1
97, 97, 97 1
99, 99, 99 1
100, 101, 99 1
102, 103, 101 1
102, 105, 103 1
106, 108, 108 1
108, 110, 110 1
111, 113, 114 1
120, 122, 123 1
127, 129, 130 1
130, 132, 133 1
129, 134, 133 1
131, 136, 135 1
126, 132, 131 1
126, 133, 130 1
129, 136, 133 1
135, 137, 137 1
136, 138, 138 1
137, 139, 139 1
139, 141, 141 1
141, 143, 143 1
142, 144, 144 1
145, 147, 147 1
153, 153, 153 1
154, 153, 155 1
155, 152, 154 1
154, 151, 153 1
153, 150, 152 1
152, 150, 149 1
153, 151, 150 1
154, 152, 151 1
149, 152, 150 1
150, 153, 151 1
151, 154, 152 1
152, 155, 153 1
151, 156, 154 1
152, 157, 156 1
157, 159, 159 1
158, 158, 158 1
160, 158, 158 1
162, 158, 157 1
157, 155, 154 1
157, 156, 152 1
126, 135, 139 1
113, 124, 128 1
106, 117, 121 1
109, 120, 124 1
110, 119, 123 1
100, 108, 107 1
102, 105, 110 1
101, 104, 109 1
100, 103, 108 1
95, 98, 103 1
76, 81, 79 1
79, 84, 82 1
80, 85, 83 1
81, 86, 84 1
83, 89, 84 1
83, 90, 87 1
84, 90, 89 1
87, 92, 91 1
89, 94, 93 1
90, 95, 94 1
91, 93, 93 1
93, 95, 95 1
96, 98, 98 1
96, 101, 100 1
98, 103, 102 1
99, 104, 103 1
101, 106, 105 1
102, 107, 106 1
100, 106, 105 1
102, 108, 107 1
104, 110, 109 1
106, 112, 111 1
120, 125, 124 1
121, 126, 124 1
122, 127, 125 1
128, 131, 129 1
132, 136, 131 1
144, 148, 142 1
137, 141, 135 1
137, 141, 136 1
140, 143, 141 1
141, 144, 142 1
142, 145, 143 1
145, 148, 146 1
146, 149, 147 1
150, 152, 153 1
153, 155, 156 1
157, 156, 158 1
163, 163, 163 1
159, 159, 159 1
151, 153, 154 1
154, 156, 157 1
156, 157, 161 1
158, 160, 161 1
159, 161, 162 1
165, 167, 168 1
161, 165, 166 1
162, 166, 167 1
158, 163, 164 1
158, 163, 162 1
156, 161, 159 1
160, 162, 163 1
162, 164, 165 1
173, 175, 176 1
170, 172, 173 1
162, 161, 163 1
160, 160, 160 1
161, 161, 161 1
165, 166, 164 1
164, 167, 165 1
159, 158, 154 1
158, 159, 155 1
