76, 85, 89 184
71, 80, 84 182
73, 82, 86 151
75, 84, 88 147
72, 81, 85 108
71, 79, 86 93
75, 82, 85 89
112, 119, 128 82
80, 87, 90 81
74, 83, 87 77
70, 78, 85 77
76, 83, 86 73
108, 115, 124 72
77, 86, 90 67
74, 81, 84 67
70, 79, 83 66
75, 81, 86 62
71, 81, 81 60
78, 85, 88 58
74, 80, 85 58
109, 116, 125 57
79, 86, 89 57
111, 118, 127 57
72, 79, 82 54
71, 80, 83 54
107, 115, 122 53
112, 120, 127 52
107, 114, 123 52
75, 84, 87 48
72, 80, 80 46
81, 88, 91 45
111, 119, 126 44
77, 87, 87 44
75, 83, 83 44
108, 113, 122 44
82, 90, 90 42
73, 80, 83 42
113, 120, 129 41
78, 87, 91 40
78, 88, 88 40
107, 112, 121 40
112, 121, 125 39
80, 86, 91 38
72, 81, 84 38
72, 82, 82 38
73, 79, 84 37
115, 123, 130 36
79, 88, 92 36
108, 116, 123 36
71, 78, 81 35
72, 80, 87 34
76, 84, 91 34
73, 81, 88 34
76, 86, 86 33
76, 82, 87 33
76, 85, 88 32
69, 74, 73 32
77, 84, 87 31
106, 114, 121 31
73, 83, 83 31
82, 89, 92 30
80, 88, 88 30
71, 75, 76 30
110, 117, 126 29
109, 114, 123 28
75, 85, 85 27
78, 84, 89 26
68, 75, 78 26
70, 82, 84 26
77, 82, 83 26
73, 76, 81 26
80, 88, 87 26
70, 79, 82 26
108, 111, 119 25
129, 138, 142 24
114, 122, 129 24
109, 117, 124 24
79, 87, 87 24
81, 89, 89 24
73, 82, 85 24
76, 84, 84 24
131, 141, 148 23
113, 121, 128 23
69, 78, 82 23
77, 86, 89 23
70, 74, 75 23
105, 113, 120 23
70, 72, 80 23
79, 89, 89 22
120, 128, 135 22
115, 120, 129 22
69, 76, 79 22
101, 107, 114 22
110, 115, 124 22
69, 79, 79 22
72, 80, 79 22
102, 106, 117 21
116, 124, 131 21
119, 127, 134 21
71, 79, 79 21
130, 139, 143 21
69, 71, 79 21
74, 82, 82 21
107, 113, 120 21
82, 88, 93 20
67, 74, 77 20
105, 112, 121 20
112, 122, 129 20
104, 111, 120 20
74, 82, 89 20
62, 71, 75 20
69, 78, 81 20
69, 79, 86 19
118, 126, 133 19
71, 77, 82 19
78, 82, 83 19
113, 122, 131 18
103, 107, 118 18
78, 87, 90 18
79, 88, 91 18
73, 81, 81 18
74, 83, 86 18
63, 72, 76 18
70, 80, 80 18
68, 77, 81 17
81, 87, 92 17
79, 85, 90 17
99, 104, 113 17
132, 141, 145 17
69, 80, 84 17
102, 108, 115 17
68, 78, 78 17
116, 123, 132 16
114, 123, 127 16
70, 80, 87 16
101, 105, 116 16
112, 121, 130 16
78, 86, 93 16
106, 113, 122 16
117, 125, 132 16
75, 83, 90 16
66, 72, 77 16
73, 81, 80 16
77, 80, 85 16
130, 140, 147 15
120, 129, 133 15
110, 118, 125 15
116, 125, 134 15
74, 79, 82 15
70, 81, 85 15
74, 84, 84 15
111, 121, 128 15
97, 102, 111 15
96, 101, 110 15
128, 137, 141 14
127, 136, 140 14
79, 87, 94 14
117, 126, 135 14
71, 82, 86 14
117, 127, 134 14
116, 126, 133 14
70, 74, 79 14
74, 79, 80 14
73, 78, 79 14
68, 77, 80 14
67, 79, 83 14
121, 130, 134 13
111, 120, 124 13
114, 121, 130 13
126, 134, 141 13
72, 78, 83 13
98, 106, 113 13
94, 102, 109 13
69, 77, 84 13
69, 77, 77 13
71, 74, 79 13
114, 119, 128 13
93, 101, 108 13
110, 119, 128 13
103, 109, 114 13
70, 73, 77 13
68, 79, 83 13
108, 114, 119 13
69, 73, 74 13
68, 73, 72 13
128, 138, 145 12
126, 135, 139 12
119, 121, 132 12
113, 122, 126 12
82, 86, 91 12
100, 105, 114 12
104, 112, 119 12
68, 76, 76 12
102, 108, 113 12
78, 78, 84 12
71, 81, 88 11
83, 91, 91 11
115, 122, 131 11
110, 119, 123 11
82, 92, 99 11
127, 135, 142 11
117, 119, 129 11
111, 120, 129 11
64, 73, 77 11
90, 97, 106 11
73, 77, 82 11
73, 78, 81 11
71, 75, 80 11
92, 100, 107 11
100, 106, 113 11
94, 99, 108 11
99, 101, 111 11
130, 138, 145 11
70, 75, 74 11
73, 76, 74 11
127, 137, 144 10
119, 128, 132 10
118, 127, 131 10
107, 111, 122 10
62, 72, 79 10
5, 0, 0 10
80, 88, 95 10
67, 76, 80 10
70, 78, 78 10
77, 83, 88 10
116, 121, 130 10
81, 86, 89 10
77, 80, 84 10
77, 85, 92 10
82, 87, 90 10
75, 80, 81 10
118, 127, 136 10
70, 77, 80 10
75, 80, 83 10
119, 129, 136 10
118, 128, 135 10
70, 82, 82 10
100, 107, 116 10
61, 69, 76 10
75, 81, 88 10
71, 79, 78 10
106, 115, 119 10
68, 71, 76 10
66, 78, 82 10
68, 76, 75 10
73, 79, 78 10
106, 111, 120 10
109, 112, 120 10
68, 77, 74 10
73, 77, 71 10
73, 80, 77 10
106, 110, 121 9
63, 74, 78 9
4, 0, 0 9
122, 130, 137 9
121, 129, 136 9
125, 133, 140 9
76, 81, 82 9
102, 107, 116 9
74, 77, 82 9
78, 83, 86 9
72, 77, 80 9
78, 83, 84 9
69, 73, 78 9
128, 136, 143 9
69, 80, 78 9
111, 116, 119 9
107, 110, 118 9
74, 78, 83 9
64, 72, 72 9
74, 76, 84 9
70, 82, 86 9
71, 76, 77 9
74, 80, 79 9
129, 136, 145 9
109, 111, 119 9
117, 124, 133 8
117, 121, 132 8
106, 112, 123 8
105, 109, 120 8
100, 106, 117 8
85, 95, 102 8
64, 75, 79 8
100, 104, 115 8
80, 90, 90 8
129, 139, 146 8
80, 89, 92 8
83, 88, 91 8
93, 100, 109 8
71, 83, 85 8
97, 105, 112 8
72, 76, 81 8
79, 87, 86 8
68, 76, 83 8
72, 75, 80 8
101, 106, 115 8
113, 118, 127 8
71, 82, 80 8
72, 79, 88 8
114, 123, 132 8
70, 81, 79 8
109, 116, 119 8
106, 112, 119 8
64, 71, 74 8
75, 79, 84 8
76, 81, 84 8
78, 81, 86 8
68, 80, 84 8
106, 109, 117 8
110, 114, 119 8
73, 76, 80 8
71, 76, 74 8
108, 110, 118 8
123, 132, 136 7
81, 89, 88 7
116, 120, 131 7
104, 108, 119 7
79, 81, 82 7
99, 103, 114 7
118, 120, 131 7
83, 93, 100 7
79, 82, 86 7
109, 118, 122 7
72, 78, 85 7
78, 79, 83 7
76, 79, 77 7
133, 141, 148 7
131, 140, 144 7
115, 124, 133 7
115, 125, 132 7
114, 124, 131 7
131, 137, 142 7
113, 123, 130 7
112, 117, 126 7
103, 111, 118 7
101, 109, 116 7
74, 80, 87 7
70, 78, 77 7
76, 80, 85 7
108, 114, 121 7
78, 80, 88 7
65, 73, 73 7
93, 98, 107 7
67, 70, 74 7
69, 77, 76 7
109, 113, 118 7
67, 75, 74 7
72, 78, 77 7
67, 74, 71 7
70, 76, 75 7
71, 76, 75 7
76, 82, 81 7
69, 75, 74 7
73, 77, 72 7
108, 110, 120 7
125, 134, 138 6
122, 131, 135 6
78, 86, 86 6
75, 77, 78 6
67, 75, 75 6
114, 120, 131 6
76, 86, 93 6
65, 72, 75 6
116, 125, 129 6
74, 76, 77 6
80, 85, 88 6
123, 131, 138 6
95, 102, 111 6
65, 74, 78 6
68, 70, 71 6
108, 117, 121 6
92, 99, 108 6
119, 130, 138 6
72, 83, 87 6
102, 108, 119 6
91, 98, 107 6
134, 140, 145 6
111, 116, 125 6
69, 81, 83 6
102, 110, 117 6
85, 94, 103 6
77, 82, 85 6
56, 66, 73 6
69, 72, 76 6
74, 76, 86 6
74, 77, 85 6
79, 79, 85 6
73, 84, 88 6
63, 73, 73 6
76, 79, 84 6
105, 109, 114 6
91, 97, 104 6
68, 74, 73 6
69, 76, 73 6
76, 81, 80 6
83, 84, 80 6
69, 71, 72 6
68, 75, 72 6
70, 76, 71 6
74, 77, 75 6
75, 82, 79 6
128, 135, 144 6
107, 113, 124 5
99, 105, 116 5
75, 85, 92 5
66, 76, 83 5
7, 0, 0 5
80, 89, 93 5
73, 75, 76 5
65, 71, 76 5
82, 87, 88 5
2, 0, 0 5
67, 77, 84 5
90, 99, 108 5
77, 79, 80 5
126, 136, 143 5
86, 96, 103 5
80, 86, 93 5
78, 80, 81 5
101, 108, 117 5
76, 80, 81 5
77, 81, 82 5
88, 95, 104 5
66, 74, 81 5
63, 71, 78 5
104, 110, 121 5
120, 129, 138 5
67, 75, 82 5
83, 91, 98 5
61, 70, 74 5
95, 103, 110 5
88, 96, 103 5
66, 73, 76 5
87, 94, 103 5
81, 91, 98 5
109, 118, 127 5
77, 81, 86 5
67, 79, 79 5
67, 80, 78 5
69, 81, 85 5
67, 81, 87 5
61, 70, 73 5
65, 81, 87 5
75, 78, 86 5
67, 70, 75 5
69, 81, 87 5
84, 93, 97 5
70, 77, 74 5
78, 83, 82 5
80, 82, 82 5
70, 72, 73 5
71, 77, 72 5
80, 80, 80 5
93, 99, 106 5
62, 68, 67 5
67, 76, 73 5
130, 137, 146 5
66, 72, 71 5
109, 111, 121 5
155, 158, 156 5
160, 159, 161 5
66, 75, 79 4
11, 2, 0 4
78, 85, 94 4
76, 87, 85 4
96, 100, 111 4
82, 88, 95 4
79, 80, 84 4
124, 132, 139 4
62, 73, 77 4
125, 135, 142 4
61, 72, 76 4
96, 103, 112 4
78, 88, 95 4
73, 83, 90 4
73, 75, 75 4
81, 85, 90 4
74, 79, 77 4
75, 80, 78 4
123, 134, 142 4
122, 133, 141 4
120, 131, 139 4
86, 93, 102 4
67, 73, 78 4
133, 142, 146 4
86, 94, 101 4
132, 138, 143 4
124, 134, 141 4
123, 133, 140 4
87, 95, 102 4
84, 92, 99 4
120, 130, 137 4
69, 81, 81 4
85, 93, 100 4
62, 70, 77 4
123, 132, 141 4
69, 70, 80 4
68, 72, 77 4
105, 114, 118 4
70, 76, 81 4
72, 77, 78 4
79, 78, 87 4
64, 78, 84 4
103, 113, 120 4
65, 80, 83 4
95, 100, 109 4
74, 82, 81 4
66, 85, 90 4
62, 71, 74 4
68, 79, 77 4
105, 111, 118 4
104, 110, 117 4
101, 103, 113 4
71, 74, 78 4
73, 75, 83 4
62, 70, 69 4
70, 75, 76 4
77, 78, 82 4
69, 78, 75 4
72, 77, 76 4
73, 77, 78 4
77, 82, 81 4
76, 80, 75 4
75, 78, 76 4
72, 74, 75 4
72, 77, 75 4
72, 79, 76 4
78, 80, 80 4
92, 98, 105 4
74, 78, 72 4
75, 81, 80 4
82, 85, 83 4
110, 112, 120 4
106, 110, 115 4
67, 72, 73 4
72, 79, 72 4
126, 131, 132 4
110, 116, 123 4
156, 160, 161 4
162, 159, 161 4
86, 90, 91 4
113, 122, 132 3
81, 86, 87 3
9, 0, 0 3
83, 85, 86 3
78, 84, 95 3
75, 81, 94 3
63, 69, 74 3
112, 121, 131 3
81, 84, 88 3
73, 79, 86 3
108, 112, 123 3
84, 94, 101 3
71, 73, 74 3
124, 133, 137 3
85, 80, 82 3
81, 87, 94 3
68, 78, 85 3
103, 110, 119 3
94, 101, 110 3
60, 71, 75 3
102, 109, 118 3
80, 84, 89 3
73, 78, 77 3
79, 89, 96 3
76, 83, 92 3
77, 82, 80 3
80, 82, 83 3
103, 109, 120 3
96, 104, 111 3
77, 88, 86 3
79, 88, 85 3
121, 131, 138 3
109, 113, 124 3
90, 98, 105 3
70, 73, 78 3
95, 104, 108 3
98, 104, 111 3
91, 99, 106 3
84, 93, 102 3
73, 80, 89 3
98, 104, 115 3
97, 103, 110 3
132, 141, 144 3
102, 111, 115 3
109, 115, 120 3
104, 111, 114 3
89, 97, 104 3
69, 72, 77 3
67, 79, 81 3
66, 80, 86 3
65, 79, 85 3
59, 68, 72 3
66, 79, 77 3
72, 84, 86 3
63, 72, 75 3
63, 80, 83 3
60, 72, 78 3
71, 83, 87 3
64, 79, 82 3
59, 68, 71 3
68, 71, 75 3
75, 77, 85 3
68, 80, 86 3
63, 78, 81 3
52, 74, 79 3
62, 72, 72 3
102, 104, 114 3
90, 96, 103 3
71, 76, 79 3
58, 68, 75 3
61, 69, 68 3
129, 137, 144 3
88, 94, 101 3
58, 67, 70 3
98, 100, 110 3
66, 74, 74 3
79, 82, 80 3
107, 111, 116 3
104, 110, 115 3
70, 75, 73 3
74, 78, 79 3
78, 82, 77 3
77, 83, 82 3
79, 81, 81 3
97, 99, 109 3
67, 72, 71 3
81, 81, 81 3
76, 82, 77 3
78, 81, 79 3
81, 82, 80 3
76, 89, 91 3
127, 134, 143 3
66, 71, 72 3
72, 78, 73 3
76, 80, 74 3
80, 81, 79 3
74, 75, 71 3
104, 108, 113 3
102, 109, 112 3
60, 66, 65 3
72, 76, 70 3
138, 135, 137 3
87, 93, 92 3
155, 159, 160 3
156, 158, 159 3
159, 158, 160 3
109, 115, 122 3
106, 109, 114 3
149, 154, 152 3
158, 160, 161 3
159, 162, 160 3
163, 168, 166 3
161, 160, 162 3
162, 161, 157 3
115, 121, 132 2
118, 122, 133 2
105, 111, 122 2
92, 101, 110 2
90, 100, 107 2
81, 85, 86 2
3, 1, 1 2
5, 0, 1 2
7, 2, 1 2
12, 0, 0 2
11, 0, 0 2
86, 87, 91 2
81, 88, 97 2
65, 71, 78 2
117, 126, 130 2
68, 67, 69 2
47, 44, 46 2
77, 83, 94 2
69, 75, 80 2
115, 124, 128 2
91, 100, 109 2
83, 90, 93 2
79, 83, 84 2
6, 1, 0 2
15, 3, 0 2
5, 1, 0 2
82, 85, 89 2
79, 86, 95 2
87, 97, 104 2
40, 40, 40 2
76, 75, 77 2
33, 26, 23 2
43, 41, 41 2
118, 120, 130 2
98, 102, 113 2
89, 98, 107 2
79, 78, 80 2
7, 1, 0 2
8, 1, 0 2
12, 5, 2 2
77, 87, 94 2
15, 8, 5 2
48, 43, 40 2
45, 40, 37 2
51, 46, 45 2
63, 62, 58 2
62, 60, 59 2
77, 77, 77 2
80, 79, 81 2
82, 84, 85 2
79, 84, 87 2
78, 81, 85 2
72, 76, 77 2
69, 72, 70 2
72, 73, 71 2
75, 80, 79 2
72, 81, 90 2
79, 83, 88 2
80, 83, 87 2
76, 78, 79 2
81, 86, 84 2
82, 87, 85 2
78, 86, 85 2
78, 89, 87 2
99, 106, 115 2
91, 97, 108 2
68, 74, 79 2
101, 107, 120 2
99, 107, 114 2
123, 135, 141 2
122, 134, 140 2
120, 132, 138 2
130, 136, 141 2
71, 73, 81 2
135, 141, 146 2
129, 135, 142 2
128, 134, 141 2
99, 105, 112 2
83, 92, 101 2
98, 103, 112 2
60, 68, 75 2
103, 112, 116 2
82, 91, 100 2
68, 71, 79 2
104, 113, 117 2
76, 79, 87 2
77, 80, 88 2
78, 82, 87 2
104, 114, 121 2
103, 110, 113 2
57, 67, 74 2
68, 70, 78 2
67, 77, 77 2
72, 81, 78 2
80, 79, 88 2
66, 81, 84 2
65, 74, 77 2
75, 77, 87 2
55, 66, 70 2
63, 70, 73 2
77, 79, 87 2
66, 82, 88 2
67, 83, 89 2
57, 68, 72 2
56, 67, 71 2
62, 79, 82 2
59, 78, 81 2
60, 79, 84 2
64, 83, 90 2
66, 85, 92 2
81, 92, 96 2
71, 77, 84 2
60, 77, 80 2
56, 75, 78 2
55, 74, 77 2
59, 81, 87 2
58, 74, 81 2
63, 71, 70 2
105, 108, 116 2
87, 93, 100 2
83, 92, 96 2
67, 78, 76 2
72, 75, 79 2
75, 78, 83 2
69, 82, 84 2
68, 80, 82 2
66, 79, 81 2
53, 72, 75 2
54, 76, 81 2
103, 105, 115 2
67, 78, 75 2
65, 78, 80 2
57, 75, 76 2
64, 84, 89 2
60, 70, 77 2
68, 73, 71 2
106, 112, 117 2
105, 111, 116 2
103, 109, 116 2
92, 97, 106 2
89, 95, 102 2
55, 65, 65 2
69, 70, 74 2
68, 72, 73 2
75, 76, 80 2
65, 73, 80 2
131, 139, 146 2
108, 112, 117 2
72, 75, 73 2
75, 77, 77 2
76, 78, 78 2
74, 79, 78 2
71, 78, 75 2
77, 79, 79 2
76, 81, 79 2
80, 84, 79 2
79, 84, 83 2
82, 86, 87 2
83, 87, 88 2
70, 83, 81 2
82, 83, 79 2
125, 132, 141 2
63, 71, 71 2
63, 68, 69 2
62, 67, 68 2
77, 80, 78 2
78, 84, 79 2
77, 81, 76 2
81, 85, 79 2
85, 83, 83 2
82, 83, 81 2
79, 80, 78 2
77, 89, 91 2
88, 87, 83 2
87, 92, 95 2
58, 66, 65 2
64, 70, 69 2
70, 72, 72 2
69, 71, 71 2
69, 74, 75 2
71, 78, 71 2
74, 81, 78 2
81, 79, 78 2
93, 103, 103 2
96, 104, 104 2
93, 96, 100 2
131, 138, 147 2
94, 100, 107 2
83, 88, 89 2
58, 64, 63 2
67, 73, 72 2
83, 88, 87 2
86, 91, 90 2
90, 91, 89 2
84, 90, 85 2
86, 87, 85 2
91, 89, 88 2
101, 102, 98 2
98, 102, 97 2
123, 131, 131 2
130, 132, 133 2
132, 131, 133 2
111, 113, 121 2
108, 111, 116 2
87, 93, 98 2
62, 66, 67 2
68, 70, 70 2
66, 71, 70 2
66, 73, 70 2
65, 72, 69 2
81, 84, 82 2
84, 91, 88 2
128, 130, 130 2
136, 137, 135 2
136, 139, 137 2
136, 142, 137 2
139, 143, 138 2
142, 143, 141 2
156, 152, 151 2
156, 157, 153 2
154, 158, 153 2
154, 157, 155 2
156, 159, 157 2
107, 116, 120 2
100, 107, 110 2
92, 99, 96 2
96, 102, 101 2
125, 129, 124 2
127, 131, 126 2
129, 131, 131 2
151, 153, 153 2
154, 158, 159 2
156, 161, 162 2
165, 170, 173 2
158, 158, 158 2
161, 161, 161 2
158, 161, 159 2
164, 164, 164 2
163, 161, 161 2
165, 168, 166 2
157, 159, 160 2
118, 125, 134 1
120, 122, 133 1
97, 103, 114 1
95, 101, 112 1
67, 66, 68 1
44, 41, 43 1
23, 8, 5 1
34, 19, 16 1
60, 41, 38 1
64, 45, 42 1
38, 21, 18 1
22, 5, 2 1
14, 0, 0 1
15, 2, 0 1
10, 1, 0 1
16, 11, 12 1
60, 58, 58 1
82, 81, 83 1
81, 80, 82 1
82, 90, 89 1
80, 86, 97 1
70, 76, 89 1
71, 76, 91 1
72, 77, 92 1
63, 68, 83 1
62, 68, 75 1
64, 70, 77 1
61, 68, 71 1
96, 102, 113 1
93, 99, 110 1
83, 89, 94 1
80, 84, 85 1
8, 3, 4 1
12, 3, 0 1
18, 6, 4 1
14, 2, 0 1
15, 0, 0 1
18, 1, 0 1
30, 13, 10 1
53, 36, 33 1
59, 44, 41 1
56, 41, 38 1
26, 14, 10 1
17, 5, 3 1
9, 2, 0 1
11, 9, 9 1
54, 54, 54 1
83, 86, 90 1
76, 82, 95 1
68, 74, 87 1
66, 72, 79 1
115, 119, 130 1
97, 101, 112 1
89, 99, 106 1
50, 47, 49 1
12, 7, 8 1
9, 1, 1 1
27, 12, 9 1
28, 11, 8 1
13, 1, 0 1
31, 19, 15 1
63, 52, 48 1
52, 43, 39 1
47, 38, 35 1
27, 20, 17 1
7, 7, 7 1
51, 51, 51 1
75, 81, 92 1
117, 122, 131 1
70, 69, 71 1
14, 9, 10 1
10, 2, 2 1
41, 29, 27 1
64, 52, 48 1
86, 71, 68 1
84, 69, 66 1
28, 17, 13 1
28, 19, 15 1
47, 41, 36 1
71, 64, 61 1
54, 49, 46 1
78, 77, 79 1
82, 83, 87 1
54, 51, 53 1
21, 19, 19 1
7, 2, 3 1
23, 16, 13 1
70, 61, 58 1
91, 79, 77 1
95, 83, 79 1
87, 75, 71 1
35, 26, 22 1
13, 4, 0 1
11, 5, 0 1
17, 11, 6 1
9, 4, 1 1
81, 78, 80 1
83, 80, 82 1
84, 80, 85 1
86, 85, 89 1
59, 58, 60 1
32, 30, 30 1
20, 13, 10 1
20, 11, 8 1
28, 16, 14 1
35, 23, 21 1
15, 9, 4 1
9, 3, 0 1
46, 40, 41 1
82, 77, 79 1
87, 82, 84 1
91, 85, 90 1
63, 62, 64 1
41, 40, 42 1
11, 11, 11 1
1, 1, 1 1
7, 3, 2 1
8, 0, 0 1
10, 0, 0 1
10, 3, 0 1
14, 7, 4 1
17, 10, 7 1
14, 6, 6 1
23, 15, 15 1
22, 14, 14 1
25, 19, 20 1
56, 50, 51 1
83, 76, 79 1
86, 79, 82 1
88, 83, 85 1
91, 86, 88 1
74, 85, 89 1
78, 84, 91 1
53, 55, 56 1
41, 43, 44 1
38, 38, 38 1
41, 41, 41 1
43, 38, 39 1
45, 39, 40 1
43, 37, 38 1
43, 40, 36 1
47, 44, 40 1
55, 50, 49 1
58, 53, 52 1
59, 54, 55 1
74, 69, 70 1
86, 83, 85 1
87, 84, 86 1
103, 108, 117 1
74, 84, 91 1
66, 68, 69 1
57, 59, 60 1
61, 63, 64 1
60, 62, 62 1
57, 59, 59 1
58, 58, 58 1
58, 56, 56 1
57, 55, 55 1
63, 58, 59 1
61, 60, 56 1
62, 61, 57 1
63, 61, 60 1
65, 63, 62 1
69, 67, 66 1
74, 72, 72 1
73, 73, 73 1
71, 70, 72 1
72, 69, 71 1
68, 71, 69 1
70, 73, 71 1
71, 72, 70 1
71, 74, 72 1
80, 85, 86 1
97, 104, 113 1
63, 73, 80 1
73, 82, 91 1
75, 82, 91 1
79, 85, 84 1
78, 84, 83 1
132, 140, 147 1
103, 109, 122 1
102, 108, 121 1
104, 107, 121 1
98, 105, 114 1
80, 87, 96 1
64, 70, 75 1
134, 142, 149 1
83, 90, 99 1
119, 131, 137 1
80, 89, 86 1
128, 134, 139 1
110, 114, 125 1
101, 107, 118 1
129, 135, 140 1
130, 136, 143 1
64, 73, 76 1
89, 96, 105 1
110, 120, 127 1
76, 82, 89 1
133, 142, 145 1
119, 128, 137 1
81, 90, 99 1
80, 89, 98 1
59, 67, 74 1
101, 110, 114 1
79, 88, 97 1
75, 84, 93 1
58, 66, 73 1
64, 72, 79 1
68, 69, 79 1
107, 116, 125 1
112, 114, 124 1
60, 69, 73 1
66, 78, 80 1
71, 80, 77 1
73, 82, 79 1
71, 82, 79 1
65, 77, 81 1
65, 76, 80 1
65, 77, 83 1
64, 76, 80 1
63, 75, 79 1
74, 76, 87 1
64, 80, 86 1
63, 79, 85 1
62, 78, 84 1
63, 77, 83 1
63, 75, 81 1
62, 74, 80 1
62, 74, 76 1
61, 73, 75 1
108, 115, 118 1
70, 82, 88 1
60, 79, 82 1
62, 81, 86 1
63, 83, 88 1
65, 84, 91 1
63, 81, 88 1
60, 78, 85 1
61, 77, 84 1
60, 76, 83 1
61, 75, 81 1
61, 73, 79 1
59, 71, 77 1
64, 74, 74 1
110, 115, 118 1
78, 89, 93 1
75, 86, 90 1
58, 67, 71 1
66, 76, 76 1
69, 80, 77 1
74, 75, 85 1
61, 78, 81 1
57, 76, 79 1
55, 77, 83 1
58, 80, 86 1
61, 83, 89 1
63, 82, 89 1
61, 79, 86 1
58, 76, 83 1
59, 72, 80 1
58, 71, 79 1
59, 70, 78 1
58, 70, 76 1
57, 69, 75 1
62, 73, 71 1
56, 65, 68 1
57, 66, 69 1
68, 79, 76 1
70, 75, 78 1
70, 76, 83 1
77, 77, 83 1
70, 83, 85 1
59, 76, 79 1
54, 73, 76 1
50, 72, 77 1
51, 73, 78 1
57, 79, 85 1
60, 82, 88 1
62, 81, 88 1
61, 80, 87 1
59, 77, 84 1
56, 72, 79 1
57, 70, 78 1
58, 69, 77 1
63, 69, 68 1
55, 64, 67 1
60, 69, 72 1
66, 69, 73 1
74, 77, 81 1
63, 78, 80 1
61, 76, 78 1
56, 74, 75 1
58, 76, 77 1
57, 79, 84 1
60, 82, 87 1
64, 82, 89 1
62, 80, 87 1
62, 78, 85 1
60, 73, 81 1
110, 113, 121 1
100, 102, 112 1
84, 93, 96 1
83, 92, 95 1
59, 69, 69 1
60, 70, 70 1
68, 69, 73 1
76, 79, 83 1
75, 78, 82 1
77, 85, 85 1
66, 78, 78 1
65, 79, 78 1
63, 77, 76 1
62, 76, 75 1
61, 77, 76 1
63, 79, 78 1
56, 77, 79 1
57, 78, 80 1
61, 82, 84 1
65, 84, 87 1
107, 113, 118 1
96, 98, 108 1
88, 95, 98 1
87, 94, 97 1
84, 91, 94 1
61, 69, 69 1
62, 70, 70 1
70, 71, 75 1
78, 83, 81 1
81, 83, 84 1
72, 83, 81 1
73, 84, 82 1
71, 84, 82 1
64, 82, 83 1
65, 83, 84 1
67, 85, 86 1
68, 85, 88 1
72, 87, 90 1
71, 86, 89 1
67, 78, 82 1
67, 71, 76 1
80, 81, 85 1
121, 128, 137 1
101, 107, 112 1
86, 93, 96 1
85, 92, 95 1
59, 67, 67 1
75, 79, 74 1
74, 76, 76 1
76, 83, 80 1
80, 83, 81 1
82, 84, 84 1
79, 79, 79 1
73, 78, 76 1
78, 85, 82 1
81, 90, 87 1
82, 91, 88 1
83, 92, 89 1
80, 79, 83 1
82, 81, 85 1
85, 81, 86 1
87, 83, 88 1
89, 89, 83 1
89, 88, 84 1
90, 89, 85 1
126, 133, 142 1
86, 92, 99 1
86, 91, 94 1
65, 73, 72 1
57, 65, 64 1
65, 70, 71 1
71, 78, 73 1
78, 79, 77 1
75, 81, 76 1
74, 80, 75 1
78, 82, 76 1
80, 78, 78 1
81, 79, 79 1
82, 80, 80 1
82, 80, 79 1
79, 77, 76 1
80, 76, 75 1
79, 75, 74 1
78, 77, 73 1
77, 76, 72 1
76, 75, 71 1
72, 76, 71 1
71, 75, 70 1
69, 74, 72 1
86, 91, 89 1
89, 94, 92 1
92, 97, 95 1
94, 104, 104 1
94, 102, 102 1
94, 99, 102 1
94, 97, 101 1
95, 96, 100 1
98, 97, 99 1
101, 100, 102 1
105, 102, 104 1
106, 103, 105 1
107, 104, 106 1
108, 105, 107 1
109, 106, 101 1
108, 105, 100 1
108, 105, 101 1
106, 105, 101 1
108, 107, 103 1
95, 101, 108 1
89, 94, 97 1
85, 90, 93 1
84, 89, 90 1
68, 73, 74 1
72, 74, 74 1
71, 77, 76 1
74, 78, 73 1
69, 76, 71 1
70, 77, 72 1
87, 89, 89 1
84, 86, 86 1
85, 85, 85 1
88, 89, 87 1
87, 90, 88 1
85, 89, 84 1
86, 92, 87 1
88, 92, 86 1
79, 83, 77 1
84, 85, 83 1
87, 88, 86 1
90, 88, 87 1
89, 87, 86 1
92, 90, 89 1
94, 90, 89 1
95, 91, 90 1
96, 92, 91 1
99, 95, 94 1
100, 96, 95 1
99, 98, 94 1
100, 99, 95 1
101, 100, 96 1
103, 102, 98 1
101, 105, 100 1
102, 106, 101 1
105, 109, 104 1
108, 111, 109 1
112, 115, 113 1
116, 119, 117 1
119, 122, 120 1
121, 124, 122 1
127, 132, 133 1
128, 132, 133 1
127, 131, 132 1
128, 130, 131 1
136, 133, 135 1
137, 134, 136 1
142, 139, 134 1
141, 138, 133 1
140, 137, 133 1
141, 138, 134 1
141, 140, 136 1
87, 90, 94 1
86, 89, 93 1
84, 87, 91 1
57, 63, 62 1
61, 67, 66 1
63, 67, 68 1
65, 67, 68 1
67, 69, 70 1
67, 69, 69 1
75, 79, 73 1
77, 81, 75 1
80, 85, 83 1
84, 89, 87 1
85, 90, 88 1
84, 91, 86 1
86, 93, 90 1
88, 94, 93 1
94, 98, 99 1
95, 99, 100 1
96, 100, 101 1
97, 101, 102 1
98, 103, 102 1
97, 103, 102 1
99, 105, 104 1
100, 106, 105 1
103, 109, 108 1
105, 111, 110 1
106, 112, 111 1
108, 114, 113 1
114, 119, 120 1
122, 127, 128 1
129, 134, 133 1
131, 136, 135 1
132, 134, 134 1
130, 130, 130 1
133, 133, 133 1
138, 141, 139 1
132, 136, 131 1
132, 133, 129 1
135, 138, 136 1
140, 141, 139 1
145, 146, 144 1
149, 150, 148 1
152, 152, 152 1
154, 152, 152 1
156, 154, 154 1
157, 155, 155 1
158, 156, 156 1
157, 155, 154 1
155, 153, 152 1
151, 150, 146 1
154, 153, 149 1
154, 155, 151 1
155, 159, 154 1
155, 160, 161 1
158, 157, 159 1
163, 160, 155 1
162, 159, 154 1
161, 158, 154 1
160, 159, 155 1
161, 160, 156 1
107, 109, 117 1
105, 110, 113 1
101, 108, 111 1
98, 107, 111 1
89, 95, 100 1
91, 94, 98 1
88, 92, 93 1
84, 88, 89 1
59, 65, 64 1
65, 70, 69 1
67, 71, 72 1
80, 85, 84 1
85, 90, 89 1
90, 96, 95 1
92, 98, 97 1
91, 98, 95 1
90, 97, 94 1
97, 102, 103 1
100, 105, 106 1
103, 108, 109 1
101, 109, 108 1
100, 108, 107 1
100, 109, 106 1
99, 108, 105 1
101, 106, 104 1
106, 111, 109 1
113, 118, 116 1
120, 125, 123 1
123, 127, 122 1
121, 125, 120 1
127, 130, 128 1
128, 131, 129 1
133, 134, 132 1
138, 139, 137 1
144, 147, 145 1
150, 152, 152 1
147, 152, 151 1
147, 152, 150 1
148, 155, 152 1
150, 156, 155 1
151, 157, 156 1
153, 157, 158 1
158, 159, 163 1
159, 160, 164 1
158, 161, 165 1
159, 163, 164 1
160, 164, 165 1
161, 165, 166 1
161, 166, 167 1
161, 167, 166 1
162, 168, 167 1
159, 164, 165 1
160, 165, 166 1
162, 167, 170 1
160, 160, 160 1
158, 160, 160 1
159, 164, 162 1
158, 163, 161 1
156, 160, 155 1
159, 160, 156 1
157, 160, 158 1
160, 162, 162 1
166, 168, 168 1
173, 175, 175 1
180, 180, 180 1
163, 163, 163 1
162, 162, 162 1
164, 162, 162 1
165, 163, 163 1
164, 165, 163 1
166, 167, 165 1
167, 168, 166 1
164, 167, 165 1
166, 169, 167 1
166, 171, 169 1
161, 166, 164 1
163, 166, 164 1
162, 165, 163 1
161, 164, 162 1
160, 163, 161 1
158, 162, 163 1
157, 161, 162 1
165, 162, 157 1
164, 161, 156 1
