72, 79, 82 235
73, 80, 83 221
74, 81, 84 221
75, 82, 85 221
71, 78, 81 172
75, 83, 83 160
74, 82, 82 153
76, 83, 86 141
69, 76, 79 106
73, 81, 81 105
76, 84, 84 92
109, 116, 125 69
80, 85, 88 67
68, 76, 76 67
78, 84, 89 61
69, 77, 77 61
72, 80, 80 61
72, 81, 84 59
70, 79, 83 56
77, 84, 87 53
112, 119, 128 51
75, 84, 88 51
73, 82, 86 48
130, 138, 145 48
67, 75, 75 48
70, 77, 80 46
111, 118, 127 46
108, 115, 124 45
77, 83, 88 44
78, 85, 88 44
71, 79, 79 44
127, 134, 143 41
73, 82, 85 40
108, 116, 123 39
110, 115, 124 39
71, 80, 83 38
78, 86, 86 37
109, 115, 122 37
71, 80, 84 37
75, 80, 81 36
109, 114, 123 35
68, 79, 83 35
115, 123, 130 34
69, 78, 82 34
68, 75, 78 32
76, 81, 82 32
132, 140, 147 31
128, 135, 144 31
102, 108, 113 31
114, 122, 129 31
66, 74, 74 31
72, 82, 82 31
114, 123, 127 30
69, 78, 81 30
70, 79, 82 30
107, 112, 121 30
72, 81, 85 29
108, 114, 121 29
66, 73, 76 29
119, 127, 134 29
79, 86, 89 28
75, 81, 86 28
74, 83, 87 27
65, 71, 76 27
107, 114, 123 27
110, 117, 126 26
66, 72, 77 26
113, 118, 127 26
70, 80, 80 26
121, 128, 137 25
113, 120, 129 25
108, 114, 119 25
76, 85, 89 25
76, 84, 91 25
107, 115, 122 25
111, 121, 128 25
106, 114, 121 25
75, 83, 82 25
73, 83, 83 25
104, 110, 115 24
101, 107, 114 24
71, 77, 82 23
74, 80, 85 23
77, 85, 85 23
77, 82, 83 23
99, 105, 110 23
74, 79, 80 23
133, 141, 148 22
131, 139, 146 22
100, 106, 111 22
73, 79, 84 22
101, 107, 112 22
73, 76, 81 22
77, 81, 86 22
116, 123, 132 21
110, 116, 123 21
107, 113, 120 21
71, 74, 78 21
116, 124, 131 21
65, 72, 75 21
116, 122, 129 21
114, 120, 125 21
70, 75, 74 21
72, 78, 83 21
122, 129, 138 20
115, 122, 131 20
117, 123, 130 20
76, 81, 84 20
67, 74, 77 20
97, 103, 108 20
75, 79, 84 20
103, 109, 116 20
115, 121, 128 20
68, 77, 80 20
67, 78, 82 20
71, 76, 75 20
70, 78, 78 19
74, 78, 83 19
111, 116, 125 19
126, 133, 142 18
106, 112, 119 18
75, 83, 90 18
103, 109, 114 18
109, 117, 124 18
77, 80, 84 18
76, 80, 85 18
114, 120, 127 18
72, 77, 76 18
120, 128, 135 18
95, 101, 106 18
106, 111, 120 18
70, 74, 75 18
102, 108, 115 17
129, 137, 144 17
74, 77, 82 17
114, 119, 128 17
127, 135, 142 17
108, 113, 122 17
69, 80, 84 17
71, 75, 76 17
109, 110, 120 17
114, 121, 130 16
105, 111, 118 16
62, 71, 75 16
79, 85, 92 16
64, 70, 77 16
130, 136, 143 16
109, 115, 120 16
129, 136, 145 16
115, 121, 126 16
107, 113, 118 16
73, 78, 81 16
118, 126, 133 16
64, 70, 75 16
106, 115, 119 16
104, 110, 117 15
67, 73, 78 15
76, 82, 87 15
79, 85, 90 15
81, 84, 92 15
78, 83, 84 15
119, 126, 135 15
113, 122, 126 15
108, 111, 119 15
117, 125, 132 15
128, 136, 143 15
72, 80, 79 15
107, 116, 120 15
118, 125, 134 14
77, 82, 85 14
61, 69, 69 14
115, 124, 128 14
108, 115, 118 14
77, 81, 82 14
76, 84, 83 14
64, 71, 74 14
69, 74, 73 14
70, 81, 85 14
107, 114, 117 14
120, 127, 136 13
105, 110, 119 13
78, 83, 86 13
64, 72, 72 13
79, 87, 87 13
103, 110, 113 13
68, 77, 81 13
98, 104, 109 13
75, 80, 83 13
105, 113, 120 13
70, 81, 79 13
97, 104, 107 13
71, 76, 74 13
123, 130, 139 12
116, 122, 127 12
70, 73, 77 12
74, 79, 82 12
71, 79, 78 12
69, 79, 79 12
73, 78, 79 12
69, 79, 86 12
73, 77, 82 12
63, 77, 83 12
67, 73, 68 12
104, 109, 118 11
78, 81, 85 11
76, 79, 83 11
106, 112, 117 11
102, 107, 116 11
61, 70, 74 11
79, 83, 84 11
67, 75, 74 11
106, 113, 122 11
96, 103, 106 11
62, 70, 70 11
71, 78, 75 11
70, 75, 73 11
109, 116, 119 10
100, 106, 113 10
77, 85, 92 10
81, 86, 89 10
96, 102, 107 10
112, 117, 126 10
62, 67, 76 10
118, 124, 131 10
104, 109, 112 10
69, 73, 74 10
73, 75, 83 10
130, 137, 146 10
71, 77, 76 10
73, 76, 80 10
101, 109, 108 10
82, 90, 97 9
113, 121, 128 9
85, 92, 101 9
112, 121, 125 9
110, 114, 119 9
72, 76, 81 9
68, 76, 75 9
74, 82, 81 9
121, 129, 136 9
110, 119, 128 9
63, 69, 76 9
98, 105, 108 9
106, 111, 112 9
74, 77, 85 9
71, 79, 86 9
66, 78, 82 9
105, 110, 113 9
108, 112, 117 9
66, 72, 67 9
125, 132, 141 8
64, 73, 77 8
63, 72, 76 8
9, 0, 0 8
95, 101, 108 8
81, 89, 96 8
65, 74, 78 8
63, 70, 73 8
110, 120, 127 8
105, 112, 121 8
70, 78, 85 8
104, 111, 120 8
63, 68, 77 8
106, 115, 124 8
68, 78, 78 8
59, 65, 70 8
68, 80, 80 8
106, 111, 114 8
110, 115, 118 8
74, 75, 85 8
70, 80, 87 8
66, 71, 74 8
69, 74, 75 8
73, 79, 78 8
70, 76, 75 8
79, 84, 87 7
5, 0, 0 7
7, 0, 0 7
60, 69, 72 7
110, 117, 120 7
69, 75, 80 7
61, 70, 73 7
104, 111, 114 7
78, 82, 83 7
71, 74, 79 7
109, 113, 118 7
66, 75, 79 7
77, 79, 79 7
72, 77, 78 7
122, 131, 135 7
65, 73, 73 7
122, 130, 137 7
86, 95, 99 7
95, 102, 105 7
65, 71, 78 7
106, 116, 123 7
105, 110, 111 7
74, 76, 84 7
113, 119, 124 7
66, 71, 72 7
101, 109, 109 7
72, 79, 76 7
75, 78, 76 7
102, 110, 109 7
97, 105, 105 7
68, 73, 71 7
69, 75, 74 7
79, 80, 78 7
74, 77, 75 7
74, 81, 78 7
130, 136, 141 6
124, 131, 140 6
111, 118, 121 6
4, 0, 0 6
84, 84, 84 6
131, 137, 144 6
68, 74, 79 6
80, 85, 86 6
70, 76, 81 6
102, 109, 112 6
101, 108, 111 6
94, 100, 107 6
76, 80, 81 6
103, 108, 117 6
74, 82, 89 6
68, 73, 72 6
78, 80, 80 6
71, 76, 79 6
73, 78, 77 6
63, 71, 71 6
125, 133, 140 6
88, 95, 98 6
107, 117, 124 6
107, 116, 125 6
71, 81, 81 6
108, 118, 125 6
70, 78, 77 6
79, 86, 95 6
72, 77, 80 6
65, 71, 70 6
73, 76, 84 6
67, 79, 81 6
68, 80, 82 6
66, 78, 78 6
68, 81, 79 6
70, 75, 78 6
66, 70, 75 6
108, 116, 116 6
63, 65, 75 6
67, 71, 76 6
75, 76, 80 6
76, 78, 79 6
73, 81, 80 6
74, 78, 79 6
100, 108, 108 6
67, 71, 72 6
78, 83, 82 6
67, 70, 68 6
72, 78, 73 6
71, 77, 72 6
114, 121, 124 6
115, 122, 125 6
65, 67, 67 6
117, 124, 133 5
77, 86, 90 5
2, 0, 1 5
80, 84, 89 5
77, 83, 90 5
59, 66, 69 5
80, 78, 78 5
105, 111, 116 5
80, 83, 87 5
66, 69, 73 5
78, 84, 91 5
76, 85, 88 5
79, 79, 79 5
81, 81, 81 5
72, 75, 80 5
79, 81, 81 5
69, 71, 71 5
73, 77, 78 5
84, 93, 97 5
126, 134, 141 5
124, 132, 139 5
62, 68, 73 5
58, 66, 73 5
112, 120, 127 5
91, 98, 101 5
122, 128, 133 5
94, 101, 104 5
80, 87, 96 5
105, 115, 122 5
75, 79, 80 5
66, 75, 78 5
105, 109, 114 5
100, 107, 110 5
69, 74, 77 5
64, 78, 84 5
62, 74, 80 5
67, 72, 75 5
74, 81, 90 5
62, 70, 69 5
62, 76, 82 5
79, 88, 97 5
66, 77, 81 5
70, 79, 76 5
89, 97, 97 5
66, 72, 71 5
110, 112, 120 5
98, 106, 106 5
88, 96, 96 5
66, 69, 67 5
67, 72, 71 5
67, 72, 70 5
69, 74, 72 5
67, 76, 73 5
80, 81, 79 5
82, 83, 81 5
72, 77, 75 5
112, 119, 122 5
106, 115, 118 5
73, 76, 74 5
68, 74, 73 5
111, 116, 119 5
155, 152, 154 5
155, 157, 158 5
159, 157, 157 5
79, 82, 87 4
79, 77, 77 4
67, 73, 80 4
59, 68, 72 4
60, 69, 73 4
110, 118, 125 4
79, 82, 86 4
74, 83, 86 4
79, 83, 88 4
82, 87, 90 4
6, 1, 0 4
90, 97, 106 4
68, 76, 83 4
44, 42, 41 4
80, 82, 82 4
76, 82, 89 4
109, 112, 120 4
66, 71, 70 4
73, 81, 88 4
115, 120, 129 4
110, 113, 121 4
67, 76, 79 4
72, 78, 77 4
111, 120, 129 4
94, 100, 105 4
92, 98, 103 4
109, 119, 126 4
93, 100, 103 4
90, 97, 100 4
89, 96, 99 4
57, 63, 74 4
121, 127, 132 4
83, 90, 99 4
58, 65, 74 4
60, 66, 73 4
67, 79, 79 4
72, 78, 85 4
61, 75, 81 4
113, 119, 126 4
65, 72, 81 4
73, 74, 84 4
69, 78, 75 4
59, 78, 85 4
111, 120, 124 4
76, 78, 78 4
74, 80, 79 4
75, 81, 80 4
90, 98, 98 4
65, 70, 68 4
74, 79, 78 4
69, 76, 73 4
110, 116, 121 4
96, 104, 104 4
95, 103, 103 4
94, 102, 102 4
92, 100, 100 4
71, 80, 77 4
78, 79, 77 4
99, 107, 107 4
66, 68, 69 4
71, 78, 71 4
73, 79, 74 4
113, 120, 123 4
65, 71, 66 4
105, 113, 113 4
159, 161, 161 4
157, 159, 159 4
131, 137, 142 3
111, 119, 126 3
83, 91, 98 3
65, 73, 80 3
78, 81, 86 3
5, 0, 1 3
8, 0, 0 3
80, 86, 93 3
71, 77, 84 3
60, 67, 70 3
97, 103, 110 3
86, 86, 86 3
111, 119, 119 3
86, 93, 102 3
79, 84, 85 3
85, 85, 85 3
81, 79, 79 3
83, 83, 83 3
77, 86, 89 3
67, 75, 82 3
2, 0, 0 3
0, 0, 1 3
80, 80, 80 3
82, 84, 84 3
134, 140, 147 3
75, 75, 75 3
72, 74, 74 3
84, 91, 100 3
71, 73, 73 3
74, 76, 76 3
76, 82, 81 3
127, 136, 140 3
125, 134, 138 3
112, 122, 129 3
99, 105, 112 3
86, 94, 101 3
69, 77, 76 3
93, 99, 104 3
66, 74, 73 3
123, 131, 138 3
80, 89, 93 3
78, 87, 91 3
109, 118, 127 3
58, 67, 71 3
61, 67, 72 3
92, 99, 102 3
84, 92, 99 3
80, 88, 95 3
61, 67, 74 3
63, 69, 74 3
57, 64, 73 3
119, 125, 132 3
62, 68, 75 3
120, 126, 131 3
118, 124, 129 3
75, 82, 91 3
63, 71, 70 3
112, 118, 125 3
64, 70, 69 3
69, 72, 76 3
70, 75, 76 3
60, 68, 68 3
63, 73, 80 3
92, 101, 105 3
64, 69, 78 3
70, 73, 78 3
72, 76, 77 3
75, 77, 85 3
63, 79, 86 3
61, 79, 86 3
65, 69, 74 3
102, 109, 118 3
78, 87, 96 3
75, 75, 87 3
68, 77, 86 3
61, 80, 87 3
60, 66, 71 3
64, 67, 75 3
72, 74, 82 3
76, 77, 81 3
62, 75, 77 3
68, 73, 76 3
74, 77, 81 3
59, 69, 76 3
65, 70, 73 3
112, 118, 123 3
108, 117, 121 3
105, 114, 118 3
102, 110, 110 3
72, 75, 79 3
56, 75, 78 3
111, 117, 122 3
107, 111, 116 3
107, 112, 115 3
68, 72, 73 3
70, 77, 74 3
73, 78, 76 3
73, 80, 77 3
72, 81, 78 3
76, 79, 77 3
80, 82, 83 3
109, 111, 119 3
109, 112, 117 3
103, 111, 110 3
62, 65, 63 3
66, 71, 69 3
65, 72, 69 3
82, 79, 81 3
80, 88, 87 3
108, 111, 116 3
91, 99, 99 3
87, 95, 95 3
88, 92, 93 3
75, 82, 79 3
74, 75, 71 3
90, 95, 96 3
105, 114, 117 3
123, 127, 128 3
107, 116, 119 3
108, 113, 116 3
104, 112, 112 3
82, 87, 85 3
153, 151, 150 3
150, 153, 151 3
155, 157, 157 3
156, 155, 157 3
157, 155, 155 3
158, 156, 156 3
160, 158, 158 3
84, 90, 85 3
104, 109, 108 3
158, 160, 160 3
162, 161, 165 3
114, 123, 132 2
111, 117, 124 2
88, 95, 104 2
75, 87, 89 2
75, 84, 87 2
64, 65, 69 2
41, 40, 44 2
23, 11, 7 2
52, 37, 35 2
10, 1, 0 2
93, 100, 109 2
87, 94, 103 2
13, 4, 1 2
12, 0, 0 2
81, 85, 90 2
80, 88, 88 2
81, 89, 89 2
91, 98, 107 2
10, 5, 4 2
11, 7, 6 2
6, 2, 1 2
8, 4, 3 2
132, 138, 145 2
8, 3, 0 2
82, 82, 82 2
83, 85, 85 2
39, 37, 36 2
133, 139, 146 2
67, 76, 80 2
68, 71, 76 2
64, 64, 64 2
67, 67, 67 2
105, 107, 117 2
76, 76, 76 2
75, 81, 88 2
76, 79, 84 2
75, 80, 79 2
81, 83, 83 2
78, 82, 87 2
121, 130, 134 2
81, 87, 86 2
80, 86, 85 2
87, 95, 102 2
123, 132, 136 2
91, 97, 102 2
81, 90, 94 2
90, 96, 101 2
85, 94, 98 2
59, 68, 71 2
111, 115, 126 2
89, 95, 100 2
108, 117, 126 2
78, 86, 93 2
81, 88, 97 2
70, 77, 86 2
78, 85, 94 2
81, 87, 98 2
58, 64, 75 2
69, 80, 78 2
120, 129, 133 2
84, 90, 101 2
74, 80, 91 2
61, 66, 75 2
128, 134, 139 2
125, 131, 136 2
80, 86, 97 2
64, 71, 80 2
60, 65, 74 2
128, 135, 138 2
125, 132, 135 2
122, 129, 132 2
117, 123, 128 2
59, 65, 72 2
77, 80, 85 2
120, 126, 133 2
104, 108, 113 2
93, 102, 105 2
85, 94, 97 2
67, 80, 78 2
67, 79, 83 2
64, 75, 79 2
65, 77, 83 2
63, 72, 75 2
124, 129, 138 2
99, 106, 109 2
90, 99, 102 2
86, 95, 98 2
71, 76, 77 2
67, 80, 82 2
72, 80, 87 2
71, 78, 87 2
63, 75, 81 2
61, 77, 83 2
64, 72, 79 2
66, 72, 79 2
62, 78, 84 2
62, 72, 79 2
90, 99, 103 2
64, 66, 76 2
65, 77, 81 2
59, 75, 81 2
58, 74, 80 2
59, 77, 84 2
103, 110, 119 2
67, 70, 78 2
68, 72, 77 2
70, 74, 79 2
74, 74, 86 2
63, 75, 79 2
61, 76, 79 2
53, 72, 79 2
60, 79, 86 2
55, 71, 78 2
55, 66, 74 2
104, 113, 117 2
61, 69, 68 2
69, 79, 73 2
72, 73, 83 2
57, 72, 75 2
52, 71, 78 2
61, 65, 70 2
88, 94, 99 2
75, 78, 82 2
64, 76, 78 2
58, 73, 75 2
53, 73, 78 2
60, 78, 85 2
103, 111, 111 2
67, 72, 73 2
77, 79, 80 2
63, 75, 75 2
64, 69, 67 2
63, 68, 66 2
77, 80, 78 2
83, 85, 86 2
79, 80, 84 2
117, 127, 134 2
60, 62, 62 2
63, 66, 64 2
65, 69, 64 2
66, 70, 65 2
73, 82, 79 2
78, 77, 79 2
77, 78, 76 2
72, 84, 86 2
87, 87, 87 2
108, 111, 115 2
105, 111, 110 2
93, 101, 101 2
81, 84, 88 2
61, 63, 63 2
68, 74, 69 2
69, 73, 68 2
71, 75, 70 2
76, 81, 79 2
83, 90, 87 2
90, 94, 95 2
89, 93, 94 2
104, 102, 102 2
87, 91, 92 2
64, 67, 65 2
68, 70, 70 2
73, 77, 72 2
70, 76, 71 2
74, 80, 75 2
82, 87, 86 2
79, 80, 76 2
90, 88, 88 2
101, 99, 98 2
99, 100, 96 2
100, 104, 99 2
127, 126, 128 2
135, 133, 133 2
136, 134, 134 2
110, 113, 118 2
66, 68, 68 2
68, 71, 69 2
75, 81, 76 2
82, 88, 83 2
81, 86, 84 2
84, 91, 88 2
94, 100, 99 2
135, 136, 134 2
138, 139, 137 2
137, 138, 136 2
153, 152, 154 2
156, 153, 155 2
154, 155, 153 2
149, 152, 150 2
151, 156, 155 2
154, 156, 157 2
109, 114, 117 2
73, 75, 75 2
92, 94, 94 2
92, 95, 93 2
101, 107, 106 2
103, 108, 107 2
123, 125, 125 2
124, 126, 126 2
146, 152, 151 2
154, 159, 160 2
148, 158, 158 2
147, 155, 155 2
161, 163, 163 2
163, 164, 162 2
163, 166, 164 2
157, 159, 160 2
158, 157, 159 2
130, 139, 143 1
97, 102, 111 1
96, 101, 110 1
92, 99, 108 1
13, 1, 0 1
39, 24, 21 1
56, 41, 39 1
31, 18, 16 1
16, 3, 1 1
11, 0, 0 1
16, 12, 11 1
60, 58, 58 1
88, 88, 88 1
73, 79, 86 1
114, 124, 131 1
74, 86, 88 1
68, 71, 75 1
62, 63, 67 1
40, 39, 43 1
5, 2, 4 1
12, 1, 0 1
20, 5, 2 1
31, 14, 11 1
53, 36, 33 1
57, 42, 39 1
23, 10, 8 1
18, 6, 4 1
12, 3, 0 1
14, 10, 9 1
58, 53, 54 1
82, 85, 89 1
67, 70, 74 1
61, 62, 66 1
4, 1, 3 1
7, 2, 1 1
17, 6, 2 1
26, 11, 8 1
21, 4, 1 1
19, 2, 0 1
36, 21, 18 1
70, 55, 52 1
55, 42, 40 1
46, 33, 31 1
29, 17, 15 1
12, 8, 7 1
56, 52, 51 1
83, 88, 91 1
66, 74, 81 1
75, 86, 90 1
63, 64, 68 1
47, 46, 50 1
12, 11, 13 1
34, 25, 22 1
61, 49, 47 1
79, 67, 63 1
77, 65, 61 1
25, 10, 7 1
14, 0, 0 1
17, 2, 0 1
41, 26, 23 1
50, 37, 35 1
73, 61, 59 1
57, 45, 43 1
50, 46, 45 1
74, 85, 89 1
69, 70, 74 1
51, 52, 56 1
20, 19, 23 1
4, 3, 5 1
23, 18, 17 1
65, 58, 55 1
88, 79, 76 1
91, 80, 76 1
83, 72, 68 1
40, 28, 24 1
16, 4, 0 1
14, 1, 0 1
23, 11, 9 1
39, 27, 25 1
37, 28, 25 1
10, 2, 2 1
44, 42, 42 1
78, 76, 76 1
78, 78, 78 1
71, 82, 86 1
57, 58, 62 1
29, 28, 32 1
17, 12, 11 1
18, 11, 8 1
23, 16, 13 1
32, 23, 20 1
14, 5, 2 1
12, 4, 4 1
48, 46, 46 1
60, 61, 65 1
36, 37, 41 1
7, 8, 12 1
0, 0, 0 1
5, 3, 2 1
7, 2, 0 1
12, 7, 6 1
15, 10, 9 1
10, 6, 5 1
18, 16, 16 1
55, 53, 53 1
63, 66, 71 1
46, 49, 53 1
32, 35, 39 1
29, 31, 32 1
32, 34, 35 1
35, 37, 37 1
40, 40, 40 1
43, 39, 38 1
39, 35, 34 1
38, 36, 35 1
40, 38, 37 1
41, 39, 38 1
43, 41, 40 1
45, 43, 43 1
50, 48, 48 1
66, 66, 66 1
58, 61, 65 1
50, 53, 57 1
54, 57, 61 1
56, 60, 61 1
53, 57, 58 1
59, 61, 61 1
57, 57, 57 1
59, 57, 56 1
61, 59, 58 1
58, 61, 59 1
57, 60, 58 1
54, 57, 55 1
63, 64, 62 1
55, 56, 54 1
58, 59, 57 1
58, 58, 58 1
69, 69, 69 1
85, 87, 87 1
98, 104, 111 1
89, 96, 105 1
62, 67, 70 1
64, 69, 72 1
65, 70, 71 1
64, 68, 69 1
65, 65, 65 1
70, 72, 72 1
73, 73, 73 1
133, 139, 144 1
78, 84, 83 1
79, 84, 83 1
77, 83, 82 1
85, 93, 100 1
62, 71, 74 1
112, 116, 127 1
62, 69, 72 1
110, 114, 125 1
61, 69, 76 1
59, 67, 74 1
134, 142, 149 1
77, 84, 93 1
60, 67, 76 1
56, 63, 72 1
71, 77, 88 1
61, 67, 78 1
56, 62, 73 1
85, 91, 102 1
78, 84, 95 1
73, 79, 90 1
62, 68, 79 1
61, 65, 76 1
126, 135, 139 1
79, 85, 96 1
63, 69, 80 1
59, 63, 74 1
75, 81, 92 1
64, 70, 81 1
59, 65, 76 1
59, 64, 73 1
64, 72, 71 1
105, 112, 115 1
79, 87, 94 1
63, 70, 79 1
57, 65, 72 1
131, 140, 144 1
127, 132, 141 1
125, 130, 139 1
122, 128, 135 1
108, 112, 113 1
104, 109, 110 1
91, 100, 103 1
89, 98, 101 1
87, 96, 99 1
83, 92, 96 1
62, 67, 68 1
63, 69, 68 1
63, 68, 69 1
67, 81, 80 1
66, 80, 79 1
66, 79, 81 1
65, 76, 80 1
66, 76, 83 1
64, 74, 81 1
64, 73, 76 1
126, 131, 140 1
121, 127, 134 1
92, 101, 104 1
66, 79, 77 1
69, 82, 80 1
65, 75, 82 1
64, 76, 82 1
60, 74, 80 1
84, 93, 96 1
79, 89, 96 1
72, 79, 88 1
61, 77, 84 1
62, 75, 83 1
65, 70, 79 1
71, 75, 80 1
75, 76, 86 1
75, 78, 86 1
70, 79, 88 1
63, 78, 81 1
58, 76, 83 1
62, 80, 87 1
62, 81, 88 1
63, 82, 89 1
63, 81, 88 1
60, 76, 83 1
61, 74, 82 1
60, 73, 81 1
61, 72, 80 1
59, 71, 77 1
60, 70, 77 1
107, 115, 115 1
101, 108, 117 1
77, 86, 96 1
61, 68, 71 1
59, 69, 69 1
61, 71, 71 1
69, 81, 83 1
68, 78, 85 1
69, 78, 87 1
60, 75, 78 1
57, 73, 79 1
56, 72, 78 1
51, 70, 77 1
55, 74, 81 1
58, 77, 84 1
57, 73, 80 1
56, 69, 77 1
56, 67, 75 1
54, 65, 73 1
57, 66, 70 1
62, 66, 71 1
104, 112, 119 1
89, 98, 102 1
80, 89, 98 1
63, 66, 74 1
66, 69, 77 1
68, 71, 79 1
71, 73, 81 1
75, 78, 83 1
70, 82, 84 1
66, 78, 80 1
63, 75, 77 1
62, 74, 78 1
59, 74, 77 1
58, 73, 76 1
50, 70, 75 1
51, 73, 79 1
55, 77, 83 1
57, 79, 85 1
57, 75, 82 1
55, 68, 76 1
54, 67, 75 1
56, 65, 74 1
56, 66, 73 1
58, 64, 69 1
67, 72, 81 1
60, 68, 67 1
65, 68, 76 1
66, 76, 76 1
61, 74, 76 1
60, 73, 75 1
55, 75, 80 1
54, 74, 79 1
59, 79, 84 1
59, 75, 82 1
57, 70, 78 1
58, 70, 76 1
62, 70, 77 1
63, 71, 78 1
86, 92, 99 1
84, 90, 97 1
82, 88, 95 1
61, 66, 69 1
61, 66, 67 1
61, 67, 66 1
62, 68, 67 1
62, 69, 66 1
64, 71, 68 1
65, 77, 77 1
62, 74, 74 1
62, 76, 75 1
58, 77, 80 1
61, 80, 85 1
64, 80, 86 1
60, 68, 75 1
120, 130, 137 1
118, 128, 135 1
86, 92, 97 1
85, 91, 96 1
85, 89, 94 1
82, 86, 91 1
69, 73, 78 1
62, 65, 69 1
60, 63, 67 1
59, 63, 64 1
61, 66, 65 1
62, 67, 65 1
65, 68, 72 1
67, 73, 72 1
75, 77, 77 1
77, 82, 81 1
82, 84, 85 1
80, 81, 85 1
76, 81, 80 1
75, 80, 78 1
72, 83, 81 1
71, 82, 80 1
67, 77, 77 1
62, 77, 79 1
61, 76, 78 1
60, 75, 77 1
62, 77, 80 1
66, 81, 84 1
69, 81, 85 1
68, 80, 84 1
78, 80, 81 1
79, 81, 82 1
123, 133, 140 1
108, 110, 118 1
87, 92, 95 1
86, 91, 94 1
82, 85, 90 1
80, 83, 88 1
64, 67, 71 1
61, 65, 66 1
66, 73, 70 1
67, 74, 71 1
69, 76, 71 1
79, 78, 80 1
77, 84, 81 1
79, 88, 85 1
73, 85, 85 1
72, 84, 84 1
70, 71, 75 1
73, 74, 78 1
80, 79, 81 1
124, 134, 141 1
104, 110, 109 1
85, 89, 90 1
62, 64, 65 1
63, 67, 62 1
74, 78, 73 1
72, 79, 72 1
71, 78, 73 1
72, 79, 74 1
72, 75, 73 1
71, 74, 72 1
73, 74, 72 1
78, 76, 75 1
83, 81, 81 1
83, 80, 82 1
83, 78, 80 1
82, 77, 79 1
79, 77, 76 1
77, 75, 74 1
75, 73, 72 1
72, 73, 71 1
73, 74, 70 1
68, 72, 67 1
79, 86, 83 1
85, 92, 89 1
86, 93, 90 1
83, 91, 91 1
85, 93, 93 1
91, 93, 94 1
90, 92, 93 1
93, 92, 94 1
96, 95, 97 1
101, 98, 100 1
103, 100, 102 1
104, 101, 103 1
105, 103, 102 1
105, 103, 103 1
107, 105, 105 1
123, 134, 138 1
117, 128, 132 1
116, 125, 129 1
106, 113, 116 1
107, 110, 114 1
106, 112, 111 1
82, 86, 87 1
81, 82, 86 1
65, 67, 68 1
59, 61, 62 1
61, 64, 62 1
70, 74, 69 1
68, 75, 72 1
79, 85, 84 1
82, 85, 83 1
80, 83, 81 1
81, 82, 80 1
83, 84, 82 1
84, 85, 83 1
85, 86, 84 1
86, 87, 85 1
89, 87, 87 1
89, 86, 88 1
92, 87, 89 1
93, 88, 90 1
95, 90, 92 1
95, 93, 92 1
98, 96, 95 1
98, 102, 97 1
99, 104, 102 1
102, 107, 105 1
106, 111, 109 1
109, 114, 112 1
111, 116, 114 1
113, 118, 116 1
115, 120, 118 1
114, 120, 119 1
115, 121, 120 1
119, 123, 124 1
121, 125, 126 1
125, 127, 128 1
126, 128, 129 1
128, 127, 129 1
131, 128, 130 1
133, 130, 132 1
138, 136, 135 1
137, 135, 134 1
139, 137, 137 1
117, 126, 130 1
110, 119, 123 1
112, 121, 124 1
108, 117, 120 1
111, 113, 121 1
86, 90, 91 1
83, 87, 88 1
61, 63, 64 1
62, 64, 64 1
65, 68, 66 1
67, 69, 69 1
63, 69, 64 1
64, 70, 65 1
80, 85, 83 1
85, 88, 86 1
84, 87, 85 1
83, 87, 82 1
84, 88, 83 1
82, 89, 86 1
85, 91, 90 1
87, 93, 92 1
91, 96, 97 1
92, 97, 98 1
96, 103, 100 1
99, 106, 103 1
101, 108, 105 1
106, 114, 114 1
109, 117, 117 1
119, 125, 124 1
125, 131, 130 1
128, 133, 132 1
130, 135, 134 1
132, 134, 134 1
131, 133, 133 1
128, 131, 129 1
127, 130, 128 1
132, 133, 131 1
134, 135, 133 1
140, 141, 139 1
142, 142, 142 1
143, 143, 143 1
145, 145, 145 1
149, 149, 149 1
152, 152, 152 1
152, 153, 151 1
151, 154, 152 1
152, 155, 153 1
153, 156, 154 1
153, 158, 156 1
155, 158, 156 1
154, 156, 156 1
152, 157, 156 1
154, 153, 155 1
111, 120, 123 1
101, 111, 111 1
100, 110, 110 1
99, 109, 109 1
89, 94, 95 1
84, 88, 89 1
60, 62, 63 1
63, 65, 66 1
67, 69, 70 1
68, 69, 73 1
78, 81, 79 1
78, 84, 79 1
80, 86, 81 1
81, 87, 82 1
84, 87, 91 1
93, 95, 95 1
97, 99, 99 1
98, 100, 101 1
99, 103, 104 1
101, 105, 106 1
102, 106, 107 1
101, 106, 107 1
105, 110, 109 1
110, 112, 112 1
113, 115, 115 1
122, 127, 126 1
124, 129, 128 1
125, 130, 129 1
126, 131, 129 1
127, 132, 133 1
129, 133, 134 1
132, 137, 136 1
137, 142, 141 1
143, 148, 147 1
148, 151, 149 1
146, 149, 147 1
144, 147, 145 1
140, 145, 143 1
139, 144, 142 1
139, 144, 143 1
142, 147, 146 1
144, 149, 148 1
144, 150, 149 1
145, 151, 150 1
149, 154, 155 1
153, 158, 159 1
156, 161, 162 1
157, 162, 163 1
161, 167, 166 1
155, 161, 160 1
149, 155, 154 1
145, 153, 152 1
149, 157, 157 1
151, 159, 159 1
152, 160, 160 1
152, 157, 158 1
154, 158, 159 1
155, 160, 159 1
157, 162, 161 1
163, 163, 163 1
164, 164, 164 1
162, 163, 161 1
160, 161, 159 1
160, 162, 162 1
162, 164, 165 1
175, 177, 178 1
172, 174, 175 1
166, 168, 169 1
163, 162, 164 1
162, 161, 163 1
162, 160, 160 1
164, 162, 162 1
166, 164, 163 1
161, 164, 162 1
166, 169, 167 1
161, 166, 164 1
161, 166, 165 1
162, 164, 164 1
156, 158, 158 1
156, 158, 159 1
157, 156, 158 1
155, 154, 156 1
159, 156, 158 1
159, 158, 160 1
