119, 124, 122 629
118, 123, 121 478
120, 123, 121 407
118, 124, 123 389
121, 124, 122 380
118, 124, 119 359
120, 125, 123 267
121, 125, 120 230
119, 125, 124 213
119, 122, 120 193
117, 123, 122 186
119, 123, 118 178
120, 124, 119 172
122, 126, 121 165
122, 125, 123 147
123, 127, 122 143
119, 125, 120 128
121, 125, 119 95
117, 123, 118 94
117, 122, 120 89
121, 127, 122 64
120, 126, 125 51
118, 122, 117 41
119, 124, 123 40
120, 124, 118 35
125, 129, 123 34
118, 121, 119 34
90, 98, 98 34
125, 129, 124 33
123, 127, 121 33
121, 126, 125 32
120, 126, 121 32
89, 97, 97 31
118, 123, 122 30
117, 122, 121 29
127, 128, 124 28
122, 126, 120 28
122, 123, 121 28
91, 99, 99 28
117, 125, 124 26
95, 101, 100 26
88, 96, 96 25
122, 127, 126 24
126, 130, 125 24
118, 125, 122 23
100, 103, 101 23
134, 142, 149 23
124, 128, 123 22
99, 102, 100 22
123, 126, 124 21
126, 130, 124 20
126, 127, 123 20
101, 104, 102 20
128, 130, 124 19
96, 102, 101 19
100, 104, 99 19
128, 129, 125 18
116, 123, 126 18
98, 103, 102 18
96, 101, 100 18
180, 177, 179 18
123, 124, 122 17
167, 178, 192 17
168, 178, 195 17
116, 124, 123 16
118, 126, 125 16
99, 104, 103 16
97, 103, 102 16
90, 99, 103 16
94, 100, 99 16
99, 103, 98 15
87, 95, 95 15
177, 177, 183 15
125, 126, 122 14
117, 122, 123 14
117, 124, 121 14
94, 102, 101 14
92, 98, 103 14
98, 100, 100 14
179, 180, 184 14
167, 177, 194 14
129, 131, 125 13
97, 102, 101 13
184, 182, 182 13
178, 179, 183 13
133, 140, 149 13
170, 170, 176 13
116, 120, 115 12
107, 111, 106 12
97, 105, 104 12
95, 100, 99 12
101, 103, 103 12
132, 139, 148 12
115, 121, 116 11
96, 100, 101 11
92, 96, 101 11
101, 105, 100 11
145, 150, 153 11
169, 178, 192 11
135, 143, 150 11
167, 167, 173 11
175, 175, 181 11
132, 138, 149 11
116, 122, 121 10
116, 121, 119 10
119, 126, 123 10
116, 122, 117 10
114, 123, 127 10
92, 98, 97 10
98, 102, 97 10
102, 105, 103 10
100, 102, 102 10
102, 104, 104 10
142, 149, 152 10
174, 171, 173 10
175, 172, 174 10
179, 176, 178 10
178, 175, 177 10
174, 173, 177 10
180, 181, 185 10
170, 178, 191 10
126, 135, 145 10
168, 168, 174 10
120, 125, 124 9
124, 128, 122 9
120, 122, 122 9
93, 101, 100 9
98, 103, 101 9
98, 102, 103 9
173, 172, 174 9
177, 178, 182 9
168, 179, 193 9
134, 141, 150 9
166, 179, 195 9
131, 137, 148 9
173, 173, 179 9
168, 177, 191 9
121, 126, 124 8
115, 123, 122 8
118, 123, 124 8
104, 112, 111 8
96, 104, 103 8
95, 103, 103 8
91, 97, 96 8
93, 99, 104 8
91, 99, 98 8
92, 100, 99 8
94, 99, 98 8
93, 98, 97 8
86, 95, 99 8
88, 95, 98 8
99, 103, 104 8
102, 102, 102 8
94, 94, 94 8
139, 145, 150 8
173, 170, 172 8
181, 178, 180 8
175, 174, 178 8
183, 181, 181 8
172, 171, 175 8
181, 179, 179 8
167, 180, 196 8
167, 176, 190 8
166, 176, 193 8
121, 127, 126 7
107, 116, 120 7
98, 104, 99 7
100, 105, 104 7
98, 104, 103 7
97, 106, 110 7
97, 105, 105 7
94, 102, 102 7
96, 104, 104 7
97, 102, 100 7
92, 95, 100 7
87, 96, 100 7
104, 107, 105 7
90, 96, 101 7
99, 101, 101 7
95, 95, 95 7
145, 148, 152 7
129, 138, 142 7
177, 174, 176 7
177, 173, 178 7
141, 145, 150 7
169, 170, 174 7
173, 172, 176 7
183, 180, 182 7
170, 180, 197 7
168, 169, 173 7
169, 178, 191 7
134, 138, 149 7
118, 122, 123 6
114, 123, 126 6
111, 116, 115 6
109, 117, 116 6
99, 104, 102 6
95, 99, 100 6
90, 96, 95 6
87, 97, 97 6
94, 98, 99 6
92, 97, 96 6
87, 95, 102 6
103, 106, 104 6
104, 104, 104 6
93, 93, 93 6
194, 194, 194 6
179, 179, 179 6
197, 195, 195 6
191, 192, 196 6
173, 179, 190 6
187, 184, 186 6
172, 178, 191 6
172, 171, 173 6
178, 174, 179 6
130, 138, 145 6
132, 140, 147 6
171, 170, 172 6
180, 179, 181 6
184, 181, 183 6
182, 179, 181 6
138, 144, 149 6
168, 181, 197 6
127, 136, 146 6
132, 141, 150 6
173, 173, 173 6
166, 177, 191 6
165, 167, 167 6
125, 128, 126 5
117, 122, 125 5
116, 126, 126 5
119, 127, 126 5
115, 122, 119 5
112, 117, 116 5
107, 115, 114 5
108, 116, 115 5
95, 102, 99 5
91, 98, 101 5
94, 98, 103 5
87, 94, 97 5
88, 98, 98 5
98, 101, 99 5
92, 100, 100 5
88, 96, 103 5
95, 100, 101 5
96, 96, 96 5
119, 119, 119 5
194, 192, 192 5
171, 176, 185 5
141, 148, 151 5
156, 163, 166 5
162, 163, 167 5
180, 180, 180 5
187, 187, 187 5
186, 183, 185 5
185, 183, 183 5
165, 164, 166 5
175, 174, 176 5
182, 182, 182 5
177, 182, 191 5
182, 180, 180 5
172, 181, 195 5
139, 146, 149 5
140, 147, 150 5
131, 138, 147 5
146, 151, 154 5
165, 166, 170 5
166, 169, 173 5
142, 146, 151 5
148, 153, 156 5
169, 179, 196 5
125, 133, 146 5
167, 168, 172 5
141, 143, 151 5
136, 142, 149 5
127, 131, 126 4
120, 122, 123 4
117, 121, 122 4
119, 121, 122 4
115, 122, 125 4
116, 121, 124 4
116, 123, 120 4
118, 128, 128 4
113, 119, 118 4
113, 119, 114 4
110, 118, 118 4
106, 112, 111 4
103, 111, 110 4
104, 110, 109 4
106, 109, 107 4
98, 105, 102 4
96, 105, 108 4
95, 103, 102 4
97, 103, 98 4
87, 96, 99 4
89, 99, 99 4
97, 99, 99 4
90, 97, 100 4
93, 101, 101 4
105, 108, 106 4
103, 105, 105 4
93, 98, 99 4
90, 98, 97 4
91, 95, 96 4
103, 103, 103 4
96, 101, 102 4
106, 107, 111 4
138, 138, 138 4
181, 181, 181 4
190, 190, 196 4
221, 221, 221 4
222, 222, 228 4
166, 170, 175 4
161, 162, 166 4
184, 183, 185 4
184, 187, 195 4
177, 181, 192 4
164, 163, 165 4
167, 166, 168 4
188, 186, 186 4
133, 142, 146 4
182, 182, 188 4
170, 172, 173 4
181, 180, 182 4
170, 181, 195 4
170, 171, 175 4
178, 178, 184 4
180, 178, 178 4
147, 150, 155 4
145, 148, 153 4
171, 170, 174 4
133, 139, 150 4
133, 144, 148 4
160, 163, 168 4
164, 164, 170 4
140, 143, 151 4
176, 173, 175 4
169, 177, 194 4
164, 166, 166 4
119, 123, 117 3
117, 120, 118 3
116, 120, 121 3
115, 120, 118 3
111, 116, 114 3
114, 120, 115 3
108, 113, 112 3
109, 114, 113 3
105, 111, 110 3
108, 117, 120 3
108, 118, 118 3
110, 118, 117 3
101, 107, 102 3
99, 105, 100 3
102, 108, 103 3
95, 104, 107 3
93, 97, 102 3
88, 97, 101 3
93, 97, 98 3
86, 94, 94 3
91, 96, 95 3
95, 99, 104 3
88, 94, 99 3
89, 96, 99 3
93, 99, 98 3
94, 97, 102 3
92, 99, 102 3
94, 99, 100 3
92, 97, 100 3
101, 101, 101 3
101, 102, 100 3
109, 107, 106 3
101, 103, 104 3
100, 102, 103 3
100, 101, 105 3
98, 98, 104 3
97, 97, 97 3
92, 94, 94 3
92, 92, 92 3
102, 104, 105 3
186, 186, 186 3
189, 189, 189 3
189, 190, 194 3
195, 195, 195 3
197, 197, 197 3
119, 124, 127 3
127, 130, 135 3
128, 131, 139 3
149, 150, 154 3
198, 198, 198 3
225, 227, 228 3
222, 223, 227 3
167, 171, 176 3
169, 171, 179 3
172, 177, 186 3
157, 164, 167 3
161, 163, 164 3
188, 185, 187 3
195, 193, 193 3
196, 194, 194 3
196, 193, 195 3
192, 194, 195 3
193, 195, 196 3
176, 181, 190 3
138, 147, 150 3
140, 146, 151 3
142, 145, 149 3
149, 153, 154 3
171, 168, 170 3
173, 175, 176 3
177, 177, 177 3
187, 185, 185 3
189, 187, 187 3
180, 182, 183 3
181, 182, 186 3
183, 184, 188 3
184, 184, 190 3
178, 182, 193 3
140, 144, 149 3
145, 150, 151 3
182, 181, 183 3
183, 182, 184 3
171, 179, 192 3
131, 139, 146 3
179, 178, 180 3
180, 180, 186 3
172, 182, 199 3
126, 135, 144 3
165, 167, 168 3
184, 179, 181 3
151, 154, 158 3
153, 156, 160 3
171, 172, 176 3
181, 180, 184 3
183, 178, 180 3
102, 112, 129 3
135, 144, 148 3
171, 169, 175 3
174, 173, 175 3
150, 155, 158 3
156, 161, 164 3
174, 174, 174 3
172, 172, 172 3
128, 137, 147 3
144, 149, 152 3
172, 172, 178 3
173, 174, 178 3
127, 135, 148 3
156, 160, 165 3
159, 162, 167 3
163, 164, 168 3
169, 171, 171 3
135, 140, 149 3
164, 162, 168 3
130, 136, 147 3
166, 167, 171 3
167, 166, 175 3
122, 124, 124 2
124, 127, 125 2
122, 122, 122 2
116, 124, 124 2
122, 127, 125 2
118, 121, 125 2
118, 123, 126 2
119, 127, 127 2
122, 128, 127 2
114, 119, 117 2
117, 125, 125 2
120, 128, 127 2
121, 129, 128 2
116, 119, 117 2
110, 116, 111 2
109, 115, 110 2
112, 119, 116 2
111, 118, 115 2
110, 117, 114 2
113, 118, 117 2
106, 111, 110 2
109, 115, 120 2
109, 113, 118 2
111, 115, 120 2
105, 113, 112 2
105, 116, 114 2
106, 114, 114 2
107, 110, 108 2
100, 106, 101 2
99, 106, 103 2
97, 101, 102 2
99, 105, 110 2
99, 103, 108 2
99, 107, 107 2
99, 107, 106 2
98, 106, 105 2
91, 94, 99 2
104, 106, 106 2
94, 100, 105 2
91, 96, 99 2
90, 95, 98 2
93, 100, 103 2
98, 103, 106 2
89, 94, 95 2
92, 97, 98 2
91, 96, 97 2
92, 96, 97 2
103, 104, 102 2
98, 98, 98 2
91, 91, 91 2
95, 100, 103 2
97, 99, 100 2
104, 106, 107 2
106, 106, 112 2
107, 107, 113 2
98, 103, 104 2
102, 107, 108 2
103, 108, 109 2
94, 101, 104 2
105, 107, 108 2
128, 128, 128 2
140, 140, 140 2
152, 152, 152 2
184, 184, 184 2
186, 188, 188 2
186, 188, 189 2
187, 189, 190 2
191, 191, 197 2
211, 208, 210 2
210, 208, 208 2
126, 129, 133 2
127, 130, 138 2
128, 134, 141 2
131, 139, 139 2
133, 141, 141 2
138, 146, 146 2
154, 156, 157 2
156, 158, 159 2
159, 161, 162 2
163, 165, 166 2
166, 171, 170 2
167, 172, 171 2
170, 175, 174 2
192, 192, 192 2
214, 212, 212 2
221, 220, 222 2
227, 227, 227 2
231, 229, 229 2
232, 230, 230 2
230, 228, 228 2
226, 226, 226 2
224, 226, 227 2
223, 224, 228 2
218, 215, 217 2
219, 216, 218 2
219, 217, 217 2
151, 158, 161 2
153, 160, 163 2
188, 188, 188 2
196, 196, 196 2
197, 194, 196 2
190, 190, 190 2
190, 187, 189 2
181, 184, 192 2
183, 186, 194 2
182, 184, 194 2
181, 183, 193 2
173, 179, 192 2
130, 139, 143 2
132, 141, 144 2
153, 157, 158 2
168, 165, 167 2
168, 167, 169 2
169, 168, 170 2
172, 169, 171 2
176, 175, 177 2
183, 183, 183 2
186, 184, 184 2
182, 184, 185 2
184, 185, 189 2
174, 180, 193 2
176, 181, 196 2
127, 135, 142 2
129, 137, 144 2
132, 141, 145 2
143, 146, 151 2
146, 149, 153 2
157, 159, 160 2
162, 161, 163 2
170, 167, 169 2
171, 173, 174 2
172, 178, 189 2
174, 180, 191 2
171, 178, 193 2
171, 180, 194 2
133, 141, 148 2
142, 147, 150 2
147, 150, 154 2
150, 151, 155 2
158, 160, 161 2
166, 165, 167 2
170, 177, 192 2
170, 179, 193 2
171, 181, 198 2
116, 124, 141 2
125, 133, 150 2
129, 136, 145 2
136, 144, 151 2
138, 144, 151 2
160, 162, 163 2
176, 172, 177 2
179, 175, 180 2
178, 177, 179 2
167, 177, 195 2
127, 136, 145 2
138, 147, 151 2
137, 146, 149 2
143, 148, 151 2
149, 152, 156 2
154, 157, 161 2
164, 165, 169 2
169, 181, 199 2
133, 143, 150 2
136, 145, 149 2
134, 145, 149 2
143, 147, 152 2
160, 163, 167 2
161, 166, 169 2
169, 169, 175 2
176, 176, 182 2
143, 150, 153 2
147, 152, 155 2
158, 163, 166 2
159, 164, 167 2
162, 165, 170 2
163, 166, 171 2
166, 166, 172 2
169, 168, 172 2
170, 169, 173 2
171, 167, 173 2
174, 174, 180 2
176, 177, 181 2
178, 178, 178 2
175, 185, 202 2
132, 143, 147 2
154, 159, 162 2
157, 161, 166 2
175, 175, 175 2
126, 134, 147 2
152, 161, 164 2
163, 163, 169 2
165, 176, 190 2
112, 121, 134 2
135, 139, 150 2
137, 143, 150 2
142, 141, 150 2
144, 148, 153 2
146, 149, 154 2
148, 151, 156 2
148, 152, 157 2
148, 157, 160 2
152, 158, 163 2
161, 161, 167 2
166, 164, 170 2
166, 165, 169 2
166, 168, 169 2
168, 167, 176 2
136, 140, 151 2
137, 143, 148 2
154, 158, 163 2
170, 169, 171 2
116, 121, 122 1
118, 120, 121 1
115, 120, 121 1
115, 120, 123 1
116, 119, 123 1
117, 120, 124 1
124, 125, 123 1
119, 122, 126 1
116, 127, 125 1
116, 123, 118 1
113, 122, 125 1
120, 123, 127 1
113, 122, 126 1
116, 122, 127 1
115, 121, 126 1
116, 120, 125 1
117, 121, 126 1
118, 122, 127 1
119, 123, 128 1
114, 124, 124 1
115, 125, 125 1
118, 126, 126 1
122, 130, 129 1
120, 127, 124 1
121, 128, 125 1
115, 121, 120 1
114, 120, 119 1
112, 118, 117 1
117, 121, 116 1
115, 118, 116 1
112, 118, 113 1
111, 117, 112 1
110, 115, 114 1
107, 112, 111 1
107, 116, 119 1
111, 119, 118 1
112, 120, 119 1
106, 114, 113 1
107, 115, 115 1
104, 112, 112 1
107, 113, 112 1
101, 106, 104 1
100, 105, 103 1
102, 107, 105 1
99, 105, 104 1
98, 102, 107 1
100, 103, 108 1
101, 109, 108 1
93, 104, 102 1
92, 103, 101 1
91, 102, 100 1
96, 102, 97 1
94, 101, 98 1
89, 95, 94 1
88, 94, 93 1
91, 100, 104 1
93, 96, 101 1
88, 99, 97 1
87, 98, 96 1
86, 96, 96 1
91, 95, 100 1
85, 94, 98 1
85, 94, 97 1
85, 93, 93 1
86, 94, 101 1
86, 93, 96 1
96, 100, 105 1
89, 98, 102 1
91, 97, 102 1
90, 100, 100 1
89, 97, 96 1
107, 108, 106 1
106, 107, 105 1
108, 106, 105 1
105, 103, 103 1
106, 104, 104 1
103, 101, 101 1
101, 99, 99 1
99, 100, 104 1
99, 99, 105 1
97, 102, 103 1
89, 95, 100 1
87, 93, 98 1
89, 94, 97 1
90, 95, 96 1
94, 96, 96 1
93, 95, 95 1
90, 95, 94 1
91, 93, 93 1
92, 95, 93 1
93, 96, 94 1
96, 99, 97 1
100, 101, 99 1
105, 103, 102 1
110, 108, 107 1
113, 111, 111 1
114, 112, 112 1
110, 108, 108 1
107, 105, 105 1
106, 106, 106 1
105, 105, 105 1
103, 105, 106 1
107, 109, 109 1
108, 110, 110 1
112, 112, 112 1
117, 117, 117 1
120, 119, 121 1
118, 117, 119 1
121, 119, 119 1
120, 120, 120 1
100, 105, 106 1
104, 109, 110 1
101, 106, 109 1
102, 105, 109 1
101, 104, 108 1
100, 103, 107 1
99, 102, 106 1
85, 89, 94 1
90, 94, 99 1
96, 101, 104 1
104, 109, 108 1
105, 110, 109 1
109, 115, 114 1
110, 116, 115 1
114, 116, 116 1
123, 123, 123 1
121, 123, 123 1
126, 126, 126 1
131, 131, 131 1
133, 133, 133 1
134, 134, 134 1
135, 135, 135 1
137, 137, 137 1
136, 136, 136 1
139, 139, 139 1
142, 142, 142 1
144, 144, 144 1
145, 145, 145 1
148, 148, 148 1
149, 149, 149 1
151, 151, 151 1
153, 153, 153 1
154, 154, 154 1
156, 156, 156 1
155, 158, 156 1
158, 161, 159 1
163, 166, 164 1
168, 169, 167 1
169, 170, 168 1
173, 171, 170 1
174, 172, 171 1
174, 172, 172 1
172, 170, 170 1
175, 173, 173 1
176, 174, 174 1
178, 176, 176 1
188, 190, 191 1
188, 189, 193 1
190, 191, 195 1
192, 192, 198 1
200, 200, 200 1
203, 203, 203 1
206, 206, 206 1
211, 209, 209 1
120, 125, 128 1
124, 129, 132 1
125, 130, 133 1
128, 131, 136 1
125, 131, 138 1
126, 132, 139 1
127, 133, 140 1
116, 119, 127 1
105, 108, 116 1
96, 99, 107 1
94, 97, 105 1
102, 105, 113 1
105, 109, 114 1
119, 126, 129 1
120, 127, 130 1
122, 129, 132 1
125, 132, 135 1
127, 134, 137 1
129, 137, 137 1
134, 142, 142 1
136, 144, 144 1
139, 147, 147 1
140, 148, 148 1
151, 153, 154 1
163, 168, 167 1
169, 174, 173 1
173, 175, 175 1
189, 191, 191 1
190, 192, 192 1
193, 193, 193 1
201, 201, 201 1
205, 203, 203 1
204, 202, 202 1
206, 204, 204 1
207, 205, 205 1
209, 207, 207 1
212, 210, 210 1
215, 213, 213 1
215, 215, 215 1
217, 217, 217 1
220, 220, 220 1
224, 221, 223 1
223, 220, 222 1
225, 222, 224 1
227, 224, 226 1
229, 229, 229 1
231, 231, 231 1
233, 233, 233 1
234, 234, 234 1
229, 232, 230 1
228, 231, 229 1
230, 231, 229 1
228, 229, 227 1
226, 227, 225 1
229, 227, 226 1
230, 228, 227 1
223, 225, 226 1
226, 228, 229 1
224, 224, 224 1
222, 222, 222 1
219, 219, 219 1
218, 218, 218 1
165, 169, 174 1
168, 171, 176 1
170, 172, 180 1
168, 173, 182 1
169, 174, 183 1
165, 170, 179 1
136, 138, 148 1
103, 105, 115 1
100, 102, 112 1
110, 112, 122 1
116, 118, 128 1
135, 141, 146 1
136, 142, 147 1
144, 151, 154 1
145, 152, 155 1
155, 162, 165 1
158, 165, 168 1
158, 161, 165 1
163, 167, 168 1
172, 177, 176 1
176, 178, 178 1
191, 189, 189 1
192, 190, 190 1
193, 191, 191 1
199, 199, 199 1
199, 198, 200 1
198, 197, 199 1
196, 195, 197 1
195, 194, 196 1
199, 196, 198 1
194, 196, 196 1
189, 189, 195 1
191, 191, 191 1
190, 188, 188 1
182, 185, 193 1
176, 180, 191 1
181, 184, 198 1
188, 191, 205 1
195, 198, 212 1
158, 161, 175 1
110, 114, 125 1
101, 105, 116 1
113, 117, 128 1
126, 128, 139 1
120, 129, 133 1
121, 130, 134 1
124, 133, 137 1
127, 136, 140 1
131, 140, 143 1
134, 143, 146 1
135, 144, 147 1
136, 145, 148 1
144, 147, 151 1
148, 149, 153 1
149, 151, 152 1
150, 152, 153 1
155, 159, 160 1
158, 162, 163 1
177, 176, 178 1
185, 185, 185 1
187, 186, 188 1
186, 185, 187 1
181, 183, 184 1
182, 183, 187 1
183, 183, 189 1
185, 182, 184 1
174, 179, 188 1
175, 180, 189 1
176, 182, 193 1
175, 181, 192 1
185, 190, 205 1
193, 198, 213 1
166, 171, 186 1
119, 124, 139 1
98, 103, 118 1
112, 115, 130 1
126, 129, 144 1
125, 133, 140 1
126, 134, 141 1
128, 137, 141 1
134, 143, 147 1
145, 149, 150 1
147, 151, 152 1
148, 152, 153 1
152, 154, 155 1
156, 155, 157 1
157, 156, 158 1
160, 159, 161 1
163, 162, 164 1
172, 174, 175 1
185, 184, 186 1
179, 181, 182 1
178, 180, 181 1
171, 177, 188 1
173, 182, 196 1
174, 181, 198 1
180, 187, 204 1
181, 188, 205 1
168, 175, 192 1
128, 135, 152 1
100, 107, 124 1
111, 118, 135 1
128, 132, 150 1
126, 133, 142 1
128, 136, 143 1
138, 142, 147 1
139, 143, 148 1
141, 146, 149 1
153, 152, 156 1
153, 155, 156 1
161, 160, 162 1
179, 179, 185 1
172, 180, 193 1
175, 183, 200 1
177, 185, 202 1
168, 176, 193 1
129, 137, 154 1
102, 110, 127 1
122, 131, 140 1
124, 133, 142 1
151, 155, 156 1
152, 156, 157 1
155, 157, 158 1
168, 170, 171 1
169, 172, 176 1
168, 171, 175 1
170, 179, 192 1
169, 180, 194 1
172, 182, 200 1
173, 183, 201 1
174, 184, 202 1
128, 138, 156 1
101, 111, 129 1
123, 132, 142 1
125, 134, 143 1
130, 137, 146 1
139, 148, 151 1
156, 157, 161 1
158, 159, 163 1
159, 160, 164 1
160, 161, 165 1
163, 166, 170 1
173, 171, 177 1
174, 172, 178 1
177, 176, 180 1
179, 178, 182 1
167, 180, 194 1
170, 182, 200 1
172, 184, 202 1
130, 140, 157 1
114, 124, 141 1
123, 133, 150 1
124, 133, 143 1
128, 137, 146 1
135, 146, 150 1
141, 147, 152 1
152, 155, 159 1
155, 158, 162 1
156, 159, 163 1
157, 160, 164 1
159, 162, 166 1
162, 167, 170 1
163, 168, 171 1
165, 168, 172 1
166, 169, 174 1
175, 171, 176 1
182, 177, 179 1
170, 183, 199 1
172, 185, 201 1
131, 141, 158 1
113, 123, 140 1
124, 134, 151 1
125, 134, 144 1
134, 140, 151 1
137, 146, 150 1
149, 154, 157 1
155, 160, 163 1
160, 165, 168 1
168, 166, 172 1
173, 169, 174 1
175, 176, 180 1
171, 184, 200 1
132, 142, 159 1
112, 123, 137 1
123, 134, 148 1
141, 144, 152 1
142, 144, 152 1
152, 157, 160 1
157, 162, 165 1
158, 162, 167 1
176, 175, 179 1
174, 175, 179 1
173, 183, 200 1
134, 145, 159 1
102, 113, 127 1
113, 122, 136 1
124, 133, 147 1
151, 156, 159 1
154, 161, 164 1
153, 159, 164 1
167, 165, 171 1
169, 167, 173 1
170, 168, 174 1
170, 170, 170 1
168, 170, 170 1
169, 171, 172 1
172, 183, 197 1
173, 184, 198 1
139, 148, 162 1
107, 116, 130 1
121, 130, 143 1
124, 132, 145 1
145, 149, 154 1
149, 153, 158 1
151, 155, 160 1
152, 156, 161 1
149, 158, 161 1
155, 159, 164 1
157, 160, 165 1
174, 183, 197 1
141, 150, 164 1
109, 118, 131 1
119, 128, 141 1
123, 131, 144 1
129, 135, 146 1
144, 153, 156 1
145, 154, 157 1
146, 155, 158 1
150, 157, 160 1
151, 157, 162 1
156, 159, 164 1
158, 161, 166 1
163, 161, 167 1
163, 162, 166 1
164, 163, 167 1
