120, 125, 124 856
121, 124, 122 569
120, 123, 121 514
122, 125, 123 503
119, 124, 123 361
121, 126, 125 347
119, 124, 122 234
118, 123, 121 233
123, 126, 124 217
120, 124, 119 201
122, 127, 126 198
120, 126, 125 181
120, 125, 123 179
117, 123, 122 177
119, 122, 120 160
128, 129, 127 153
127, 128, 124 128
128, 129, 125 126
121, 122, 120 124
127, 128, 126 111
123, 124, 122 102
122, 126, 121 92
118, 124, 123 86
117, 122, 120 84
129, 130, 128 79
124, 125, 123 79
122, 123, 121 76
125, 128, 126 68
124, 127, 125 66
115, 123, 122 64
129, 130, 126 58
130, 131, 127 57
123, 127, 122 57
121, 125, 120 51
125, 126, 124 50
130, 131, 129 49
122, 128, 127 48
123, 125, 125 47
125, 126, 122 45
124, 125, 121 41
122, 124, 124 41
123, 124, 120 40
126, 127, 125 38
134, 131, 127 35
119, 125, 124 35
121, 123, 123 35
126, 127, 123 34
118, 123, 122 34
116, 124, 123 34
98, 103, 102 31
96, 102, 101 31
118, 121, 119 29
97, 102, 101 29
90, 98, 98 29
133, 130, 126 28
122, 123, 119 28
97, 103, 102 28
95, 101, 100 28
180, 179, 181 28
125, 129, 124 27
100, 105, 104 27
88, 96, 96 27
119, 123, 118 26
99, 104, 103 26
96, 101, 100 23
89, 95, 94 23
181, 179, 179 23
94, 102, 101 22
181, 178, 180 22
127, 125, 125 21
118, 125, 122 21
179, 176, 178 21
126, 129, 127 20
117, 123, 118 20
114, 119, 117 20
89, 97, 97 20
182, 179, 181 20
180, 177, 179 20
133, 140, 149 19
98, 104, 103 18
98, 103, 101 18
97, 102, 100 17
178, 177, 179 17
131, 127, 126 16
126, 124, 124 16
121, 122, 118 16
97, 105, 104 16
183, 181, 181 16
176, 175, 177 16
128, 132, 127 15
91, 97, 96 15
174, 173, 175 15
182, 180, 180 15
182, 181, 183 15
167, 178, 192 15
135, 132, 128 14
132, 129, 125 14
117, 125, 124 14
94, 100, 99 14
96, 100, 101 14
92, 97, 96 14
87, 95, 95 14
184, 182, 182 14
178, 175, 177 14
134, 142, 149 14
117, 124, 121 13
87, 96, 100 13
102, 107, 106 13
175, 174, 176 13
180, 178, 178 13
121, 126, 124 12
129, 127, 127 12
116, 122, 121 12
118, 124, 119 12
95, 99, 100 12
94, 98, 99 12
88, 94, 93 12
91, 98, 101 12
91, 99, 99 12
169, 178, 192 12
128, 126, 126 11
128, 124, 123 11
120, 125, 126 11
112, 119, 116 11
105, 110, 108 11
93, 98, 101 11
185, 183, 183 11
181, 181, 181 11
181, 180, 182 11
117, 122, 121 10
99, 103, 104 10
98, 100, 100 10
173, 172, 174 10
168, 178, 195 10
123, 128, 127 9
121, 127, 126 9
129, 125, 124 9
118, 123, 124 9
118, 126, 126 9
103, 109, 108 9
98, 102, 103 9
90, 96, 95 9
92, 98, 97 9
90, 97, 100 9
97, 99, 100 9
95, 100, 99 9
89, 94, 95 9
92, 95, 100 9
195, 195, 195 9
132, 139, 148 9
182, 182, 182 9
170, 178, 191 9
177, 175, 175 9
176, 174, 174 9
127, 130, 128 8
126, 130, 125 8
132, 128, 127 8
124, 128, 123 8
127, 123, 122 8
128, 123, 122 8
113, 124, 122 8
118, 126, 125 8
109, 117, 116 8
92, 100, 99 8
93, 99, 98 8
101, 103, 103 8
96, 98, 98 8
99, 101, 101 8
91, 91, 91 8
183, 183, 183 8
194, 194, 194 8
187, 184, 186 8
183, 180, 182 8
184, 181, 183 8
129, 137, 144 8
124, 129, 128 7
116, 124, 124 7
113, 118, 116 7
104, 110, 109 7
104, 112, 111 7
93, 97, 98 7
90, 96, 101 7
104, 104, 104 7
179, 177, 177 7
177, 174, 176 7
173, 180, 195 7
129, 136, 145 7
169, 178, 191 7
134, 141, 150 7
133, 139, 150 7
127, 131, 126 6
114, 122, 121 6
116, 121, 119 6
115, 123, 123 6
114, 125, 123 6
113, 123, 123 6
110, 118, 118 6
97, 101, 102 6
95, 102, 99 6
94, 102, 102 6
95, 100, 101 6
94, 97, 101 6
96, 103, 100 6
87, 97, 97 6
89, 99, 99 6
92, 100, 100 6
91, 99, 98 6
104, 102, 101 6
183, 182, 184 6
186, 183, 185 6
185, 185, 185 6
178, 176, 176 6
128, 135, 144 6
170, 179, 193 6
170, 178, 195 6
131, 138, 147 6
116, 123, 120 5
116, 125, 122 5
112, 117, 115 5
108, 117, 120 5
110, 118, 117 5
107, 115, 114 5
105, 109, 110 5
99, 106, 103 5
101, 106, 105 5
99, 109, 109 5
97, 104, 101 5
96, 101, 99 5
93, 96, 100 5
94, 99, 100 5
93, 98, 99 5
90, 95, 96 5
92, 97, 100 5
94, 99, 98 5
93, 98, 97 5
89, 98, 101 5
102, 104, 104 5
103, 108, 107 5
103, 101, 100 5
105, 105, 105 5
119, 119, 119 5
224, 222, 222 5
168, 170, 171 5
171, 170, 172 5
188, 185, 187 5
227, 227, 227 5
186, 186, 186 5
175, 179, 190 5
163, 165, 165 5
184, 184, 184 5
179, 181, 191 5
175, 178, 192 5
179, 178, 180 5
136, 142, 149 5
170, 180, 197 5
144, 150, 155 5
172, 171, 173 5
129, 133, 128 4
131, 132, 128 4
127, 126, 122 4
127, 127, 127 4
130, 128, 128 4
129, 127, 126 4
120, 126, 121 4
125, 123, 122 4
117, 125, 125 4
121, 126, 127 4
113, 119, 118 4
112, 117, 116 4
108, 118, 118 4
101, 106, 104 4
96, 104, 103 4
95, 103, 102 4
95, 102, 105 4
98, 103, 104 4
88, 97, 101 4
86, 95, 98 4
98, 100, 101 4
86, 95, 99 4
91, 96, 95 4
88, 98, 98 4
91, 96, 99 4
91, 94, 99 4
85, 95, 102 4
97, 99, 99 4
98, 101, 99 4
96, 101, 102 4
92, 95, 93 4
89, 92, 90 4
94, 92, 91 4
172, 170, 169 4
180, 180, 180 4
188, 188, 188 4
162, 163, 167 4
192, 193, 191 4
228, 228, 228 4
210, 208, 208 4
168, 171, 176 4
167, 170, 175 4
148, 155, 158 4
199, 197, 197 4
184, 187, 195 4
136, 143, 146 4
146, 149, 154 4
172, 172, 172 4
170, 172, 172 4
172, 174, 174 4
179, 179, 179 4
188, 186, 185 4
186, 184, 184 4
154, 158, 159 4
173, 173, 173 4
131, 139, 146 4
172, 180, 197 4
172, 181, 195 4
166, 176, 193 4
165, 169, 170 4
171, 179, 196 4
127, 133, 144 4
135, 143, 150 4
143, 149, 154 4
169, 179, 196 4
138, 146, 153 4
128, 127, 123 3
129, 128, 124 3
130, 126, 125 3
121, 127, 122 3
126, 124, 123 3
116, 122, 117 3
118, 122, 117 3
117, 122, 123 3
115, 122, 119 3
116, 119, 117 3
117, 124, 127 3
116, 120, 121 3
113, 118, 117 3
110, 115, 114 3
107, 112, 113 3
103, 111, 110 3
104, 111, 108 3
101, 107, 106 3
103, 108, 109 3
102, 105, 109 3
98, 106, 105 3
87, 93, 92 3
90, 100, 100 3
93, 101, 101 3
87, 96, 99 3
88, 95, 98 3
94, 99, 102 3
85, 94, 97 3
86, 94, 94 3
96, 98, 99 3
100, 102, 102 3
89, 98, 102 3
92, 99, 102 3
103, 105, 105 3
91, 95, 100 3
95, 98, 102 3
98, 98, 98 3
97, 100, 98 3
104, 105, 103 3
100, 101, 99 3
103, 103, 103 3
94, 94, 94 3
91, 94, 92 3
97, 95, 94 3
109, 109, 109 3
109, 108, 110 3
94, 101, 104 3
95, 103, 103 3
190, 190, 190 3
192, 192, 192 3
120, 123, 127 3
126, 129, 133 3
127, 130, 135 3
187, 190, 188 3
232, 230, 229 3
225, 224, 226 3
169, 171, 179 3
134, 140, 145 3
147, 154, 157 3
170, 172, 173 3
177, 176, 178 3
190, 187, 189 3
196, 196, 196 3
197, 195, 195 3
197, 195, 194 3
174, 178, 189 3
147, 150, 154 3
164, 166, 166 3
177, 177, 177 3
178, 178, 178 3
187, 186, 188 3
185, 182, 184 3
179, 181, 192 3
180, 182, 193 3
130, 139, 143 3
144, 147, 152 3
184, 183, 185 3
174, 177, 191 3
172, 179, 194 3
141, 145, 150 3
140, 144, 149 3
168, 172, 173 3
171, 173, 174 3
130, 138, 145 3
133, 141, 148 3
137, 143, 148 3
153, 158, 159 3
142, 148, 155 3
152, 157, 160 3
141, 147, 154 3
140, 149, 153 3
171, 170, 174 3
168, 179, 193 3
139, 144, 153 3
166, 167, 171 3
172, 171, 175 3
125, 134, 144 3
137, 144, 153 3
163, 164, 168 3
176, 173, 175 3
132, 131, 127 2
128, 131, 129 2
130, 128, 127 2
127, 125, 124 2
116, 121, 122 2
119, 123, 124 2
120, 124, 125 2
117, 126, 123 2
120, 128, 127 2
115, 120, 118 2
114, 120, 119 2
112, 118, 117 2
110, 116, 115 2
111, 117, 116 2
111, 118, 115 2
111, 116, 115 2
109, 114, 113 2
108, 113, 112 2
106, 111, 110 2
107, 112, 111 2
108, 119, 117 2
110, 115, 116 2
113, 116, 120 2
109, 117, 117 2
106, 114, 113 2
105, 112, 115 2
106, 111, 112 2
104, 108, 109 2
105, 111, 110 2
104, 109, 107 2
100, 105, 103 2
100, 105, 108 2
96, 105, 108 2
98, 106, 106 2
97, 105, 105 2
99, 107, 106 2
97, 102, 105 2
97, 102, 103 2
85, 93, 92 2
91, 101, 101 2
90, 93, 97 2
91, 94, 98 2
99, 102, 100 2
88, 97, 100 2
89, 96, 99 2
101, 104, 102 2
92, 95, 99 2
89, 95, 100 2
89, 93, 94 2
93, 96, 101 2
86, 96, 103 2
93, 99, 104 2
92, 96, 97 2
91, 97, 102 2
94, 96, 96 2
96, 96, 96 2
99, 99, 99 2
97, 101, 96 2
100, 101, 97 2
101, 102, 98 2
101, 102, 100 2
106, 105, 101 2
101, 101, 101 2
102, 102, 102 2
102, 101, 103 2
103, 99, 104 2
97, 97, 97 2
95, 95, 95 2
93, 93, 93 2
90, 90, 90 2
92, 92, 92 2
95, 100, 103 2
84, 93, 97 2
85, 94, 98 2
85, 95, 95 2
90, 93, 91 2
93, 96, 94 2
95, 96, 92 2
96, 94, 93 2
111, 107, 112 2
122, 122, 122 2
125, 125, 125 2
130, 130, 130 2
102, 107, 108 2
101, 106, 109 2
93, 95, 103 2
92, 98, 105 2
94, 104, 104 2
117, 116, 118 2
153, 151, 150 2
154, 152, 151 2
167, 168, 166 2
184, 186, 186 2
189, 189, 189 2
191, 191, 191 2
192, 191, 193 2
193, 192, 194 2
195, 192, 194 2
211, 208, 210 2
211, 209, 209 2
208, 208, 208 2
211, 211, 211 2
215, 215, 215 2
221, 219, 219 2
93, 101, 108 2
150, 150, 156 2
193, 190, 192 2
200, 201, 199 2
220, 221, 219 2
234, 232, 231 2
228, 230, 230 2
224, 226, 226 2
225, 225, 225 2
221, 221, 221 2
218, 215, 217 2
219, 216, 218 2
174, 176, 186 2
173, 177, 188 2
139, 145, 150 2
145, 152, 155 2
149, 156, 159 2
151, 158, 161 2
155, 162, 165 2
155, 164, 167 2
154, 163, 166 2
162, 162, 168 2
164, 165, 169 2
190, 191, 189 2
193, 195, 195 2
197, 198, 196 2
198, 196, 196 2
196, 194, 193 2
194, 193, 195 2
191, 189, 189 2
181, 184, 192 2
183, 186, 194 2
182, 184, 194 2
181, 183, 193 2
178, 180, 191 2
177, 179, 190 2
133, 139, 144 2
135, 141, 146 2
136, 145, 148 2
136, 145, 149 2
145, 148, 153 2
147, 150, 155 2
151, 152, 156 2
155, 156, 160 2
164, 163, 167 2
174, 176, 176 2
175, 177, 177 2
173, 175, 175 2
176, 176, 176 2
187, 185, 184 2
186, 185, 187 2
187, 185, 185 2
178, 180, 190 2
176, 179, 193 2
133, 142, 146 2
132, 141, 145 2
131, 140, 144 2
135, 144, 148 2
145, 148, 152 2
171, 173, 173 2
184, 182, 181 2
185, 183, 182 2
182, 180, 179 2
176, 180, 191 2
174, 179, 194 2
127, 134, 143 2
140, 143, 151 2
144, 148, 153 2
149, 149, 155 2
165, 167, 167 2
170, 177, 192 2
169, 177, 194 2
126, 133, 142 2
137, 143, 150 2
138, 144, 151 2
138, 144, 149 2
149, 154, 157 2
151, 156, 159 2
155, 160, 161 2
159, 163, 164 2
167, 171, 172 2
172, 182, 199 2
100, 110, 127 2
123, 133, 150 2
124, 130, 141 2
136, 141, 150 2
144, 147, 155 2
146, 153, 156 2
161, 166, 169 2
174, 173, 177 2
171, 180, 194 2
171, 181, 198 2
173, 183, 200 2
126, 132, 143 2
136, 144, 151 2
169, 170, 174 2
124, 133, 143 2
128, 134, 145 2
139, 147, 154 2
145, 151, 156 2
160, 165, 166 2
162, 165, 169 2
167, 168, 172 2
169, 168, 170 2
174, 174, 174 2
167, 177, 194 2
138, 143, 152 2
157, 162, 165 2
161, 164, 168 2
165, 167, 168 2
131, 132, 130 1
125, 130, 129 1
128, 128, 128 1
130, 129, 125 1
128, 126, 125 1
129, 124, 123 1
118, 122, 123 1
115, 124, 121 1
117, 124, 119 1
119, 127, 126 1
121, 125, 126 1
115, 126, 124 1
120, 128, 128 1
119, 127, 127 1
119, 124, 125 1
116, 121, 120 1
115, 121, 120 1
111, 116, 114 1
110, 115, 113 1
108, 114, 113 1
109, 115, 114 1
113, 120, 117 1
108, 116, 115 1
105, 113, 112 1
105, 113, 113 1
105, 110, 111 1
106, 110, 111 1
99, 105, 104 1
100, 106, 105 1
98, 105, 102 1
98, 108, 108 1
100, 108, 108 1
101, 109, 109 1
101, 106, 107 1
95, 104, 108 1
97, 106, 109 1
95, 104, 107 1
94, 103, 106 1
97, 104, 107 1
91, 100, 103 1
86, 94, 93 1
90, 95, 98 1
86, 93, 96 1
84, 94, 101 1
86, 94, 101 1
87, 94, 97 1
88, 93, 94 1
87, 95, 102 1
87, 97, 104 1
88, 96, 103 1
93, 100, 103 1
91, 96, 97 1
91, 95, 96 1
105, 107, 107 1
94, 94, 100 1
92, 96, 101 1
91, 100, 104 1
93, 102, 105 1
86, 98, 100 1
81, 93, 95 1
84, 96, 96 1
88, 96, 95 1
90, 98, 97 1
95, 97, 98 1
93, 95, 95 1
100, 100, 100 1
95, 100, 98 1
99, 103, 98 1
100, 103, 101 1
102, 105, 103 1
103, 106, 104 1
105, 103, 102 1
103, 102, 104 1
104, 101, 103 1
89, 89, 89 1
92, 97, 98 1
96, 96, 102 1
95, 95, 101 1
93, 97, 102 1
89, 97, 96 1
93, 95, 96 1
95, 97, 97 1
90, 94, 89 1
90, 95, 93 1
91, 96, 94 1
94, 95, 91 1
93, 94, 90 1
92, 93, 91 1
93, 94, 92 1
93, 91, 90 1
94, 97, 95 1
98, 99, 97 1
106, 104, 103 1
108, 106, 105 1
110, 108, 107 1
113, 111, 110 1
112, 110, 109 1
109, 107, 106 1
105, 106, 104 1
106, 106, 106 1
107, 107, 107 1
111, 108, 110 1
110, 110, 110 1
112, 112, 112 1
117, 117, 117 1
120, 119, 121 1
118, 117, 119 1
120, 120, 120 1
121, 121, 121 1
123, 123, 123 1
126, 126, 126 1
129, 129, 129 1
100, 105, 106 1
104, 109, 110 1
99, 104, 107 1
98, 103, 106 1
99, 98, 107 1
98, 97, 106 1
94, 96, 104 1
92, 95, 103 1
93, 96, 104 1
90, 96, 103 1
81, 90, 94 1
95, 105, 105 1
97, 100, 105 1
99, 102, 107 1
100, 103, 108 1
100, 103, 107 1
103, 106, 110 1
107, 109, 110 1
112, 114, 115 1
113, 115, 116 1
115, 117, 118 1
116, 115, 117 1
119, 118, 120 1
123, 120, 122 1
117, 120, 118 1
130, 133, 131 1
133, 136, 134 1
134, 137, 135 1
135, 138, 136 1
136, 139, 137 1
137, 140, 138 1
137, 138, 134 1
138, 139, 135 1
139, 140, 136 1
140, 141, 139 1
142, 143, 141 1
144, 145, 143 1
149, 147, 146 1
151, 149, 148 1
152, 150, 149 1
155, 153, 152 1
156, 154, 153 1
157, 155, 154 1
156, 158, 158 1
159, 162, 160 1
165, 166, 164 1
169, 170, 168 1
174, 172, 171 1
175, 173, 172 1
176, 177, 175 1
186, 188, 188 1
194, 190, 195 1
197, 197, 197 1
200, 200, 200 1
203, 203, 203 1
208, 206, 206 1
209, 209, 209 1
213, 213, 213 1
223, 221, 221 1
222, 220, 220 1
121, 124, 128 1
119, 122, 126 1
125, 128, 132 1
128, 131, 136 1
128, 127, 136 1
129, 128, 137 1
128, 130, 138 1
129, 131, 139 1
130, 132, 140 1
129, 131, 141 1
130, 132, 142 1
128, 133, 142 1
126, 131, 140 1
127, 132, 141 1
115, 121, 128 1
100, 108, 115 1
89, 97, 104 1
98, 106, 113 1
113, 120, 123 1
115, 122, 125 1
116, 123, 126 1
118, 125, 128 1
120, 127, 130 1
121, 129, 129 1
123, 131, 131 1
124, 132, 132 1
129, 137, 137 1
131, 139, 139 1
134, 142, 142 1
136, 144, 144 1
136, 146, 146 1
137, 147, 147 1
138, 148, 148 1
139, 149, 149 1
148, 148, 154 1
152, 152, 158 1
154, 154, 160 1
157, 158, 162 1
160, 161, 165 1
164, 166, 167 1
167, 169, 170 1
188, 191, 189 1
195, 196, 194 1
198, 199, 197 1
202, 203, 201 1
204, 205, 203 1
207, 208, 206 1
206, 209, 207 1
208, 211, 209 1
210, 213, 211 1
212, 214, 214 1
213, 216, 214 1
216, 217, 215 1
219, 220, 218 1
221, 222, 220 1
225, 223, 223 1
227, 225, 225 1
229, 227, 227 1
231, 229, 229 1
233, 231, 231 1
233, 231, 230 1
228, 229, 227 1
227, 228, 226 1
226, 227, 225 1
229, 227, 226 1
230, 228, 227 1
231, 229, 228 1
229, 229, 229 1
226, 226, 226 1
226, 223, 225 1
225, 222, 224 1
225, 221, 226 1
224, 224, 224 1
222, 222, 222 1
219, 219, 219 1
220, 218, 218 1
219, 217, 217 1
217, 217, 217 1
214, 214, 214 1
212, 212, 212 1
212, 210, 210 1
209, 207, 207 1
166, 169, 174 1
170, 172, 180 1
173, 172, 182 1
172, 173, 183 1
173, 174, 184 1
174, 175, 185 1
175, 176, 186 1
172, 176, 187 1
168, 172, 183 1
165, 170, 179 1
94, 101, 110 1
92, 99, 108 1
106, 113, 122 1
109, 116, 125 1
136, 142, 147 1
141, 148, 151 1
143, 150, 153 1
153, 160, 163 1
160, 160, 166 1
161, 161, 167 1
183, 185, 185 1
182, 184, 184 1
184, 185, 183 1
185, 186, 184 1
187, 188, 186 1
188, 189, 187 1
189, 190, 188 1
191, 192, 190 1
191, 193, 193 1
194, 196, 196 1
193, 196, 194 1
194, 197, 195 1
196, 194, 194 1
193, 194, 192 1
198, 196, 195 1
193, 193, 193 1
192, 194, 195 1
194, 191, 193 1
193, 189, 194 1
190, 188, 188 1
182, 185, 193 1
182, 183, 193 1
182, 182, 194 1
181, 181, 193 1
180, 183, 197 1
183, 189, 202 1
191, 197, 210 1
155, 161, 174 1
104, 110, 121 1
94, 100, 111 1
108, 114, 125 1
118, 124, 135 1
129, 135, 140 1
130, 136, 141 1
134, 143, 146 1
135, 144, 147 1
137, 146, 150 1
143, 142, 151 1
145, 145, 151 1
150, 151, 155 1
156, 157, 161 1
160, 159, 163 1
162, 161, 165 1
163, 162, 166 1
166, 166, 166 1
168, 169, 167 1
170, 171, 169 1
171, 172, 170 1
172, 173, 171 1
173, 176, 174 1
175, 175, 175 1
186, 184, 183 1
188, 186, 186 1
187, 187, 187 1
176, 178, 188 1
177, 179, 189 1
177, 178, 192 1
177, 180, 194 1
176, 182, 195 1
170, 175, 190 1
181, 186, 201 1
189, 194, 209 1
165, 170, 185 1
121, 126, 141 1
99, 107, 120 1
112, 118, 131 1
126, 134, 147 1
127, 133, 140 1
128, 134, 141 1
130, 136, 143 1
132, 138, 145 1
134, 143, 147 1
140, 142, 150 1
142, 144, 152 1
143, 145, 153 1
146, 149, 153 1
148, 149, 153 1
149, 150, 154 1
154, 155, 159 1
158, 157, 161 1
159, 158, 162 1
153, 157, 158 1
157, 159, 160 1
157, 159, 159 1
158, 160, 160 1
159, 161, 161 1
161, 163, 163 1
166, 168, 168 1
167, 169, 169 1
168, 170, 170 1
169, 171, 171 1
183, 181, 180 1
173, 179, 192 1
175, 180, 195 1
177, 184, 199 1
166, 173, 188 1
125, 132, 147 1
101, 108, 123 1
118, 125, 140 1
131, 138, 153 1
127, 135, 142 1
128, 136, 143 1
138, 141, 149 1
139, 142, 150 1
151, 155, 156 1
152, 156, 157 1
155, 159, 160 1
157, 162, 161 1
160, 165, 164 1
164, 169, 168 1
166, 171, 170 1
169, 173, 174 1
172, 174, 175 1
172, 180, 193 1
171, 179, 192 1
171, 177, 190 1
172, 178, 191 1
174, 182, 199 1
177, 185, 202 1
129, 137, 154 1
101, 109, 126 1
115, 123, 140 1
125, 133, 150 1
124, 131, 140 1
132, 140, 147 1
145, 149, 154 1
148, 151, 156 1
150, 155, 158 1
152, 157, 158 1
156, 160, 161 1
157, 161, 162 1
161, 165, 166 1
163, 167, 168 1
164, 169, 170 1
166, 171, 172 1
167, 172, 173 1
169, 171, 172 1
170, 179, 192 1
171, 178, 193 1
173, 181, 198 1
174, 184, 201 1
127, 137, 154 1
114, 124, 141 1
135, 140, 149 1
141, 147, 152 1
146, 149, 157 1
154, 159, 160 1
156, 161, 162 1
158, 163, 164 1
160, 165, 168 1
163, 168, 171 1
166, 170, 171 1
172, 173, 177 1
175, 174, 178 1
128, 138, 155 1
101, 111, 128 1
113, 123, 140 1
140, 146, 153 1
154, 161, 164 1
157, 164, 167 1
158, 165, 168 1
161, 166, 167 1
162, 167, 168 1
166, 169, 173 1
170, 171, 175 1
171, 172, 176 1
173, 172, 176 1
129, 139, 156 1
112, 122, 139 1
121, 131, 148 1
122, 131, 141 1
130, 137, 146 1
137, 145, 152 1
139, 145, 152 1
140, 145, 154 1
140, 148, 155 1
141, 150, 154 1
147, 153, 158 1
150, 157, 160 1
152, 158, 163 1
154, 160, 165 1
156, 162, 167 1
158, 164, 169 1
163, 166, 170 1
170, 169, 171 1
170, 169, 173 1
171, 171, 171 1
129, 140, 154 1
99, 110, 124 1
111, 120, 134 1
121, 130, 144 1
123, 131, 144 1
129, 135, 146 1
130, 136, 147 1
132, 138, 149 1
135, 142, 151 1
143, 149, 156 1
147, 151, 156 1
146, 152, 157 1
149, 155, 160 1
151, 157, 162 1
153, 159, 164 1
155, 161, 166 1
159, 164, 167 1
158, 163, 166 1
159, 162, 166 1
166, 168, 169 1
169, 168, 172 1
