frame0.jpg 357 73 398 309
frame1.jpg 357 73 398 309
frame2.jpg 357 73 398 309
frame3.jpg 357 73 398 309
frame4.jpg 357 73 398 309
frame5.jpg 357 73 398 309
frame6.jpg 357 73 398 309
frame7.jpg 357 73 398 309
frame8.jpg 357 73 398 309
frame9.jpg 357 73 398 309
frame10.jpg 357 73 398 309
frame11.jpg 357 73 398 309
frame12.jpg 357 73 398 309
frame13.jpg 357 73 398 309
frame14.jpg 357 73 398 309
frame15.jpg 357 73 398 309
frame16.jpg 357 73 398 309
frame17.jpg 357 73 398 309
frame18.jpg 357 73 398 309
frame19.jpg 357 73 398 309
frame20.jpg 357 73 398 309
frame21.jpg 357 73 398 309
frame22.jpg 357 73 398 309
frame23.jpg 357 73 398 309
frame24.jpg 357 73 398 309
frame25.jpg 357 73 398 309
frame26.jpg 357 73 398 309
frame27.jpg 357 73 398 309
frame28.jpg 357 73 398 309
frame29.jpg 357 73 398 309
frame30.jpg 357 73 398 309
frame31.jpg 357 73 398 309
frame32.jpg 357 73 398 309
frame33.jpg 357 73 398 309
frame34.jpg 357 73 398 309
frame35.jpg 357 73 398 309
frame36.jpg 357 73 398 309
frame37.jpg 357 73 398 309
frame38.jpg 357 73 398 309
frame39.jpg 357 73 398 309
frame40.jpg 357 73 398 309
frame41.jpg 357 73 398 309
frame42.jpg 357 73 398 309
frame43.jpg 357 73 398 309
frame44.jpg 357 73 398 309
frame45.jpg 357 73 398 309
frame46.jpg 357 73 398 309
frame47.jpg 357 73 398 309
frame48.jpg 357 73 398 309
frame49.jpg 357 73 398 309
frame50.jpg 357 73 398 309
frame51.jpg 357 73 398 309
frame52.jpg 357 73 398 309
frame53.jpg 357 73 398 309
frame54.jpg 357 73 398 309
frame55.jpg 357 73 398 309
frame56.jpg 357 73 398 309
frame57.jpg 357 73 398 309
frame58.jpg 357 73 398 309
frame59.jpg 357 73 398 309
frame60.jpg 357 73 398 309
frame61.jpg 357 73 398 309
frame62.jpg 357 73 398 309
frame63.jpg 357 73 398 309
frame64.jpg 357 73 398 309
frame65.jpg 357 73 398 309
frame66.jpg 357 73 398 309
frame67.jpg 357 73 398 309
frame68.jpg 357 73 398 309
frame69.jpg 357 73 398 309
frame70.jpg 357 73 398 309
frame71.jpg 357 73 398 309
frame72.jpg 357 73 398 309
frame73.jpg 357 73 398 309
frame74.jpg 357 73 398 309
frame75.jpg 357 73 398 309
frame76.jpg 357 73 398 309
frame77.jpg 357 73 398 309
frame78.jpg 357 73 398 309
frame79.jpg 357 73 398 309
frame80.jpg 357 73 398 309
frame81.jpg 357 73 398 309
frame82.jpg 357 73 398 309
frame83.jpg 357 73 398 309
frame84.jpg 357 73 398 309
frame85.jpg 357 73 398 309
frame86.jpg 357 73 398 309
frame87.jpg 357 73 398 309
frame88.jpg 357 73 398 309
frame89.jpg 357 73 398 309
frame90.jpg 357 73 398 309
frame91.jpg 357 73 398 309
frame92.jpg 357 73 398 309
frame93.jpg 357 73 398 309
frame94.jpg 357 73 398 309
frame95.jpg 357 73 398 309
frame96.jpg 357 73 398 309
frame97.jpg 357 73 398 309
frame98.jpg 357 73 398 309
frame99.jpg 357 73 398 309
frame100.jpg 357 73 398 309
frame101.jpg 357 73 398 309
frame102.jpg 357 73 398 309
frame103.jpg 357 73 398 309
frame104.jpg 357 73 398 309
frame105.jpg 357 73 398 309
frame106.jpg 357 73 398 309
frame107.jpg 357 73 398 309
frame108.jpg 357 73 398 309
frame109.jpg 357 73 398 309
frame110.jpg 357 73 398 309
frame111.jpg 357 73 398 309
frame112.jpg 357 73 398 309
frame113.jpg 357 73 398 309
frame114.jpg 357 73 398 309
frame115.jpg 357 73 398 309
frame116.jpg 357 73 398 309
frame117.jpg 357 73 398 309
frame118.jpg 357 73 398 309
frame119.jpg 357 73 398 309
frame120.jpg 357 73 398 309
frame121.jpg 357 73 398 309
frame122.jpg 357 73 398 309
frame123.jpg 357 73 398 309
frame124.jpg 357 73 398 309
frame125.jpg 357 73 398 309
frame126.jpg 357 73 398 309
frame127.jpg 357 73 398 309
frame128.jpg 357 73 398 309
frame129.jpg 357 73 398 309
frame130.jpg 357 73 398 309
frame131.jpg 357 73 398 309
frame132.jpg 357 73 398 309
frame133.jpg 357 73 398 309
frame134.jpg 357 73 398 309
frame135.jpg 357 73 398 309
frame136.jpg 357 73 398 309
frame137.jpg 357 73 398 309
frame138.jpg 357 73 398 309
frame139.jpg 357 73 398 309
frame140.jpg 357 73 398 309
frame141.jpg 357 73 398 309
frame142.jpg 357 73 398 309
frame143.jpg 357 73 398 309
frame144.jpg 357 73 398 309
frame145.jpg 357 73 398 309
frame146.jpg 357 73 398 309
frame147.jpg 357 73 398 309
frame148.jpg 357 73 398 309
frame149.jpg 357 73 398 309
