44, 44, 44 319
45, 45, 45 203
45, 47, 47 188
46, 48, 48 181
46, 46, 46 157
47, 47, 47 121
44, 46, 46 106
43, 45, 45 102
47, 48, 46 97
45, 46, 44 90
46, 47, 45 89
47, 49, 49 72
48, 48, 48 69
42, 44, 44 67
44, 45, 43 67
43, 43, 43 63
44, 45, 41 58
46, 47, 43 54
50, 50, 50 52
48, 50, 50 50
48, 49, 45 49
50, 51, 47 49
45, 46, 42 47
49, 49, 49 44
43, 44, 40 43
46, 49, 47 40
53, 55, 55 40
49, 51, 45 39
48, 49, 47 38
49, 50, 46 37
49, 50, 48 36
47, 48, 44 36
48, 50, 44 35
47, 50, 48 34
55, 57, 57 33
59, 61, 61 32
41, 43, 43 32
54, 56, 56 32
58, 60, 60 31
34, 36, 36 30
60, 63, 61 29
56, 58, 58 29
49, 51, 51 27
54, 57, 55 27
51, 52, 48 27
50, 52, 52 26
56, 56, 56 26
56, 59, 57 25
55, 58, 56 24
35, 37, 37 24
54, 58, 53 24
55, 59, 54 24
51, 53, 47 24
50, 51, 49 24
51, 51, 51 23
50, 52, 46 23
59, 62, 60 22
58, 61, 59 22
36, 41, 39 22
55, 57, 51 22
48, 51, 49 21
47, 51, 46 21
55, 55, 55 21
41, 42, 38 21
57, 57, 57 21
56, 59, 44 21
57, 60, 58 19
60, 62, 62 19
36, 38, 38 18
33, 35, 35 18
38, 40, 40 18
36, 38, 32 18
51, 52, 50 18
52, 53, 49 18
55, 56, 52 18
57, 59, 59 17
43, 45, 39 17
43, 46, 37 17
52, 54, 54 16
36, 37, 33 16
45, 47, 41 16
53, 57, 52 16
37, 39, 33 16
49, 49, 43 16
34, 34, 34 16
57, 61, 56 15
56, 60, 55 15
49, 52, 43 15
50, 50, 44 15
158, 170, 120 15
155, 170, 119 15
37, 40, 31 15
54, 54, 54 15
33, 33, 33 15
58, 58, 58 15
36, 37, 35 14
46, 50, 45 14
51, 53, 53 14
50, 49, 51 14
51, 55, 50 14
47, 49, 43 14
46, 50, 44 14
42, 43, 39 14
53, 54, 50 14
54, 55, 51 14
35, 39, 33 14
54, 57, 48 14
58, 61, 52 14
34, 38, 32 14
51, 53, 41 14
54, 57, 42 14
32, 33, 31 13
53, 56, 54 13
49, 52, 50 13
39, 40, 36 13
41, 45, 40 13
42, 46, 41 13
46, 48, 42 13
160, 172, 122 13
156, 171, 120 13
40, 43, 34 13
52, 53, 51 13
51, 51, 45 13
31, 31, 31 13
36, 37, 27 13
22, 21, 23 13
58, 61, 46 13
43, 44, 42 12
37, 42, 40 12
43, 47, 42 12
52, 54, 48 12
44, 46, 40 12
48, 48, 42 12
35, 35, 35 12
52, 52, 52 12
156, 168, 118 12
56, 58, 52 12
36, 39, 30 12
56, 59, 50 12
53, 56, 47 12
26, 24, 24 12
61, 65, 60 11
45, 48, 46 11
35, 40, 38 11
50, 52, 53 11
39, 41, 41 11
37, 40, 38 11
35, 36, 34 11
34, 39, 38 11
48, 52, 47 11
57, 58, 54 11
47, 51, 45 11
46, 48, 49 11
159, 171, 121 11
161, 173, 123 11
57, 60, 51 11
59, 63, 52 11
47, 47, 41 11
49, 50, 41 11
35, 37, 31 11
32, 32, 32 11
25, 23, 23 11
62, 66, 61 10
59, 63, 58 10
58, 62, 57 10
47, 49, 50 10
37, 41, 36 10
35, 39, 34 10
151, 156, 154 10
43, 40, 89 10
37, 42, 41 10
41, 38, 83 10
34, 37, 35 10
36, 39, 37 10
37, 39, 39 10
37, 38, 36 10
38, 40, 34 10
42, 45, 36 10
39, 41, 35 10
44, 47, 45 10
54, 56, 50 10
41, 44, 42 10
45, 45, 39 10
40, 41, 37 10
44, 48, 42 10
153, 168, 117 10
154, 169, 118 10
39, 42, 33 10
39, 40, 31 10
37, 38, 28 10
23, 22, 24 10
50, 55, 40 10
26, 27, 23 10
57, 60, 68 9
58, 60, 54 9
135, 140, 138 9
38, 42, 37 9
38, 39, 37 9
36, 40, 35 9
153, 158, 156 9
33, 32, 34 9
49, 48, 50 9
40, 42, 42 9
49, 53, 47 9
50, 54, 48 9
37, 38, 34 9
40, 44, 38 9
52, 52, 46 9
49, 53, 48 9
43, 46, 44 9
55, 59, 53 9
150, 165, 114 9
151, 166, 115 9
58, 65, 58 9
53, 54, 52 9
36, 37, 28 9
38, 41, 32 9
38, 39, 30 9
57, 61, 50 9
52, 55, 46 9
51, 52, 43 9
53, 55, 43 9
55, 58, 43 9
57, 60, 45 9
63, 67, 62 8
54, 57, 62 8
52, 55, 53 8
45, 42, 87 8
48, 50, 51 8
50, 38, 104 8
48, 37, 100 8
44, 35, 92 8
48, 37, 99 8
43, 31, 89 8
41, 41, 41 8
51, 50, 52 8
38, 43, 41 8
54, 53, 55 8
35, 40, 39 8
60, 66, 61 8
50, 53, 51 8
53, 57, 51 8
41, 44, 35 8
46, 49, 40 8
47, 50, 41 8
42, 45, 43 8
38, 39, 35 8
148, 163, 112 8
164, 176, 126 8
64, 66, 60 8
53, 61, 50 8
50, 53, 44 8
37, 38, 29 8
57, 59, 53 8
35, 36, 32 8
59, 62, 53 8
39, 43, 38 8
48, 51, 42 8
53, 53, 53 8
33, 34, 32 8
38, 38, 38 8
53, 54, 45 8
58, 62, 51 8
55, 57, 45 8
51, 54, 39 8
49, 54, 39 8
60, 64, 59 7
131, 136, 134 7
62, 65, 63 7
59, 59, 59 7
56, 62, 57 7
28, 32, 27 7
109, 114, 112 7
46, 42, 91 7
44, 32, 90 7
39, 33, 88 7
42, 39, 88 7
161, 166, 164 7
44, 41, 87 7
43, 35, 88 7
46, 45, 47 7
33, 38, 36 7
42, 43, 41 7
44, 33, 89 7
39, 42, 40 7
44, 47, 38 7
42, 44, 38 7
39, 43, 32 7
40, 42, 36 7
53, 55, 49 7
34, 35, 31 7
41, 43, 37 7
44, 44, 38 7
37, 37, 37 7
157, 169, 119 7
155, 167, 117 7
50, 54, 49 7
41, 45, 34 7
151, 163, 113 7
40, 44, 33 7
53, 63, 51 7
58, 59, 55 7
51, 61, 49 7
45, 49, 44 7
51, 50, 46 7
46, 47, 38 7
55, 56, 47 7
45, 46, 37 7
41, 42, 32 7
23, 23, 23 7
44, 46, 34 7
42, 46, 35 7
56, 57, 47 7
56, 58, 46 7
50, 52, 40 7
57, 59, 47 7
52, 54, 42 7
37, 41, 29 7
40, 44, 32 7
57, 61, 49 7
53, 58, 56 6
144, 149, 147 6
153, 159, 154 6
55, 57, 67 6
136, 141, 139 6
123, 128, 126 6
53, 53, 71 6
59, 61, 55 6
58, 64, 59 6
40, 44, 39 6
110, 116, 111 6
146, 152, 147 6
112, 116, 111 6
150, 155, 153 6
29, 33, 28 6
40, 40, 40 6
40, 41, 39 6
42, 39, 89 6
43, 40, 90 6
155, 160, 158 6
156, 161, 159 6
39, 40, 38 6
31, 32, 30 6
52, 51, 53 6
47, 36, 99 6
34, 38, 33 6
101, 98, 148 6
34, 39, 37 6
149, 154, 152 6
43, 40, 86 6
154, 159, 157 6
32, 37, 35 6
33, 36, 34 6
44, 40, 89 6
38, 43, 42 6
31, 36, 34 6
45, 42, 88 6
40, 37, 76 6
44, 31, 87 6
36, 36, 36 6
42, 31, 87 6
39, 44, 42 6
41, 42, 40 6
33, 38, 37 6
46, 41, 86 6
32, 34, 34 6
48, 39, 96 6
61, 63, 63 6
44, 35, 85 6
45, 41, 82 6
38, 41, 39 6
34, 38, 39 6
245, 251, 240 6
138, 151, 107 6
56, 57, 53 6
37, 41, 35 6
43, 47, 41 6
53, 52, 48 6
34, 35, 33 6
44, 46, 47 6
45, 47, 48 6
48, 38, 98 6
151, 163, 115 6
56, 63, 56 6
61, 68, 61 6
152, 167, 116 6
151, 164, 118 6
42, 46, 40 6
45, 49, 43 6
48, 53, 44 6
35, 38, 29 6
51, 59, 48 6
54, 60, 49 6
38, 36, 28 6
54, 54, 48 6
55, 65, 53 6
28, 29, 25 6
27, 28, 24 6
55, 58, 49 6
52, 51, 47 6
52, 53, 44 6
44, 45, 36 6
35, 36, 27 6
49, 53, 42 6
53, 54, 44 6
43, 45, 33 6
56, 60, 49 6
55, 56, 46 6
22, 22, 22 6
48, 52, 40 6
38, 42, 30 6
41, 45, 33 6
39, 39, 27 6
47, 51, 39 6
49, 53, 41 6
42, 47, 32 6
45, 48, 33 6
61, 63, 44 6
53, 56, 41 6
67, 71, 66 5
75, 79, 74 5
63, 64, 62 5
54, 55, 65 5
61, 62, 60 5
61, 64, 62 5
54, 54, 66 5
53, 52, 68 5
53, 54, 68 5
53, 53, 69 5
50, 47, 73 5
51, 52, 73 5
102, 107, 105 5
120, 125, 123 5
79, 85, 80 5
140, 145, 144 5
54, 59, 57 5
93, 97, 92 5
82, 86, 81 5
47, 39, 86 5
44, 40, 76 5
118, 123, 121 5
126, 130, 125 5
51, 53, 54 5
37, 43, 38 5
46, 47, 51 5
45, 38, 89 5
49, 50, 54 5
36, 33, 83 5
45, 41, 90 5
168, 173, 171 5
39, 34, 65 5
38, 32, 87 5
46, 37, 100 5
158, 163, 161 5
102, 99, 149 5
157, 162, 160 5
164, 170, 165 5
31, 36, 35 5
148, 153, 151 5
53, 52, 54 5
59, 57, 77 5
146, 151, 149 5
25, 29, 24 5
47, 46, 48 5
43, 34, 90 5
46, 36, 96 5
50, 46, 88 5
50, 39, 102 5
63, 69, 64 5
62, 68, 63 5
44, 32, 92 5
32, 31, 33 5
44, 34, 87 5
45, 36, 93 5
48, 44, 85 5
243, 249, 238 5
61, 67, 62 5
66, 73, 66 5
62, 69, 62 5
54, 60, 55 5
60, 62, 56 5
65, 67, 61 5
33, 34, 30 5
52, 56, 51 5
64, 65, 61 5
48, 52, 46 5
44, 48, 43 5
53, 60, 53 5
38, 42, 36 5
51, 54, 52 5
34, 33, 35 5
155, 167, 119 5
59, 66, 59 5
162, 174, 124 5
150, 166, 113 5
47, 49, 73 5
60, 67, 60 5
43, 45, 46 5
176, 188, 146 5
173, 185, 143 5
44, 51, 46 5
66, 68, 62 5
54, 62, 51 5
61, 64, 55 5
171, 185, 143 5
54, 64, 52 5
45, 49, 38 5
55, 59, 48 5
52, 57, 48 5
55, 61, 50 5
39, 39, 33 5
37, 37, 31 5
60, 63, 54 5
174, 187, 143 5
54, 55, 53 5
23, 28, 27 5
50, 49, 45 5
22, 27, 26 5
60, 60, 60 5
45, 46, 36 5
23, 25, 26 5
22, 24, 25 5
58, 59, 49 5
50, 51, 42 5
49, 51, 39 5
45, 47, 35 5
46, 48, 36 5
29, 29, 29 5
54, 56, 44 5
42, 46, 34 5
33, 36, 27 5
45, 49, 37 5
51, 56, 41 5
50, 54, 42 5
50, 56, 39 5
45, 50, 35 5
41, 46, 31 5
52, 55, 40 5
56, 61, 64 4
55, 58, 62 4
50, 57, 60 4
163, 168, 166 4
73, 77, 72 4
53, 56, 64 4
109, 116, 109 4
152, 158, 153 4
64, 68, 63 4
65, 68, 66 4
56, 57, 61 4
55, 57, 58 4
50, 55, 53 4
160, 166, 161 4
174, 180, 175 4
157, 163, 158 4
56, 54, 74 4
55, 56, 70 4
56, 57, 71 4
150, 156, 151 4
55, 55, 73 4
52, 52, 70 4
110, 115, 113 4
124, 129, 127 4
125, 130, 128 4
55, 52, 67 4
107, 113, 108 4
125, 131, 126 4
124, 128, 123 4
39, 36, 75 4
142, 147, 145 4
137, 143, 138 4
126, 131, 129 4
154, 160, 155 4
46, 43, 89 4
139, 145, 140 4
52, 50, 49 4
41, 40, 42 4
42, 41, 43 4
57, 55, 75 4
45, 44, 86 4
159, 164, 162 4
73, 72, 82 4
74, 73, 83 4
43, 39, 88 4
156, 163, 160 4
160, 165, 163 4
76, 82, 77 4
31, 29, 75 4
43, 42, 44 4
84, 81, 131 4
47, 44, 90 4
157, 164, 159 4
43, 34, 91 4
44, 41, 91 4
156, 162, 157 4
42, 39, 85 4
40, 35, 80 4
49, 38, 101 4
44, 41, 86 4
48, 43, 74 4
47, 36, 98 4
45, 34, 90 4
53, 49, 91 4
24, 27, 25 4
40, 39, 43 4
55, 51, 93 4
40, 38, 80 4
43, 40, 85 4
43, 36, 87 4
139, 147, 137 4
62, 64, 64 4
31, 34, 32 4
35, 38, 36 4
46, 35, 97 4
47, 37, 97 4
41, 31, 84 4
32, 37, 36 4
39, 39, 39 4
46, 35, 91 4
46, 41, 80 4
45, 36, 87 4
44, 36, 89 4
53, 43, 103 4
54, 59, 58 4
40, 39, 78 4
247, 254, 239 4
52, 55, 59 4
36, 41, 40 4
40, 46, 41 4
62, 66, 60 4
248, 254, 237 4
247, 251, 239 4
59, 60, 56 4
54, 56, 57 4
239, 245, 234 4
54, 58, 52 4
51, 55, 49 4
149, 160, 122 4
39, 43, 37 4
32, 36, 31 4
47, 43, 85 4
45, 36, 92 4
42, 33, 83 4
44, 35, 86 4
52, 52, 66 4
42, 42, 42 4
139, 151, 109 4
53, 55, 56 4
40, 44, 63 4
159, 171, 123 4
154, 166, 116 4
55, 62, 55 4
33, 37, 38 4
151, 167, 114 4
63, 70, 63 4
172, 185, 141 4
168, 180, 130 4
152, 165, 121 4
45, 51, 58 4
242, 243, 239 4
42, 44, 45 4
48, 55, 52 4
217, 219, 213 4
236, 240, 229 4
39, 46, 39 4
167, 179, 129 4
58, 63, 54 4
45, 50, 41 4
51, 54, 45 4
173, 186, 140 4
150, 162, 112 4
62, 64, 58 4
44, 48, 37 4
222, 222, 216 4
171, 184, 138 4
50, 55, 46 4
40, 40, 34 4
172, 186, 144 4
174, 187, 141 4
39, 36, 31 4
50, 60, 48 4
49, 59, 47 4
52, 62, 50 4
31, 32, 28 4
173, 188, 144 4
172, 184, 142 4
57, 65, 54 4
176, 189, 145 4
173, 186, 142 4
55, 63, 52 4
51, 56, 47 4
46, 46, 40 4
29, 30, 28 4
49, 48, 44 4
61, 73, 77 4
36, 40, 34 4
47, 48, 39 4
54, 55, 46 4
44, 45, 35 4
40, 41, 31 4
21, 23, 24 4
57, 58, 49 4
52, 53, 43 4
24, 23, 25 4
36, 40, 29 4
46, 46, 34 4
32, 33, 24 4
51, 55, 44 4
59, 61, 49 4
43, 43, 31 4
58, 62, 50 4
58, 60, 48 4
44, 48, 36 4
54, 55, 45 4
43, 47, 35 4
42, 44, 32 4
44, 47, 32 4
59, 62, 47 4
30, 29, 31 4
40, 39, 29 4
23, 24, 20 4
53, 56, 40 4
61, 62, 46 4
55, 60, 63 3
56, 59, 63 3
54, 58, 63 3
132, 135, 133 3
68, 72, 67 3
56, 61, 62 3
56, 59, 67 3
54, 57, 65 3
55, 58, 66 3
53, 58, 57 3
140, 145, 143 3
192, 198, 193 3
169, 175, 170 3
128, 131, 129 3
63, 66, 64 3
69, 73, 68 3
53, 55, 63 3
53, 55, 66 3
54, 56, 66 3
53, 55, 65 3
54, 56, 64 3
134, 139, 137 3
92, 100, 89 3
50, 48, 70 3
52, 50, 72 3
50, 50, 66 3
151, 157, 152 3
165, 170, 168 3
57, 57, 75 3
59, 59, 77 3
54, 54, 72 3
50, 50, 68 3
178, 185, 178 3
80, 84, 79 3
56, 57, 55 3
56, 53, 69 3
51, 46, 78 3
49, 44, 76 3
53, 48, 80 3
69, 70, 91 3
104, 109, 107 3
106, 112, 107 3
169, 174, 172 3
125, 129, 124 3
55, 48, 85 3
48, 46, 75 3
50, 47, 72 3
122, 128, 123 3
96, 102, 97 3
132, 136, 131 3
46, 47, 75 3
45, 42, 74 3
83, 87, 82 3
121, 125, 120 3
49, 51, 52 3
47, 42, 81 3
194, 200, 195 3
177, 182, 180 3
85, 89, 84 3
44, 36, 67 3
75, 78, 76 3
105, 109, 104 3
43, 35, 75 3
44, 36, 76 3
48, 41, 78 3
114, 119, 117 3
137, 142, 140 3
148, 154, 149 3
134, 138, 133 3
116, 120, 115 3
35, 41, 36 3
47, 48, 52 3
46, 36, 89 3
82, 87, 85 3
144, 150, 145 3
157, 164, 157 3
168, 172, 167 3
102, 106, 101 3
45, 46, 50 3
48, 37, 93 3
43, 41, 83 3
46, 43, 88 3
73, 70, 116 3
40, 35, 86 3
43, 31, 91 3
51, 41, 101 3
45, 37, 90 3
52, 45, 82 3
155, 161, 156 3
34, 40, 35 3
40, 33, 90 3
41, 33, 93 3
43, 35, 96 3
49, 40, 103 3
127, 128, 166 3
152, 159, 156 3
147, 151, 146 3
112, 118, 113 3
53, 51, 50 3
43, 38, 77 3
47, 38, 101 3
47, 39, 100 3
42, 38, 87 3
162, 167, 165 3
42, 35, 78 3
47, 43, 92 3
158, 165, 162 3
158, 162, 157 3
119, 123, 118 3
56, 46, 106 3
86, 83, 133 3
37, 34, 84 3
72, 76, 71 3
117, 122, 120 3
43, 49, 44 3
41, 32, 88 3
43, 33, 93 3
48, 36, 102 3
39, 41, 76 3
30, 28, 74 3
50, 47, 93 3
48, 44, 93 3
52, 50, 50 3
42, 33, 89 3
45, 34, 96 3
49, 37, 103 3
43, 45, 80 3
33, 31, 77 3
43, 41, 87 3
51, 48, 94 3
97, 102, 100 3
95, 100, 98 3
203, 209, 204 3
89, 90, 128 3
42, 44, 79 3
141, 147, 142 3
48, 47, 49 3
58, 57, 53 3
41, 33, 86 3
55, 44, 106 3
125, 125, 165 3
85, 86, 124 3
82, 80, 126 3
121, 126, 124 3
40, 45, 44 3
45, 44, 48 3
55, 54, 56 3
49, 38, 100 3
48, 45, 90 3
53, 48, 93 3
55, 50, 95 3
136, 142, 137 3
132, 138, 133 3
42, 37, 76 3
107, 104, 153 3
152, 157, 155 3
149, 154, 153 3
127, 133, 128 3
41, 47, 42 3
53, 44, 101 3
109, 115, 110 3
43, 42, 46 3
46, 44, 43 3
62, 60, 80 3
43, 33, 86 3
36, 33, 82 3
47, 53, 48 3
42, 37, 82 3
63, 65, 99 3
84, 89, 87 3
38, 44, 39 3
30, 35, 33 3
45, 35, 95 3
72, 69, 118 3
76, 81, 79 3
44, 42, 84 3
170, 176, 171 3
39, 35, 76 3
95, 92, 141 3
41, 39, 81 3
45, 43, 85 3
36, 42, 37 3
48, 34, 105 3
76, 70, 117 3
48, 54, 49 3
43, 30, 86 3
44, 31, 93 3
38, 37, 76 3
49, 42, 87 3
148, 152, 146 3
42, 47, 45 3
32, 31, 35 3
36, 33, 78 3
141, 150, 140 3
140, 151, 141 3
99, 93, 140 3
47, 42, 87 3
30, 33, 31 3
56, 53, 79 3
44, 40, 82 3
50, 39, 101 3
106, 100, 149 3
46, 40, 89 3
45, 50, 49 3
53, 42, 104 3
31, 33, 33 3
54, 50, 86 3
66, 66, 82 3
56, 58, 59 3
42, 39, 84 3
249, 255, 241 3
49, 47, 77 3
120, 131, 93 3
247, 253, 234 3
64, 70, 65 3
34, 39, 40 3
244, 249, 240 3
40, 45, 43 3
58, 65, 62 3
246, 252, 241 3
65, 71, 66 3
72, 79, 72 3
51, 57, 52 3
245, 252, 239 3
248, 252, 240 3
246, 251, 236 3
142, 153, 113 3
41, 45, 39 3
240, 248, 238 3
82, 89, 82 3
69, 70, 66 3
216, 222, 217 3
237, 244, 237 3
169, 178, 157 3
37, 34, 79 3
126, 138, 108 3
43, 34, 85 3
45, 35, 88 3
55, 51, 87 3
64, 57, 90 3
148, 161, 123 3
49, 39, 99 3
45, 44, 84 3
215, 223, 213 3
151, 162, 122 3
144, 156, 114 3
43, 36, 81 3
217, 223, 222 3
42, 35, 80 3
46, 44, 86 3
152, 165, 119 3
58, 51, 84 3
156, 166, 120 3
154, 166, 118 3
152, 164, 116 3
40, 39, 79 3
61, 63, 64 3
52, 56, 50 3
43, 47, 48 3
149, 165, 112 3
42, 43, 71 3
49, 48, 80 3
163, 175, 125 3
147, 162, 111 3
42, 45, 66 3
44, 47, 68 3
41, 44, 65 3
165, 177, 127 3
47, 50, 65 3
241, 242, 238 3
153, 164, 124 3
59, 65, 60 3
54, 61, 54 3
181, 194, 150 3
166, 178, 128 3
59, 64, 62 3
159, 174, 123 3
152, 164, 114 3
48, 56, 49 3
44, 50, 45 3
31, 38, 31 3
34, 39, 30 3
75, 77, 71 3
70, 72, 66 3
163, 177, 129 3
157, 171, 123 3
64, 71, 64 3
43, 50, 43 3
34, 37, 28 3
78, 81, 72 3
52, 60, 49 3
177, 190, 144 3
48, 56, 45 3
63, 65, 59 3
80, 82, 76 3
175, 188, 142 3
172, 185, 139 3
181, 195, 147 3
157, 170, 126 3
56, 60, 54 3
47, 52, 43 3
52, 58, 47 3
39, 37, 29 3
169, 183, 147 3
173, 187, 145 3
178, 191, 145 3
38, 38, 32 3
61, 65, 54 3
55, 56, 54 3
78, 80, 74 3
28, 33, 32 3
48, 58, 46 3
32, 33, 29 3
171, 184, 140 3
30, 31, 27 3
175, 188, 144 3
25, 26, 22 3
55, 59, 47 3
174, 189, 145 3
178, 191, 147 3
58, 66, 55 3
182, 198, 151 3
54, 70, 82 3
24, 25, 23 3
21, 24, 22 3
60, 76, 83 3
33, 37, 31 3
56, 69, 85 3
50, 66, 82 3
52, 68, 84 3
58, 74, 86 3
55, 72, 85 3
53, 53, 47 3
48, 49, 40 3
20, 22, 22 3
20, 22, 23 3
21, 23, 23 3
33, 34, 25 3
56, 56, 50 3
50, 51, 41 3
47, 48, 38 3
47, 49, 37 3
28, 28, 28 3
60, 61, 51 3
40, 42, 30 3
38, 39, 29 3
60, 64, 53 3
54, 58, 47 3
37, 41, 30 3
57, 58, 48 3
41, 43, 31 3
21, 21, 21 3
48, 52, 41 3
50, 54, 43 3
38, 42, 31 3
50, 68, 75 3
42, 42, 30 3
53, 57, 45 3
52, 52, 38 3
25, 22, 24 3
39, 43, 31 3
23, 20, 22 3
24, 21, 23 3
36, 40, 28 3
56, 61, 46 3
61, 66, 51 3
46, 47, 37 3
26, 30, 24 3
23, 24, 28 3
57, 62, 47 3
52, 57, 42 3
39, 41, 29 3
43, 47, 36 3
48, 51, 36 3
44, 50, 33 3
43, 49, 32 3
37, 36, 26 3
49, 52, 36 3
41, 47, 30 3
46, 50, 38 3
42, 41, 31 3
36, 33, 28 3
49, 51, 32 3
30, 30, 30 3
52, 58, 41 3
51, 57, 40 3
48, 53, 38 3
62, 65, 50 3
54, 57, 41 3
54, 59, 44 3
56, 59, 43 3
170, 187, 144 3
87, 89, 83 2
60, 61, 57 2
52, 57, 56 2
56, 59, 64 2
51, 58, 61 2
54, 59, 62 2
57, 60, 64 2
53, 57, 62 2
55, 59, 60 2
53, 58, 61 2
54, 59, 60 2
146, 153, 138 2
110, 120, 103 2
153, 156, 154 2
127, 130, 128 2
62, 63, 61 2
66, 70, 65 2
62, 63, 59 2
53, 56, 61 2
56, 57, 67 2
57, 60, 65 2
57, 62, 65 2
57, 61, 66 2
55, 58, 63 2
51, 59, 66 2
168, 174, 169 2
137, 139, 139 2
126, 128, 128 2
54, 54, 68 2
53, 53, 65 2
87, 87, 101 2
52, 51, 67 2
56, 56, 68 2
56, 58, 68 2
55, 57, 68 2
56, 58, 69 2
52, 54, 64 2
51, 56, 65 2
51, 58, 67 2
176, 182, 177 2
106, 115, 102 2
133, 139, 134 2
158, 163, 162 2
74, 76, 70 2
60, 59, 61 2
51, 49, 69 2
53, 51, 71 2
65, 64, 84 2
54, 52, 74 2
53, 51, 73 2
49, 48, 68 2
52, 52, 68 2
54, 55, 69 2
51, 51, 67 2
52, 53, 67 2
52, 55, 69 2
57, 59, 60 2
158, 164, 159 2
167, 173, 168 2
81, 85, 80 2
56, 55, 65 2
51, 48, 74 2
55, 51, 80 2
52, 48, 77 2
51, 48, 73 2
54, 56, 74 2
56, 56, 74 2
116, 122, 117 2
108, 115, 108 2
98, 104, 99 2
186, 193, 186 2
170, 175, 174 2
61, 59, 65 2
55, 51, 70 2
50, 45, 77 2
54, 49, 81 2
58, 53, 85 2
62, 63, 84 2
52, 49, 71 2
52, 49, 74 2
50, 50, 74 2
104, 110, 105 2
116, 123, 116 2
107, 114, 107 2
86, 93, 86 2
57, 63, 58 2
182, 189, 182 2
172, 178, 173 2
169, 174, 173 2
70, 74, 69 2
97, 101, 96 2
66, 65, 69 2
54, 48, 71 2
50, 42, 82 2
51, 44, 81 2
54, 47, 84 2
96, 98, 122 2
50, 48, 77 2
42, 40, 69 2
49, 45, 74 2
54, 50, 79 2
56, 51, 72 2
96, 101, 100 2
80, 86, 81 2
180, 185, 183 2
94, 98, 93 2
49, 53, 78 2
48, 45, 77 2
46, 43, 75 2
100, 105, 104 2
118, 123, 122 2
143, 148, 147 2
127, 132, 131 2
88, 93, 91 2
86, 91, 89 2
81, 86, 84 2
58, 63, 61 2
108, 114, 109 2
166, 170, 171 2
135, 139, 134 2
33, 37, 32 2
48, 41, 86 2
47, 40, 83 2
47, 40, 85 2
38, 36, 72 2
41, 36, 75 2
44, 40, 75 2
137, 142, 141 2
144, 149, 148 2
151, 156, 155 2
81, 86, 85 2
94, 99, 97 2
100, 105, 103 2
184, 190, 185 2
131, 135, 130 2
45, 33, 85 2
74, 68, 115 2
48, 41, 84 2
51, 42, 85 2
53, 44, 87 2
131, 133, 133 2
139, 144, 142 2
83, 88, 87 2
82, 85, 83 2
90, 93, 91 2
199, 203, 198 2
185, 191, 186 2
174, 179, 177 2
37, 36, 38 2
47, 38, 89 2
49, 40, 91 2
53, 45, 98 2
84, 86, 120 2
79, 81, 116 2
54, 56, 91 2
43, 39, 81 2
45, 39, 86 2
108, 113, 111 2
142, 148, 143 2
96, 99, 97 2
98, 100, 100 2
93, 96, 94 2
182, 185, 183 2
27, 31, 26 2
81, 83, 117 2
49, 48, 88 2
86, 83, 129 2
51, 42, 93 2
42, 34, 74 2
118, 121, 119 2
74, 80, 75 2
78, 83, 81 2
114, 117, 115 2
105, 108, 106 2
134, 137, 135 2
30, 34, 29 2
48, 37, 75 2
168, 159, 215 2
65, 65, 101 2
50, 40, 93 2
83, 88, 79 2
151, 159, 149 2
158, 166, 156 2
129, 130, 128 2
122, 124, 124 2
117, 119, 119 2
178, 181, 179 2
130, 134, 129 2
89, 93, 88 2
55, 51, 100 2
46, 41, 92 2
49, 38, 94 2
83, 86, 84 2
138, 139, 137 2
58, 57, 59 2
42, 37, 68 2
76, 78, 112 2
100, 104, 139 2
71, 69, 115 2
37, 33, 85 2
54, 51, 83 2
145, 152, 147 2
150, 157, 154 2
146, 150, 145 2
127, 131, 126 2
185, 190, 188 2
140, 141, 139 2
35, 41, 40 2
41, 34, 91 2
40, 42, 76 2
72, 74, 108 2
82, 86, 121 2
35, 32, 82 2
163, 170, 165 2
159, 166, 163 2
167, 171, 166 2
164, 168, 163 2
95, 101, 96 2
90, 96, 91 2
192, 197, 195 2
30, 36, 35 2
55, 53, 52 2
110, 111, 149 2
40, 39, 83 2
77, 75, 121 2
103, 100, 149 2
51, 47, 76 2
40, 38, 58 2
160, 167, 162 2
134, 138, 132 2
187, 192, 190 2
44, 43, 45 2
58, 56, 76 2
106, 107, 145 2
38, 40, 75 2
96, 99, 137 2
105, 102, 151 2
49, 45, 94 2
168, 175, 170 2
154, 162, 155 2
118, 124, 119 2
93, 99, 94 2
68, 74, 69 2
53, 51, 51 2
38, 33, 64 2
40, 31, 87 2
42, 33, 90 2
77, 70, 127 2
122, 122, 162 2
119, 121, 161 2
37, 39, 79 2
174, 181, 176 2
111, 116, 114 2
99, 104, 102 2
70, 76, 71 2
50, 56, 51 2
51, 49, 48 2
39, 34, 73 2
79, 83, 118 2
90, 93, 131 2
120, 122, 162 2
43, 45, 85 2
43, 42, 86 2
106, 103, 152 2
129, 134, 132 2
141, 146, 144 2
103, 108, 106 2
218, 224, 219 2
191, 197, 192 2
124, 130, 125 2
178, 185, 180 2
32, 36, 37 2
51, 39, 105 2
36, 38, 78 2
83, 80, 130 2
49, 46, 92 2
119, 124, 122 2
112, 117, 115 2
91, 96, 94 2
198, 204, 199 2
73, 72, 74 2
39, 31, 84 2
153, 160, 157 2
130, 135, 133 2
197, 203, 198 2
173, 179, 174 2
52, 41, 104 2
150, 149, 191 2
42, 41, 85 2
34, 32, 78 2
41, 39, 85 2
126, 131, 130 2
115, 120, 118 2
145, 150, 148 2
128, 134, 129 2
222, 228, 223 2
205, 211, 206 2
68, 75, 70 2
45, 40, 71 2
40, 33, 84 2
36, 37, 75 2
82, 79, 129 2
40, 37, 83 2
40, 37, 62 2
146, 151, 150 2
148, 153, 152 2
97, 103, 98 2
45, 44, 46 2
130, 126, 175 2
46, 48, 83 2
40, 41, 79 2
122, 121, 137 2
147, 152, 151 2
135, 141, 136 2
181, 187, 182 2
210, 216, 211 2
145, 151, 146 2
54, 52, 52 2
56, 58, 92 2
61, 63, 98 2
38, 39, 77 2
44, 41, 90 2
202, 208, 203 2
159, 165, 160 2
85, 91, 86 2
44, 42, 41 2
131, 129, 171 2
63, 65, 100 2
88, 89, 127 2
182, 188, 183 2
45, 43, 42 2
36, 34, 33 2
64, 63, 73 2
151, 149, 191 2
37, 34, 83 2
128, 130, 130 2
162, 168, 163 2
42, 41, 45 2
33, 31, 30 2
45, 43, 73 2
42, 30, 88 2
136, 135, 175 2
161, 168, 161 2
40, 43, 41 2
46, 33, 95 2
80, 74, 129 2
157, 153, 202 2
94, 96, 130 2
115, 117, 151 2
219, 220, 224 2
172, 176, 170 2
31, 30, 34 2
51, 46, 77 2
45, 32, 88 2
45, 31, 95 2
48, 33, 101 2
50, 37, 105 2
50, 42, 103 2
102, 96, 145 2
243, 245, 246 2
130, 141, 133 2
129, 140, 132 2
128, 136, 129 2
59, 55, 80 2
49, 41, 102 2
41, 34, 85 2
55, 46, 89 2
123, 134, 126 2
133, 144, 134 2
45, 31, 89 2
53, 42, 105 2
86, 79, 130 2
77, 78, 88 2
141, 149, 138 2
55, 60, 58 2
46, 34, 100 2
145, 147, 178 2
152, 162, 150 2
110, 114, 108 2
190, 201, 185 2
182, 195, 179 2
148, 155, 140 2
148, 155, 142 2
40, 37, 46 2
43, 40, 72 2
45, 32, 94 2
51, 40, 102 2
66, 58, 118 2
74, 66, 126 2
50, 44, 99 2
47, 40, 91 2
46, 40, 81 2
152, 159, 144 2
54, 52, 64 2
41, 30, 86 2
46, 34, 94 2
52, 44, 105 2
97, 91, 138 2
43, 37, 86 2
77, 76, 86 2
131, 131, 137 2
161, 166, 157 2
41, 46, 44 2
44, 42, 71 2
43, 32, 88 2
46, 34, 92 2
49, 46, 85 2
40, 37, 82 2
87, 81, 130 2
62, 60, 82 2
39, 34, 79 2
232, 236, 230 2
93, 102, 76 2
44, 43, 47 2
57, 46, 109 2
124, 123, 162 2
42, 36, 83 2
51, 47, 83 2
202, 206, 194 2
44, 38, 85 2
72, 72, 84 2
211, 215, 203 2
52, 42, 102 2
40, 36, 78 2
49, 41, 88 2
212, 218, 213 2
55, 45, 105 2
135, 134, 176 2
119, 119, 159 2
114, 123, 97 2
100, 97, 146 2
52, 54, 65 2
51, 53, 64 2
224, 231, 210 2
227, 234, 219 2
222, 229, 214 2
65, 65, 81 2
44, 35, 91 2
49, 40, 97 2
76, 71, 122 2
66, 57, 114 2
53, 47, 102 2
35, 39, 40 2
35, 32, 77 2
60, 59, 99 2
126, 137, 105 2
52, 49, 95 2
49, 48, 87 2
50, 44, 85 2
45, 38, 75 2
54, 66, 30 2
125, 136, 104 2
228, 237, 210 2
46, 44, 80 2
47, 43, 79 2
119, 130, 92 2
246, 255, 234 2
240, 246, 235 2
50, 48, 78 2
47, 45, 75 2
48, 42, 73 2
46, 41, 70 2
117, 128, 90 2
79, 90, 57 2
227, 236, 210 2
62, 67, 65 2
49, 54, 52 2
49, 51, 75 2
48, 50, 74 2
45, 47, 71 2
48, 49, 70 2
54, 52, 72 2
51, 50, 66 2
55, 55, 69 2
124, 134, 104 2
57, 56, 66 2
244, 250, 239 2
245, 250, 241 2
49, 58, 62 2
35, 40, 41 2
31, 36, 37 2
55, 52, 61 2
52, 54, 55 2
36, 35, 31 2
52, 58, 57 2
43, 48, 46 2
48, 53, 51 2
51, 50, 54 2
115, 126, 88 2
65, 72, 65 2
32, 38, 33 2
249, 255, 238 2
247, 253, 242 2
56, 63, 60 2
250, 255, 239 2
253, 255, 243 2
53, 59, 54 2
227, 234, 213 2
41, 41, 35 2
132, 133, 129 2
232, 238, 219 2
251, 255, 243 2
247, 254, 241 2
249, 253, 241 2
99, 107, 77 2
63, 64, 60 2
58, 60, 61 2
57, 62, 61 2
239, 243, 237 2
232, 237, 216 2
243, 248, 239 2
244, 251, 238 2
131, 133, 134 2
88, 91, 89 2
127, 132, 130 2
245, 253, 243 2
61, 62, 58 2
57, 58, 56 2
148, 152, 153 2
102, 113, 93 2
30, 35, 26 2
30, 37, 30 2
88, 82, 131 2
238, 243, 234 2
212, 222, 205 2
191, 203, 183 2
170, 181, 161 2
71, 63, 124 2
72, 66, 113 2
67, 60, 97 2
189, 203, 179 2
167, 180, 156 2
168, 177, 151 2
56, 47, 110 2
73, 64, 127 2
55, 48, 109 2
68, 66, 102 2
46, 42, 84 2
231, 235, 230 2
138, 152, 124 2
137, 151, 123 2
45, 50, 48 2
47, 38, 95 2
72, 63, 126 2
42, 39, 78 2
61, 56, 101 2
46, 40, 87 2
42, 38, 79 2
46, 43, 58 2
140, 152, 130 2
120, 132, 102 2
113, 126, 94 2
58, 57, 73 2
40, 41, 67 2
41, 32, 83 2
46, 37, 94 2
52, 41, 103 2
71, 62, 125 2
47, 42, 104 2
48, 45, 101 2
64, 62, 114 2
104, 96, 143 2
44, 39, 84 2
60, 54, 89 2
65, 58, 91 2
61, 54, 87 2
161, 173, 151 2
131, 145, 111 2
138, 152, 116 2
148, 159, 121 2
56, 45, 107 2
37, 36, 76 2
38, 34, 76 2
220, 223, 227 2
218, 225, 218 2
226, 236, 220 2
138, 151, 113 2
147, 160, 122 2
149, 162, 124 2
154, 167, 129 2
156, 169, 131 2
156, 167, 127 2
159, 170, 130 2
50, 49, 53 2
51, 50, 59 2
62, 51, 113 2
45, 40, 85 2
43, 40, 79 2
150, 161, 121 2
147, 158, 118 2
149, 161, 119 2
148, 162, 120 2
147, 161, 119 2
158, 170, 134 2
38, 41, 62 2
41, 33, 80 2
43, 35, 82 2
70, 59, 121 2
44, 43, 83 2
38, 36, 78 2
38, 34, 75 2
153, 165, 123 2
142, 152, 109 2
145, 155, 112 2
143, 156, 112 2
137, 149, 107 2
143, 154, 114 2
69, 59, 119 2
50, 43, 100 2
52, 50, 92 2
44, 37, 82 2
49, 45, 86 2
148, 162, 128 2
155, 165, 122 2
151, 162, 116 2
153, 164, 118 2
154, 165, 119 2
150, 163, 117 2
141, 154, 108 2
142, 155, 109 2
48, 48, 54 2
44, 36, 83 2
60, 54, 107 2
54, 52, 94 2
58, 51, 94 2
49, 45, 87 2
68, 62, 97 2
154, 164, 118 2
157, 167, 121 2
144, 158, 110 2
51, 42, 98 2
48, 46, 88 2
51, 47, 89 2
164, 177, 139 2
159, 169, 122 2
160, 172, 124 2
144, 157, 111 2
138, 151, 105 2
44, 48, 49 2
41, 40, 79 2
39, 38, 77 2
42, 33, 73 2
46, 38, 78 2
48, 42, 77 2
50, 44, 79 2
78, 72, 107 2
210, 214, 209 2
247, 254, 247 2
50, 52, 60 2
66, 69, 84 2
39, 39, 75 2
53, 47, 88 2
47, 42, 74 2
146, 162, 108 2
141, 153, 111 2
151, 162, 124 2
52, 55, 60 2
48, 47, 79 2
47, 46, 78 2
46, 45, 77 2
44, 43, 77 2
47, 44, 83 2
48, 46, 82 2
51, 52, 86 2
41, 40, 74 2
50, 46, 82 2
44, 39, 70 2
146, 161, 110 2
41, 42, 70 2
79, 75, 100 2
51, 54, 59 2
212, 214, 214 2
160, 175, 143 2
48, 44, 69 2
49, 47, 67 2
165, 178, 146 2
148, 164, 110 2
52, 58, 53 2
69, 72, 86 2
40, 43, 57 2
42, 45, 59 2
49, 52, 67 2
35, 40, 55 2
49, 49, 65 2
216, 218, 212 2
153, 166, 120 2
35, 41, 48 2
40, 46, 53 2
28, 34, 41 2
36, 42, 49 2
33, 39, 46 2
46, 45, 54 2
60, 60, 66 2
146, 158, 130 2
170, 182, 140 2
170, 182, 132 2
151, 163, 121 2
51, 62, 66 2
44, 51, 54 2
42, 50, 50 2
46, 51, 54 2
41, 46, 49 2
42, 47, 50 2
64, 66, 67 2
48, 51, 56 2
41, 47, 46 2
44, 51, 48 2
46, 53, 50 2
30, 37, 34 2
73, 75, 75 2
173, 184, 151 2
173, 184, 146 2
186, 196, 154 2
149, 164, 113 2
153, 167, 119 2
57, 64, 57 2
45, 51, 46 2
46, 52, 47 2
165, 175, 152 2
146, 159, 127 2
175, 186, 146 2
166, 180, 132 2
160, 174, 126 2
152, 168, 115 2
154, 166, 124 2
73, 80, 73 2
52, 59, 52 2
45, 52, 45 2
37, 42, 33 2
40, 45, 36 2
134, 146, 118 2
178, 192, 144 2
158, 172, 124 2
42, 49, 42 2
44, 52, 42 2
46, 54, 44 2
43, 48, 39 2
69, 72, 63 2
219, 220, 218 2
244, 248, 236 2
158, 168, 145 2
174, 186, 150 2
170, 184, 143 2
172, 186, 138 2
162, 176, 128 2
169, 181, 131 2
175, 187, 137 2
173, 185, 135 2
151, 165, 117 2
52, 63, 53 2
40, 48, 38 2
45, 53, 43 2
236, 239, 230 2
242, 246, 234 2
168, 182, 146 2
172, 186, 145 2
167, 181, 133 2
175, 187, 139 2
171, 183, 135 2
47, 54, 47 2
243, 242, 238 2
174, 188, 146 2
176, 188, 140 2
168, 180, 132 2
69, 73, 67 2
61, 69, 58 2
54, 67, 53 2
53, 66, 52 2
46, 50, 39 2
76, 80, 69 2
82, 84, 78 2
145, 159, 131 2
169, 185, 144 2
191, 203, 155 2
187, 199, 151 2
165, 177, 129 2
57, 61, 55 2
70, 74, 68 2
55, 60, 51 2
50, 56, 45 2
176, 190, 148 2
150, 162, 114 2
71, 73, 67 2
47, 57, 45 2
51, 63, 51 2
49, 61, 49 2
41, 42, 46 2
39, 41, 42 2
169, 184, 146 2
179, 191, 149 2
174, 183, 143 2
168, 178, 136 2
149, 165, 111 2
69, 71, 65 2
53, 65, 53 2
176, 180, 168 2
169, 187, 146 2
170, 184, 142 2
151, 167, 113 2
63, 66, 57 2
169, 183, 141 2
172, 187, 143 2
158, 169, 123 2
56, 64, 53 2
177, 190, 146 2
59, 67, 56 2
176, 190, 149 2
180, 196, 149 2
178, 193, 149 2
176, 189, 143 2
53, 58, 49 2
59, 64, 55 2
174, 188, 147 2
168, 181, 137 2
169, 181, 139 2
92, 105, 97 2
66, 82, 81 2
171, 182, 142 2
160, 173, 129 2
155, 168, 124 2
71, 72, 70 2
55, 72, 81 2
152, 164, 136 2
54, 53, 49 2
51, 67, 79 2
65, 82, 95 2
25, 28, 26 2
53, 68, 77 2
63, 76, 90 2
73, 83, 67 2
30, 34, 28 2
29, 32, 30 2
56, 71, 80 2
53, 69, 81 2
67, 81, 103 2
58, 73, 89 2
48, 57, 44 2
42, 42, 36 2
20, 25, 23 2
64, 77, 79 2
61, 74, 82 2
56, 72, 84 2
66, 78, 88 2
52, 67, 83 2
57, 72, 88 2
52, 68, 85 2
56, 72, 85 2
60, 75, 78 2
43, 44, 35 2
63, 76, 78 2
60, 72, 76 2
59, 74, 90 2
51, 68, 81 2
53, 70, 83 2
59, 74, 77 2
42, 43, 34 2
67, 79, 89 2
52, 68, 81 2
52, 69, 82 2
59, 72, 74 2
31, 33, 27 2
61, 79, 90 2
64, 82, 93 2
59, 77, 88 2
29, 35, 42 2
24, 26, 26 2
43, 44, 34 2
66, 84, 95 2
58, 58, 52 2
68, 71, 62 2
75, 87, 81 2
50, 64, 76 2
23, 28, 31 2
65, 66, 57 2
66, 67, 58 2
47, 60, 74 2
21, 20, 22 2
52, 56, 45 2
47, 51, 40 2
34, 35, 26 2
32, 41, 54 2
20, 20, 20 2
38, 40, 28 2
52, 71, 78 2
41, 57, 70 2
29, 38, 48 2
28, 32, 37 2
45, 45, 33 2
37, 39, 27 2
35, 36, 26 2
28, 31, 22 2
27, 30, 21 2
45, 48, 39 2
24, 27, 31 2
48, 48, 34 2
46, 46, 32 2
36, 38, 26 2
34, 35, 25 2
59, 63, 51 2
51, 52, 42 2
48, 50, 38 2
24, 28, 22 2
108, 126, 119 2
58, 69, 83 2
59, 68, 82 2
21, 22, 26 2
56, 60, 48 2
46, 51, 36 2
47, 50, 35 2
41, 41, 29 2
27, 34, 19 2
221, 230, 220 2
235, 248, 240 2
221, 236, 228 2
93, 114, 111 2
56, 67, 81 2
59, 64, 49 2
55, 60, 45 2
43, 48, 33 2
42, 45, 30 2
53, 53, 39 2
28, 32, 26 2
24, 31, 16 2
55, 66, 80 2
53, 58, 43 2
60, 65, 50 2
46, 49, 34 2
64, 67, 52 2
32, 35, 39 2
31, 30, 32 2
49, 55, 38 2
60, 58, 50 2
62, 60, 52 2
46, 45, 35 2
44, 44, 32 2
66, 70, 58 2
34, 34, 28 2
35, 35, 29 2
38, 47, 34 2
17, 26, 13 2
242, 245, 236 2
143, 147, 141 2
42, 40, 32 2
41, 40, 30 2
41, 41, 27 2
66, 68, 56 2
32, 32, 26 2
249, 253, 242 2
150, 167, 140 2
40, 46, 29 2
59, 58, 48 2
40, 40, 26 2
45, 46, 30 2
47, 48, 32 2
40, 37, 32 2
35, 32, 27 2
241, 244, 235 2
24, 25, 21 2
44, 45, 29 2
48, 50, 31 2
54, 54, 42 2
39, 38, 28 2
63, 60, 56 2
247, 250, 241 2
47, 53, 36 2
46, 47, 31 2
51, 53, 34 2
54, 56, 37 2
56, 58, 38 2
42, 39, 31 2
46, 43, 39 2
65, 62, 58 2
29, 30, 26 2
63, 66, 51 2
50, 53, 37 2
63, 65, 45 2
169, 186, 149 2
28, 30, 24 2
66, 68, 48 2
71, 68, 64 2
199, 204, 189 2
166, 183, 150 2
75, 75, 69 2
167, 184, 150 2
71, 76, 61 2
73, 77, 71 1
102, 104, 98 1
55, 60, 59 1
51, 56, 55 1
77, 82, 81 1
96, 100, 101 1
69, 73, 74 1
59, 62, 66 1
60, 64, 65 1
59, 63, 64 1
52, 59, 56 1
53, 61, 60 1
54, 62, 62 1
53, 61, 61 1
54, 61, 64 1
52, 59, 62 1
52, 56, 61 1
51, 60, 64 1
52, 61, 65 1
48, 57, 61 1
52, 58, 63 1
201, 207, 202 1
231, 238, 231 1
209, 217, 207 1
170, 179, 166 1
141, 150, 130 1
145, 154, 133 1
139, 149, 126 1
131, 141, 118 1
121, 131, 108 1
116, 126, 103 1
119, 129, 106 1
124, 134, 111 1
122, 131, 110 1
118, 127, 106 1
117, 129, 107 1
109, 120, 100 1
108, 117, 104 1
108, 116, 106 1
133, 140, 133 1
166, 172, 167 1
175, 180, 178 1
136, 139, 137 1
133, 136, 134 1
120, 122, 122 1
112, 114, 114 1
74, 78, 73 1
71, 75, 70 1
98, 100, 94 1
50, 53, 58 1
77, 80, 85 1
94, 97, 102 1
68, 70, 78 1
53, 54, 64 1
58, 59, 69 1
57, 59, 67 1
58, 61, 65 1
55, 57, 65 1
52, 55, 63 1
50, 56, 61 1
52, 60, 67 1
49, 57, 64 1
55, 61, 66 1
55, 59, 64 1
54, 57, 61 1
52, 56, 57 1
51, 55, 56 1
51, 56, 54 1
217, 224, 217 1
196, 204, 194 1
164, 172, 161 1
140, 150, 134 1
133, 143, 126 1
137, 146, 126 1
131, 140, 119 1
121, 130, 109 1
108, 117, 96 1
101, 110, 89 1
104, 113, 92 1
110, 119, 98 1
110, 119, 99 1
106, 115, 95 1
101, 111, 94 1
109, 119, 103 1
104, 112, 101 1
86, 94, 84 1
137, 140, 138 1
141, 143, 143 1
91, 92, 88 1
83, 85, 79 1
62, 62, 62 1
54, 54, 60 1
50, 50, 62 1
64, 64, 78 1
57, 56, 72 1
52, 54, 62 1
58, 60, 70 1
58, 58, 70 1
50, 57, 66 1
57, 58, 62 1
192, 199, 192 1
172, 180, 170 1
145, 153, 142 1
123, 132, 119 1
115, 125, 109 1
115, 125, 108 1
109, 119, 102 1
94, 103, 83 1
90, 99, 79 1
96, 105, 85 1
106, 114, 97 1
113, 121, 104 1
115, 123, 106 1
116, 126, 110 1
68, 76, 66 1
85, 92, 85 1
155, 157, 157 1
142, 144, 145 1
64, 67, 65 1
81, 82, 78 1
59, 60, 58 1
57, 57, 63 1
58, 57, 66 1
55, 53, 73 1
77, 76, 96 1
57, 56, 76 1
52, 51, 71 1
49, 49, 67 1
55, 55, 71 1
56, 55, 71 1
57, 58, 72 1
54, 56, 67 1
51, 54, 68 1
50, 56, 69 1
50, 54, 65 1
57, 56, 65 1
59, 59, 65 1
64, 66, 66 1
142, 149, 142 1
122, 130, 120 1
105, 113, 102 1
95, 104, 91 1
92, 101, 88 1
94, 104, 88 1
92, 102, 86 1
88, 98, 82 1
89, 99, 83 1
96, 106, 90 1
108, 118, 102 1
119, 128, 115 1
125, 134, 121 1
121, 129, 118 1
111, 119, 108 1
99, 107, 97 1
80, 88, 78 1
114, 120, 115 1
183, 189, 184 1
167, 172, 171 1
160, 164, 165 1
150, 154, 155 1
60, 59, 63 1
55, 54, 63 1
58, 56, 68 1
57, 54, 69 1
53, 50, 76 1
60, 57, 83 1
70, 67, 93 1
54, 51, 77 1
50, 46, 75 1
55, 53, 75 1
61, 61, 77 1
55, 57, 75 1
56, 58, 76 1
51, 51, 69 1
54, 53, 69 1
53, 55, 73 1
52, 54, 72 1
50, 52, 70 1
51, 53, 71 1
52, 55, 70 1
53, 53, 67 1
63, 61, 67 1
69, 68, 72 1
75, 74, 76 1
81, 83, 84 1
86, 88, 88 1
101, 108, 101 1
93, 101, 91 1
86, 94, 83 1
94, 102, 91 1
98, 106, 95 1
103, 111, 100 1
107, 115, 104 1
112, 120, 109 1
119, 127, 116 1
125, 133, 122 1
111, 119, 109 1
103, 111, 101 1
84, 91, 84 1
143, 150, 143 1
172, 177, 175 1
167, 171, 172 1
162, 166, 167 1
96, 100, 95 1
79, 83, 78 1
55, 54, 64 1
56, 51, 83 1
57, 52, 83 1
66, 61, 92 1
60, 55, 87 1
57, 52, 84 1
59, 54, 85 1
68, 64, 93 1
80, 77, 103 1
88, 85, 111 1
75, 76, 96 1
69, 70, 90 1
62, 63, 83 1
55, 56, 76 1
48, 49, 69 1
49, 50, 70 1
57, 58, 79 1
50, 51, 72 1
57, 55, 77 1
60, 57, 82 1
58, 58, 82 1
55, 55, 79 1
52, 52, 76 1
49, 46, 71 1
54, 53, 73 1
50, 49, 65 1
62, 58, 70 1
70, 67, 76 1
84, 82, 88 1
99, 98, 102 1
107, 106, 108 1
103, 105, 106 1
101, 106, 105 1
106, 111, 109 1
95, 102, 95 1
104, 111, 104 1
119, 126, 119 1
87, 94, 87 1
71, 77, 72 1
82, 88, 83 1
128, 135, 128 1
179, 186, 179 1
171, 175, 176 1
168, 172, 173 1
90, 94, 89 1
75, 72, 81 1
56, 54, 66 1
47, 44, 60 1
53, 48, 69 1
49, 41, 81 1
57, 50, 87 1
56, 49, 86 1
55, 47, 87 1
59, 55, 90 1
80, 77, 109 1
106, 104, 134 1
123, 121, 151 1
106, 106, 130 1
94, 96, 120 1
73, 75, 99 1
56, 58, 82 1
50, 52, 76 1
59, 61, 85 1
78, 80, 104 1
81, 83, 107 1
79, 81, 105 1
52, 54, 78 1
51, 49, 78 1
46, 44, 73 1
70, 68, 97 1
76, 74, 103 1
72, 70, 99 1
71, 69, 98 1
48, 44, 73 1
53, 48, 75 1
54, 49, 76 1
52, 47, 74 1
49, 48, 74 1
48, 47, 73 1
54, 51, 73 1
63, 57, 74 1
76, 71, 86 1
98, 94, 105 1
121, 118, 127 1
124, 123, 127 1
111, 110, 112 1
105, 107, 108 1
97, 102, 101 1
103, 108, 107 1
107, 112, 111 1
116, 121, 119 1
119, 125, 120 1
158, 165, 158 1
181, 188, 181 1
177, 183, 178 1
159, 163, 164 1
172, 176, 177 1
110, 114, 109 1
62, 61, 65 1
73, 69, 80 1
46, 41, 62 1
50, 44, 69 1
50, 43, 70 1
48, 39, 82 1
49, 40, 83 1
50, 41, 84 1
51, 43, 84 1
53, 45, 86 1
52, 44, 85 1
49, 43, 84 1
51, 45, 86 1
52, 46, 87 1
54, 48, 89 1
57, 51, 92 1
64, 59, 98 1
94, 90, 126 1
132, 128, 164 1
157, 153, 188 1
134, 135, 161 1
113, 114, 140 1
78, 79, 105 1
53, 57, 82 1
63, 67, 92 1
88, 92, 117 1
106, 110, 135 1
116, 120, 145 1
115, 119, 144 1
91, 95, 120 1
59, 62, 90 1
48, 49, 77 1
51, 48, 80 1
75, 72, 104 1
91, 88, 120 1
84, 81, 113 1
72, 69, 101 1
49, 46, 78 1
41, 38, 70 1
53, 46, 79 1
45, 40, 72 1
47, 43, 72 1
46, 43, 69 1
50, 46, 71 1
83, 77, 96 1
110, 105, 120 1
124, 118, 129 1
129, 126, 135 1
128, 127, 131 1
118, 117, 121 1
112, 114, 115 1
106, 111, 110 1
132, 137, 136 1
145, 150, 149 1
117, 122, 121 1
90, 95, 94 1
69, 74, 72 1
77, 83, 78 1
144, 151, 144 1
179, 184, 182 1
174, 179, 178 1
163, 167, 168 1
60, 58, 64 1
74, 70, 82 1
43, 37, 62 1
46, 38, 68 1
46, 38, 69 1
46, 36, 83 1
47, 37, 84 1
47, 37, 83 1
49, 39, 85 1
53, 46, 91 1
59, 52, 97 1
62, 55, 100 1
74, 67, 110 1
109, 102, 145 1
154, 148, 189 1
182, 177, 216 1
153, 156, 184 1
127, 130, 158 1
91, 94, 122 1
61, 64, 92 1
47, 50, 78 1
50, 53, 81 1
69, 73, 101 1
90, 94, 122 1
111, 115, 143 1
115, 119, 147 1
115, 117, 147 1
87, 89, 119 1
56, 58, 88 1
40, 42, 72 1
51, 53, 83 1
50, 52, 82 1
49, 48, 82 1
78, 76, 112 1
106, 104, 140 1
96, 94, 130 1
73, 71, 107 1
53, 46, 83 1
42, 35, 72 1
43, 39, 75 1
45, 41, 76 1
51, 44, 71 1
68, 60, 83 1
112, 106, 125 1
152, 145, 160 1
156, 150, 161 1
146, 143, 152 1
138, 137, 141 1
129, 131, 132 1
130, 132, 133 1
159, 164, 163 1
138, 142, 143 1
109, 113, 114 1
98, 102, 103 1
75, 80, 79 1
82, 87, 86 1
93, 98, 96 1
69, 72, 70 1
77, 80, 78 1
99, 105, 100 1
171, 178, 171 1
162, 167, 166 1
26, 30, 25 1
77, 72, 87 1
40, 33, 60 1
46, 37, 70 1
46, 37, 87 1
49, 40, 90 1
48, 39, 89 1
51, 42, 92 1
56, 47, 97 1
56, 50, 99 1
110, 104, 151 1
152, 147, 192 1
174, 169, 214 1
148, 150, 180 1
124, 126, 156 1
95, 97, 127 1
63, 67, 96 1
43, 47, 76 1
50, 54, 83 1
68, 72, 101 1
72, 76, 105 1
91, 95, 124 1
95, 98, 129 1
103, 106, 137 1
80, 83, 114 1
54, 56, 90 1
37, 38, 72 1
50, 51, 85 1
48, 49, 83 1
80, 77, 116 1
113, 109, 150 1
103, 99, 140 1
74, 70, 111 1
46, 39, 82 1
53, 47, 82 1
48, 43, 72 1
55, 48, 75 1
94, 86, 109 1
136, 127, 147 1
169, 162, 177 1
166, 160, 171 1
148, 146, 152 1
136, 135, 137 1
139, 141, 141 1
130, 135, 134 1
115, 120, 119 1
102, 106, 107 1
91, 95, 96 1
88, 92, 93 1
86, 90, 91 1
92, 97, 96 1
128, 133, 131 1
109, 113, 108 1
79, 82, 80 1
76, 79, 77 1
165, 169, 164 1
171, 176, 175 1
166, 171, 170 1
24, 28, 23 1
61, 58, 67 1
80, 75, 90 1
58, 52, 75 1
41, 33, 63 1
44, 35, 68 1
47, 36, 74 1
48, 39, 90 1
57, 47, 100 1
52, 44, 97 1
54, 46, 99 1
82, 75, 126 1
120, 113, 164 1
156, 150, 199 1
167, 161, 210 1
146, 148, 179 1
123, 125, 156 1
94, 96, 127 1
64, 67, 98 1
47, 50, 81 1
58, 61, 92 1
72, 75, 106 1
68, 71, 102 1
88, 90, 124 1
98, 100, 134 1
36, 36, 72 1
48, 47, 86 1
79, 75, 117 1
107, 103, 145 1
99, 95, 137 1
73, 68, 113 1
51, 43, 90 1
53, 43, 90 1
51, 41, 88 1
42, 38, 74 1
51, 45, 80 1
47, 40, 73 1
49, 44, 73 1
63, 56, 83 1
138, 130, 153 1
170, 162, 179 1
187, 180, 193 1
171, 166, 175 1
147, 146, 150 1
126, 132, 127 1
79, 84, 83 1
84, 89, 88 1
98, 103, 102 1
112, 117, 116 1
92, 96, 91 1
103, 106, 104 1
145, 149, 144 1
181, 185, 180 1
188, 192, 187 1
185, 188, 186 1
175, 180, 179 1
172, 177, 176 1
128, 132, 127 1
35, 34, 36 1
58, 55, 64 1
79, 73, 90 1
60, 54, 79 1
47, 37, 73 1
47, 36, 76 1
47, 37, 90 1
48, 38, 91 1
53, 44, 100 1
49, 40, 96 1
50, 41, 97 1
54, 45, 101 1
91, 82, 138 1
132, 124, 177 1
163, 155, 208 1
164, 157, 208 1
147, 148, 182 1
126, 127, 161 1
95, 96, 130 1
61, 62, 96 1
45, 46, 80 1
57, 59, 93 1
91, 93, 127 1
104, 106, 141 1
107, 109, 144 1
112, 113, 151 1
92, 91, 130 1
62, 61, 100 1
38, 37, 77 1
47, 46, 86 1
74, 71, 116 1
94, 91, 136 1
66, 63, 109 1
44, 38, 87 1
46, 37, 88 1
52, 40, 92 1
44, 37, 74 1
49, 43, 78 1
45, 39, 70 1
56, 51, 80 1
83, 77, 102 1
170, 163, 184 1
198, 190, 207 1
202, 196, 207 1
167, 165, 171 1
135, 134, 136 1
89, 94, 85 1
87, 91, 85 1
83, 87, 81 1
88, 93, 92 1
113, 118, 117 1
154, 161, 154 1
153, 160, 153 1
153, 157, 151 1
131, 135, 129 1
109, 112, 110 1
114, 116, 116 1
106, 108, 108 1
97, 100, 98 1
186, 190, 185 1
187, 190, 188 1
183, 186, 184 1
179, 182, 180 1
175, 177, 177 1
76, 70, 87 1
58, 52, 77 1
48, 37, 77 1
42, 30, 90 1
47, 36, 92 1
47, 38, 94 1
50, 41, 98 1
52, 43, 100 1
57, 48, 105 1
97, 88, 145 1
138, 129, 185 1
169, 160, 216 1
153, 153, 189 1
131, 131, 167 1
102, 102, 138 1
42, 42, 78 1
66, 66, 102 1
105, 105, 141 1
118, 120, 155 1
125, 126, 164 1
134, 133, 172 1
136, 135, 174 1
116, 115, 155 1
76, 75, 115 1
59, 55, 104 1
49, 39, 92 1
51, 41, 94 1
52, 46, 81 1
72, 65, 92 1
111, 105, 128 1
188, 182, 201 1
211, 204, 219 1
202, 197, 206 1
151, 150, 154 1
111, 111, 111 1
78, 87, 77 1
72, 77, 68 1
78, 83, 74 1
89, 93, 87 1
111, 117, 112 1
151, 158, 151 1
160, 168, 158 1
163, 165, 159 1
146, 148, 142 1
149, 152, 150 1
187, 191, 186 1
193, 197, 192 1
174, 177, 175 1
33, 39, 34 1
48, 49, 53 1
54, 51, 60 1
74, 68, 85 1
54, 48, 73 1
42, 33, 66 1
50, 38, 80 1
41, 29, 89 1
49, 37, 95 1
90, 80, 140 1
132, 123, 180 1
168, 159, 216 1
157, 156, 195 1
127, 127, 163 1
101, 101, 137 1
41, 41, 77 1
77, 77, 113 1
123, 123, 159 1
127, 126, 165 1
139, 138, 177 1
139, 138, 178 1
121, 119, 161 1
78, 76, 118 1
83, 80, 126 1
66, 62, 111 1
38, 33, 84 1
47, 39, 92 1
50, 39, 95 1
47, 40, 77 1
56, 50, 85 1
52, 46, 77 1
84, 77, 104 1
134, 126, 149 1
199, 193, 212 1
212, 205, 218 1
190, 185, 194 1
128, 127, 129 1
66, 74, 64 1
69, 78, 68 1
77, 83, 72 1
88, 94, 83 1
96, 101, 92 1
112, 117, 108 1
129, 133, 127 1
156, 164, 154 1
166, 174, 163 1
168, 176, 165 1
161, 164, 155 1
149, 151, 145 1
141, 142, 138 1
140, 141, 137 1
136, 138, 138 1
138, 140, 140 1
182, 186, 181 1
184, 187, 185 1
186, 189, 187 1
128, 129, 125 1
37, 43, 42 1
36, 42, 41 1
44, 42, 42 1
36, 35, 37 1
75, 74, 84 1
45, 40, 79 1
37, 30, 73 1
38, 32, 85 1
46, 38, 99 1
52, 44, 104 1
72, 63, 119 1
104, 96, 149 1
148, 142, 191 1
177, 171, 220 1
157, 157, 197 1
105, 106, 144 1
73, 75, 110 1
36, 38, 72 1
87, 89, 123 1
97, 101, 136 1
85, 88, 126 1
111, 113, 153 1
100, 102, 142 1
62, 61, 103 1
44, 43, 85 1
36, 35, 77 1
41, 40, 84 1
30, 29, 73 1
93, 90, 139 1
91, 88, 138 1
75, 71, 123 1
36, 33, 65 1
73, 68, 99 1
75, 70, 101 1
44, 40, 65 1
111, 108, 130 1
160, 158, 177 1
199, 199, 213 1
201, 202, 212 1
161, 164, 169 1
115, 118, 122 1
76, 83, 80 1
98, 105, 100 1
104, 111, 106 1
121, 128, 123 1
132, 139, 134 1
166, 170, 165 1
170, 174, 169 1
170, 174, 168 1
173, 177, 171 1
171, 175, 169 1
165, 166, 162 1
146, 147, 143 1
136, 140, 135 1
186, 191, 189 1
189, 194, 192 1
65, 69, 64 1
34, 40, 39 1
45, 43, 43 1
56, 55, 57 1
38, 31, 74 1
53, 45, 105 1
92, 84, 137 1
138, 131, 182 1
175, 169, 218 1
153, 153, 193 1
109, 110, 148 1
80, 82, 117 1
77, 81, 116 1
78, 81, 119 1
95, 97, 137 1
71, 73, 113 1
41, 43, 84 1
42, 41, 83 1
38, 37, 81 1
28, 27, 71 1
94, 91, 141 1
77, 73, 125 1
64, 59, 90 1
63, 59, 88 1
43, 40, 66 1
41, 37, 62 1
125, 123, 143 1
184, 183, 199 1
204, 204, 216 1
188, 189, 199 1
127, 130, 135 1
112, 116, 117 1
119, 125, 124 1
114, 121, 118 1
131, 138, 133 1
136, 143, 138 1
154, 161, 156 1
165, 172, 167 1
164, 171, 168 1
161, 165, 160 1
156, 160, 154 1
147, 151, 145 1
152, 156, 151 1
129, 133, 128 1
155, 159, 154 1
144, 148, 143 1
190, 195, 193 1
183, 188, 186 1
139, 140, 138 1
56, 54, 54 1
58, 49, 106 1
78, 69, 125 1
131, 124, 175 1
178, 171, 222 1
152, 152, 192 1
82, 84, 119 1
71, 73, 107 1
69, 74, 107 1
73, 77, 112 1
78, 82, 117 1
80, 83, 121 1
93, 95, 135 1
65, 67, 107 1
40, 42, 83 1
50, 49, 91 1
48, 47, 89 1
31, 30, 74 1
84, 80, 132 1
43, 39, 91 1
38, 35, 85 1
50, 47, 79 1
35, 32, 57 1
143, 141, 160 1
210, 210, 224 1
199, 200, 210 1
172, 175, 180 1
105, 108, 112 1
128, 133, 132 1
165, 172, 169 1
152, 159, 154 1
153, 160, 155 1
155, 162, 157 1
163, 167, 162 1
148, 152, 147 1
171, 175, 170 1
160, 164, 159 1
102, 108, 103 1
136, 137, 133 1
29, 34, 33 1
57, 55, 55 1
62, 61, 63 1
44, 37, 80 1
39, 32, 89 1
40, 32, 92 1
41, 33, 94 1
44, 35, 98 1
49, 39, 105 1
47, 37, 103 1
54, 46, 107 1
75, 66, 122 1
133, 125, 178 1
187, 180, 231 1
150, 150, 190 1
78, 80, 115 1
88, 93, 126 1
93, 96, 134 1
109, 111, 151 1
89, 91, 131 1
56, 58, 99 1
46, 48, 89 1
38, 37, 79 1
37, 36, 78 1
39, 38, 82 1
78, 76, 122 1
104, 101, 151 1
44, 40, 92 1
48, 46, 76 1
46, 44, 74 1
45, 43, 65 1
154, 154, 168 1
215, 216, 226 1
199, 201, 209 1
161, 164, 168 1
100, 104, 105 1
174, 181, 178 1
156, 163, 158 1
164, 169, 167 1
132, 137, 135 1
174, 178, 173 1
200, 204, 199 1
181, 186, 184 1
117, 121, 116 1
67, 66, 68 1
40, 35, 74 1
44, 33, 95 1
55, 44, 107 1
55, 47, 107 1
133, 127, 180 1
183, 177, 230 1
143, 143, 183 1
80, 85, 118 1
105, 110, 143 1
123, 127, 162 1
107, 110, 148 1
114, 116, 156 1
75, 77, 118 1
47, 49, 90 1
34, 36, 77 1
104, 101, 150 1
42, 38, 90 1
41, 38, 64 1
42, 39, 64 1
167, 167, 179 1
218, 220, 228 1
185, 188, 192 1
145, 149, 150 1
167, 175, 168 1
173, 178, 176 1
84, 90, 85 1
88, 92, 87 1
190, 196, 191 1
71, 70, 72 1
47, 35, 101 1
54, 43, 106 1
61, 53, 113 1
89, 82, 139 1
137, 131, 186 1
171, 165, 218 1
135, 135, 175 1
120, 120, 160 1
111, 112, 150 1
87, 88, 126 1
102, 106, 141 1
117, 121, 156 1
98, 101, 139 1
123, 125, 165 1
83, 85, 126 1
53, 55, 96 1
40, 42, 82 1
79, 77, 123 1
56, 54, 83 1
37, 34, 60 1
33, 31, 53 1
90, 91, 105 1
179, 181, 189 1
214, 217, 221 1
155, 159, 160 1
173, 180, 175 1
139, 146, 141 1
200, 207, 202 1
39, 38, 40 1
74, 73, 75 1
42, 38, 80 1
110, 103, 160 1
150, 144, 199 1
166, 160, 213 1
113, 113, 153 1
72, 76, 111 1
90, 94, 129 1
101, 105, 140 1
97, 100, 138 1
99, 102, 140 1
127, 129, 169 1
77, 79, 120 1
48, 50, 90 1
39, 41, 81 1
44, 43, 87 1
80, 78, 124 1
69, 67, 96 1
55, 53, 82 1
43, 40, 65 1
32, 31, 51 1
75, 75, 91 1
118, 120, 131 1
192, 194, 202 1
210, 213, 217 1
139, 144, 143 1
169, 176, 171 1
159, 166, 161 1
164, 171, 166 1
147, 152, 150 1
98, 103, 101 1
90, 95, 93 1
120, 126, 121 1
72, 78, 73 1
78, 85, 80 1
116, 123, 118 1
201, 208, 203 1
100, 104, 99 1
29, 34, 32 1
29, 33, 34 1
54, 52, 51 1
38, 37, 39 1
62, 60, 59 1
37, 32, 71 1
44, 34, 94 1
80, 72, 132 1
124, 118, 173 1
159, 153, 206 1
164, 159, 210 1
141, 140, 182 1
112, 112, 152 1
36, 38, 73 1
66, 70, 105 1
84, 88, 123 1
94, 98, 133 1
109, 112, 150 1
118, 121, 159 1
140, 142, 182 1
70, 72, 112 1
42, 44, 84 1
45, 44, 88 1
35, 33, 79 1
108, 105, 154 1
54, 48, 95 1
58, 56, 85 1
44, 41, 66 1
36, 35, 55 1
92, 92, 108 1
144, 145, 155 1
202, 205, 210 1
205, 209, 210 1
177, 184, 179 1
145, 152, 149 1
107, 112, 110 1
96, 101, 99 1
133, 138, 136 1
143, 148, 146 1
220, 226, 221 1
211, 217, 212 1
71, 78, 73 1
74, 81, 76 1
101, 108, 103 1
167, 174, 169 1
207, 214, 209 1
50, 48, 47 1
59, 58, 54 1
69, 67, 66 1
83, 82, 84 1
81, 80, 90 1
38, 33, 72 1
35, 30, 75 1
40, 32, 85 1
71, 64, 121 1
106, 100, 155 1
150, 145, 196 1
169, 164, 215 1
128, 127, 169 1
121, 121, 161 1
53, 57, 92 1
71, 75, 110 1
102, 105, 143 1
112, 115, 153 1
135, 137, 177 1
115, 117, 157 1
78, 80, 120 1
54, 56, 96 1
32, 34, 74 1
41, 38, 84 1
65, 63, 92 1
41, 38, 63 1
24, 23, 43 1
103, 103, 119 1
173, 174, 184 1
204, 207, 212 1
206, 210, 211 1
149, 155, 150 1
140, 147, 144 1
130, 137, 134 1
120, 127, 124 1
143, 149, 144 1
163, 169, 164 1
195, 201, 196 1
87, 94, 89 1
72, 79, 74 1
80, 87, 82 1
202, 209, 204 1
111, 115, 110 1
49, 47, 46 1
65, 63, 62 1
78, 77, 79 1
78, 77, 87 1
54, 43, 105 1
64, 58, 113 1
92, 86, 139 1
140, 135, 186 1
173, 169, 218 1
152, 151, 193 1
127, 126, 168 1
114, 114, 154 1
81, 82, 120 1
47, 49, 84 1
57, 61, 96 1
65, 69, 104 1
95, 99, 134 1
108, 111, 149 1
130, 132, 172 1
112, 114, 154 1
81, 83, 123 1
60, 62, 102 1
37, 37, 77 1
66, 62, 91 1
53, 49, 78 1
37, 36, 56 1
115, 114, 130 1
191, 191, 203 1
206, 209, 214 1
201, 205, 206 1
113, 118, 116 1
102, 109, 106 1
103, 109, 108 1
213, 219, 214 1
180, 186, 181 1
138, 144, 139 1
75, 82, 77 1
70, 77, 72 1
170, 177, 172 1
199, 206, 201 1
102, 105, 103 1
40, 39, 41 1
55, 53, 53 1
47, 45, 44 1
58, 56, 55 1
55, 49, 104 1
178, 175, 221 1
130, 129, 171 1
49, 51, 86 1
51, 53, 88 1
55, 59, 94 1
113, 116, 154 1
101, 103, 143 1
78, 78, 118 1
60, 61, 99 1
41, 42, 80 1
80, 77, 126 1
81, 78, 128 1
41, 38, 88 1
67, 63, 92 1
58, 55, 81 1
48, 47, 67 1
207, 207, 219 1
209, 212, 217 1
197, 198, 202 1
123, 125, 125 1
114, 119, 118 1
88, 94, 89 1
130, 136, 131 1
221, 227, 222 1
187, 193, 188 1
83, 89, 84 1
67, 73, 68 1
31, 35, 30 1
39, 43, 44 1
39, 38, 42 1
70, 65, 116 1
127, 123, 172 1
175, 172, 218 1
148, 146, 188 1
132, 130, 172 1
127, 127, 167 1
50, 52, 87 1
56, 58, 93 1
64, 67, 105 1
92, 93, 131 1
64, 65, 103 1
48, 49, 87 1
45, 46, 84 1
76, 73, 122 1
40, 37, 87 1
56, 51, 96 1
65, 62, 88 1
59, 56, 81 1
39, 37, 59 1
48, 46, 66 1
216, 216, 228 1
218, 217, 226 1
199, 200, 204 1
118, 120, 121 1
116, 119, 117 1
117, 120, 118 1
142, 147, 146 1
147, 153, 148 1
89, 89, 89 1
37, 41, 42 1
42, 40, 39 1
57, 56, 60 1
67, 66, 76 1
77, 72, 123 1
165, 162, 208 1
150, 148, 190 1
124, 123, 163 1
86, 87, 125 1
55, 57, 91 1
64, 66, 101 1
61, 62, 100 1
44, 45, 83 1
45, 47, 82 1
74, 71, 120 1
61, 58, 83 1
39, 37, 57 1
45, 43, 62 1
127, 127, 141 1
225, 224, 234 1
228, 227, 236 1
204, 205, 209 1
132, 134, 135 1
110, 112, 112 1
139, 142, 140 1
167, 172, 170 1
150, 155, 154 1
77, 82, 80 1
66, 71, 69 1
199, 205, 200 1
86, 86, 86 1
37, 35, 34 1
42, 40, 70 1
41, 36, 81 1
45, 33, 91 1
45, 33, 93 1
61, 55, 110 1
92, 87, 138 1
135, 131, 180 1
156, 153, 199 1
133, 132, 172 1
122, 121, 161 1
85, 84, 123 1
69, 71, 105 1
91, 93, 128 1
86, 88, 123 1
102, 103, 141 1
97, 98, 136 1
67, 68, 106 1
49, 50, 88 1
41, 43, 78 1
42, 40, 86 1
98, 95, 144 1
61, 58, 80 1
51, 48, 70 1
138, 138, 152 1
230, 229, 239 1
230, 229, 238 1
201, 202, 206 1
135, 137, 138 1
108, 110, 110 1
151, 154, 152 1
158, 161, 159 1
157, 164, 161 1
134, 136, 136 1
116, 118, 118 1
99, 101, 101 1
72, 77, 75 1
65, 70, 68 1
103, 109, 104 1
27, 33, 28 1
84, 84, 84 1
32, 35, 33 1
32, 38, 37 1
32, 30, 29 1
47, 46, 50 1
72, 66, 121 1
107, 101, 154 1
142, 138, 187 1
154, 151, 197 1
128, 127, 167 1
88, 87, 126 1
46, 46, 82 1
58, 60, 94 1
106, 108, 142 1
111, 113, 148 1
105, 107, 142 1
116, 118, 153 1
82, 83, 121 1
55, 57, 92 1
97, 94, 143 1
100, 97, 147 1
64, 62, 82 1
44, 42, 61 1
66, 65, 81 1
154, 152, 164 1
237, 236, 246 1
231, 231, 237 1
205, 206, 210 1
105, 107, 107 1
155, 158, 156 1
178, 182, 177 1
169, 173, 168 1
154, 161, 158 1
129, 132, 130 1
125, 127, 127 1
113, 115, 115 1
102, 104, 104 1
101, 106, 104 1
129, 135, 130 1
188, 194, 189 1
19, 25, 20 1
82, 82, 82 1
31, 37, 36 1
62, 60, 72 1
41, 29, 87 1
116, 110, 163 1
147, 143, 192 1
153, 151, 193 1
129, 128, 168 1
89, 88, 127 1
44, 44, 80 1
113, 115, 150 1
127, 129, 164 1
128, 130, 165 1
102, 104, 139 1
40, 42, 77 1
99, 96, 146 1
85, 82, 132 1
52, 48, 90 1
56, 52, 94 1
65, 63, 83 1
52, 50, 69 1
48, 47, 63 1
80, 80, 94 1
165, 163, 175 1
245, 244, 254 1
238, 238, 244 1
143, 142, 144 1
118, 120, 120 1
156, 159, 157 1
172, 176, 171 1
163, 167, 161 1
166, 173, 170 1
161, 168, 165 1
155, 162, 159 1
127, 129, 129 1
129, 131, 131 1
124, 126, 126 1
171, 177, 172 1
15, 21, 16 1
81, 87, 82 1
39, 45, 40 1
35, 33, 33 1
44, 40, 51 1
59, 56, 72 1
60, 56, 81 1
46, 31, 92 1
50, 34, 105 1
109, 103, 156 1
147, 142, 193 1
166, 162, 211 1
157, 155, 197 1
135, 133, 175 1
85, 84, 124 1
46, 46, 86 1
57, 58, 96 1
116, 119, 150 1
111, 114, 145 1
116, 120, 149 1
127, 131, 160 1
132, 135, 166 1
112, 114, 148 1
34, 31, 76 1
88, 81, 132 1
42, 35, 86 1
54, 45, 88 1
57, 49, 90 1
59, 49, 91 1
90, 90, 102 1
169, 170, 180 1
236, 236, 242 1
225, 227, 227 1
140, 144, 139 1
165, 171, 166 1
166, 174, 167 1
158, 166, 159 1
151, 159, 152 1
144, 152, 145 1
135, 146, 138 1
128, 139, 131 1
131, 139, 132 1
130, 137, 130 1
129, 136, 129 1
125, 132, 125 1
134, 141, 134 1
132, 139, 132 1
89, 94, 92 1
47, 52, 50 1
24, 29, 27 1
78, 81, 79 1
36, 34, 34 1
43, 39, 50 1
58, 55, 71 1
46, 32, 90 1
47, 32, 100 1
49, 34, 102 1
47, 33, 104 1
51, 40, 103 1
67, 60, 117 1
97, 91, 144 1
137, 132, 183 1
148, 145, 190 1
126, 123, 168 1
125, 123, 165 1
84, 82, 124 1
55, 56, 94 1
81, 83, 118 1
103, 105, 139 1
110, 113, 144 1
125, 129, 158 1
132, 136, 165 1
125, 128, 159 1
104, 106, 140 1
59, 61, 96 1
98, 92, 139 1
87, 80, 131 1
58, 50, 91 1
63, 53, 95 1
62, 62, 80 1
49, 50, 64 1
80, 80, 92 1
160, 162, 170 1
235, 235, 241 1
247, 249, 250 1
229, 231, 231 1
180, 183, 181 1
136, 140, 134 1
156, 163, 156 1
140, 148, 141 1
135, 143, 136 1
133, 141, 134 1
132, 140, 133 1
126, 137, 129 1
122, 133, 125 1
137, 146, 136 1
140, 149, 139 1
139, 148, 138 1
120, 127, 120 1
122, 129, 122 1
96, 103, 96 1
91, 97, 92 1
21, 26, 24 1
68, 73, 71 1
38, 36, 36 1
41, 37, 48 1
52, 47, 78 1
43, 30, 92 1
44, 30, 94 1
46, 32, 98 1
45, 32, 100 1
47, 34, 102 1
56, 49, 106 1
119, 113, 166 1
138, 133, 184 1
122, 119, 165 1
107, 104, 150 1
109, 106, 151 1
72, 69, 114 1
47, 45, 87 1
73, 72, 111 1
86, 87, 121 1
110, 112, 143 1
136, 138, 169 1
140, 142, 173 1
119, 121, 152 1
96, 97, 131 1
58, 58, 94 1
103, 97, 146 1
41, 36, 87 1
49, 42, 85 1
63, 55, 96 1
71, 62, 102 1
78, 78, 94 1
73, 73, 89 1
63, 63, 77 1
143, 145, 153 1
234, 237, 235 1
207, 211, 206 1
153, 158, 149 1
161, 169, 159 1
165, 172, 165 1
147, 154, 147 1
144, 153, 143 1
143, 152, 142 1
143, 154, 144 1
146, 157, 147 1
138, 149, 139 1
143, 153, 141 1
142, 152, 140 1
142, 150, 139 1
136, 144, 134 1
114, 122, 112 1
88, 96, 86 1
78, 85, 78 1
80, 87, 80 1
89, 96, 89 1
117, 123, 118 1
63, 65, 65 1
40, 36, 47 1
55, 52, 68 1
60, 57, 79 1
53, 48, 79 1
46, 32, 96 1
47, 33, 99 1
45, 33, 99 1
48, 40, 101 1
54, 46, 106 1
68, 61, 118 1
97, 91, 146 1
111, 105, 158 1
97, 90, 141 1
76, 70, 119 1
79, 75, 124 1
64, 60, 109 1
54, 51, 97 1
58, 56, 98 1
56, 55, 95 1
73, 73, 109 1
111, 112, 146 1
117, 116, 148 1
96, 95, 129 1
61, 59, 95 1
39, 37, 73 1
75, 69, 116 1
105, 99, 148 1
42, 37, 88 1
56, 48, 89 1
71, 63, 103 1
86, 77, 117 1
88, 88, 104 1
85, 85, 99 1
73, 73, 85 1
200, 201, 205 1
234, 236, 236 1
239, 242, 240 1
219, 223, 217 1
201, 206, 197 1
183, 188, 179 1
183, 189, 178 1
180, 188, 177 1
176, 184, 173 1
173, 181, 170 1
156, 164, 153 1
154, 164, 152 1
151, 161, 149 1
150, 160, 148 1
150, 162, 150 1
152, 164, 152 1
156, 168, 156 1
163, 176, 162 1
161, 174, 160 1
160, 170, 157 1
157, 167, 154 1
156, 166, 153 1
159, 168, 155 1
157, 166, 153 1
153, 162, 149 1
153, 160, 147 1
146, 153, 140 1
131, 138, 125 1
112, 118, 107 1
108, 114, 103 1
111, 117, 106 1
108, 113, 104 1
111, 116, 107 1
92, 96, 90 1
27, 30, 28 1
62, 59, 81 1
44, 41, 73 1
36, 34, 70 1
47, 33, 97 1
45, 34, 97 1
58, 50, 110 1
80, 73, 130 1
87, 80, 137 1
69, 61, 114 1
61, 55, 108 1
59, 54, 105 1
58, 55, 101 1
49, 47, 89 1
63, 62, 102 1
114, 114, 150 1
150, 149, 183 1
149, 148, 182 1
120, 119, 153 1
101, 100, 134 1
62, 60, 96 1
39, 35, 71 1
100, 94, 141 1
60, 52, 92 1
83, 75, 115 1
103, 95, 132 1
102, 102, 116 1
66, 66, 78 1
65, 67, 75 1
110, 110, 116 1
174, 176, 177 1
221, 223, 223 1
247, 251, 246 1
219, 224, 215 1
206, 212, 201 1
210, 217, 204 1
205, 214, 201 1
198, 207, 194 1
199, 208, 195 1
185, 194, 181 1
193, 203, 187 1
189, 200, 184 1
188, 199, 183 1
181, 194, 178 1
176, 189, 173 1
175, 188, 172 1
174, 185, 169 1
169, 180, 164 1
167, 178, 162 1
168, 178, 162 1
167, 177, 161 1
163, 173, 157 1
168, 176, 159 1
167, 175, 158 1
165, 173, 156 1
140, 147, 134 1
142, 148, 137 1
136, 142, 131 1
132, 137, 128 1
120, 124, 118 1
101, 105, 99 1
98, 102, 96 1
87, 91, 86 1
28, 31, 29 1
150, 157, 142 1
154, 161, 148 1
140, 146, 135 1
134, 140, 129 1
128, 133, 124 1
128, 132, 126 1
121, 125, 119 1
112, 116, 110 1
102, 106, 100 1
154, 160, 143 1
157, 164, 149 1
156, 163, 150 1
164, 170, 159 1
166, 171, 162 1
150, 154, 148 1
42, 47, 46 1
133, 140, 119 1
127, 133, 114 1
121, 127, 110 1
144, 149, 134 1
163, 167, 155 1
175, 179, 168 1
176, 181, 172 1
134, 139, 130 1
78, 85, 64 1
81, 87, 68 1
114, 120, 103 1
186, 191, 176 1
184, 188, 176 1
183, 187, 176 1
170, 174, 163 1
150, 153, 144 1
96, 105, 78 1
74, 83, 57 1
71, 78, 57 1
101, 107, 88 1
200, 206, 189 1
202, 207, 192 1
186, 190, 179 1
184, 188, 177 1
112, 122, 92 1
69, 78, 51 1
71, 80, 54 1
106, 113, 92 1
202, 208, 189 1
215, 220, 205 1
198, 202, 190 1
192, 196, 185 1
30, 32, 32 1
130, 141, 109 1
57, 67, 37 1
72, 81, 55 1
116, 124, 101 1
208, 214, 195 1
226, 232, 215 1
223, 228, 213 1
212, 216, 204 1
29, 31, 31 1
128, 139, 106 1
56, 67, 35 1
74, 83, 56 1
220, 227, 206 1
231, 237, 218 1
229, 234, 219 1
214, 219, 204 1
114, 126, 90 1
58, 69, 37 1
75, 85, 55 1
118, 127, 101 1
241, 247, 228 1
239, 245, 228 1
112, 124, 88 1
56, 67, 34 1
74, 84, 54 1
122, 131, 105 1
221, 229, 206 1
243, 249, 230 1
239, 247, 230 1
235, 242, 227 1
131, 143, 107 1
57, 68, 35 1
76, 86, 56 1
120, 129, 102 1
232, 240, 217 1
244, 250, 231 1
242, 250, 233 1
234, 241, 226 1
121, 131, 95 1
56, 68, 32 1
76, 88, 52 1
229, 238, 211 1
242, 251, 230 1
244, 251, 236 1
238, 244, 233 1
234, 238, 232 1
121, 132, 94 1
75, 87, 51 1
244, 253, 232 1
235, 239, 233 1
52, 64, 28 1
76, 87, 54 1
237, 241, 235 1
55, 65, 29 1
126, 136, 106 1
245, 254, 233 1
248, 255, 240 1
241, 247, 236 1
52, 62, 26 1
74, 85, 52 1
228, 237, 211 1
244, 253, 233 1
246, 251, 242 1
48, 58, 22 1
68, 79, 46 1
121, 131, 101 1
229, 238, 212 1
118, 129, 91 1
45, 55, 19 1
64, 75, 43 1
118, 127, 100 1
229, 237, 214 1
40, 50, 14 1
59, 67, 36 1
114, 123, 96 1
227, 235, 212 1
242, 247, 238 1
37, 36, 32 1
42, 52, 16 1
63, 71, 40 1
117, 126, 99 1
229, 236, 215 1
250, 255, 242 1
43, 52, 19 1
63, 71, 41 1
226, 233, 212 1
252, 255, 242 1
248, 254, 243 1
38, 37, 33 1
49, 58, 25 1
62, 70, 40 1
109, 118, 92 1
40, 39, 35 1
126, 137, 97 1
63, 72, 39 1
68, 76, 46 1
113, 122, 96 1
248, 255, 242 1
131, 142, 102 1
81, 90, 57 1
80, 88, 58 1
121, 129, 106 1
134, 145, 105 1
97, 106, 73 1
92, 100, 70 1
127, 133, 110 1
136, 147, 107 1
107, 116, 83 1
128, 134, 111 1
230, 236, 217 1
107, 118, 80 1
101, 109, 78 1
128, 135, 108 1
251, 254, 238 1
252, 255, 240 1
137, 150, 106 1
106, 117, 79 1
100, 108, 77 1
127, 134, 107 1
230, 235, 214 1
248, 251, 235 1
248, 253, 238 1
250, 254, 242 1
138, 150, 108 1
104, 115, 77 1
99, 107, 76 1
126, 132, 107 1
228, 233, 212 1
244, 250, 233 1
246, 250, 238 1
106, 116, 80 1
101, 109, 79 1
128, 134, 109 1
250, 255, 240 1
145, 156, 116 1
108, 117, 84 1
125, 131, 106 1
247, 253, 236 1
247, 252, 237 1
243, 247, 235 1
240, 247, 234 1
146, 157, 119 1
118, 127, 94 1
105, 112, 85 1
124, 132, 109 1
228, 234, 215 1
249, 254, 239 1
122, 130, 99 1
106, 113, 86 1
123, 130, 109 1
227, 233, 216 1
246, 253, 238 1
152, 162, 126 1
124, 132, 101 1
104, 113, 87 1
123, 129, 110 1
226, 233, 218 1
246, 253, 240 1
243, 251, 241 1
131, 140, 107 1
101, 111, 81 1
91, 99, 76 1
139, 145, 128 1
222, 229, 216 1
234, 241, 234 1
230, 237, 230 1
116, 127, 95 1
83, 92, 65 1
81, 88, 67 1
132, 139, 124 1
225, 231, 220 1
247, 252, 243 1
248, 255, 248 1
228, 234, 229 1
96, 106, 76 1
64, 72, 49 1
70, 79, 59 1
124, 131, 118 1
218, 224, 213 1
232, 238, 233 1
55, 64, 44 1
67, 74, 59 1
110, 116, 105 1
186, 194, 184 1
203, 210, 203 1
71, 80, 59 1
43, 51, 34 1
55, 62, 49 1
138, 145, 138 1
121, 127, 122 1
50, 58, 41 1
33, 40, 27 1
42, 48, 37 1
92, 98, 93 1
73, 79, 74 1
35, 42, 29 1
24, 30, 19 1
63, 61, 81 1
36, 35, 69 1
47, 34, 96 1
46, 35, 98 1
51, 43, 104 1
63, 55, 116 1
72, 64, 124 1
49, 42, 99 1
47, 40, 97 1
55, 48, 105 1
47, 41, 94 1
61, 57, 106 1
60, 57, 103 1
71, 69, 111 1
119, 116, 155 1
149, 147, 183 1
147, 146, 180 1
125, 124, 158 1
107, 106, 140 1
66, 62, 98 1
38, 34, 70 1
36, 33, 79 1
73, 67, 114 1
107, 101, 150 1
45, 39, 88 1
64, 56, 96 1
92, 85, 122 1
110, 102, 139 1
101, 101, 115 1
85, 85, 97 1
72, 71, 81 1
76, 75, 84 1
107, 107, 113 1
154, 156, 157 1
204, 207, 205 1
246, 250, 245 1
228, 234, 223 1
223, 230, 217 1
231, 238, 225 1
221, 231, 215 1
209, 219, 203 1
214, 224, 208 1
211, 221, 205 1
208, 218, 201 1
204, 216, 198 1
203, 215, 197 1
199, 211, 191 1
194, 206, 186 1
186, 198, 178 1
183, 195, 175 1
182, 194, 174 1
180, 192, 172 1
176, 187, 167 1
168, 179, 159 1
163, 172, 152 1
162, 171, 151 1
161, 169, 152 1
39, 36, 45 1
44, 42, 72 1
36, 35, 67 1
61, 53, 114 1
64, 56, 117 1
53, 45, 106 1
49, 41, 101 1
52, 45, 102 1
47, 41, 96 1
58, 52, 105 1
68, 64, 113 1
89, 86, 131 1
117, 116, 156 1
144, 141, 180 1
143, 141, 177 1
127, 126, 160 1
112, 111, 145 1
68, 64, 100 1
40, 36, 72 1
47, 41, 90 1
93, 85, 122 1
105, 98, 133 1
87, 84, 99 1
75, 73, 85 1
99, 98, 107 1
163, 165, 166 1
203, 206, 204 1
245, 249, 244 1
236, 241, 232 1
227, 233, 222 1
227, 234, 221 1
234, 244, 228 1
230, 240, 223 1
220, 230, 213 1
218, 228, 211 1
211, 221, 204 1
214, 226, 204 1
208, 220, 198 1
204, 216, 194 1
201, 213, 191 1
196, 209, 187 1
191, 205, 181 1
182, 196, 172 1
179, 193, 169 1
178, 192, 168 1
178, 191, 167 1
173, 186, 162 1
166, 179, 155 1
167, 176, 150 1
165, 174, 148 1
163, 171, 148 1
164, 172, 149 1
164, 171, 150 1
158, 164, 145 1
39, 37, 43 1
53, 51, 63 1
62, 60, 79 1
56, 53, 78 1
37, 37, 67 1
61, 52, 115 1
74, 65, 128 1
57, 49, 112 1
53, 45, 108 1
52, 45, 106 1
48, 42, 99 1
59, 54, 109 1
71, 68, 118 1
89, 86, 132 1
114, 112, 154 1
137, 136, 175 1
138, 138, 174 1
128, 126, 162 1
114, 112, 148 1
41, 39, 75 1
38, 35, 80 1
96, 90, 137 1
41, 35, 84 1
47, 41, 88 1
44, 40, 81 1
90, 83, 118 1
95, 88, 123 1
71, 68, 83 1
61, 58, 73 1
78, 76, 88 1
124, 123, 133 1
168, 168, 174 1
188, 190, 191 1
205, 207, 207 1
239, 246, 233 1
236, 246, 230 1
224, 234, 217 1
213, 224, 204 1
202, 213, 193 1
187, 198, 178 1
175, 188, 162 1
170, 183, 157 1
168, 181, 155 1
167, 180, 154 1
163, 176, 150 1
157, 170, 144 1
152, 166, 138 1
150, 164, 136 1
143, 157, 129 1
140, 154, 126 1
136, 150, 122 1
134, 148, 120 1
135, 145, 115 1
140, 150, 120 1
141, 151, 121 1
139, 148, 121 1
136, 145, 118 1
133, 142, 116 1
133, 141, 118 1
44, 49, 48 1
46, 51, 49 1
43, 41, 47 1
48, 47, 57 1
59, 58, 74 1
41, 40, 66 1
38, 39, 67 1
63, 54, 117 1
55, 47, 112 1
47, 39, 102 1
44, 36, 99 1
50, 43, 104 1
52, 46, 105 1
54, 49, 104 1
71, 67, 119 1
113, 112, 156 1
138, 138, 178 1
138, 137, 176 1
124, 124, 160 1
111, 111, 147 1
90, 84, 131 1
106, 98, 145 1
86, 77, 127 1
48, 42, 91 1
39, 33, 80 1
66, 60, 95 1
77, 70, 105 1
74, 67, 100 1
84, 82, 94 1
158, 157, 167 1
202, 202, 208 1
224, 225, 229 1
224, 226, 226 1
218, 222, 217 1
243, 250, 237 1
236, 246, 229 1
219, 230, 210 1
197, 208, 188 1
172, 184, 162 1
123, 135, 105 1
116, 131, 100 1
113, 128, 97 1
111, 126, 94 1
112, 127, 95 1
110, 125, 93 1
108, 123, 91 1
110, 123, 91 1
114, 127, 95 1
115, 128, 96 1
114, 125, 92 1
120, 131, 98 1
115, 126, 93 1
112, 123, 91 1
106, 117, 85 1
106, 116, 86 1
119, 128, 101 1
47, 46, 56 1
62, 61, 81 1
41, 41, 65 1
62, 53, 116 1
54, 48, 113 1
45, 40, 102 1
51, 46, 107 1
50, 46, 105 1
91, 88, 137 1
112, 111, 155 1
136, 135, 177 1
139, 140, 178 1
106, 105, 144 1
66, 65, 104 1
42, 41, 80 1
37, 32, 77 1
89, 83, 130 1
88, 80, 127 1
51, 45, 92 1
44, 44, 58 1
48, 48, 62 1
77, 77, 89 1
166, 165, 175 1
204, 203, 212 1
223, 224, 228 1
223, 225, 225 1
214, 217, 215 1
226, 230, 224 1
234, 240, 229 1
237, 247, 231 1
233, 243, 226 1
201, 212, 192 1
140, 153, 129 1
125, 138, 114 1
130, 141, 108 1
130, 144, 110 1
127, 141, 107 1
125, 139, 105 1
126, 140, 106 1
128, 142, 108 1
139, 153, 119 1
136, 150, 114 1
141, 155, 119 1
142, 156, 120 1
143, 157, 121 1
144, 158, 122 1
143, 154, 116 1
144, 154, 118 1
144, 156, 120 1
139, 150, 117 1
131, 142, 110 1
132, 142, 112 1
46, 45, 49 1
48, 47, 56 1
60, 60, 74 1
63, 62, 82 1
42, 42, 66 1
63, 52, 115 1
69, 60, 123 1
56, 51, 113 1
46, 41, 103 1
52, 47, 108 1
52, 48, 107 1
88, 88, 136 1
110, 111, 155 1
134, 133, 175 1
140, 140, 180 1
123, 124, 162 1
100, 101, 139 1
65, 64, 103 1
44, 43, 82 1
39, 37, 79 1
64, 59, 104 1
89, 84, 129 1
91, 83, 130 1
52, 46, 93 1
44, 41, 80 1
63, 57, 92 1
60, 53, 86 1
43, 43, 57 1
174, 175, 185 1
207, 209, 217 1
220, 225, 224 1
210, 215, 213 1
226, 234, 223 1
207, 218, 198 1
122, 135, 111 1
119, 132, 106 1
124, 137, 111 1
140, 153, 115 1
139, 152, 114 1
141, 154, 116 1
145, 158, 120 1
151, 164, 126 1
157, 170, 132 1
161, 172, 134 1
160, 171, 133 1
151, 163, 127 1
149, 160, 127 1
62, 62, 74 1
65, 65, 83 1
41, 42, 63 1
39, 41, 65 1
43, 34, 84 1
45, 36, 86 1
71, 60, 122 1
70, 61, 124 1
44, 37, 98 1
41, 36, 97 1
50, 45, 106 1
53, 49, 108 1
55, 52, 108 1
74, 72, 124 1
100, 100, 148 1
119, 119, 165 1
137, 136, 178 1
142, 142, 182 1
101, 102, 140 1
66, 66, 106 1
64, 60, 102 1
87, 82, 127 1
102, 95, 140 1
87, 79, 126 1
45, 41, 83 1
65, 59, 94 1
62, 56, 87 1
45, 45, 59 1
74, 74, 86 1
182, 183, 193 1
216, 218, 226 1
219, 224, 223 1
226, 235, 222 1
213, 223, 206 1
170, 182, 160 1
127, 137, 114 1
117, 128, 102 1
133, 145, 117 1
141, 153, 123 1
148, 159, 119 1
150, 162, 120 1
142, 154, 112 1
143, 155, 113 1
145, 159, 117 1
140, 152, 110 1
135, 147, 105 1
146, 157, 117 1
52, 52, 58 1
64, 64, 76 1
41, 42, 62 1
46, 37, 93 1
56, 50, 109 1
46, 40, 99 1
44, 38, 97 1
50, 44, 103 1
52, 46, 103 1
58, 53, 108 1
81, 77, 129 1
127, 125, 171 1
136, 136, 176 1
98, 98, 138 1
65, 65, 105 1
59, 55, 97 1
80, 73, 116 1
93, 86, 131 1
76, 69, 114 1
46, 42, 83 1
64, 58, 93 1
59, 53, 84 1
48, 49, 63 1
49, 51, 62 1
81, 83, 94 1
187, 190, 198 1
222, 226, 231 1
220, 225, 228 1
203, 214, 194 1
147, 160, 136 1
118, 129, 103 1
135, 147, 117 1
155, 167, 137 1
149, 162, 130 1
157, 167, 125 1
157, 167, 124 1
153, 163, 120 1
148, 158, 115 1
145, 158, 114 1
147, 160, 116 1
148, 161, 117 1
150, 163, 119 1
149, 162, 118 1
146, 159, 115 1
144, 157, 113 1
134, 147, 103 1
50, 50, 56 1
63, 63, 75 1
42, 43, 63 1
40, 43, 64 1
41, 34, 79 1
50, 40, 100 1
54, 44, 104 1
61, 51, 111 1
58, 51, 108 1
48, 41, 98 1
51, 44, 101 1
56, 51, 106 1
78, 75, 125 1
124, 122, 168 1
122, 121, 163 1
121, 120, 162 1
107, 107, 147 1
93, 92, 132 1
70, 69, 109 1
41, 37, 78 1
54, 50, 91 1
69, 62, 105 1
79, 72, 115 1
65, 58, 103 1
50, 45, 90 1
53, 48, 87 1
57, 53, 89 1
67, 61, 96 1
62, 55, 88 1
58, 52, 83 1
87, 89, 99 1
193, 196, 204 1
224, 228, 233 1
219, 224, 225 1
215, 222, 219 1
219, 227, 220 1
223, 231, 220 1
220, 230, 214 1
188, 199, 179 1
138, 151, 125 1
123, 135, 107 1
148, 161, 129 1
162, 176, 142 1
154, 164, 121 1
152, 163, 117 1
148, 159, 113 1
145, 156, 110 1
144, 155, 109 1
147, 158, 112 1
149, 160, 114 1
145, 158, 112 1
143, 156, 110 1
135, 148, 104 1
138, 149, 109 1
144, 157, 119 1
50, 51, 55 1
62, 63, 73 1
42, 44, 62 1
60, 50, 110 1
68, 58, 118 1
67, 57, 117 1
55, 46, 103 1
46, 39, 96 1
49, 43, 98 1
51, 45, 100 1
87, 83, 132 1
90, 87, 132 1
85, 83, 125 1
89, 87, 129 1
82, 81, 121 1
73, 72, 112 1
63, 61, 103 1
43, 39, 80 1
63, 56, 99 1
57, 50, 95 1
49, 44, 89 1
50, 46, 87 1
56, 51, 90 1
56, 52, 88 1
63, 56, 89 1
51, 53, 63 1
87, 90, 98 1
199, 203, 208 1
222, 227, 230 1
213, 220, 217 1
224, 232, 225 1
236, 246, 233 1
173, 185, 163 1
136, 149, 123 1
130, 142, 112 1
149, 163, 129 1
159, 173, 137 1
153, 167, 131 1
156, 167, 121 1
151, 161, 115 1
155, 165, 119 1
153, 163, 117 1
148, 160, 112 1
139, 152, 106 1
136, 149, 103 1
143, 157, 116 1
54, 58, 59 1
63, 64, 74 1
66, 67, 81 1
41, 43, 61 1
39, 43, 62 1
43, 36, 79 1
60, 51, 108 1
67, 58, 115 1
58, 49, 105 1
48, 39, 95 1
67, 62, 113 1
67, 63, 112 1
53, 50, 95 1
60, 58, 100 1
58, 57, 97 1
54, 53, 93 1
55, 53, 95 1
38, 35, 74 1
50, 43, 86 1
51, 44, 87 1
51, 44, 89 1
50, 43, 88 1
43, 38, 83 1
52, 48, 89 1
58, 53, 92 1
47, 52, 61 1
54, 59, 68 1
82, 88, 95 1
201, 207, 212 1
217, 224, 227 1
213, 220, 215 1
227, 236, 226 1
246, 255, 243 1
207, 217, 200 1
165, 178, 154 1
139, 153, 125 1
136, 149, 117 1
158, 172, 136 1
159, 169, 123 1
157, 167, 120 1
156, 166, 119 1
158, 168, 121 1
160, 170, 123 1
157, 169, 121 1
140, 153, 107 1
157, 171, 130 1
53, 52, 56 1
49, 51, 59 1
66, 68, 79 1
65, 67, 85 1
28, 31, 52 1
39, 38, 78 1
41, 40, 80 1
37, 35, 77 1
54, 49, 100 1
58, 53, 104 1
48, 44, 86 1
59, 58, 98 1
52, 51, 91 1
54, 50, 92 1
56, 49, 92 1
53, 46, 89 1
44, 34, 76 1
50, 43, 80 1
80, 74, 109 1
75, 69, 104 1
64, 57, 92 1
60, 53, 88 1
96, 98, 98 1
205, 208, 206 1
225, 229, 224 1
239, 245, 240 1
209, 218, 208 1
136, 146, 133 1
139, 152, 130 1
143, 159, 128 1
148, 166, 127 1
157, 177, 132 1
154, 173, 124 1
143, 159, 105 1
143, 159, 106 1
138, 152, 104 1
144, 155, 117 1
152, 163, 125 1
67, 69, 80 1
43, 47, 66 1
33, 36, 57 1
40, 40, 76 1
55, 52, 98 1
46, 45, 85 1
51, 50, 89 1
57, 56, 95 1
56, 55, 94 1
43, 42, 81 1
46, 43, 82 1
55, 49, 90 1
44, 35, 75 1
45, 37, 74 1
46, 39, 76 1
46, 40, 75 1
59, 54, 86 1
79, 74, 106 1
84, 79, 111 1
83, 78, 110 1
80, 73, 106 1
63, 65, 66 1
100, 102, 102 1
208, 211, 209 1
233, 237, 232 1
226, 230, 225 1
240, 246, 241 1
244, 251, 244 1
211, 220, 210 1
126, 137, 121 1
137, 150, 128 1
147, 163, 132 1
153, 171, 132 1
154, 171, 127 1
152, 171, 122 1
147, 163, 110 1
142, 156, 108 1
144, 155, 115 1
57, 56, 58 1
68, 70, 81 1
48, 52, 70 1
41, 45, 64 1
45, 44, 76 1
43, 42, 76 1
47, 46, 80 1
50, 48, 84 1
44, 42, 78 1
51, 47, 88 1
53, 49, 90 1
43, 43, 79 1
47, 48, 82 1
46, 47, 81 1
41, 42, 76 1
52, 48, 84 1
45, 38, 73 1
44, 37, 72 1
46, 39, 74 1
47, 40, 75 1
44, 39, 71 1
57, 53, 82 1
77, 73, 102 1
85, 81, 110 1
87, 82, 111 1
82, 77, 106 1
65, 60, 89 1
55, 50, 79 1
65, 66, 70 1
106, 108, 109 1
211, 214, 212 1
235, 239, 234 1
211, 215, 210 1
229, 233, 227 1
242, 249, 242 1
215, 225, 213 1
123, 134, 118 1
144, 157, 135 1
157, 172, 141 1
160, 178, 139 1
156, 173, 129 1
155, 174, 125 1
147, 163, 109 1
59, 58, 60 1
67, 69, 79 1
65, 68, 82 1
52, 57, 72 1
50, 54, 72 1
55, 56, 82 1
54, 55, 81 1
51, 52, 78 1
46, 47, 73 1
50, 50, 80 1
46, 46, 76 1
49, 49, 79 1
48, 48, 78 1
47, 47, 77 1
45, 45, 75 1
42, 42, 72 1
43, 43, 73 1
45, 48, 76 1
46, 49, 77 1
43, 46, 74 1
44, 44, 74 1
46, 40, 71 1
47, 41, 72 1
44, 39, 68 1
47, 42, 71 1
50, 45, 72 1
44, 41, 67 1
45, 42, 68 1
56, 52, 77 1
72, 68, 93 1
81, 77, 102 1
65, 61, 86 1
55, 51, 76 1
63, 66, 70 1
109, 111, 112 1
236, 240, 235 1
211, 215, 209 1
231, 235, 229 1
211, 220, 207 1
123, 133, 116 1
148, 161, 137 1
160, 175, 137 1
159, 176, 132 1
159, 175, 128 1
147, 160, 114 1
49, 55, 50 1
50, 53, 57 1
62, 65, 73 1
62, 66, 77 1
55, 61, 74 1
54, 61, 76 1
63, 67, 86 1
61, 65, 84 1
55, 59, 78 1
46, 50, 69 1
46, 49, 70 1
49, 52, 73 1
39, 42, 63 1
46, 47, 68 1
49, 50, 71 1
49, 49, 73 1
53, 46, 73 1
45, 41, 66 1
43, 40, 62 1
48, 45, 67 1
53, 50, 72 1
61, 59, 78 1
65, 63, 82 1
69, 67, 86 1
71, 69, 88 1
64, 62, 81 1
59, 55, 74 1
64, 67, 71 1
111, 113, 114 1
237, 241, 236 1
213, 217, 211 1
234, 239, 230 1
240, 248, 237 1
204, 214, 198 1
121, 132, 112 1
145, 158, 132 1
156, 171, 133 1
162, 177, 133 1
161, 177, 130 1
47, 52, 51 1
48, 53, 56 1
58, 62, 67 1
57, 62, 71 1
54, 60, 71 1
56, 64, 77 1
61, 64, 78 1
48, 51, 65 1
46, 49, 63 1
49, 52, 66 1
50, 53, 68 1
43, 46, 61 1
48, 51, 66 1
41, 46, 61 1
32, 37, 52 1
39, 44, 59 1
38, 44, 57 1
38, 41, 55 1
40, 43, 58 1
42, 45, 60 1
44, 47, 62 1
46, 49, 64 1
55, 50, 71 1
51, 46, 67 1
49, 45, 64 1
46, 42, 61 1
43, 41, 60 1
50, 50, 64 1
51, 51, 63 1
60, 58, 70 1
66, 64, 76 1
65, 63, 75 1
61, 59, 71 1
51, 53, 61 1
64, 67, 72 1
114, 115, 119 1
213, 215, 215 1
237, 242, 233 1
236, 243, 230 1
199, 209, 192 1
119, 131, 109 1
144, 155, 129 1
170, 183, 151 1
162, 175, 137 1
165, 179, 137 1
51, 56, 57 1
53, 59, 66 1
52, 59, 68 1
54, 63, 72 1
66, 72, 79 1
68, 74, 81 1
60, 66, 73 1
44, 50, 57 1
38, 44, 51 1
41, 47, 54 1
43, 49, 56 1
48, 54, 61 1
49, 55, 62 1
46, 51, 60 1
45, 50, 59 1
41, 46, 55 1
33, 38, 47 1
31, 37, 44 1
39, 45, 52 1
43, 46, 54 1
44, 46, 56 1
45, 47, 57 1
47, 49, 59 1
49, 51, 61 1
54, 51, 66 1
50, 47, 62 1
47, 44, 59 1
44, 42, 54 1
46, 44, 56 1
66, 65, 75 1
63, 62, 72 1
54, 53, 62 1
45, 44, 53 1
53, 52, 61 1
62, 62, 68 1
65, 65, 71 1
65, 68, 73 1
117, 118, 122 1
214, 216, 216 1
240, 244, 233 1
228, 235, 220 1
194, 203, 183 1
118, 128, 105 1
168, 182, 148 1
168, 181, 143 1
54, 60, 59 1
64, 71, 74 1
69, 76, 79 1
62, 69, 72 1
35, 42, 45 1
40, 47, 50 1
43, 50, 53 1
41, 49, 49 1
43, 51, 51 1
47, 55, 55 1
49, 57, 57 1
45, 53, 53 1
39, 47, 47 1
32, 37, 40 1
26, 31, 32 1
29, 34, 35 1
39, 44, 45 1
41, 46, 47 1
45, 50, 53 1
47, 52, 55 1
49, 48, 57 1
43, 42, 51 1
46, 46, 52 1
69, 70, 74 1
67, 68, 72 1
52, 53, 57 1
61, 60, 62 1
67, 67, 73 1
119, 120, 124 1
215, 217, 217 1
215, 217, 211 1
239, 243, 232 1
225, 233, 216 1
189, 198, 177 1
119, 130, 104 1
153, 165, 135 1
166, 177, 144 1
172, 185, 147 1
188, 201, 157 1
174, 186, 136 1
150, 164, 116 1
57, 64, 61 1
57, 63, 62 1
52, 60, 60 1
49, 59, 59 1
54, 63, 66 1
59, 64, 65 1
64, 69, 70 1
59, 65, 64 1
46, 52, 51 1
42, 48, 47 1
43, 49, 48 1
44, 50, 49 1
47, 54, 51 1
43, 50, 47 1
34, 41, 38 1
29, 36, 33 1
31, 38, 35 1
49, 54, 53 1
49, 48, 52 1
70, 72, 72 1
65, 66, 64 1
60, 61, 59 1
71, 72, 76 1
121, 123, 124 1
216, 216, 216 1
245, 252, 237 1
220, 228, 211 1
170, 179, 158 1
129, 140, 114 1
147, 159, 129 1
172, 187, 136 1
164, 179, 128 1
157, 172, 121 1
153, 166, 122 1
155, 166, 126 1
69, 75, 70 1
60, 65, 63 1
53, 62, 59 1
49, 60, 58 1
52, 63, 61 1
56, 62, 61 1
61, 68, 65 1
41, 48, 45 1
45, 52, 49 1
43, 50, 45 1
45, 52, 47 1
46, 53, 48 1
47, 55, 48 1
32, 39, 32 1
33, 40, 33 1
36, 43, 36 1
42, 48, 43 1
72, 73, 77 1
123, 125, 126 1
217, 217, 217 1
212, 221, 201 1
132, 144, 116 1
176, 188, 152 1
175, 189, 141 1
159, 173, 125 1
158, 173, 122 1
56, 63, 58 1
50, 60, 54 1
47, 59, 53 1
48, 60, 54 1
51, 58, 55 1
53, 60, 57 1
40, 47, 42 1
42, 49, 44 1
41, 49, 42 1
42, 50, 43 1
43, 51, 44 1
45, 53, 46 1
47, 56, 46 1
48, 57, 47 1
49, 58, 48 1
50, 59, 49 1
35, 40, 31 1
33, 38, 29 1
32, 37, 28 1
73, 75, 76 1
128, 128, 128 1
218, 219, 217 1
203, 212, 192 1
160, 170, 147 1
144, 157, 125 1
177, 189, 153 1
170, 183, 145 1
177, 188, 148 1
184, 196, 154 1
169, 183, 135 1
172, 184, 134 1
171, 183, 133 1
152, 166, 118 1
151, 164, 120 1
76, 83, 76 1
60, 64, 58 1
54, 62, 55 1
50, 61, 53 1
48, 61, 53 1
50, 63, 55 1
55, 61, 56 1
41, 49, 39 1
49, 57, 47 1
51, 59, 49 1
52, 60, 50 1
36, 41, 32 1
41, 46, 37 1
71, 74, 65 1
130, 131, 129 1
196, 205, 185 1
136, 148, 120 1
183, 195, 153 1
161, 175, 127 1
163, 175, 127 1
70, 77, 70 1
69, 76, 69 1
52, 61, 51 1
50, 61, 51 1
51, 65, 54 1
41, 48, 41 1
40, 47, 40 1
42, 50, 40 1
48, 56, 46 1
72, 75, 66 1
79, 82, 73 1
70, 73, 64 1
78, 79, 75 1
131, 132, 128 1
219, 220, 216 1
244, 243, 239 1
219, 221, 215 1
191, 199, 182 1
140, 152, 124 1
153, 166, 134 1
180, 192, 150 1
169, 182, 136 1
170, 184, 136 1
171, 185, 137 1
153, 165, 117 1
156, 168, 126 1
68, 75, 68 1
68, 72, 66 1
64, 68, 62 1
61, 65, 59 1
56, 64, 54 1
53, 62, 52 1
52, 64, 52 1
49, 63, 51 1
43, 51, 41 1
73, 77, 66 1
78, 82, 71 1
66, 70, 59 1
218, 219, 215 1
238, 241, 232 1
186, 194, 177 1
155, 165, 142 1
142, 156, 128 1
161, 174, 142 1
173, 187, 146 1
170, 183, 137 1
176, 190, 142 1
186, 198, 150 1
184, 196, 148 1
56, 61, 52 1
58, 62, 56 1
72, 76, 70 1
68, 73, 64 1
65, 73, 63 1
57, 67, 55 1
42, 47, 38 1
44, 49, 40 1
74, 78, 67 1
63, 67, 56 1
134, 136, 130 1
221, 220, 216 1
239, 242, 233 1
182, 190, 173 1
146, 158, 136 1
185, 199, 151 1
186, 200, 152 1
54, 59, 50 1
63, 67, 61 1
71, 75, 69 1
75, 80, 71 1
72, 80, 70 1
63, 71, 60 1
55, 65, 52 1
49, 54, 45 1
53, 59, 48 1
56, 62, 51 1
40, 38, 30 1
75, 79, 68 1
83, 86, 77 1
136, 138, 132 1
242, 241, 237 1
240, 243, 234 1
246, 250, 239 1
180, 188, 171 1
157, 172, 140 1
166, 182, 141 1
186, 199, 153 1
188, 202, 154 1
174, 186, 138 1
162, 174, 126 1
164, 176, 128 1
150, 161, 115 1
58, 59, 57 1
76, 78, 72 1
67, 69, 63 1
44, 54, 42 1
40, 52, 40 1
41, 53, 41 1
43, 55, 43 1
45, 57, 45 1
50, 62, 50 1
41, 41, 47 1
35, 35, 41 1
32, 32, 38 1
61, 62, 66 1
75, 76, 80 1
70, 71, 75 1
46, 51, 50 1
67, 72, 71 1
56, 61, 60 1
217, 223, 218 1
237, 243, 238 1
245, 248, 239 1
173, 177, 165 1
148, 151, 135 1
148, 154, 131 1
156, 165, 138 1
164, 175, 142 1
166, 185, 142 1
170, 189, 146 1
181, 195, 153 1
174, 186, 144 1
181, 193, 151 1
180, 189, 149 1
177, 186, 146 1
164, 174, 131 1
166, 176, 130 1
169, 180, 130 1
169, 181, 129 1
166, 178, 126 1
158, 174, 120 1
155, 172, 115 1
150, 167, 110 1
151, 168, 111 1
148, 164, 111 1
48, 60, 48 1
45, 55, 43 1
42, 52, 40 1
40, 41, 45 1
36, 37, 41 1
34, 35, 39 1
68, 70, 71 1
72, 75, 73 1
56, 61, 59 1
84, 92, 82 1
135, 143, 133 1
216, 223, 216 1
239, 244, 235 1
241, 245, 234 1
150, 153, 137 1
153, 158, 137 1
164, 170, 145 1
168, 179, 147 1
172, 186, 150 1
168, 180, 138 1
172, 181, 141 1
166, 176, 133 1
167, 178, 132 1
171, 184, 132 1
169, 182, 130 1
157, 173, 119 1
150, 166, 112 1
156, 170, 122 1
62, 65, 56 1
46, 56, 44 1
43, 53, 41 1
41, 51, 39 1
38, 40, 41 1
37, 39, 40 1
41, 43, 44 1
74, 77, 75 1
53, 60, 47 1
89, 96, 83 1
136, 144, 133 1
216, 224, 213 1
223, 231, 221 1
148, 151, 136 1
154, 158, 139 1
166, 172, 149 1
169, 178, 151 1
176, 187, 155 1
169, 183, 149 1
165, 177, 135 1
172, 182, 140 1
170, 180, 137 1
172, 183, 137 1
177, 189, 141 1
178, 190, 140 1
177, 189, 139 1
163, 179, 126 1
151, 164, 112 1
153, 165, 115 1
49, 57, 46 1
90, 96, 85 1
138, 144, 133 1
225, 233, 223 1
241, 249, 239 1
173, 177, 166 1
140, 145, 130 1
148, 152, 133 1
160, 166, 143 1
165, 172, 145 1
176, 184, 154 1
171, 182, 149 1
170, 181, 148 1
175, 190, 146 1
175, 191, 144 1
182, 194, 146 1
159, 170, 124 1
60, 68, 57 1
50, 58, 47 1
88, 90, 84 1
135, 139, 133 1
212, 219, 212 1
235, 241, 236 1
219, 225, 220 1
232, 240, 230 1
169, 175, 164 1
134, 139, 124 1
139, 145, 126 1
152, 158, 135 1
160, 167, 140 1
175, 183, 152 1
174, 183, 150 1
176, 186, 150 1
177, 193, 146 1
182, 195, 151 1
179, 192, 146 1
179, 193, 145 1
179, 191, 143 1
149, 161, 113 1
160, 170, 127 1
59, 65, 54 1
63, 69, 58 1
64, 70, 59 1
49, 55, 44 1
46, 52, 41 1
73, 76, 67 1
92, 93, 91 1
140, 142, 142 1
215, 220, 219 1
234, 240, 239 1
217, 224, 221 1
237, 244, 241 1
237, 244, 239 1
166, 174, 164 1
130, 137, 124 1
135, 141, 124 1
144, 152, 129 1
157, 164, 137 1
174, 182, 151 1
173, 182, 149 1
178, 188, 152 1
178, 190, 154 1
179, 192, 154 1
175, 189, 148 1
183, 196, 152 1
172, 184, 136 1
155, 166, 120 1
162, 172, 130 1
57, 62, 53 1
60, 65, 56 1
46, 51, 42 1
89, 91, 91 1
197, 202, 203 1
207, 215, 215 1
186, 194, 194 1
208, 219, 217 1
214, 223, 220 1
162, 169, 164 1
124, 133, 123 1
126, 135, 122 1
137, 145, 128 1
152, 159, 138 1
164, 174, 144 1
168, 178, 148 1
176, 186, 156 1
181, 192, 160 1
183, 194, 161 1
179, 191, 155 1
177, 191, 149 1
179, 194, 150 1
179, 195, 148 1
166, 178, 130 1
158, 170, 122 1
164, 176, 134 1
119, 124, 123 1
174, 182, 181 1
175, 185, 185 1
148, 160, 160 1
172, 184, 184 1
179, 191, 191 1
154, 165, 163 1
119, 128, 125 1
122, 130, 123 1
130, 138, 128 1
147, 154, 141 1
161, 168, 153 1
152, 160, 143 1
156, 164, 147 1
177, 184, 163 1
183, 191, 168 1
185, 194, 168 1
179, 189, 159 1
175, 186, 153 1
174, 187, 149 1
149, 161, 111 1
162, 172, 129 1
79, 86, 79 1
104, 114, 108 1
128, 139, 136 1
121, 134, 132 1
103, 117, 116 1
112, 127, 129 1
145, 158, 160 1
128, 141, 143 1
123, 135, 137 1
103, 112, 115 1
100, 108, 108 1
125, 131, 130 1
137, 143, 142 1
162, 166, 154 1
189, 194, 179 1
180, 186, 167 1
178, 186, 163 1
179, 188, 161 1
164, 175, 143 1
172, 184, 148 1
182, 195, 157 1
165, 178, 134 1
163, 176, 130 1
76, 77, 73 1
91, 100, 90 1
89, 100, 90 1
95, 109, 103 1
84, 98, 96 1
73, 90, 93 1
103, 119, 125 1
106, 119, 127 1
106, 117, 125 1
94, 103, 113 1
89, 98, 107 1
105, 112, 121 1
114, 121, 130 1
107, 112, 121 1
96, 102, 109 1
149, 153, 148 1
178, 182, 176 1
171, 177, 166 1
174, 181, 166 1
180, 189, 169 1
169, 180, 154 1
172, 182, 152 1
171, 182, 150 1
168, 180, 144 1
173, 185, 149 1
178, 191, 153 1
177, 188, 150 1
172, 183, 143 1
168, 179, 139 1
154, 168, 120 1
45, 44, 40 1
73, 74, 72 1
64, 65, 63 1
74, 75, 73 1
93, 104, 96 1
82, 96, 90 1
74, 88, 86 1
54, 71, 74 1
56, 75, 80 1
76, 93, 102 1
91, 105, 117 1
93, 107, 119 1
93, 104, 118 1
90, 99, 113 1
93, 102, 116 1
98, 105, 120 1
90, 98, 111 1
75, 83, 96 1
118, 121, 125 1
164, 171, 164 1
175, 184, 171 1
167, 177, 160 1
171, 181, 158 1
168, 179, 153 1
167, 179, 151 1
171, 181, 151 1
175, 186, 154 1
165, 176, 143 1
164, 176, 140 1
171, 181, 145 1
172, 183, 145 1
160, 172, 130 1
170, 181, 141 1
167, 180, 142 1
134, 145, 112 1
66, 67, 65 1
80, 81, 79 1
84, 95, 93 1
89, 100, 98 1
80, 92, 92 1
72, 87, 89 1
72, 88, 94 1
63, 81, 88 1
76, 92, 105 1
87, 100, 114 1
93, 106, 122 1
95, 106, 120 1
94, 105, 119 1
97, 108, 122 1
90, 101, 115 1
74, 86, 98 1
99, 104, 113 1
115, 121, 128 1
117, 124, 127 1
146, 152, 151 1
170, 178, 171 1
169, 179, 167 1
173, 184, 168 1
167, 178, 158 1
168, 180, 158 1
159, 170, 144 1
153, 163, 133 1
161, 172, 140 1
162, 173, 141 1
156, 168, 132 1
152, 164, 128 1
148, 159, 127 1
117, 127, 97 1
70, 71, 69 1
85, 85, 85 1
86, 95, 98 1
82, 93, 97 1
70, 82, 86 1
63, 77, 83 1
62, 78, 85 1
58, 75, 84 1
39, 55, 68 1
54, 69, 85 1
73, 88, 104 1
89, 102, 118 1
91, 104, 118 1
90, 103, 117 1
89, 102, 116 1
79, 95, 107 1
69, 85, 97 1
85, 93, 106 1
91, 100, 110 1
89, 96, 105 1
116, 125, 128 1
144, 155, 153 1
154, 164, 158 1
164, 175, 165 1
154, 167, 153 1
155, 166, 150 1
143, 155, 137 1
129, 140, 120 1
116, 127, 107 1
111, 123, 101 1
125, 135, 112 1
136, 147, 121 1
135, 146, 120 1
131, 143, 113 1
128, 140, 110 1
129, 141, 111 1
119, 131, 103 1
87, 97, 74 1
73, 76, 74 1
87, 89, 89 1
84, 95, 99 1
78, 89, 93 1
68, 80, 86 1
63, 76, 84 1
58, 73, 82 1
52, 68, 80 1
47, 63, 76 1
32, 47, 63 1
41, 56, 72 1
65, 80, 96 1
83, 98, 114 1
86, 101, 117 1
84, 99, 115 1
79, 95, 108 1
70, 87, 100 1
79, 88, 102 1
82, 91, 105 1
72, 82, 92 1
88, 100, 106 1
107, 119, 121 1
120, 133, 131 1
136, 148, 142 1
121, 134, 126 1
117, 128, 118 1
105, 117, 105 1
92, 102, 89 1
79, 89, 76 1
75, 86, 70 1
90, 100, 83 1
101, 112, 92 1
106, 115, 94 1
105, 114, 93 1
98, 107, 86 1
94, 103, 82 1
100, 109, 88 1
92, 101, 80 1
65, 74, 54 1
43, 44, 48 1
80, 83, 81 1
79, 81, 81 1
90, 92, 92 1
84, 96, 96 1
76, 88, 90 1
66, 78, 82 1
66, 80, 86 1
49, 65, 78 1
38, 53, 69 1
38, 52, 70 1
58, 72, 90 1
75, 89, 107 1
80, 94, 113 1
81, 95, 114 1
77, 93, 110 1
71, 87, 104 1
65, 83, 100 1
66, 79, 95 1
51, 63, 75 1
66, 79, 87 1
85, 100, 103 1
103, 116, 118 1
116, 130, 128 1
95, 109, 105 1
80, 92, 86 1
69, 81, 75 1
61, 72, 64 1
60, 70, 57 1
72, 82, 69 1
71, 82, 66 1
70, 80, 64 1
64, 71, 56 1
52, 60, 43 1
48, 56, 39 1
49, 56, 41 1
41, 48, 33 1
32, 36, 30 1
86, 89, 87 1
91, 93, 93 1
70, 83, 81 1
63, 76, 74 1
58, 72, 71 1
66, 81, 84 1
64, 80, 86 1
45, 60, 76 1
37, 51, 69 1
50, 64, 83 1
62, 76, 95 1
67, 80, 102 1
60, 77, 98 1
54, 71, 92 1
45, 59, 71 1
59, 74, 83 1
71, 85, 91 1
79, 94, 96 1
95, 109, 108 1
76, 90, 88 1
65, 79, 75 1
54, 65, 62 1
46, 58, 52 1
41, 52, 44 1
36, 47, 37 1
41, 52, 42 1
44, 52, 41 1
47, 54, 41 1
42, 49, 36 1
28, 35, 22 1
85, 90, 88 1
67, 81, 80 1
65, 77, 87 1
62, 75, 89 1
50, 63, 79 1
54, 68, 86 1
52, 66, 84 1
61, 75, 93 1
67, 81, 99 1
60, 74, 92 1
57, 71, 89 1
58, 74, 91 1
55, 69, 87 1
57, 73, 89 1
51, 67, 83 1
48, 63, 79 1
55, 71, 84 1
68, 84, 90 1
67, 82, 85 1
49, 64, 66 1
47, 61, 60 1
46, 60, 59 1
45, 58, 60 1
45, 56, 60 1
43, 52, 61 1
37, 46, 56 1
28, 37, 47 1
43, 43, 37 1
22, 25, 23 1
83, 88, 86 1
69, 83, 82 1
65, 78, 80 1
59, 72, 88 1
60, 75, 91 1
64, 79, 95 1
49, 65, 82 1
49, 65, 81 1
50, 66, 79 1
59, 75, 87 1
61, 77, 83 1
53, 68, 70 1
53, 67, 66 1
54, 67, 69 1
53, 65, 67 1
49, 60, 64 1
46, 56, 63 1
40, 49, 59 1
32, 41, 51 1
27, 32, 31 1
25, 30, 29 1
23, 27, 22 1
84, 88, 83 1
68, 82, 81 1
62, 76, 82 1
66, 78, 90 1
61, 74, 88 1
60, 73, 89 1
51, 67, 84 1
50, 66, 83 1
54, 70, 83 1
59, 76, 85 1
57, 73, 80 1
63, 78, 80 1
61, 74, 76 1
56, 68, 70 1
47, 58, 62 1
43, 51, 58 1
38, 45, 54 1
33, 39, 50 1
68, 82, 80 1
64, 78, 77 1
62, 75, 77 1
65, 77, 83 1
68, 81, 89 1
64, 78, 90 1
66, 79, 93 1
67, 83, 96 1
64, 80, 93 1
57, 73, 86 1
53, 69, 85 1
57, 74, 87 1
57, 74, 83 1
55, 71, 78 1
57, 73, 79 1
54, 66, 68 1
47, 56, 60 1
39, 47, 54 1
33, 41, 48 1
28, 35, 44 1
24, 28, 29 1
25, 29, 30 1
24, 29, 28 1
20, 25, 24 1
33, 35, 29 1
30, 32, 26 1
81, 83, 77 1
68, 81, 79 1
64, 77, 75 1
61, 75, 81 1
62, 74, 84 1
63, 77, 89 1
68, 82, 94 1
65, 81, 93 1
64, 80, 92 1
54, 71, 84 1
56, 73, 86 1
60, 78, 89 1
54, 70, 77 1
58, 72, 78 1
57, 69, 73 1
43, 54, 58 1
37, 46, 50 1
33, 39, 44 1
26, 32, 39 1
22, 24, 24 1
55, 55, 49 1
34, 36, 30 1
32, 34, 28 1
70, 84, 80 1
66, 79, 77 1
60, 72, 72 1
56, 69, 71 1
56, 68, 74 1
57, 70, 78 1
63, 75, 85 1
68, 83, 92 1
65, 80, 89 1
63, 80, 89 1
60, 77, 86 1
51, 69, 80 1
53, 71, 82 1
62, 83, 91 1
52, 66, 78 1
48, 63, 72 1
50, 63, 71 1
47, 59, 65 1
40, 51, 55 1
35, 44, 48 1
31, 38, 41 1
26, 32, 37 1
22, 26, 31 1
18, 22, 27 1
23, 25, 25 1
57, 57, 51 1
76, 79, 70 1
73, 87, 83 1
69, 82, 80 1
64, 76, 76 1
62, 74, 80 1
64, 78, 84 1
66, 82, 89 1
64, 80, 87 1
59, 77, 84 1
57, 75, 82 1
54, 72, 79 1
50, 69, 77 1
53, 72, 80 1
62, 81, 89 1
69, 87, 98 1
70, 91, 99 1
73, 94, 102 1
71, 89, 100 1
67, 85, 96 1
61, 78, 91 1
54, 67, 81 1
42, 54, 64 1
37, 48, 56 1
28, 38, 45 1
23, 32, 36 1
23, 30, 33 1
20, 25, 28 1
19, 24, 27 1
49, 50, 40 1
77, 78, 69 1
71, 84, 76 1
77, 88, 85 1
71, 84, 82 1
67, 79, 81 1
63, 75, 79 1
60, 74, 80 1
59, 75, 81 1
54, 70, 76 1
52, 71, 76 1
53, 72, 77 1
51, 71, 76 1
54, 73, 80 1
61, 80, 87 1
64, 83, 91 1
66, 88, 94 1
75, 94, 101 1
69, 88, 96 1
62, 79, 92 1
45, 57, 69 1
43, 53, 63 1
37, 46, 55 1
28, 36, 43 1
23, 29, 34 1
24, 29, 32 1
22, 27, 30 1
20, 24, 25 1
18, 22, 23 1
64, 67, 58 1
60, 61, 52 1
62, 63, 54 1
65, 76, 68 1
74, 85, 77 1
71, 83, 77 1
93, 104, 101 1
95, 108, 106 1
72, 86, 85 1
68, 81, 83 1
57, 72, 74 1
56, 74, 75 1
54, 72, 73 1
52, 71, 74 1
50, 69, 72 1
51, 70, 73 1
54, 74, 79 1
59, 79, 84 1
67, 87, 92 1
66, 85, 92 1
64, 83, 90 1
66, 85, 93 1
65, 83, 94 1
51, 67, 80 1
46, 61, 77 1
42, 55, 71 1
36, 47, 61 1
29, 38, 47 1
25, 33, 40 1
25, 31, 36 1
19, 23, 24 1
61, 63, 57 1
42, 53, 43 1
60, 71, 61 1
81, 92, 84 1
113, 125, 119 1
125, 136, 133 1
107, 120, 118 1
94, 108, 107 1
80, 96, 95 1
71, 87, 86 1
59, 77, 76 1
57, 75, 74 1
51, 71, 72 1
48, 68, 69 1
50, 71, 73 1
53, 74, 76 1
54, 75, 77 1
51, 70, 78 1
40, 53, 69 1
34, 47, 63 1
33, 44, 58 1
26, 34, 41 1
25, 28, 32 1
62, 66, 55 1
33, 43, 31 1
40, 50, 38 1
82, 91, 81 1
146, 157, 149 1
172, 184, 178 1
154, 165, 162 1
133, 146, 144 1
123, 137, 135 1
91, 108, 105 1
73, 92, 89 1
70, 89, 86 1
64, 85, 83 1
54, 75, 73 1
55, 75, 76 1
55, 76, 77 1
49, 70, 71 1
47, 64, 73 1
47, 63, 75 1
43, 56, 72 1
42, 52, 69 1
43, 54, 68 1
35, 44, 57 1
64, 68, 57 1
52, 56, 44 1
26, 29, 20 1
31, 40, 27 1
28, 36, 25 1
75, 85, 73 1
163, 172, 162 1
196, 207, 199 1
175, 187, 181 1
159, 173, 169 1
152, 167, 163 1
111, 126, 122 1
90, 107, 103 1
85, 105, 100 1
82, 101, 98 1
68, 89, 86 1
66, 87, 85 1
65, 86, 84 1
56, 76, 77 1
48, 66, 73 1
47, 62, 71 1
48, 62, 74 1
44, 57, 71 1
46, 59, 75 1
49, 59, 76 1
52, 61, 75 1
40, 48, 61 1
33, 40, 49 1
25, 29, 34 1
21, 24, 28 1
24, 24, 24 1
54, 58, 46 1
43, 43, 29 1
35, 37, 25 1
30, 39, 26 1
32, 41, 28 1
79, 87, 76 1
171, 180, 170 1
208, 219, 211 1
200, 211, 203 1
202, 214, 208 1
190, 204, 198 1
135, 151, 144 1
100, 121, 113 1
100, 120, 115 1
90, 112, 107 1
86, 107, 104 1
81, 102, 99 1
71, 92, 90 1
59, 75, 82 1
53, 67, 79 1
54, 64, 81 1
45, 53, 66 1
34, 41, 50 1
30, 36, 43 1
26, 29, 34 1
62, 66, 54 1
60, 64, 52 1
38, 43, 28 1
35, 40, 25 1
58, 58, 44 1
50, 50, 36 1
44, 44, 30 1
27, 31, 25 1
46, 53, 46 1
33, 40, 25 1
72, 81, 68 1
174, 182, 171 1
222, 233, 225 1
153, 170, 161 1
117, 136, 127 1
110, 131, 123 1
105, 125, 120 1
99, 121, 116 1
80, 101, 98 1
58, 70, 80 1
54, 66, 78 1
48, 59, 73 1
54, 65, 79 1
59, 68, 81 1
48, 57, 67 1
36, 43, 52 1
28, 31, 36 1
22, 23, 27 1
62, 67, 52 1
39, 44, 29 1
66, 69, 54 1
64, 64, 50 1
35, 42, 35 1
38, 45, 30 1
74, 81, 68 1
175, 183, 172 1
227, 238, 228 1
239, 252, 244 1
226, 241, 233 1
164, 181, 172 1
124, 141, 132 1
116, 135, 126 1
125, 146, 138 1
118, 139, 131 1
112, 134, 129 1
107, 129, 124 1
81, 93, 103 1
71, 83, 93 1
61, 73, 85 1
59, 70, 84 1
51, 62, 76 1
60, 69, 82 1
52, 61, 71 1
39, 46, 55 1
39, 43, 48 1
31, 34, 38 1
24, 22, 22 1
27, 25, 25 1
41, 44, 29 1
73, 76, 61 1
68, 68, 54 1
55, 55, 41 1
47, 47, 33 1
31, 34, 25 1
26, 33, 26 1
84, 91, 78 1
171, 179, 168 1
208, 217, 207 1
222, 233, 223 1
165, 180, 172 1
123, 140, 131 1
122, 141, 132 1
135, 156, 147 1
124, 145, 137 1
117, 139, 134 1
116, 138, 133 1
102, 123, 120 1
93, 105, 115 1
83, 95, 105 1
69, 81, 93 1
62, 73, 87 1
58, 67, 81 1
61, 70, 83 1
56, 65, 75 1
42, 49, 58 1
41, 45, 50 1
28, 26, 25 1
56, 54, 46 1
44, 42, 34 1
44, 43, 33 1
68, 71, 56 1
166, 173, 158 1
209, 216, 201 1
237, 242, 227 1
254, 255, 246 1
178, 180, 174 1
143, 154, 138 1
149, 164, 143 1
145, 161, 137 1
129, 147, 118 1
106, 123, 109 1
91, 108, 94 1
73, 90, 77 1
66, 83, 72 1
57, 73, 66 1
52, 67, 63 1
62, 76, 75 1
62, 73, 77 1
56, 67, 71 1
45, 54, 58 1
34, 38, 43 1
19, 21, 22 1
22, 23, 19 1
55, 53, 45 1
38, 37, 27 1
37, 37, 25 1
39, 42, 27 1
58, 61, 45 1
40, 41, 32 1
61, 61, 55 1
69, 79, 63 1
160, 167, 152 1
208, 215, 200 1
236, 240, 228 1
174, 176, 170 1
150, 155, 146 1
157, 165, 154 1
151, 162, 146 1
157, 170, 148 1
136, 154, 125 1
115, 133, 116 1
107, 125, 108 1
82, 99, 85 1
70, 86, 75 1
60, 77, 68 1
54, 69, 65 1
63, 77, 75 1
61, 75, 74 1
63, 75, 77 1
57, 66, 70 1
49, 55, 60 1
18, 20, 21 1
26, 27, 25 1
47, 52, 37 1
35, 39, 27 1
52, 51, 41 1
38, 38, 26 1
40, 40, 28 1
36, 36, 22 1
40, 41, 25 1
50, 51, 35 1
41, 39, 31 1
60, 59, 55 1
36, 45, 32 1
16, 25, 12 1
62, 69, 56 1
203, 210, 197 1
235, 239, 227 1
176, 179, 170 1
146, 151, 142 1
151, 157, 146 1
159, 169, 153 1
159, 170, 150 1
165, 179, 155 1
162, 177, 149 1
152, 170, 139 1
135, 151, 133 1
127, 146, 127 1
101, 119, 102 1
86, 103, 89 1
75, 91, 80 1
62, 78, 71 1
63, 78, 74 1
61, 74, 72 1
59, 71, 71 1
55, 64, 67 1
53, 60, 63 1
51, 56, 59 1
34, 36, 37 1
26, 28, 29 1
25, 24, 26 1
25, 26, 24 1
29, 28, 30 1
44, 49, 34 1
38, 41, 26 1
39, 39, 25 1
56, 56, 44 1
41, 38, 33 1
44, 41, 37 1
55, 52, 48 1
60, 57, 53 1
33, 42, 29 1
21, 28, 15 1
61, 68, 55 1
142, 149, 136 1
205, 209, 198 1
238, 242, 231 1
252, 255, 246 1
179, 183, 172 1
151, 155, 143 1
159, 168, 148 1
162, 175, 151 1
169, 183, 155 1
169, 185, 154 1
167, 184, 151 1
151, 169, 146 1
141, 159, 136 1
123, 140, 119 1
105, 123, 106 1
90, 107, 93 1
74, 90, 79 1
65, 80, 72 1
62, 76, 72 1
60, 73, 71 1
59, 70, 68 1
57, 65, 65 1
48, 52, 53 1
45, 51, 34 1
42, 45, 29 1
55, 57, 37 1
52, 52, 40 1
47, 47, 35 1
40, 36, 31 1
37, 33, 28 1
43, 40, 35 1
56, 53, 49 1
40, 47, 32 1
26, 33, 20 1
56, 63, 50 1
128, 134, 123 1
194, 197, 188 1
234, 236, 230 1
250, 253, 244 1
181, 185, 173 1
151, 157, 140 1
142, 151, 131 1
154, 165, 139 1
163, 177, 149 1
169, 184, 152 1
169, 185, 151 1
171, 187, 153 1
167, 184, 157 1
153, 170, 143 1
146, 165, 140 1
130, 148, 125 1
112, 128, 110 1
97, 115, 98 1
82, 99, 86 1
80, 94, 83 1
68, 81, 73 1
62, 74, 68 1
57, 66, 63 1
54, 61, 58 1
28, 29, 27 1
48, 54, 37 1
60, 63, 48 1
49, 52, 37 1
50, 52, 33 1
57, 59, 40 1
60, 62, 42 1
65, 67, 47 1
54, 54, 40 1
44, 42, 32 1
43, 40, 32 1
38, 35, 27 1
34, 30, 25 1
44, 41, 36 1
57, 54, 50 1
67, 64, 60 1
39, 46, 31 1
27, 34, 21 1
119, 122, 113 1
185, 187, 181 1
229, 230, 226 1
245, 247, 241 1
190, 195, 180 1
156, 162, 143 1
139, 147, 124 1
149, 161, 131 1
171, 185, 149 1
174, 192, 153 1
164, 181, 148 1
157, 175, 144 1
161, 179, 150 1
149, 166, 139 1
132, 151, 126 1
126, 143, 122 1
108, 124, 106 1
97, 112, 98 1
84, 98, 86 1
73, 84, 74 1
67, 76, 66 1
65, 73, 66 1
59, 63, 57 1
29, 31, 25 1
55, 61, 44 1
50, 53, 38 1
52, 55, 39 1
56, 58, 39 1
59, 61, 42 1
60, 62, 43 1
62, 62, 48 1
60, 60, 46 1
37, 35, 27 1
33, 30, 25 1
37, 34, 29 1
42, 39, 34 1
45, 42, 37 1
58, 55, 51 1
53, 57, 46 1
106, 108, 102 1
168, 169, 165 1
244, 245, 241 1
246, 249, 240 1
160, 167, 146 1
135, 144, 117 1
147, 158, 126 1
166, 180, 144 1
171, 186, 148 1
170, 186, 145 1
176, 192, 151 1
163, 181, 144 1
168, 186, 149 1
170, 187, 153 1
156, 174, 143 1
139, 155, 131 1
127, 142, 121 1
112, 126, 108 1
102, 115, 99 1
98, 108, 95 1
98, 107, 94 1
86, 92, 81 1
76, 82, 71 1
68, 72, 61 1
25, 29, 23 1
60, 61, 45 1
63, 65, 46 1
45, 44, 34 1
45, 43, 35 1
46, 44, 36 1
36, 34, 26 1
38, 35, 30 1
78, 78, 72 1
97, 98, 94 1
151, 152, 150 1
204, 205, 203 1
237, 238, 234 1
160, 168, 145 1
133, 143, 113 1
146, 157, 124 1
171, 184, 146 1
168, 182, 140 1
175, 193, 152 1
168, 186, 147 1
169, 187, 150 1
158, 175, 142 1
157, 173, 142 1
151, 166, 138 1
131, 145, 121 1
128, 141, 119 1
128, 140, 120 1
127, 138, 118 1
121, 131, 114 1
116, 124, 107 1
103, 110, 95 1
87, 94, 79 1
71, 77, 66 1
38, 44, 33 1
32, 38, 27 1
28, 34, 23 1
27, 32, 23 1
26, 31, 22 1
60, 62, 50 1
57, 60, 44 1
62, 64, 45 1
64, 66, 47 1
66, 68, 49 1
84, 84, 78 1
69, 73, 61 1
72, 73, 69 1
200, 200, 200 1
227, 228, 226 1
244, 247, 238 1
208, 213, 198 1
175, 182, 161 1
153, 165, 129 1
166, 180, 139 1
166, 181, 137 1
172, 189, 146 1
169, 186, 143 1
170, 188, 147 1
169, 187, 148 1
153, 169, 138 1
149, 164, 136 1
146, 159, 133 1
143, 156, 132 1
143, 153, 130 1
139, 148, 127 1
132, 141, 120 1
125, 134, 113 1
98, 105, 90 1
91, 98, 83 1
83, 90, 75 1
65, 72, 59 1
50, 57, 44 1
45, 52, 39 1
26, 32, 21 1
51, 54, 38 1
55, 58, 42 1
62, 64, 52 1
59, 62, 46 1
62, 63, 47 1
63, 64, 48 1
64, 65, 49 1
58, 63, 48 1
48, 49, 39 1
75, 79, 67 1
192, 192, 192 1
227, 230, 228 1
248, 252, 246 1
210, 214, 202 1
176, 182, 163 1
122, 131, 104 1
151, 162, 129 1
170, 185, 141 1
169, 184, 140 1
171, 186, 142 1
167, 185, 146 1
166, 184, 145 1
159, 176, 139 1
157, 173, 139 1
153, 168, 136 1
151, 166, 135 1
151, 162, 136 1
147, 158, 132 1
143, 154, 128 1
124, 133, 113 1
121, 130, 110 1
116, 125, 105 1
97, 106, 86 1
77, 85, 68 1
65, 72, 57 1
40, 45, 30 1
