72, 46, 34 257
68, 43, 33 186
71, 45, 33 184
71, 43, 36 173
69, 45, 33 169
70, 46, 34 166
69, 44, 34 118
73, 45, 34 113
68, 44, 32 102
58, 40, 33 96
61, 39, 33 90
73, 47, 35 86
70, 42, 35 83
57, 39, 32 82
71, 44, 34 80
72, 44, 37 79
69, 43, 36 78
67, 42, 32 73
59, 40, 33 70
58, 39, 31 66
70, 44, 32 66
72, 44, 33 65
68, 42, 35 61
62, 40, 34 58
93, 118, 152 57
58, 39, 32 55
60, 41, 34 54
72, 45, 35 53
70, 43, 33 52
74, 46, 35 51
63, 39, 33 48
59, 40, 32 45
60, 38, 32 43
59, 41, 34 43
56, 38, 31 42
70, 45, 35 41
57, 38, 31 40
71, 47, 35 39
72, 43, 36 38
71, 43, 32 35
64, 40, 34 34
82, 110, 140 33
83, 111, 141 33
57, 40, 31 32
59, 37, 31 32
73, 47, 33 31
61, 40, 32 31
73, 44, 37 31
62, 41, 33 31
66, 43, 35 30
71, 45, 31 29
89, 115, 151 29
81, 109, 139 29
66, 44, 33 28
60, 39, 31 28
68, 45, 37 28
62, 38, 32 27
74, 48, 36 27
55, 39, 32 27
69, 46, 31 26
67, 43, 31 26
63, 40, 32 26
66, 44, 32 26
67, 45, 34 26
58, 41, 32 25
66, 41, 31 25
97, 123, 159 25
75, 45, 34 24
72, 46, 32 24
68, 46, 34 24
70, 44, 37 24
134, 162, 203 24
101, 127, 163 23
73, 46, 32 22
103, 127, 169 22
132, 162, 203 22
96, 121, 155 22
97, 122, 156 22
90, 116, 152 22
83, 109, 139 22
68, 45, 30 21
69, 43, 31 21
56, 37, 32 21
91, 117, 154 21
88, 114, 150 21
92, 117, 151 21
98, 124, 160 21
72, 43, 34 20
57, 38, 30 20
69, 41, 34 20
98, 123, 157 20
86, 112, 142 20
84, 112, 142 20
70, 44, 30 19
65, 41, 35 19
65, 42, 34 19
104, 128, 170 19
104, 127, 172 19
100, 126, 162 19
102, 128, 164 19
82, 111, 138 19
83, 110, 137 19
56, 39, 30 18
63, 41, 35 18
67, 45, 33 18
59, 42, 33 18
54, 38, 31 18
131, 161, 202 18
102, 128, 165 18
67, 41, 34 17
63, 42, 34 17
67, 44, 36 17
68, 42, 36 17
60, 41, 33 17
57, 37, 32 17
58, 38, 33 17
91, 117, 153 17
86, 111, 143 17
96, 120, 156 17
85, 110, 142 17
84, 110, 140 17
65, 39, 32 16
61, 37, 31 16
61, 42, 35 16
69, 47, 35 16
120, 148, 195 16
103, 126, 171 16
105, 128, 173 16
90, 116, 153 16
90, 117, 151 16
106, 129, 174 16
101, 127, 164 16
74, 44, 33 15
65, 43, 32 15
71, 46, 36 15
83, 105, 133 15
102, 125, 170 15
89, 114, 146 15
94, 118, 154 15
95, 117, 152 15
80, 109, 136 15
81, 111, 140 15
84, 111, 138 15
73, 44, 35 14
74, 42, 36 14
66, 42, 36 14
66, 40, 34 14
65, 40, 30 14
69, 42, 32 14
75, 47, 36 14
135, 163, 204 14
92, 119, 153 14
92, 117, 149 14
92, 118, 148 14
95, 120, 154 14
67, 41, 35 13
55, 40, 31 13
78, 44, 31 13
100, 123, 161 13
93, 117, 153 13
79, 102, 128 13
85, 111, 141 13
94, 119, 153 13
99, 125, 161 13
72, 45, 31 12
62, 39, 31 12
65, 43, 37 12
56, 40, 33 12
57, 38, 33 12
55, 37, 30 12
103, 128, 168 12
92, 118, 155 12
99, 124, 158 12
85, 109, 139 12
85, 110, 136 12
92, 116, 152 12
106, 131, 181 12
102, 126, 168 12
94, 119, 151 12
80, 108, 138 12
103, 129, 166 12
70, 42, 31 11
73, 46, 36 11
71, 42, 35 11
66, 40, 33 11
64, 41, 33 11
64, 42, 36 11
74, 43, 34 11
64, 38, 31 11
64, 37, 33 11
61, 36, 32 11
119, 147, 194 11
107, 132, 182 11
81, 103, 131 11
101, 125, 167 11
82, 104, 132 11
100, 126, 163 11
90, 115, 147 11
95, 121, 157 11
87, 113, 143 11
91, 118, 152 11
128, 152, 204 11
83, 108, 140 11
88, 113, 145 11
79, 108, 135 11
105, 130, 170 11
103, 129, 165 11
98, 126, 157 11
76, 46, 35 10
64, 43, 35 10
69, 43, 37 10
72, 48, 36 10
64, 39, 29 10
56, 37, 30 10
121, 144, 200 10
121, 147, 194 10
121, 149, 196 10
36, 51, 54 10
123, 154, 199 10
130, 157, 201 10
129, 156, 200 10
95, 119, 155 10
107, 130, 180 10
88, 114, 144 10
91, 119, 150 10
103, 125, 166 10
92, 119, 146 10
107, 130, 175 10
82, 108, 138 10
103, 130, 164 10
104, 129, 169 10
89, 117, 147 10
96, 124, 155 10
97, 125, 156 10
30, 44, 43 10
82, 109, 135 10
77, 45, 34 9
64, 38, 32 9
56, 41, 32 9
60, 42, 35 9
62, 43, 36 9
74, 45, 38 9
58, 37, 35 9
129, 149, 207 9
80, 104, 132 9
137, 165, 206 9
132, 161, 205 9
100, 124, 160 9
95, 120, 160 9
150, 174, 216 9
96, 122, 158 9
94, 120, 156 9
98, 120, 161 9
90, 115, 149 9
87, 112, 144 9
127, 151, 203 9
77, 103, 133 9
85, 113, 143 9
81, 110, 137 9
101, 128, 162 9
83, 112, 139 9
85, 112, 139 9
85, 109, 137 9
82, 109, 136 9
102, 129, 163 9
74, 48, 34 8
70, 47, 32 8
67, 46, 31 8
75, 49, 37 8
56, 37, 29 8
73, 43, 38 8
61, 39, 34 8
130, 153, 209 8
105, 129, 165 8
97, 121, 157 8
129, 151, 209 8
122, 146, 200 8
101, 125, 171 8
75, 98, 124 8
105, 129, 171 8
133, 161, 202 8
147, 171, 213 8
95, 120, 152 8
81, 105, 133 8
92, 118, 154 8
86, 110, 138 8
103, 125, 167 8
84, 109, 141 8
105, 132, 183 8
106, 132, 186 8
106, 130, 182 8
84, 113, 140 8
44, 58, 64 8
104, 130, 167 8
105, 131, 168 8
88, 116, 146 8
38, 53, 55 8
48, 63, 72 8
51, 68, 71 8
76, 44, 33 7
67, 44, 29 7
73, 41, 35 7
63, 41, 30 7
69, 46, 38 7
70, 48, 36 7
68, 46, 35 7
76, 44, 31 7
61, 38, 30 7
55, 36, 31 7
53, 37, 30 7
63, 38, 36 7
128, 150, 208 7
122, 148, 195 7
127, 150, 198 7
117, 145, 192 7
112, 135, 191 7
124, 152, 199 7
129, 153, 207 7
126, 150, 204 7
35, 50, 53 7
124, 147, 197 7
131, 160, 204 7
145, 170, 214 7
129, 155, 201 7
128, 155, 199 7
105, 129, 175 7
82, 103, 131 7
129, 158, 202 7
130, 160, 201 7
102, 127, 167 7
105, 127, 168 7
84, 106, 134 7
145, 169, 211 7
94, 119, 159 7
106, 129, 179 7
93, 118, 150 7
93, 120, 154 7
79, 103, 131 7
80, 103, 129 7
92, 120, 151 7
91, 117, 147 7
125, 148, 198 7
88, 115, 149 7
124, 151, 202 7
127, 152, 208 7
83, 108, 142 7
125, 149, 203 7
106, 133, 184 7
82, 107, 139 7
105, 130, 162 7
81, 108, 135 7
104, 130, 160 7
98, 122, 158 7
76, 102, 132 7
37, 52, 55 7
114, 137, 193 7
86, 114, 144 7
87, 115, 145 7
104, 130, 166 7
45, 59, 65 7
106, 132, 168 7
105, 131, 167 7
30, 44, 42 7
97, 124, 158 7
44, 56, 62 7
43, 57, 63 7
104, 131, 165 7
40, 56, 62 7
65, 39, 33 6
71, 42, 33 6
73, 42, 33 6
74, 47, 33 6
63, 44, 37 6
67, 43, 37 6
54, 39, 30 6
72, 42, 37 6
71, 42, 38 6
73, 45, 38 6
70, 44, 38 6
65, 44, 36 6
64, 39, 37 6
66, 41, 39 6
60, 38, 33 6
58, 37, 36 6
59, 39, 34 6
72, 43, 38 6
71, 45, 38 6
133, 156, 212 6
122, 146, 198 6
109, 131, 173 6
121, 150, 195 6
113, 136, 181 6
129, 152, 198 6
120, 146, 200 6
132, 155, 211 6
130, 153, 201 6
130, 150, 207 6
108, 131, 187 6
109, 129, 177 6
76, 94, 123 6
121, 145, 199 6
93, 114, 159 6
125, 154, 199 6
96, 115, 153 6
100, 124, 170 6
101, 124, 169 6
130, 159, 203 6
133, 162, 206 6
77, 98, 126 6
77, 98, 125 6
54, 69, 78 6
105, 130, 174 6
104, 129, 173 6
97, 119, 154 6
36, 50, 49 6
132, 159, 203 6
95, 116, 154 6
106, 129, 167 6
83, 107, 137 6
86, 110, 140 6
97, 122, 162 6
93, 119, 156 6
103, 127, 163 6
91, 116, 156 6
87, 111, 141 6
97, 120, 158 6
94, 120, 157 6
126, 150, 202 6
87, 113, 149 6
91, 116, 148 6
89, 115, 145 6
137, 162, 204 6
94, 116, 152 6
129, 152, 208 6
130, 154, 208 6
93, 119, 149 6
89, 116, 150 6
108, 133, 183 6
82, 106, 136 6
102, 124, 165 6
122, 145, 193 6
101, 124, 162 6
102, 125, 163 6
107, 133, 187 6
99, 123, 159 6
105, 132, 166 6
101, 126, 166 6
100, 128, 159 6
123, 146, 202 6
107, 130, 178 6
106, 130, 184 6
32, 46, 45 6
42, 56, 62 6
99, 126, 160 6
98, 125, 159 6
37, 52, 54 6
39, 54, 57 6
94, 121, 148 6
41, 56, 58 6
49, 59, 66 6
83, 110, 136 6
106, 133, 167 6
75, 41, 35 5
71, 48, 33 5
59, 38, 30 5
68, 47, 32 5
73, 43, 32 5
64, 42, 31 5
62, 40, 29 5
75, 43, 37 5
65, 43, 31 5
74, 45, 31 5
74, 45, 36 5
68, 40, 33 5
65, 36, 31 5
71, 42, 37 5
69, 45, 39 5
60, 43, 34 5
65, 38, 34 5
64, 39, 35 5
70, 47, 39 5
62, 40, 35 5
62, 39, 37 5
60, 36, 30 5
59, 37, 32 5
57, 39, 28 5
58, 40, 29 5
132, 156, 210 5
127, 149, 207 5
122, 144, 196 5
120, 141, 196 5
91, 112, 144 5
114, 136, 178 5
106, 127, 165 5
122, 146, 204 5
105, 127, 169 5
122, 148, 202 5
79, 99, 130 5
116, 140, 186 5
126, 149, 197 5
128, 151, 199 5
129, 152, 200 5
120, 143, 199 5
92, 119, 156 5
133, 157, 211 5
108, 129, 180 5
39, 53, 59 5
51, 66, 75 5
103, 124, 175 5
120, 144, 198 5
98, 117, 155 5
38, 54, 60 5
123, 145, 197 5
127, 156, 201 5
148, 171, 217 5
125, 144, 201 5
105, 128, 174 5
111, 133, 181 5
106, 127, 172 5
136, 163, 207 5
144, 169, 213 5
111, 134, 184 5
120, 144, 190 5
110, 132, 174 5
107, 129, 170 5
143, 168, 210 5
144, 169, 211 5
94, 117, 163 5
75, 96, 123 5
105, 128, 166 5
100, 125, 165 5
104, 128, 164 5
82, 104, 145 5
136, 164, 205 5
125, 147, 199 5
87, 109, 150 5
89, 115, 155 5
84, 108, 138 5
82, 106, 134 5
84, 108, 136 5
40, 55, 58 5
95, 121, 158 5
131, 156, 198 5
93, 118, 158 5
140, 165, 207 5
90, 118, 149 5
94, 115, 153 5
125, 149, 201 5
97, 121, 163 5
80, 102, 130 5
106, 130, 176 5
91, 118, 145 5
126, 153, 197 5
99, 121, 162 5
90, 116, 146 5
118, 149, 194 5
115, 148, 193 5
89, 112, 150 5
99, 122, 160 5
95, 117, 153 5
81, 105, 135 5
113, 146, 191 5
115, 146, 191 5
85, 110, 144 5
84, 109, 143 5
82, 107, 141 5
104, 126, 167 5
109, 135, 189 5
107, 134, 168 5
80, 106, 136 5
81, 107, 137 5
108, 135, 169 5
101, 129, 160 5
94, 122, 152 5
94, 124, 151 5
107, 132, 188 5
90, 115, 141 5
49, 67, 74 5
103, 126, 182 5
105, 131, 178 5
33, 48, 51 5
105, 129, 181 5
77, 93, 109 5
72, 87, 103 5
96, 122, 152 5
41, 55, 61 5
47, 61, 67 5
102, 128, 168 5
35, 49, 48 5
100, 127, 161 5
41, 54, 62 5
32, 46, 44 5
41, 56, 59 5
90, 117, 144 5
39, 54, 56 5
40, 55, 57 5
45, 57, 63 5
48, 65, 68 5
52, 70, 71 5
71, 44, 30 4
78, 43, 33 4
68, 42, 30 4
66, 42, 30 4
76, 50, 38 4
75, 44, 35 4
79, 44, 31 4
77, 44, 35 4
82, 45, 31 4
76, 43, 34 4
80, 44, 38 4
66, 37, 32 4
63, 37, 31 4
69, 39, 38 4
56, 36, 31 4
53, 40, 32 4
67, 40, 36 4
69, 41, 40 4
65, 43, 38 4
63, 43, 38 4
62, 38, 38 4
61, 37, 37 4
58, 36, 30 4
57, 42, 33 4
56, 37, 34 4
55, 36, 29 4
58, 37, 29 4
55, 38, 29 4
57, 43, 31 4
56, 40, 28 4
57, 40, 27 4
62, 42, 31 4
72, 41, 38 4
53, 37, 31 4
56, 35, 38 4
131, 150, 211 4
130, 148, 207 4
119, 142, 192 4
111, 136, 186 4
111, 138, 188 4
64, 50, 51 4
106, 130, 166 4
118, 141, 191 4
116, 139, 189 4
122, 151, 196 4
124, 146, 204 4
114, 137, 175 4
90, 111, 143 4
121, 144, 194 4
81, 102, 129 4
98, 117, 160 4
118, 147, 192 4
130, 152, 210 4
128, 148, 206 4
121, 142, 187 4
78, 98, 129 4
77, 98, 136 4
99, 121, 163 4
40, 44, 45 4
121, 145, 191 4
123, 147, 193 4
128, 151, 197 4
106, 132, 172 4
56, 72, 84 4
122, 150, 197 4
76, 98, 140 4
88, 107, 145 4
51, 64, 72 4
116, 141, 185 4
97, 113, 155 4
99, 120, 165 4
123, 151, 198 4
118, 142, 196 4
113, 137, 191 4
122, 145, 195 4
147, 170, 216 4
105, 130, 180 4
114, 138, 190 4
115, 139, 193 4
96, 119, 165 4
103, 126, 172 4
83, 102, 135 4
48, 65, 74 4
145, 168, 214 4
113, 136, 186 4
130, 149, 206 4
129, 149, 204 4
125, 146, 201 4
119, 140, 195 4
97, 119, 167 4
109, 132, 178 4
77, 95, 124 4
123, 146, 194 4
126, 146, 201 4
100, 123, 168 4
30, 45, 48 4
49, 64, 73 4
102, 124, 160 4
121, 148, 199 4
126, 155, 200 4
127, 147, 202 4
100, 126, 173 4
108, 132, 178 4
123, 150, 200 4
102, 125, 171 4
103, 126, 164 4
121, 147, 193 4
121, 153, 202 4
130, 162, 205 4
124, 144, 199 4
103, 129, 183 4
38, 52, 58 4
124, 155, 200 4
74, 97, 123 4
138, 166, 207 4
79, 101, 142 4
91, 110, 148 4
89, 106, 145 4
93, 115, 150 4
128, 157, 201 4
86, 107, 145 4
97, 124, 168 4
81, 102, 130 4
78, 99, 126 4
127, 156, 200 4
133, 160, 204 4
92, 115, 160 4
86, 108, 136 4
77, 100, 126 4
138, 163, 207 4
83, 105, 146 4
99, 125, 162 4
85, 107, 135 4
78, 102, 126 4
102, 126, 162 4
149, 173, 215 4
112, 135, 185 4
104, 125, 176 4
86, 108, 149 4
91, 115, 157 4
96, 122, 159 4
98, 124, 161 4
81, 104, 130 4
141, 165, 207 4
81, 99, 128 4
124, 146, 198 4
109, 132, 182 4
104, 127, 177 4
92, 117, 157 4
79, 101, 129 4
126, 148, 206 4
101, 126, 160 4
93, 121, 152 4
130, 155, 199 4
130, 154, 206 4
96, 120, 162 4
86, 112, 148 4
89, 113, 143 4
87, 111, 139 4
84, 109, 135 4
117, 140, 186 4
107, 131, 177 4
119, 150, 195 4
125, 151, 205 4
109, 134, 184 4
111, 134, 182 4
109, 131, 179 4
105, 126, 171 4
78, 102, 130 4
129, 153, 199 4
126, 152, 206 4
115, 139, 191 4
106, 129, 175 4
126, 150, 196 4
114, 147, 192 4
122, 148, 194 4
101, 123, 164 4
83, 106, 138 4
91, 116, 150 4
130, 153, 198 4
113, 144, 189 4
85, 111, 147 4
107, 134, 185 4
89, 114, 140 4
128, 153, 203 4
126, 151, 201 4
86, 111, 145 4
95, 122, 149 4
112, 141, 178 4
126, 149, 199 4
128, 151, 201 4
96, 124, 154 4
109, 134, 176 4
116, 140, 194 4
110, 133, 189 4
78, 104, 134 4
89, 119, 144 4
104, 132, 166 4
112, 138, 192 4
122, 145, 201 4
111, 138, 189 4
75, 101, 131 4
78, 106, 136 4
106, 129, 185 4
79, 107, 137 4
90, 117, 143 4
116, 139, 195 4
49, 65, 72 4
48, 64, 70 4
46, 60, 66 4
74, 89, 105 4
73, 86, 102 4
95, 121, 151 4
91, 119, 149 4
50, 65, 74 4
67, 83, 96 4
60, 76, 89 4
64, 80, 93 4
103, 129, 169 4
95, 123, 154 4
96, 121, 153 4
51, 67, 74 4
97, 122, 154 4
55, 74, 82 4
43, 55, 61 4
36, 49, 57 4
85, 112, 138 4
41, 57, 64 4
53, 64, 72 4
50, 68, 75 4
27, 41, 39 4
37, 53, 52 4
51, 65, 71 4
49, 63, 69 4
87, 114, 140 4
49, 66, 69 4
48, 62, 68 4
47, 59, 65 4
42, 57, 59 4
42, 54, 60 4
46, 65, 68 4
61, 42, 34 3
62, 43, 35 3
79, 44, 34 3
71, 49, 37 3
73, 49, 37 3
65, 41, 29 3
70, 41, 34 3
77, 45, 32 3
68, 39, 34 3
75, 49, 35 3
70, 41, 37 3
69, 42, 38 3
58, 39, 34 3
66, 45, 30 3
53, 41, 31 3
68, 44, 38 3
68, 41, 37 3
68, 40, 39 3
57, 41, 34 3
66, 39, 35 3
65, 40, 38 3
64, 42, 37 3
65, 42, 40 3
60, 39, 38 3
64, 44, 33 3
65, 48, 51 3
57, 35, 29 3
58, 36, 31 3
70, 48, 37 3
55, 36, 33 3
60, 40, 35 3
57, 41, 25 3
73, 48, 38 3
73, 44, 39 3
60, 40, 29 3
59, 39, 28 3
48, 36, 54 3
59, 36, 34 3
93, 114, 152 3
96, 115, 166 3
88, 110, 152 3
129, 148, 209 3
127, 154, 205 3
123, 145, 203 3
62, 44, 43 3
125, 146, 197 3
120, 143, 193 3
114, 142, 189 3
123, 149, 196 3
124, 148, 194 3
54, 58, 59 3
112, 134, 176 3
119, 138, 181 3
121, 143, 184 3
119, 141, 183 3
111, 133, 175 3
119, 146, 190 3
132, 154, 212 3
98, 104, 149 3
87, 96, 123 3
112, 132, 173 3
120, 143, 188 3
121, 148, 198 3
134, 156, 214 3
125, 145, 203 3
113, 135, 177 3
119, 142, 187 3
111, 132, 177 3
120, 149, 194 3
122, 149, 199 3
83, 99, 146 3
87, 102, 148 3
90, 103, 147 3
56, 70, 82 3
65, 80, 96 3
115, 139, 185 3
103, 128, 170 3
120, 147, 197 3
131, 154, 210 3
51, 63, 69 3
117, 141, 187 3
117, 143, 190 3
118, 144, 191 3
122, 141, 184 3
96, 116, 151 3
82, 102, 133 3
68, 87, 114 3
51, 69, 92 3
100, 126, 166 3
112, 141, 185 3
128, 151, 207 3
118, 141, 197 3
113, 135, 193 3
68, 86, 103 3
119, 142, 188 3
127, 153, 200 3
106, 123, 172 3
82, 101, 136 3
78, 95, 122 3
117, 140, 188 3
119, 142, 190 3
72, 90, 119 3
101, 129, 170 3
87, 105, 152 3
86, 105, 142 3
75, 93, 122 3
118, 148, 195 3
99, 126, 170 3
113, 140, 191 3
54, 67, 113 3
90, 111, 156 3
92, 112, 153 3
78, 97, 124 3
62, 78, 94 3
120, 144, 196 3
32, 48, 64 3
61, 75, 103 3
59, 78, 113 3
108, 132, 184 3
135, 155, 212 3
132, 153, 208 3
96, 117, 162 3
106, 127, 178 3
111, 131, 179 3
79, 98, 131 3
78, 96, 127 3
43, 59, 66 3
132, 161, 206 3
128, 149, 204 3
101, 118, 157 3
72, 88, 131 3
106, 128, 176 3
110, 132, 180 3
123, 146, 192 3
123, 146, 196 3
123, 152, 197 3
127, 148, 203 3
96, 113, 152 3
99, 120, 171 3
98, 121, 167 3
99, 122, 167 3
53, 69, 81 3
128, 157, 202 3
126, 145, 202 3
100, 123, 173 3
101, 124, 170 3
101, 120, 158 3
91, 111, 146 3
123, 148, 198 3
120, 147, 198 3
137, 164, 208 3
147, 172, 216 3
95, 114, 152 3
75, 96, 124 3
76, 97, 124 3
124, 153, 198 3
134, 163, 207 3
142, 169, 213 3
147, 171, 217 3
92, 110, 147 3
100, 127, 178 3
103, 128, 172 3
108, 133, 177 3
95, 115, 150 3
55, 69, 81 3
126, 157, 202 3
127, 144, 201 3
74, 97, 143 3
102, 126, 172 3
85, 106, 137 3
115, 140, 184 3
92, 115, 161 3
123, 143, 198 3
108, 130, 171 3
109, 130, 168 3
94, 116, 151 3
146, 171, 211 3
86, 105, 132 3
63, 84, 106 3
68, 90, 115 3
57, 75, 106 3
94, 111, 160 3
132, 150, 209 3
93, 112, 150 3
98, 125, 169 3
89, 109, 140 3
27, 37, 55 3
99, 123, 169 3
104, 130, 176 3
102, 127, 169 3
69, 91, 116 3
93, 115, 151 3
138, 165, 209 3
23, 37, 56 3
67, 85, 116 3
82, 104, 146 3
102, 128, 174 3
96, 123, 167 3
138, 162, 204 3
142, 167, 211 3
131, 158, 202 3
140, 166, 206 3
101, 122, 173 3
98, 120, 168 3
95, 118, 164 3
65, 83, 112 3
71, 89, 118 3
119, 140, 192 3
92, 120, 161 3
99, 124, 164 3
93, 116, 148 3
80, 104, 128 3
54, 73, 88 3
149, 172, 217 3
133, 163, 204 3
94, 118, 160 3
89, 112, 144 3
78, 101, 127 3
81, 105, 129 3
138, 163, 205 3
85, 107, 148 3
87, 112, 152 3
92, 116, 158 3
88, 114, 154 3
101, 125, 161 3
82, 106, 130 3
118, 140, 192 3
89, 116, 153 3
96, 119, 157 3
78, 103, 129 3
100, 122, 170 3
88, 115, 152 3
93, 120, 157 3
95, 122, 156 3
31, 45, 51 3
128, 150, 202 3
110, 133, 183 3
89, 115, 152 3
37, 51, 57 3
132, 160, 201 3
115, 138, 188 3
88, 114, 151 3
94, 121, 155 3
83, 106, 132 3
85, 108, 134 3
62, 81, 102 3
131, 159, 200 3
130, 158, 199 3
132, 155, 200 3
96, 119, 164 3
35, 49, 55 3
103, 127, 173 3
145, 170, 212 3
129, 157, 198 3
129, 154, 198 3
87, 105, 142 3
123, 147, 199 3
99, 123, 165 3
96, 121, 161 3
89, 116, 143 3
122, 147, 189 3
127, 154, 198 3
131, 153, 201 3
128, 152, 206 3
111, 133, 185 3
88, 112, 140 3
121, 152, 197 3
128, 152, 198 3
141, 162, 207 3
107, 134, 178 3
124, 150, 204 3
116, 140, 192 3
94, 120, 150 3
80, 104, 134 3
131, 163, 206 3
128, 160, 203 3
125, 149, 195 3
119, 145, 191 3
110, 135, 185 3
107, 128, 173 3
116, 149, 194 3
93, 116, 154 3
97, 123, 160 3
107, 132, 172 3
118, 144, 190 3
126, 153, 204 3
128, 153, 209 3
129, 153, 211 3
122, 143, 198 3
79, 103, 133 3
119, 152, 197 3
117, 150, 195 3
116, 147, 192 3
97, 119, 155 3
109, 132, 164 3
112, 145, 190 3
117, 147, 194 3
134, 155, 200 3
119, 143, 189 3
120, 142, 194 3
104, 126, 168 3
115, 143, 190 3
127, 151, 209 3
127, 151, 205 3
112, 136, 188 3
83, 110, 144 3
82, 105, 137 3
111, 142, 187 3
108, 131, 176 3
98, 121, 159 3
122, 152, 199 3
114, 146, 189 3
113, 145, 188 3
111, 143, 186 3
128, 154, 208 3
109, 132, 177 3
117, 150, 196 3
106, 138, 179 3
130, 153, 199 3
111, 134, 179 3
127, 152, 202 3
115, 148, 194 3
106, 136, 177 3
107, 138, 177 3
106, 137, 176 3
112, 143, 182 3
125, 148, 196 3
100, 126, 156 3
117, 147, 188 3
107, 136, 173 3
105, 134, 171 3
100, 132, 167 3
87, 112, 146 3
97, 128, 161 3
98, 129, 162 3
124, 147, 195 3
131, 155, 207 3
119, 143, 197 3
108, 134, 188 3
80, 105, 137 3
84, 110, 134 3
109, 137, 172 3
98, 126, 156 3
95, 124, 151 3
95, 125, 152 3
90, 120, 147 3
92, 122, 149 3
127, 150, 200 3
117, 143, 197 3
99, 125, 155 3
102, 130, 161 3
95, 123, 153 3
90, 120, 145 3
113, 139, 193 3
109, 132, 188 3
104, 127, 173 3
38, 53, 56 3
69, 94, 114 3
105, 131, 185 3
96, 123, 150 3
115, 136, 191 3
53, 74, 82 3
105, 128, 184 3
104, 131, 182 3
58, 76, 87 3
126, 149, 205 3
119, 142, 198 3
69, 91, 109 3
41, 57, 63 3
80, 99, 114 3
113, 136, 192 3
54, 70, 77 3
52, 66, 72 3
67, 86, 101 3
66, 82, 98 3
82, 112, 141 3
50, 66, 73 3
75, 90, 106 3
67, 82, 98 3
80, 110, 139 3
106, 132, 169 3
90, 118, 148 3
97, 123, 153 3
46, 59, 67 3
51, 65, 77 3
68, 84, 97 3
59, 75, 88 3
63, 79, 92 3
62, 78, 91 3
56, 81, 91 3
103, 132, 176 3
93, 121, 151 3
47, 62, 71 3
66, 82, 95 3
56, 77, 85 3
103, 128, 162 3
107, 133, 169 3
98, 123, 155 3
31, 45, 43 3
45, 56, 64 3
61, 79, 90 3
54, 72, 83 3
60, 81, 89 3
101, 126, 158 3
102, 127, 161 3
108, 134, 170 3
28, 42, 41 3
57, 76, 84 3
53, 72, 80 3
46, 62, 68 3
49, 70, 78 3
51, 72, 80 3
58, 79, 87 3
61, 82, 90 3
65, 89, 119 3
94, 122, 153 3
29, 43, 42 3
50, 64, 76 3
55, 71, 83 3
86, 115, 142 3
55, 70, 79 3
60, 79, 94 3
87, 114, 141 3
35, 49, 47 3
42, 58, 64 3
51, 61, 68 3
48, 58, 65 3
53, 69, 75 3
96, 123, 157 3
26, 40, 38 3
35, 52, 55 3
48, 60, 66 3
93, 120, 147 3
39, 55, 54 3
36, 53, 56 3
51, 66, 69 3
86, 111, 137 3
38, 54, 53 3
90, 113, 151 3
39, 55, 61 3
44, 59, 61 3
55, 72, 75 3
47, 63, 70 3
98, 122, 164 3
47, 62, 64 3
66, 43, 28 2
72, 40, 34 2
55, 39, 27 2
54, 40, 28 2
67, 48, 33 2
69, 41, 30 2
78, 46, 35 2
61, 43, 36 2
77, 47, 36 2
64, 42, 30 2
63, 38, 28 2
75, 46, 32 2
63, 37, 30 2
77, 43, 37 2
67, 38, 33 2
80, 45, 32 2
67, 39, 32 2
59, 36, 28 2
70, 40, 39 2
71, 45, 39 2
70, 41, 32 2
70, 46, 40 2
70, 41, 36 2
66, 38, 37 2
71, 48, 40 2
63, 41, 36 2
65, 39, 39 2
63, 40, 38 2
66, 43, 41 2
61, 38, 36 2
63, 36, 32 2
62, 42, 37 2
61, 41, 36 2
59, 38, 36 2
59, 38, 37 2
55, 34, 33 2
56, 35, 37 2
58, 38, 37 2
60, 37, 35 2
63, 43, 32 2
59, 40, 35 2
55, 34, 36 2
57, 36, 38 2
60, 39, 41 2
59, 41, 42 2
60, 38, 40 2
57, 36, 34 2
73, 47, 31 2
73, 47, 30 2
63, 45, 34 2
67, 42, 46 2
44, 31, 47 2
59, 35, 43 2
60, 37, 29 2
55, 39, 26 2
58, 42, 29 2
52, 40, 30 2
71, 45, 29 2
74, 47, 37 2
67, 45, 39 2
72, 47, 37 2
65, 44, 29 2
65, 46, 33 2
54, 35, 30 2
57, 41, 29 2
58, 41, 28 2
59, 40, 27 2
59, 42, 29 2
64, 45, 37 2
67, 42, 38 2
51, 34, 47 2
60, 41, 36 2
63, 42, 40 2
62, 42, 41 2
58, 40, 39 2
53, 38, 29 2
68, 43, 41 2
64, 41, 39 2
64, 43, 41 2
63, 44, 36 2
58, 37, 45 2
52, 33, 42 2
55, 35, 30 2
58, 35, 33 2
70, 43, 39 2
72, 43, 39 2
62, 41, 39 2
53, 36, 47 2
139, 154, 216 2
111, 128, 185 2
52, 35, 39 2
75, 46, 37 2
124, 142, 203 2
44, 25, 34 2
64, 40, 40 2
58, 44, 46 2
60, 44, 45 2
114, 109, 141 2
87, 108, 153 2
58, 36, 38 2
57, 36, 28 2
76, 49, 39 2
78, 46, 40 2
101, 95, 118 2
136, 156, 214 2
134, 154, 212 2
76, 95, 138 2
55, 33, 38 2
54, 36, 25 2
62, 37, 41 2
134, 129, 160 2
134, 152, 211 2
133, 153, 210 2
58, 76, 113 2
132, 149, 206 2
129, 155, 209 2
127, 153, 207 2
100, 118, 171 2
46, 34, 40 2
57, 38, 35 2
64, 44, 39 2
123, 131, 168 2
148, 165, 214 2
121, 145, 203 2
121, 149, 203 2
50, 30, 35 2
52, 33, 36 2
52, 32, 37 2
130, 135, 168 2
117, 133, 170 2
118, 144, 198 2
120, 145, 201 2
122, 149, 206 2
63, 68, 99 2
51, 39, 57 2
50, 34, 41 2
66, 48, 47 2
62, 45, 42 2
60, 43, 40 2
111, 130, 167 2
77, 88, 118 2
68, 79, 109 2
124, 148, 200 2
75, 85, 125 2
99, 93, 124 2
65, 51, 53 2
60, 43, 46 2
113, 129, 165 2
128, 143, 182 2
122, 139, 178 2
108, 129, 167 2
105, 127, 163 2
101, 121, 156 2
98, 117, 150 2
124, 146, 211 2
76, 83, 122 2
89, 86, 125 2
114, 136, 172 2
115, 138, 176 2
110, 133, 171 2
119, 144, 194 2
114, 143, 188 2
125, 143, 206 2
75, 80, 125 2
124, 119, 150 2
116, 111, 143 2
114, 128, 164 2
109, 128, 166 2
111, 131, 172 2
115, 137, 179 2
99, 118, 155 2
86, 107, 135 2
127, 150, 195 2
123, 151, 192 2
121, 147, 201 2
125, 144, 205 2
125, 141, 207 2
128, 142, 208 2
89, 94, 139 2
96, 105, 149 2
94, 103, 146 2
49, 50, 54 2
116, 132, 169 2
118, 139, 184 2
92, 112, 147 2
64, 86, 111 2
72, 96, 124 2
93, 112, 155 2
131, 153, 211 2
123, 142, 203 2
120, 138, 201 2
81, 95, 143 2
64, 69, 114 2
77, 89, 129 2
97, 105, 152 2
84, 95, 123 2
46, 47, 51 2
115, 132, 171 2
116, 139, 184 2
127, 148, 193 2
126, 148, 190 2
98, 117, 154 2
86, 107, 139 2
73, 94, 132 2
78, 98, 139 2
114, 137, 182 2
110, 135, 177 2
111, 139, 180 2
122, 146, 206 2
121, 143, 201 2
87, 103, 145 2
94, 110, 152 2
100, 110, 157 2
82, 94, 122 2
45, 46, 50 2
54, 61, 64 2
116, 134, 175 2
114, 135, 180 2
118, 142, 188 2
126, 149, 195 2
127, 149, 191 2
41, 61, 86 2
69, 90, 128 2
92, 114, 156 2
101, 123, 165 2
105, 133, 174 2
127, 150, 206 2
114, 136, 194 2
97, 113, 159 2
79, 93, 122 2
39, 44, 45 2
52, 65, 73 2
67, 83, 99 2
89, 109, 134 2
112, 131, 164 2
117, 138, 183 2
116, 139, 185 2
116, 142, 188 2
120, 146, 193 2
100, 129, 168 2
121, 142, 203 2
82, 98, 145 2
83, 99, 145 2
82, 98, 144 2
84, 102, 149 2
98, 116, 163 2
105, 121, 168 2
79, 96, 129 2
77, 93, 122 2
34, 39, 40 2
39, 43, 44 2
53, 68, 77 2
79, 98, 119 2
112, 136, 178 2
118, 141, 187 2
119, 145, 192 2
125, 151, 198 2
128, 154, 201 2
131, 154, 202 2
130, 151, 196 2
85, 104, 137 2
45, 64, 85 2
62, 81, 119 2
67, 86, 124 2
70, 90, 131 2
83, 108, 148 2
86, 111, 151 2
96, 125, 162 2
109, 136, 180 2
135, 158, 214 2
123, 144, 205 2
61, 72, 116 2
83, 101, 148 2
107, 125, 172 2
96, 115, 158 2
80, 97, 130 2
77, 95, 126 2
114, 139, 183 2
116, 142, 189 2
132, 158, 205 2
132, 151, 196 2
39, 56, 75 2
43, 60, 79 2
49, 66, 87 2
66, 80, 109 2
61, 80, 117 2
64, 83, 121 2
116, 142, 196 2
134, 154, 211 2
111, 133, 191 2
101, 115, 157 2
77, 90, 134 2
101, 109, 168 2
95, 106, 164 2
107, 127, 175 2
103, 123, 170 2
100, 121, 166 2
88, 109, 147 2
34, 44, 44 2
135, 161, 208 2
140, 163, 211 2
139, 162, 210 2
139, 158, 203 2
119, 137, 178 2
83, 101, 132 2
61, 78, 105 2
35, 53, 70 2
64, 78, 106 2
60, 78, 115 2
136, 156, 213 2
110, 134, 188 2
100, 123, 179 2
101, 125, 183 2
100, 116, 158 2
97, 116, 167 2
92, 113, 158 2
94, 114, 161 2
98, 119, 170 2
105, 126, 177 2
110, 130, 178 2
106, 126, 174 2
102, 122, 169 2
32, 45, 47 2
121, 144, 192 2
121, 146, 196 2
142, 165, 213 2
78, 94, 123 2
38, 56, 73 2
59, 81, 117 2
97, 114, 165 2
97, 115, 156 2
100, 117, 156 2
89, 105, 147 2
77, 96, 123 2
81, 101, 126 2
130, 159, 204 2
139, 165, 211 2
31, 47, 63 2
55, 70, 96 2
127, 147, 204 2
132, 152, 209 2
71, 95, 147 2
40, 53, 99 2
95, 117, 165 2
103, 124, 169 2
63, 79, 95 2
29, 44, 60 2
45, 64, 99 2
64, 92, 122 2
104, 128, 182 2
108, 125, 176 2
110, 128, 175 2
104, 122, 163 2
104, 125, 170 2
111, 131, 178 2
103, 122, 165 2
91, 110, 147 2
88, 107, 142 2
85, 105, 130 2
139, 166, 210 2
127, 145, 182 2
53, 70, 97 2
75, 99, 151 2
80, 103, 153 2
107, 124, 175 2
107, 124, 167 2
97, 114, 153 2
99, 122, 172 2
108, 131, 177 2
104, 124, 165 2
78, 96, 125 2
57, 74, 87 2
79, 99, 124 2
122, 149, 200 2
141, 168, 212 2
149, 172, 218 2
143, 162, 205 2
138, 157, 195 2
41, 56, 88 2
38, 55, 88 2
108, 131, 179 2
116, 134, 193 2
125, 145, 200 2
128, 148, 203 2
112, 133, 188 2
55, 68, 114 2
107, 130, 176 2
110, 131, 176 2
109, 128, 171 2
107, 127, 168 2
104, 125, 163 2
95, 114, 151 2
34, 48, 54 2
83, 102, 129 2
93, 114, 146 2
113, 137, 179 2
124, 150, 197 2
121, 151, 200 2
136, 165, 209 2
55, 75, 100 2
51, 67, 96 2
122, 141, 198 2
116, 136, 191 2
92, 113, 165 2
109, 134, 178 2
109, 129, 170 2
77, 102, 128 2
36, 50, 56 2
47, 60, 68 2
143, 169, 215 2
146, 170, 216 2
144, 164, 205 2
53, 71, 100 2
49, 65, 94 2
53, 79, 103 2
84, 107, 152 2
100, 119, 157 2
98, 125, 175 2
109, 131, 172 2
80, 101, 132 2
76, 98, 126 2
54, 68, 80 2
86, 104, 133 2
98, 118, 153 2
121, 155, 201 2
127, 158, 203 2
53, 65, 83 2
52, 68, 85 2
65, 85, 110 2
62, 81, 108 2
48, 63, 95 2
91, 110, 155 2
86, 104, 141 2
104, 130, 184 2
102, 127, 171 2
95, 116, 148 2
58, 78, 96 2
108, 131, 169 2
131, 157, 203 2
145, 170, 210 2
44, 65, 86 2
41, 62, 83 2
51, 74, 96 2
26, 36, 54 2
58, 77, 112 2
65, 82, 125 2
74, 90, 136 2
121, 139, 198 2
127, 145, 204 2
74, 96, 138 2
96, 117, 155 2
83, 99, 141 2
106, 132, 178 2
95, 114, 147 2
85, 105, 136 2
80, 101, 129 2
33, 49, 55 2
82, 103, 134 2
131, 154, 199 2
135, 162, 206 2
131, 160, 205 2
129, 158, 203 2
130, 156, 202 2
145, 171, 211 2
85, 104, 131 2
71, 92, 119 2
54, 73, 100 2
31, 48, 74 2
28, 43, 62 2
67, 84, 127 2
93, 113, 161 2
77, 99, 140 2
91, 112, 150 2
84, 107, 153 2
104, 128, 174 2
102, 131, 176 2
98, 127, 172 2
101, 126, 168 2
107, 128, 166 2
92, 113, 145 2
32, 48, 54 2
124, 142, 201 2
134, 153, 210 2
84, 103, 141 2
106, 128, 169 2
98, 120, 155 2
88, 109, 140 2
86, 106, 137 2
144, 170, 210 2
142, 168, 208 2
87, 107, 138 2
46, 66, 91 2
66, 84, 113 2
57, 76, 111 2
64, 81, 124 2
133, 151, 210 2
137, 155, 214 2
107, 128, 179 2
94, 116, 164 2
94, 115, 160 2
80, 100, 141 2
83, 104, 142 2
81, 99, 140 2
91, 114, 159 2
101, 128, 172 2
95, 123, 164 2
98, 123, 165 2
57, 76, 89 2
143, 167, 209 2
148, 171, 216 2
134, 161, 205 2
140, 168, 209 2
137, 163, 203 2
66, 84, 115 2
44, 60, 89 2
101, 122, 167 2
79, 98, 141 2
84, 103, 146 2
95, 120, 162 2
147, 170, 215 2
139, 167, 208 2
82, 100, 131 2
30, 41, 61 2
66, 85, 118 2
124, 144, 202 2
85, 107, 149 2
89, 113, 155 2
90, 116, 156 2
94, 117, 149 2
87, 108, 139 2
50, 69, 84 2
60, 81, 102 2
134, 156, 198 2
49, 64, 96 2
67, 86, 119 2
137, 157, 214 2
117, 139, 191 2
97, 120, 166 2
89, 114, 154 2
88, 112, 142 2
123, 148, 188 2
148, 172, 214 2
85, 103, 134 2
127, 147, 205 2
133, 154, 209 2
89, 111, 153 2
84, 109, 149 2
91, 117, 157 2
29, 43, 49 2
132, 157, 199 2
140, 164, 206 2
141, 163, 204 2
80, 98, 127 2
84, 102, 133 2
52, 64, 88 2
68, 88, 123 2
112, 131, 182 2
134, 155, 210 2
103, 126, 176 2
93, 116, 162 2
88, 113, 153 2
83, 107, 135 2
130, 155, 197 2
83, 101, 130 2
57, 73, 102 2
75, 90, 116 2
115, 134, 185 2
95, 122, 159 2
114, 140, 177 2
146, 171, 215 2
129, 154, 196 2
129, 151, 203 2
105, 128, 178 2
94, 117, 162 2
91, 118, 155 2
90, 114, 144 2
146, 170, 212 2
91, 111, 142 2
95, 115, 146 2
84, 104, 139 2
95, 119, 161 2
128, 158, 199 2
134, 157, 202 2
93, 112, 147 2
85, 104, 139 2
50, 66, 95 2
100, 122, 164 2
108, 130, 182 2
97, 120, 165 2
93, 119, 155 2
82, 105, 131 2
96, 119, 151 2
146, 171, 213 2
109, 131, 183 2
89, 113, 141 2
139, 164, 206 2
128, 153, 197 2
94, 113, 151 2
52, 67, 99 2
91, 115, 143 2
83, 104, 132 2
61, 76, 95 2
124, 149, 193 2
123, 144, 195 2
100, 124, 166 2
90, 114, 142 2
57, 80, 102 2
140, 167, 211 2
124, 156, 199 2
119, 153, 196 2
121, 153, 196 2
140, 159, 202 2
90, 111, 149 2
130, 149, 210 2
124, 145, 200 2
91, 115, 145 2
137, 167, 208 2
88, 112, 148 2
114, 141, 185 2
112, 137, 187 2
97, 118, 156 2
42, 62, 80 2
92, 114, 142 2
106, 131, 165 2
117, 143, 180 2
124, 150, 190 2
127, 157, 198 2
123, 155, 198 2
73, 93, 128 2
86, 109, 147 2
114, 139, 181 2
112, 134, 182 2
95, 118, 156 2
119, 149, 196 2
141, 160, 203 2
94, 117, 155 2
121, 142, 197 2
121, 143, 195 2
113, 137, 189 2
96, 118, 154 2
78, 102, 132 2
77, 105, 129 2
95, 116, 144 2
120, 146, 192 2
92, 114, 155 2
125, 150, 200 2
98, 120, 156 2
110, 143, 188 2
86, 106, 147 2
107, 129, 177 2
77, 104, 130 2
41, 61, 78 2
123, 149, 189 2
129, 160, 205 2
125, 156, 201 2
112, 143, 188 2
116, 144, 191 2
101, 120, 163 2
126, 150, 208 2
110, 134, 186 2
106, 133, 183 2
108, 131, 181 2
105, 127, 175 2
121, 151, 198 2
117, 146, 191 2
115, 144, 189 2
115, 147, 190 2
110, 142, 185 2
124, 150, 196 2
129, 154, 210 2
79, 104, 130 2
104, 136, 177 2
109, 141, 182 2
127, 151, 197 2
121, 150, 194 2
109, 139, 180 2
107, 137, 178 2
111, 142, 181 2
120, 143, 189 2
126, 152, 199 2
121, 145, 197 2
91, 115, 151 2
84, 111, 145 2
108, 137, 176 2
106, 135, 172 2
128, 150, 198 2
96, 118, 153 2
88, 113, 147 2
109, 138, 175 2
105, 135, 170 2
113, 136, 182 2
129, 153, 205 2
117, 141, 195 2
79, 106, 133 2
92, 117, 143 2
114, 145, 184 2
98, 127, 158 2
99, 129, 158 2
104, 136, 165 2
129, 152, 202 2
126, 147, 198 2
112, 136, 190 2
111, 135, 189 2
79, 104, 136 2
97, 124, 151 2
104, 132, 163 2
111, 140, 177 2
94, 123, 150 2
115, 141, 195 2
61, 86, 102 2
107, 135, 169 2
100, 128, 158 2
93, 122, 149 2
84, 115, 140 2
106, 130, 172 2
129, 150, 202 2
124, 148, 202 2
114, 140, 194 2
106, 131, 187 2
89, 114, 148 2
95, 119, 147 2
103, 131, 165 2
100, 128, 162 2
98, 126, 160 2
130, 151, 203 2
77, 105, 135 2
93, 117, 139 2
96, 125, 152 2
96, 119, 145 2
85, 106, 133 2
119, 147, 188 2
125, 147, 205 2
80, 108, 139 2
79, 107, 138 2
86, 110, 130 2
92, 119, 145 2
93, 120, 146 2
81, 103, 128 2
124, 147, 203 2
111, 131, 188 2
51, 70, 78 2
85, 109, 131 2
86, 112, 136 2
88, 114, 138 2
89, 115, 139 2
85, 106, 128 2
74, 98, 120 2
105, 135, 164 2
115, 144, 181 2
126, 149, 194 2
131, 154, 200 2
111, 137, 191 2
79, 105, 135 2
34, 51, 54 2
77, 97, 115 2
89, 113, 133 2
88, 113, 133 2
104, 127, 183 2
29, 44, 47 2
37, 53, 59 2
45, 61, 67 2
80, 100, 117 2
84, 108, 126 2
101, 124, 180 2
103, 130, 181 2
106, 132, 179 2
81, 99, 116 2
84, 107, 123 2
84, 104, 121 2
66, 89, 105 2
107, 130, 186 2
36, 48, 52 2
79, 95, 111 2
66, 86, 103 2
114, 140, 170 2
124, 151, 185 2
103, 129, 176 2
37, 49, 55 2
79, 98, 113 2
74, 90, 106 2
106, 133, 159 2
103, 129, 175 2
31, 44, 46 2
53, 69, 76 2
68, 83, 92 2
71, 86, 102 2
70, 85, 101 2
62, 83, 98 2
55, 71, 78 2
59, 74, 83 2
61, 75, 87 2
62, 75, 89 2
66, 81, 97 2
64, 79, 95 2
51, 70, 83 2
62, 88, 102 2
95, 124, 145 2
107, 130, 168 2
63, 76, 90 2
67, 80, 94 2
53, 73, 84 2
76, 104, 121 2
82, 112, 131 2
107, 135, 182 2
106, 131, 175 2
53, 65, 75 2
71, 84, 98 2
65, 78, 92 2
58, 74, 87 2
54, 73, 81 2
52, 73, 81 2
60, 86, 98 2
113, 142, 179 2
44, 57, 65 2
44, 56, 66 2
44, 59, 68 2
65, 81, 94 2
61, 77, 90 2
106, 134, 169 2
105, 133, 168 2
101, 130, 167 2
101, 130, 169 2
102, 130, 171 2
41, 53, 57 2
46, 58, 62 2
46, 58, 64 2
41, 53, 63 2
42, 57, 66 2
60, 78, 89 2
59, 77, 88 2
55, 73, 84 2
52, 70, 81 2
56, 74, 81 2
60, 79, 87 2
56, 79, 87 2
53, 78, 88 2
91, 119, 154 2
93, 121, 156 2
97, 124, 161 2
99, 126, 163 2
100, 127, 164 2
43, 55, 59 2
39, 52, 60 2
42, 55, 63 2
46, 62, 69 2
52, 71, 79 2
56, 75, 83 2
58, 77, 85 2
59, 78, 86 2
47, 66, 74 2
85, 112, 146 2
92, 120, 155 2
45, 66, 74 2
42, 63, 71 2
74, 100, 130 2
100, 125, 157 2
80, 110, 135 2
34, 48, 47 2
41, 54, 56 2
45, 58, 60 2
52, 66, 78 2
61, 80, 95 2
65, 88, 103 2
102, 126, 154 2
100, 127, 154 2
88, 117, 144 2
39, 53, 52 2
52, 67, 76 2
60, 81, 96 2
57, 78, 93 2
52, 75, 90 2
69, 93, 117 2
66, 89, 115 2
100, 124, 152 2
102, 128, 158 2
31, 45, 44 2
54, 66, 76 2
57, 69, 79 2
43, 61, 68 2
58, 79, 94 2
51, 72, 87 2
55, 80, 100 2
59, 82, 104 2
38, 52, 51 2
35, 50, 52 2
48, 64, 71 2
52, 63, 71 2
59, 78, 93 2
52, 75, 91 2
51, 74, 90 2
47, 71, 91 2
104, 129, 163 2
88, 115, 142 2
36, 51, 53 2
51, 67, 73 2
56, 72, 78 2
58, 74, 80 2
49, 65, 71 2
54, 71, 84 2
61, 78, 91 2
62, 79, 92 2
52, 71, 86 2
99, 127, 158 2
104, 137, 170 2
39, 53, 51 2
25, 39, 37 2
42, 58, 57 2
47, 55, 62 2
40, 53, 61 2
53, 70, 73 2
47, 64, 67 2
50, 66, 79 2
90, 114, 150 2
85, 111, 135 2
89, 116, 142 2
103, 131, 162 2
41, 55, 53 2
28, 42, 40 2
56, 74, 75 2
56, 72, 85 2
48, 63, 79 2
47, 62, 78 2
49, 70, 92 2
87, 113, 137 2
36, 52, 51 2
38, 55, 58 2
40, 54, 60 2
49, 61, 67 2
37, 49, 59 2
37, 50, 58 2
53, 67, 73 2
52, 67, 70 2
50, 68, 69 2
58, 70, 80 2
52, 65, 81 2
51, 63, 81 2
97, 118, 149 2
87, 112, 138 2
88, 115, 141 2
91, 118, 144 2
40, 54, 52 2
36, 50, 48 2
47, 59, 83 2
92, 115, 153 2
88, 110, 151 2
41, 53, 59 2
40, 52, 58 2
43, 59, 65 2
31, 47, 54 2
45, 60, 69 2
105, 130, 172 2
91, 113, 154 2
108, 136, 171 2
48, 63, 65 2
38, 50, 56 2
35, 51, 57 2
107, 135, 176 2
45, 60, 63 2
44, 59, 62 2
41, 58, 61 2
106, 133, 177 2
111, 139, 174 2
65, 42, 27 1
74, 41, 32 1
54, 38, 26 1
69, 48, 33 1
56, 42, 30 1
77, 42, 32 1
75, 43, 32 1
63, 41, 29 1
76, 47, 33 1
61, 39, 28 1
79, 46, 31 1
80, 45, 31 1
79, 44, 30 1
79, 43, 37 1
84, 45, 31 1
66, 38, 31 1
68, 42, 28 1
71, 41, 36 1
70, 40, 35 1
72, 42, 31 1
69, 40, 31 1
64, 35, 30 1
72, 41, 32 1
69, 40, 33 1
76, 48, 37 1
54, 41, 33 1
77, 51, 39 1
67, 41, 29 1
64, 40, 28 1
65, 37, 36 1
62, 38, 26 1
61, 37, 25 1
54, 36, 29 1
67, 42, 40 1
63, 38, 34 1
61, 36, 34 1
62, 37, 35 1
65, 40, 36 1
66, 41, 37 1
61, 44, 35 1
64, 43, 42 1
62, 41, 40 1
54, 33, 35 1
57, 37, 36 1
60, 35, 31 1
62, 41, 43 1
55, 37, 38 1
52, 34, 35 1
55, 41, 29 1
63, 42, 44 1
74, 53, 55 1
82, 63, 66 1
85, 66, 69 1
79, 60, 63 1
56, 39, 42 1
62, 40, 42 1
62, 37, 33 1
54, 35, 28 1
74, 48, 32 1
74, 49, 29 1
72, 47, 31 1
74, 50, 38 1
74, 51, 36 1
72, 49, 34 1
67, 46, 38 1
75, 51, 39 1
68, 39, 30 1
75, 45, 40 1
74, 45, 41 1
69, 40, 35 1
65, 46, 31 1
63, 44, 29 1
60, 44, 28 1
62, 45, 32 1
71, 36, 22 1
73, 38, 28 1
69, 37, 31 1
63, 33, 32 1
67, 46, 54 1
52, 36, 47 1
48, 34, 58 1
63, 48, 80 1
77, 59, 100 1
87, 66, 111 1
95, 71, 119 1
96, 70, 118 1
80, 54, 100 1
59, 32, 76 1
55, 36, 57 1
55, 35, 54 1
53, 32, 47 1
56, 32, 44 1
64, 40, 42 1
53, 34, 29 1
52, 39, 25 1
56, 40, 27 1
56, 41, 25 1
59, 43, 27 1
64, 43, 28 1
66, 47, 32 1
60, 42, 31 1
78, 48, 37 1
62, 41, 49 1
49, 32, 45 1
49, 36, 52 1
69, 57, 79 1
99, 90, 117 1
116, 106, 142 1
132, 120, 162 1
140, 124, 172 1
136, 117, 166 1
125, 107, 154 1
111, 91, 136 1
92, 73, 116 1
66, 50, 73 1
63, 45, 68 1
57, 38, 57 1
55, 34, 49 1
58, 37, 46 1
63, 40, 45 1
65, 41, 41 1
51, 32, 27 1
59, 41, 30 1
59, 43, 31 1
74, 49, 39 1
67, 47, 36 1
67, 43, 43 1
61, 38, 43 1
49, 29, 41 1
47, 31, 48 1
61, 49, 71 1
93, 87, 112 1
130, 126, 155 1
143, 139, 174 1
143, 139, 181 1
138, 134, 183 1
135, 128, 179 1
128, 121, 172 1
123, 115, 162 1
118, 109, 152 1
108, 100, 141 1
88, 79, 106 1
80, 69, 95 1
67, 55, 77 1
55, 41, 59 1
53, 34, 43 1
55, 36, 39 1
55, 35, 34 1
74, 44, 39 1
66, 44, 38 1
63, 42, 50 1
59, 40, 49 1
51, 33, 50 1
56, 43, 65 1
87, 78, 105 1
122, 117, 149 1
144, 142, 178 1
152, 154, 194 1
143, 148, 193 1
137, 142, 191 1
129, 133, 186 1
126, 129, 184 1
122, 124, 178 1
113, 117, 166 1
106, 109, 153 1
97, 102, 141 1
99, 98, 130 1
94, 89, 120 1
77, 72, 101 1
61, 51, 74 1
49, 35, 47 1
53, 37, 44 1
54, 37, 40 1
57, 41, 35 1
56, 35, 33 1
73, 42, 39 1
71, 44, 40 1
70, 45, 41 1
61, 40, 38 1
67, 48, 45 1
63, 44, 41 1
66, 45, 37 1
63, 42, 45 1
50, 36, 54 1
53, 40, 62 1
69, 57, 85 1
106, 97, 130 1
141, 136, 175 1
151, 150, 194 1
145, 149, 197 1
142, 149, 198 1
134, 145, 197 1
132, 143, 200 1
132, 143, 201 1
130, 141, 199 1
119, 131, 185 1
103, 117, 166 1
97, 110, 154 1
91, 106, 145 1
104, 107, 145 1
101, 103, 138 1
92, 91, 125 1
73, 69, 98 1
55, 47, 70 1
50, 38, 56 1
54, 37, 50 1
54, 38, 45 1
52, 36, 37 1
53, 36, 33 1
57, 34, 32 1
62, 38, 40 1
62, 39, 43 1
60, 39, 42 1
65, 44, 47 1
66, 47, 50 1
62, 43, 46 1
62, 45, 48 1
59, 42, 45 1
61, 45, 39 1
58, 42, 36 1
60, 42, 43 1
58, 40, 47 1
51, 34, 48 1
57, 39, 56 1
60, 50, 80 1
95, 86, 119 1
133, 124, 164 1
156, 151, 196 1
166, 163, 213 1
160, 162, 216 1
155, 162, 217 1
148, 159, 216 1
142, 156, 215 1
133, 148, 210 1
126, 141, 203 1
99, 116, 165 1
95, 114, 157 1
98, 107, 150 1
98, 104, 145 1
98, 101, 139 1
90, 89, 123 1
72, 64, 94 1
55, 43, 65 1
49, 33, 50 1
48, 31, 42 1
54, 36, 37 1
74, 45, 40 1
63, 39, 41 1
59, 36, 40 1
56, 34, 39 1
58, 35, 43 1
69, 48, 57 1
75, 55, 67 1
79, 62, 73 1
77, 61, 72 1
73, 57, 68 1
69, 54, 62 1
62, 49, 57 1
56, 43, 51 1
50, 36, 37 1
50, 35, 33 1
51, 36, 34 1
55, 38, 35 1
58, 41, 45 1
55, 39, 50 1
53, 37, 54 1
54, 42, 62 1
72, 59, 83 1
97, 84, 110 1
124, 116, 157 1
150, 143, 186 1
162, 156, 205 1
159, 157, 209 1
162, 163, 221 1
171, 175, 234 1
168, 178, 238 1
154, 168, 227 1
143, 158, 220 1
140, 157, 220 1
133, 150, 213 1
110, 129, 186 1
82, 105, 143 1
76, 89, 133 1
73, 82, 125 1
82, 89, 128 1
95, 97, 132 1
84, 79, 110 1
61, 50, 76 1
47, 32, 53 1
47, 30, 44 1
46, 26, 31 1
49, 28, 30 1
52, 31, 30 1
55, 34, 32 1
74, 46, 39 1
63, 39, 39 1
59, 37, 39 1
57, 35, 40 1
58, 38, 50 1
63, 45, 58 1
74, 56, 73 1
95, 79, 96 1
107, 93, 111 1
110, 96, 114 1
99, 87, 105 1
89, 78, 94 1
73, 63, 79 1
57, 47, 63 1
50, 40, 56 1
47, 35, 41 1
49, 35, 41 1
54, 40, 44 1
57, 43, 44 1
61, 46, 44 1
54, 39, 47 1
44, 32, 44 1
45, 35, 52 1
60, 51, 77 1
86, 78, 108 1
141, 135, 170 1
156, 153, 202 1
161, 157, 209 1
158, 157, 213 1
162, 162, 222 1
163, 166, 227 1
159, 167, 227 1
157, 168, 228 1
151, 167, 226 1
141, 159, 220 1
142, 159, 222 1
135, 153, 216 1
106, 125, 182 1
93, 112, 163 1
85, 105, 146 1
54, 71, 114 1
45, 59, 101 1
61, 71, 111 1
91, 94, 132 1
89, 86, 118 1
61, 54, 81 1
46, 32, 56 1
48, 32, 50 1
51, 33, 46 1
54, 33, 42 1
55, 32, 40 1
57, 35, 37 1
56, 35, 27 1
60, 41, 28 1
61, 39, 27 1
67, 40, 30 1
80, 48, 42 1
80, 51, 44 1
72, 46, 40 1
63, 40, 44 1
60, 37, 41 1
55, 34, 42 1
52, 34, 41 1
50, 31, 40 1
56, 38, 51 1
76, 59, 73 1
100, 84, 102 1
126, 111, 132 1
146, 132, 156 1
137, 127, 150 1
137, 126, 152 1
130, 121, 147 1
116, 110, 135 1
83, 77, 100 1
63, 58, 79 1
46, 41, 62 1
44, 34, 47 1
42, 32, 44 1
45, 33, 45 1
59, 48, 58 1
71, 58, 66 1
70, 58, 64 1
65, 53, 59 1
55, 44, 52 1
38, 28, 40 1
39, 29, 45 1
50, 43, 64 1
87, 84, 110 1
110, 109, 141 1
138, 137, 176 1
152, 154, 195 1
157, 158, 202 1
150, 152, 206 1
153, 156, 211 1
153, 157, 216 1
150, 155, 216 1
145, 154, 217 1
144, 158, 217 1
144, 160, 219 1
139, 158, 215 1
123, 141, 200 1
93, 112, 157 1
48, 67, 110 1
40, 58, 99 1
59, 71, 111 1
84, 92, 129 1
87, 88, 122 1
77, 73, 102 1
68, 59, 85 1
68, 55, 77 1
68, 52, 70 1
64, 47, 61 1
60, 40, 52 1
54, 35, 44 1
53, 32, 40 1
54, 32, 37 1
51, 33, 32 1
56, 39, 36 1
58, 41, 38 1
52, 34, 27 1
53, 35, 28 1
57, 34, 26 1
57, 35, 24 1
60, 38, 26 1
58, 44, 32 1
54, 35, 27 1
55, 37, 26 1
80, 50, 39 1
77, 46, 37 1
75, 43, 38 1
76, 46, 41 1
66, 40, 40 1
60, 37, 42 1
61, 38, 46 1
60, 36, 46 1
59, 44, 58 1
66, 53, 67 1
83, 70, 86 1
106, 94, 114 1
133, 121, 143 1
147, 136, 162 1
147, 140, 167 1
147, 142, 171 1
128, 126, 156 1
117, 115, 145 1
102, 100, 130 1
85, 86, 114 1
68, 69, 97 1
53, 54, 80 1
50, 41, 61 1
41, 32, 52 1
48, 40, 57 1
60, 53, 68 1
66, 57, 70 1
72, 63, 76 1
70, 63, 78 1
57, 51, 68 1
37, 32, 53 1
60, 57, 82 1
98, 98, 128 1
141, 143, 178 1
159, 163, 204 1
166, 172, 217 1
162, 172, 219 1
157, 167, 215 1
148, 157, 214 1
142, 153, 211 1
142, 153, 213 1
143, 156, 218 1
135, 159, 213 1
126, 144, 203 1
113, 130, 187 1
98, 117, 168 1
92, 110, 157 1
73, 89, 135 1
34, 59, 99 1
33, 56, 94 1
83, 95, 131 1
86, 93, 126 1
83, 85, 115 1
90, 86, 115 1
101, 92, 118 1
106, 97, 118 1
102, 90, 108 1
96, 83, 99 1
90, 75, 89 1
80, 66, 78 1
69, 52, 65 1
55, 38, 49 1
43, 26, 37 1
52, 38, 40 1
49, 35, 37 1
49, 35, 36 1
50, 37, 35 1
53, 38, 36 1
51, 36, 33 1
52, 35, 32 1
59, 40, 37 1
58, 35, 27 1
52, 39, 31 1
69, 47, 41 1
72, 39, 30 1
70, 38, 32 1
74, 42, 37 1
75, 42, 39 1
74, 43, 42 1
72, 42, 41 1
68, 40, 40 1
68, 41, 44 1
64, 39, 43 1
59, 36, 41 1
56, 33, 41 1
57, 33, 43 1
57, 34, 48 1
61, 40, 55 1
68, 47, 62 1
65, 58, 79 1
81, 73, 96 1
121, 116, 143 1
140, 136, 165 1
146, 144, 174 1
143, 142, 174 1
140, 141, 175 1
127, 129, 164 1
126, 128, 163 1
119, 123, 158 1
110, 115, 148 1
101, 106, 139 1
90, 95, 128 1
75, 80, 111 1
62, 67, 98 1
56, 52, 77 1
35, 31, 56 1
38, 35, 57 1
50, 48, 68 1
56, 54, 74 1
62, 60, 80 1
57, 55, 77 1
49, 49, 73 1
35, 36, 64 1
73, 75, 109 1
118, 124, 161 1
147, 154, 197 1
159, 172, 218 1
157, 171, 220 1
148, 165, 216 1
135, 152, 203 1
131, 157, 211 1
135, 157, 215 1
115, 134, 191 1
90, 107, 156 1
63, 82, 127 1
22, 49, 86 1
26, 52, 89 1
53, 75, 111 1
77, 93, 129 1
83, 93, 127 1
82, 90, 120 1
91, 93, 123 1
102, 100, 129 1
102, 99, 124 1
96, 93, 115 1
89, 84, 105 1
83, 77, 96 1
78, 69, 89 1
70, 60, 77 1
58, 48, 65 1
52, 41, 51 1
44, 33, 41 1
40, 29, 37 1
46, 32, 36 1
47, 32, 36 1
53, 36, 40 1
53, 33, 38 1
54, 33, 36 1
58, 39, 36 1
60, 39, 37 1
53, 33, 28 1
51, 38, 30 1
66, 36, 31 1
67, 37, 32 1
73, 42, 43 1
69, 40, 43 1
67, 40, 44 1
64, 38, 44 1
57, 33, 41 1
62, 41, 50 1
66, 46, 58 1
69, 51, 64 1
75, 58, 72 1
85, 67, 84 1
92, 76, 94 1
99, 84, 105 1
110, 94, 117 1
124, 122, 151 1
137, 135, 164 1
147, 147, 177 1
149, 151, 182 1
146, 148, 182 1
138, 142, 177 1
129, 135, 172 1
118, 127, 164 1
112, 121, 158 1
107, 116, 153 1
103, 113, 147 1
98, 107, 141 1
86, 95, 129 1
74, 83, 116 1
71, 71, 101 1
49, 50, 78 1
43, 44, 72 1
45, 46, 72 1
50, 51, 77 1
43, 47, 72 1
37, 41, 69 1
51, 56, 87 1
82, 88, 123 1
126, 135, 173 1
159, 170, 214 1
154, 168, 216 1
136, 155, 206 1
132, 153, 205 1
119, 143, 203 1
125, 152, 208 1
127, 155, 209 1
122, 150, 204 1
130, 155, 211 1
137, 159, 217 1
117, 135, 194 1
102, 119, 175 1
85, 104, 155 1
54, 71, 120 1
18, 45, 82 1
23, 49, 86 1
50, 72, 108 1
73, 91, 128 1
79, 93, 129 1
77, 87, 121 1
73, 80, 113 1
72, 77, 108 1
76, 78, 108 1
76, 79, 107 1
79, 80, 106 1
83, 83, 107 1
87, 84, 109 1
87, 84, 106 1
79, 76, 98 1
69, 66, 88 1
60, 52, 69 1
52, 44, 61 1
45, 35, 51 1
38, 28, 44 1
34, 24, 37 1
35, 25, 38 1
46, 34, 46 1
57, 43, 55 1
50, 36, 48 1
50, 33, 46 1
49, 31, 44 1
46, 29, 40 1
43, 25, 32 1
46, 29, 33 1
48, 30, 31 1
50, 32, 33 1
51, 33, 34 1
53, 34, 37 1
56, 36, 35 1
54, 34, 33 1
52, 37, 34 1
61, 42, 37 1
68, 48, 43 1
66, 46, 41 1
65, 46, 39 1
64, 45, 38 1
61, 35, 35 1
61, 34, 37 1
56, 35, 44 1
64, 44, 57 1
78, 61, 75 1
87, 71, 88 1
100, 88, 106 1
114, 103, 123 1
125, 116, 137 1
132, 124, 147 1
137, 131, 156 1
141, 134, 161 1
142, 135, 162 1
145, 137, 167 1
133, 138, 171 1
132, 138, 173 1
129, 138, 172 1
127, 136, 173 1
126, 138, 174 1
122, 135, 173 1
120, 133, 171 1
113, 129, 166 1
109, 125, 162 1
107, 121, 157 1
104, 118, 154 1
102, 114, 148 1
94, 106, 140 1
86, 98, 132 1
88, 93, 124 1
70, 75, 106 1
55, 61, 90 1
41, 47, 76 1
35, 43, 72 1
37, 45, 75 1
53, 62, 95 1
93, 102, 139 1
145, 155, 195 1
166, 179, 223 1
171, 187, 234 1
134, 155, 206 1
118, 143, 193 1
115, 140, 190 1
123, 149, 209 1
120, 149, 206 1
120, 150, 205 1
118, 145, 202 1
128, 152, 212 1
136, 157, 219 1
131, 149, 212 1
117, 135, 196 1
103, 120, 177 1
82, 100, 153 1
45, 62, 113 1
21, 44, 82 1
28, 49, 87 1
52, 71, 109 1
72, 89, 128 1
79, 92, 130 1
75, 87, 123 1
66, 75, 112 1
61, 70, 104 1
64, 71, 104 1
68, 72, 101 1
77, 79, 109 1
82, 85, 113 1
82, 83, 111 1
74, 75, 103 1
71, 64, 91 1
72, 65, 92 1
71, 65, 90 1
64, 58, 83 1
59, 51, 74 1
64, 56, 79 1
77, 68, 89 1
83, 74, 95 1
84, 72, 94 1
74, 62, 84 1
63, 51, 71 1
40, 27, 41 1
41, 29, 41 1
43, 31, 43 1
48, 33, 41 1
47, 32, 40 1
46, 30, 41 1
45, 29, 40 1
45, 28, 41 1
47, 30, 43 1
55, 38, 51 1
58, 40, 53 1
60, 42, 55 1
58, 41, 52 1
51, 34, 43 1
56, 38, 45 1
51, 37, 38 1
50, 36, 30 1
65, 47, 46 1
61, 44, 41 1
67, 50, 47 1
70, 53, 50 1
63, 45, 44 1
57, 39, 40 1
53, 35, 42 1
57, 40, 51 1
69, 54, 68 1
85, 71, 89 1
103, 91, 113 1
121, 113, 136 1
134, 130, 155 1
128, 127, 153 1
131, 132, 160 1
129, 132, 160 1
123, 127, 156 1
122, 125, 156 1
123, 128, 159 1
127, 132, 165 1
130, 139, 176 1
131, 140, 177 1
128, 139, 177 1
124, 137, 175 1
120, 136, 173 1
119, 137, 174 1
118, 136, 173 1
115, 134, 171 1
113, 132, 169 1
110, 128, 165 1
106, 125, 160 1
103, 119, 155 1
99, 116, 149 1
98, 113, 146 1
94, 109, 142 1
97, 106, 139 1
87, 97, 127 1
67, 78, 108 1
87, 100, 132 1
119, 133, 169 1
152, 167, 206 1
183, 199, 242 1
174, 190, 237 1
149, 166, 215 1
123, 149, 203 1
124, 148, 206 1
124, 148, 208 1
122, 148, 208 1
121, 147, 207 1
119, 144, 206 1
118, 141, 203 1
126, 148, 214 1
135, 154, 222 1
132, 148, 217 1
119, 135, 201 1
105, 120, 182 1
84, 99, 155 1
40, 56, 109 1
21, 39, 80 1
30, 46, 88 1
53, 67, 109 1
71, 83, 125 1
73, 81, 121 1
68, 77, 115 1
69, 76, 115 1
72, 80, 117 1
70, 78, 115 1
70, 79, 113 1
77, 84, 117 1
85, 90, 123 1
87, 89, 123 1
75, 78, 109 1
61, 63, 94 1
55, 51, 87 1
62, 58, 94 1
74, 68, 103 1
79, 74, 106 1
82, 77, 109 1
91, 86, 117 1
95, 89, 120 1
89, 81, 111 1
81, 73, 103 1
78, 71, 98 1
74, 68, 93 1
69, 61, 84 1
60, 53, 74 1
53, 47, 66 1
49, 37, 55 1
49, 37, 57 1
55, 43, 63 1
67, 54, 76 1
81, 68, 90 1
92, 79, 101 1
101, 88, 110 1
104, 91, 113 1
104, 92, 112 1
97, 85, 103 1
83, 72, 88 1
68, 57, 73 1
58, 45, 59 1
51, 38, 52 1
51, 36, 40 1
65, 53, 49 1
62, 48, 49 1
68, 54, 55 1
72, 58, 59 1
73, 59, 60 1
63, 49, 50 1
67, 51, 52 1
63, 46, 49 1
52, 39, 53 1
69, 59, 72 1
93, 83, 100 1
115, 108, 129 1
132, 128, 153 1
134, 132, 161 1
124, 126, 156 1
118, 123, 154 1
118, 127, 160 1
117, 128, 160 1
117, 129, 163 1
115, 130, 163 1
117, 133, 169 1
122, 138, 174 1
124, 140, 177 1
127, 139, 179 1
127, 142, 181 1
114, 133, 171 1
108, 130, 166 1
103, 125, 160 1
98, 115, 148 1
97, 114, 147 1
97, 112, 145 1
101, 114, 146 1
100, 113, 145 1
106, 120, 149 1
114, 129, 161 1
128, 143, 175 1
148, 165, 198 1
165, 183, 220 1
172, 190, 231 1
156, 175, 220 1
147, 164, 213 1
124, 145, 196 1
113, 139, 186 1
113, 141, 188 1
130, 153, 203 1
131, 152, 207 1
122, 143, 205 1
118, 140, 206 1
122, 141, 209 1
129, 147, 218 1
139, 154, 227 1
136, 150, 222 1
126, 138, 208 1
112, 124, 188 1
87, 101, 159 1
42, 56, 109 1
18, 29, 73 1
30, 41, 85 1
58, 67, 111 1
76, 82, 127 1
77, 83, 128 1
73, 79, 122 1
71, 77, 120 1
74, 80, 121 1
76, 82, 123 1
80, 88, 125 1
88, 94, 131 1
92, 96, 131 1
85, 87, 122 1
71, 73, 108 1
55, 50, 95 1
52, 48, 90 1
59, 55, 97 1
71, 67, 108 1
78, 74, 115 1
84, 81, 120 1
91, 89, 125 1
89, 85, 121 1
89, 85, 120 1
95, 92, 124 1
100, 98, 128 1
99, 97, 126 1
95, 94, 120 1
91, 90, 116 1
90, 82, 105 1
90, 84, 109 1
94, 88, 113 1
100, 93, 120 1
105, 98, 125 1
112, 104, 134 1
119, 111, 141 1
124, 116, 146 1
123, 115, 145 1
115, 107, 137 1
110, 103, 130 1
106, 100, 125 1
103, 95, 118 1
96, 89, 110 1
85, 78, 99 1
72, 65, 86 1
65, 48, 57 1
82, 71, 67 1
74, 61, 63 1
72, 59, 61 1
67, 54, 56 1
62, 49, 51 1
64, 51, 53 1
68, 55, 57 1
67, 55, 55 1
63, 51, 51 1
62, 50, 50 1
63, 50, 52 1
65, 52, 54 1
67, 53, 55 1
63, 48, 52 1
62, 47, 51 1
73, 58, 62 1
87, 72, 76 1
105, 97, 114 1
129, 121, 138 1
137, 132, 153 1
131, 128, 153 1
128, 129, 157 1
126, 129, 160 1
120, 127, 160 1
116, 128, 162 1
109, 128, 163 1
113, 136, 174 1
125, 142, 181 1
126, 143, 182 1
122, 141, 179 1
115, 136, 174 1
110, 134, 170 1
109, 133, 169 1
91, 113, 148 1
91, 110, 143 1
92, 110, 141 1
90, 108, 139 1
97, 112, 144 1
101, 116, 148 1
106, 124, 155 1
122, 140, 171 1
136, 154, 185 1
145, 164, 199 1
151, 170, 207 1
146, 163, 206 1
128, 146, 193 1
126, 146, 194 1
116, 137, 188 1
115, 144, 188 1
133, 156, 201 1
132, 154, 202 1
132, 152, 207 1
121, 141, 206 1
120, 139, 206 1
120, 139, 207 1
125, 143, 214 1
133, 148, 221 1
142, 155, 231 1
142, 153, 227 1
131, 143, 215 1
117, 129, 195 1
92, 104, 162 1
44, 57, 113 1
18, 24, 71 1
33, 39, 86 1
64, 68, 116 1
86, 91, 136 1
88, 93, 138 1
82, 87, 132 1
76, 82, 125 1
70, 76, 119 1
75, 81, 122 1
82, 88, 129 1
85, 92, 131 1
87, 93, 130 1
84, 87, 125 1
69, 72, 110 1
55, 57, 92 1
47, 43, 92 1
39, 36, 82 1
49, 46, 92 1
74, 71, 116 1
88, 85, 130 1
91, 89, 131 1
95, 93, 135 1
97, 95, 137 1
84, 83, 123 1
82, 81, 121 1
83, 82, 121 1
86, 86, 122 1
89, 90, 124 1
91, 93, 124 1
96, 98, 128 1
99, 101, 131 1
113, 109, 138 1
116, 112, 141 1
120, 116, 145 1
120, 115, 147 1
110, 105, 137 1
109, 104, 135 1
108, 104, 133 1
102, 99, 125 1
99, 96, 122 1
96, 92, 117 1
87, 83, 108 1
89, 72, 83 1
59, 58, 60 1
60, 60, 66 1
57, 57, 63 1
55, 56, 60 1
54, 59, 58 1
51, 56, 55 1
46, 51, 50 1
40, 46, 45 1
45, 50, 51 1
47, 51, 56 1
44, 46, 56 1
38, 41, 55 1
42, 44, 62 1
59, 60, 81 1
84, 84, 108 1
105, 104, 130 1
109, 121, 155 1
112, 124, 158 1
116, 130, 166 1
114, 130, 167 1
111, 128, 167 1
109, 127, 168 1
112, 131, 174 1
116, 138, 180 1
118, 140, 182 1
82, 103, 130 1
79, 101, 126 1
84, 107, 133 1
82, 103, 141 1
87, 107, 148 1
123, 144, 189 1
125, 150, 194 1
123, 148, 192 1
120, 148, 189 1
118, 145, 195 1
120, 144, 204 1
122, 140, 203 1
134, 150, 217 1
136, 152, 219 1
139, 152, 220 1
115, 129, 195 1
93, 105, 169 1
43, 55, 119 1
20, 37, 88 1
30, 47, 98 1
60, 74, 126 1
75, 90, 139 1
79, 93, 141 1
81, 96, 142 1
80, 93, 139 1
83, 94, 138 1
75, 86, 130 1
80, 89, 132 1
85, 92, 135 1
92, 98, 143 1
77, 82, 127 1
69, 72, 117 1
57, 60, 105 1
44, 44, 92 1
45, 46, 96 1
60, 64, 113 1
71, 75, 126 1
71, 78, 128 1
79, 86, 136 1
82, 91, 141 1
78, 88, 136 1
69, 79, 126 1
69, 78, 122 1
74, 83, 126 1
75, 86, 124 1
78, 91, 129 1
82, 95, 133 1
87, 100, 138 1
95, 101, 148 1
96, 102, 149 1
91, 101, 141 1
88, 98, 138 1
90, 99, 136 1
89, 99, 133 1
89, 98, 131 1
88, 98, 128 1
88, 96, 125 1
89, 95, 108 1
49, 48, 50 1
51, 51, 57 1
51, 52, 56 1
58, 63, 62 1
55, 60, 59 1
47, 53, 52 1
42, 47, 48 1
43, 50, 53 1
45, 51, 56 1
45, 52, 61 1
51, 56, 71 1
67, 71, 90 1
87, 91, 115 1
108, 112, 137 1
124, 127, 155 1
115, 129, 165 1
117, 131, 167 1
114, 131, 170 1
113, 132, 170 1
113, 131, 172 1
115, 136, 181 1
120, 141, 186 1
123, 145, 186 1
121, 143, 185 1
108, 128, 169 1
101, 122, 160 1
70, 91, 119 1
66, 87, 114 1
62, 84, 109 1
68, 91, 117 1
71, 93, 121 1
82, 102, 143 1
121, 144, 189 1
117, 142, 184 1
118, 146, 187 1
117, 145, 186 1
121, 145, 205 1
124, 142, 207 1
133, 149, 215 1
135, 151, 218 1
137, 153, 220 1
116, 130, 196 1
94, 109, 172 1
49, 64, 127 1
30, 46, 99 1
38, 55, 106 1
65, 79, 131 1
77, 92, 141 1
85, 100, 146 1
84, 97, 143 1
86, 99, 143 1
82, 93, 137 1
88, 97, 140 1
94, 101, 144 1
97, 103, 148 1
54, 57, 102 1
43, 44, 94 1
57, 58, 108 1
78, 81, 132 1
86, 90, 141 1
82, 88, 141 1
82, 90, 143 1
83, 92, 142 1
80, 90, 138 1
75, 85, 132 1
73, 84, 128 1
76, 88, 130 1
81, 93, 133 1
85, 100, 139 1
90, 105, 144 1
97, 103, 150 1
98, 104, 151 1
95, 104, 148 1
91, 100, 143 1
89, 99, 139 1
87, 98, 136 1
87, 97, 131 1
86, 97, 129 1
86, 96, 126 1
87, 95, 124 1
91, 98, 113 1
40, 42, 43 1
58, 63, 64 1
56, 61, 62 1
46, 54, 54 1
38, 47, 50 1
48, 57, 61 1
50, 59, 68 1
55, 64, 77 1
66, 76, 93 1
87, 96, 116 1
107, 114, 139 1
119, 127, 156 1
127, 135, 165 1
114, 132, 173 1
113, 133, 174 1
113, 134, 179 1
122, 145, 190 1
124, 147, 192 1
124, 146, 187 1
123, 145, 187 1
120, 142, 184 1
115, 135, 176 1
65, 86, 114 1
57, 76, 103 1
51, 71, 96 1
47, 67, 92 1
46, 68, 93 1
52, 73, 100 1
58, 80, 108 1
65, 87, 115 1
88, 108, 149 1
116, 143, 187 1
133, 155, 213 1
119, 138, 199 1
124, 142, 205 1
129, 147, 212 1
132, 148, 214 1
134, 150, 216 1
116, 131, 194 1
99, 114, 176 1
63, 78, 140 1
44, 60, 113 1
50, 66, 119 1
71, 85, 137 1
80, 95, 144 1
88, 101, 147 1
87, 98, 142 1
93, 102, 145 1
99, 108, 151 1
101, 108, 151 1
87, 93, 138 1
74, 79, 124 1
52, 57, 102 1
43, 44, 95 1
69, 71, 125 1
93, 97, 150 1
97, 103, 156 1
91, 99, 152 1
85, 96, 148 1
83, 94, 146 1
79, 90, 140 1
79, 91, 139 1
76, 89, 135 1
78, 91, 135 1
78, 92, 134 1
77, 91, 133 1
82, 96, 138 1
99, 109, 156 1
101, 111, 158 1
98, 108, 155 1
97, 108, 152 1
94, 105, 149 1
91, 103, 145 1
87, 99, 139 1
85, 98, 136 1
84, 96, 132 1
81, 94, 126 1
82, 93, 123 1
85, 96, 123 1
87, 97, 114 1
45, 48, 52 1
51, 55, 56 1
57, 62, 63 1
47, 56, 59 1
43, 54, 58 1
50, 63, 71 1
79, 93, 115 1
98, 111, 137 1
111, 125, 154 1
119, 132, 164 1
123, 135, 169 1
117, 135, 176 1
115, 134, 177 1
114, 138, 184 1
125, 147, 189 1
125, 144, 187 1
120, 140, 181 1
104, 123, 160 1
63, 82, 109 1
52, 72, 97 1
45, 66, 88 1
41, 62, 84 1
45, 66, 93 1
54, 75, 103 1
63, 84, 112 1
74, 95, 133 1
83, 103, 144 1
110, 138, 179 1
116, 145, 190 1
118, 140, 198 1
126, 144, 207 1
127, 145, 210 1
130, 148, 211 1
124, 141, 204 1
114, 132, 193 1
99, 117, 178 1
71, 89, 148 1
57, 73, 126 1
61, 77, 130 1
76, 90, 142 1
82, 97, 146 1
84, 100, 147 1
90, 102, 144 1
94, 106, 148 1
103, 112, 155 1
100, 109, 152 1
86, 92, 137 1
71, 77, 122 1
61, 67, 112 1
50, 56, 101 1
46, 47, 103 1
78, 81, 136 1
98, 103, 158 1
98, 105, 160 1
93, 103, 157 1
87, 99, 153 1
83, 96, 148 1
78, 92, 141 1
79, 94, 140 1
80, 96, 139 1
79, 95, 138 1
78, 94, 137 1
83, 99, 142 1
89, 105, 151 1
103, 115, 163 1
104, 116, 164 1
105, 117, 165 1
102, 117, 163 1
99, 114, 160 1
97, 112, 158 1
94, 110, 153 1
90, 106, 148 1
87, 102, 141 1
84, 100, 137 1
82, 96, 132 1
79, 94, 126 1
83, 96, 122 1
82, 98, 115 1
42, 44, 45 1
42, 46, 47 1
48, 53, 56 1
52, 63, 67 1
79, 96, 117 1
103, 121, 150 1
116, 135, 172 1
118, 137, 175 1
116, 137, 182 1
115, 138, 183 1
128, 147, 190 1
117, 137, 178 1
59, 79, 104 1
47, 66, 87 1
45, 63, 86 1
45, 65, 90 1
50, 69, 96 1
57, 75, 104 1
67, 85, 114 1
66, 85, 123 1
76, 96, 137 1
83, 102, 145 1
93, 117, 159 1
94, 120, 160 1
106, 134, 175 1
119, 146, 197 1
124, 145, 206 1
124, 145, 207 1
127, 145, 208 1
129, 147, 210 1
121, 140, 201 1
109, 128, 189 1
94, 114, 172 1
71, 91, 149 1
64, 80, 133 1
68, 84, 137 1
78, 95, 146 1
84, 98, 150 1
86, 101, 150 1
88, 102, 150 1
88, 103, 149 1
95, 109, 151 1
99, 111, 153 1
104, 116, 158 1
98, 110, 152 1
81, 90, 134 1
65, 74, 118 1
52, 61, 105 1
44, 53, 97 1
54, 56, 114 1
86, 90, 148 1
100, 107, 164 1
96, 105, 162 1
92, 103, 160 1
88, 102, 155 1
85, 99, 151 1
81, 96, 145 1
90, 108, 155 1
103, 118, 167 1
106, 122, 169 1
102, 118, 164 1
99, 115, 161 1
95, 112, 155 1
90, 108, 149 1
87, 104, 143 1
84, 102, 139 1
82, 98, 134 1
78, 93, 125 1
79, 93, 121 1
81, 95, 123 1
85, 104, 125 1
41, 46, 47 1
45, 52, 55 1
52, 61, 65 1
53, 65, 71 1
59, 75, 87 1
88, 109, 136 1
98, 119, 150 1
106, 128, 163 1
111, 134, 172 1
115, 141, 188 1
130, 149, 192 1
116, 135, 173 1
103, 122, 157 1
69, 87, 116 1
53, 73, 98 1
51, 70, 91 1
48, 67, 88 1
57, 74, 101 1
62, 78, 107 1
69, 85, 114 1
74, 94, 135 1
80, 102, 143 1
94, 121, 158 1
102, 131, 170 1
117, 144, 195 1
119, 144, 200 1
117, 139, 197 1
122, 143, 204 1
98, 120, 178 1
84, 104, 161 1
66, 86, 143 1
67, 82, 138 1
73, 89, 142 1
81, 97, 150 1
88, 102, 154 1
90, 105, 154 1
91, 107, 154 1
91, 106, 152 1
90, 106, 149 1
98, 112, 154 1
100, 114, 156 1
102, 116, 158 1
96, 108, 150 1
79, 90, 134 1
47, 58, 102 1
47, 56, 100 1
63, 67, 126 1
94, 98, 157 1
102, 108, 167 1
96, 104, 163 1
92, 105, 161 1
89, 102, 158 1
86, 102, 155 1
84, 101, 152 1
84, 103, 148 1
83, 102, 147 1
86, 106, 153 1
90, 110, 158 1
98, 118, 166 1
107, 124, 173 1
108, 125, 174 1
104, 122, 169 1
100, 119, 164 1
91, 111, 152 1
85, 104, 141 1
77, 94, 121 1
86, 107, 129 1
33, 38, 39 1
40, 45, 46 1
39, 46, 49 1
43, 52, 56 1
56, 69, 77 1
60, 76, 88 1
78, 99, 120 1
90, 111, 138 1
100, 124, 154 1
110, 135, 175 1
129, 155, 202 1
134, 160, 207 1
135, 158, 206 1
134, 157, 205 1
138, 157, 202 1
123, 141, 182 1
111, 130, 168 1
93, 112, 145 1
56, 73, 99 1
43, 62, 83 1
42, 59, 78 1
56, 72, 95 1
62, 76, 104 1
70, 83, 115 1
67, 87, 128 1
72, 94, 135 1
75, 101, 138 1
78, 104, 141 1
86, 113, 150 1
108, 134, 180 1
121, 146, 202 1
136, 160, 214 1
111, 134, 190 1
99, 122, 178 1
85, 108, 164 1
73, 97, 151 1
63, 87, 141 1
70, 85, 141 1
77, 93, 146 1
84, 100, 153 1
92, 106, 158 1
95, 110, 159 1
95, 111, 157 1
94, 111, 154 1
93, 109, 152 1
95, 111, 153 1
92, 106, 148 1
48, 59, 103 1
53, 64, 108 1
75, 78, 139 1
99, 104, 165 1
94, 107, 163 1
90, 105, 161 1
92, 109, 160 1
88, 108, 156 1
84, 104, 151 1
88, 107, 152 1
88, 108, 155 1
91, 111, 159 1
94, 113, 164 1
100, 121, 172 1
97, 116, 159 1
93, 113, 154 1
78, 97, 130 1
76, 94, 125 1
79, 96, 123 1
80, 102, 127 1
37, 42, 43 1
35, 43, 42 1
34, 43, 46 1
39, 51, 55 1
58, 74, 86 1
69, 85, 101 1
92, 113, 140 1
105, 126, 157 1
113, 137, 173 1
115, 140, 180 1
120, 145, 195 1
118, 146, 193 1
131, 157, 204 1
104, 122, 159 1
48, 64, 87 1
36, 54, 71 1
41, 58, 77 1
48, 65, 86 1
57, 73, 96 1
69, 82, 114 1
65, 86, 124 1
67, 90, 128 1
71, 94, 132 1
71, 97, 133 1
81, 107, 143 1
87, 115, 150 1
93, 122, 161 1
138, 159, 214 1
96, 121, 177 1
85, 110, 166 1
76, 100, 154 1
69, 93, 145 1
65, 89, 141 1
72, 87, 143 1
80, 96, 149 1
87, 103, 156 1
95, 109, 161 1
98, 114, 161 1
96, 113, 156 1
91, 105, 147 1
57, 70, 114 1
44, 57, 101 1
85, 90, 151 1
104, 109, 170 1
97, 108, 166 1
97, 112, 168 1
97, 113, 166 1
94, 114, 162 1
90, 110, 157 1
91, 112, 157 1
97, 117, 165 1
94, 116, 158 1
80, 100, 135 1
76, 95, 128 1
75, 93, 124 1
77, 99, 124 1
26, 38, 38 1
29, 41, 41 1
76, 93, 112 1
88, 108, 133 1
100, 121, 152 1
110, 132, 168 1
118, 140, 181 1
126, 154, 201 1
128, 156, 203 1
141, 163, 211 1
131, 150, 193 1
102, 118, 154 1
54, 69, 95 1
40, 55, 74 1
36, 52, 69 1
32, 50, 67 1
47, 64, 85 1
55, 71, 94 1
69, 80, 112 1
59, 78, 115 1
59, 78, 116 1
63, 87, 123 1
69, 94, 128 1
73, 100, 134 1
79, 107, 141 1
85, 113, 148 1
85, 114, 151 1
90, 117, 161 1
98, 124, 171 1
135, 156, 211 1
97, 120, 176 1
93, 116, 172 1
90, 115, 171 1
88, 113, 169 1
81, 106, 162 1
74, 100, 154 1
67, 94, 145 1
66, 93, 143 1
76, 101, 151 1
87, 102, 158 1
93, 109, 162 1
102, 119, 168 1
103, 119, 166 1
101, 117, 163 1
101, 118, 161 1
73, 89, 132 1
55, 68, 112 1
41, 54, 100 1
58, 71, 117 1
91, 97, 156 1
98, 106, 165 1
97, 109, 167 1
104, 119, 175 1
96, 116, 164 1
95, 115, 162 1
98, 118, 165 1
99, 121, 169 1
89, 108, 146 1
35, 40, 41 1
25, 39, 38 1
30, 43, 45 1
57, 73, 85 1
81, 99, 122 1
93, 114, 142 1
107, 127, 162 1
137, 163, 209 1
144, 168, 214 1
144, 167, 213 1
140, 159, 204 1
132, 151, 194 1
103, 120, 153 1
77, 91, 119 1
51, 65, 88 1
36, 51, 70 1
33, 52, 67 1
40, 57, 76 1
66, 77, 107 1
66, 77, 109 1
56, 72, 108 1
55, 71, 107 1
53, 72, 107 1
53, 71, 108 1
51, 70, 107 1
51, 73, 108 1
56, 78, 113 1
59, 84, 116 1
67, 95, 126 1
72, 100, 131 1
76, 104, 138 1
80, 107, 144 1
86, 111, 153 1
94, 120, 166 1
130, 151, 206 1
123, 147, 201 1
100, 124, 178 1
94, 117, 173 1
89, 112, 168 1
82, 105, 161 1
75, 99, 153 1
72, 96, 148 1
74, 99, 149 1
83, 109, 156 1
96, 112, 165 1
100, 116, 169 1
103, 120, 171 1
107, 123, 170 1
104, 120, 166 1
102, 119, 162 1
52, 68, 111 1
57, 70, 116 1
88, 97, 154 1
98, 107, 164 1
96, 107, 164 1
99, 112, 168 1
104, 120, 173 1
100, 119, 170 1
97, 118, 163 1
106, 126, 173 1
103, 122, 167 1
95, 113, 154 1
90, 109, 147 1
86, 106, 141 1
83, 103, 128 1
30, 38, 38 1
26, 39, 41 1
32, 47, 49 1
74, 93, 114 1
88, 107, 134 1
100, 121, 153 1
112, 134, 170 1
135, 161, 207 1
143, 167, 213 1
145, 169, 215 1
142, 161, 206 1
136, 154, 195 1
125, 143, 180 1
106, 121, 153 1
73, 88, 114 1
47, 60, 82 1
33, 47, 65 1
44, 61, 80 1
51, 67, 90 1
56, 71, 97 1
59, 73, 101 1
62, 73, 103 1
60, 71, 103 1
52, 69, 102 1
50, 67, 100 1
48, 64, 100 1
46, 66, 101 1
49, 72, 104 1
55, 79, 109 1
62, 88, 118 1
68, 96, 127 1
71, 99, 134 1
80, 106, 146 1
91, 116, 160 1
103, 126, 174 1
96, 120, 174 1
87, 111, 165 1
77, 101, 155 1
70, 94, 148 1
75, 100, 150 1
81, 107, 154 1
91, 117, 164 1
102, 118, 171 1
106, 123, 174 1
110, 126, 172 1
106, 123, 166 1
88, 104, 146 1
51, 67, 110 1
39, 52, 98 1
56, 69, 115 1
84, 95, 152 1
95, 106, 163 1
96, 109, 165 1
98, 114, 167 1
103, 121, 174 1
102, 123, 168 1
112, 132, 180 1
109, 129, 176 1
105, 124, 169 1
99, 119, 160 1
28, 36, 36 1
27, 42, 44 1
65, 83, 100 1
78, 96, 119 1
90, 111, 139 1
104, 124, 159 1
112, 134, 175 1
146, 166, 213 1
144, 163, 206 1
138, 156, 197 1
107, 122, 154 1
73, 86, 112 1
44, 58, 77 1
32, 46, 64 1
46, 65, 86 1
57, 71, 100 1
57, 68, 100 1
52, 63, 95 1
50, 65, 97 1
48, 63, 96 1
43, 60, 93 1
42, 59, 92 1
39, 58, 91 1
42, 63, 95 1
51, 72, 103 1
56, 80, 108 1
60, 87, 114 1
64, 91, 118 1
68, 95, 129 1
76, 103, 140 1
87, 112, 154 1
120, 139, 196 1
126, 147, 202 1
110, 131, 186 1
102, 123, 178 1
91, 115, 169 1
82, 106, 160 1
85, 108, 156 1
94, 118, 164 1
101, 118, 169 1
110, 127, 176 1
112, 130, 177 1
111, 127, 173 1
98, 115, 154 1
94, 111, 150 1
58, 70, 118 1
84, 98, 151 1
94, 108, 161 1
95, 111, 164 1
97, 115, 168 1
102, 123, 175 1
100, 123, 171 1
110, 133, 179 1
112, 132, 179 1
109, 130, 175 1
108, 127, 172 1
106, 125, 168 1
96, 115, 152 1
79, 98, 125 1
32, 40, 40 1
69, 86, 105 1
92, 112, 143 1
130, 146, 182 1
109, 123, 152 1
76, 88, 112 1
48, 59, 79 1
35, 48, 64 1
30, 45, 61 1
35, 51, 68 1
50, 69, 90 1
54, 71, 97 1
54, 68, 97 1
50, 63, 95 1
45, 56, 88 1
40, 55, 87 1
40, 60, 91 1
49, 71, 99 1
55, 79, 107 1
61, 86, 112 1
63, 90, 116 1
65, 92, 119 1
66, 94, 125 1
73, 99, 135 1
83, 108, 150 1
96, 120, 166 1
123, 142, 199 1
124, 143, 200 1
107, 128, 183 1
99, 120, 175 1
92, 113, 168 1
84, 106, 158 1
78, 101, 151 1
78, 101, 149 1
80, 103, 151 1
87, 111, 157 1
105, 122, 171 1
112, 131, 176 1
110, 127, 170 1
105, 123, 164 1
96, 114, 151 1
92, 109, 148 1
88, 102, 144 1
74, 87, 131 1
42, 54, 102 1
61, 73, 121 1
83, 100, 151 1
93, 110, 161 1
93, 111, 164 1
96, 117, 169 1
103, 125, 177 1
101, 125, 177 1
100, 125, 175 1
88, 107, 140 1
45, 58, 66 1
74, 91, 112 1
120, 150, 199 1
119, 149, 198 1
144, 170, 216 1
142, 162, 203 1
137, 156, 194 1
127, 144, 177 1
107, 121, 150 1
78, 90, 114 1
51, 62, 82 1
36, 49, 65 1
32, 47, 63 1
40, 56, 73 1
48, 65, 84 1
56, 74, 97 1
54, 71, 98 1
46, 59, 91 1
38, 49, 81 1
33, 46, 78 1
35, 48, 80 1
35, 50, 82 1
36, 51, 83 1
35, 53, 84 1
37, 57, 88 1
46, 67, 95 1
52, 75, 101 1
58, 83, 109 1
60, 87, 113 1
63, 90, 117 1
63, 91, 121 1
69, 95, 131 1
78, 103, 143 1
90, 113, 158 1
113, 129, 188 1
122, 138, 197 1
122, 142, 197 1
112, 132, 187 1
104, 125, 180 1
98, 119, 174 1
88, 109, 161 1
79, 100, 151 1
75, 97, 145 1
75, 98, 144 1
79, 102, 148 1
93, 110, 159 1
101, 118, 167 1
109, 128, 173 1
102, 120, 161 1
95, 113, 150 1
94, 112, 149 1
90, 107, 146 1
87, 101, 143 1
73, 86, 130 1
44, 56, 104 1
65, 77, 125 1
83, 102, 153 1
89, 110, 161 1
97, 119, 171 1
103, 127, 179 1
101, 128, 179 1
101, 126, 176 1
101, 126, 170 1
103, 124, 162 1
100, 119, 156 1
79, 100, 128 1
33, 45, 45 1
75, 92, 113 1
85, 103, 132 1
122, 152, 201 1
120, 152, 201 1
119, 152, 201 1
141, 167, 213 1
138, 157, 194 1
122, 139, 172 1
101, 115, 143 1
77, 89, 113 1
52, 63, 83 1
38, 51, 67 1
37, 52, 68 1
46, 62, 79 1
56, 73, 94 1
60, 81, 103 1
59, 78, 105 1
41, 54, 86 1
28, 41, 73 1
24, 38, 67 1
25, 39, 68 1
26, 41, 73 1
29, 44, 76 1
30, 48, 79 1
34, 52, 81 1
40, 61, 88 1
46, 69, 95 1
57, 83, 107 1
58, 85, 111 1
61, 87, 117 1
65, 92, 126 1
73, 98, 138 1
108, 124, 183 1
119, 135, 194 1
123, 140, 197 1
120, 140, 195 1
109, 129, 184 1
102, 122, 177 1
83, 104, 155 1
77, 99, 147 1
86, 103, 152 1
94, 112, 159 1
99, 117, 164 1
103, 121, 162 1
97, 116, 153 1
91, 109, 146 1
90, 108, 145 1
88, 103, 142 1
83, 97, 139 1
70, 83, 127 1
48, 58, 106 1
71, 81, 129 1
81, 102, 153 1
90, 111, 162 1
93, 115, 167 1
98, 122, 174 1
102, 129, 180 1
107, 132, 176 1
78, 100, 128 1
76, 99, 125 1
76, 103, 129 1
36, 49, 47 1
60, 76, 93 1
74, 90, 113 1
123, 153, 200 1
121, 154, 203 1
125, 153, 200 1
130, 161, 206 1
132, 163, 208 1
136, 165, 210 1
139, 168, 213 1
148, 170, 218 1
146, 168, 216 1
148, 169, 207 1
140, 159, 196 1
119, 136, 169 1
96, 110, 138 1
75, 88, 110 1
40, 53, 69 1
43, 55, 73 1
59, 78, 99 1
54, 72, 101 1
37, 50, 82 1
22, 35, 67 1
17, 31, 60 1
16, 30, 59 1
18, 31, 63 1
20, 35, 67 1
23, 41, 72 1
29, 47, 76 1
35, 56, 83 1
41, 65, 89 1
51, 75, 99 1
55, 82, 108 1
58, 84, 114 1
63, 90, 124 1
70, 95, 135 1
81, 104, 149 1
105, 121, 180 1
117, 133, 192 1
122, 139, 196 1
130, 150, 205 1
119, 139, 194 1
111, 131, 186 1
105, 125, 180 1
97, 118, 170 1
88, 109, 160 1
82, 104, 152 1
76, 99, 145 1
79, 96, 145 1
86, 104, 151 1
100, 118, 159 1
88, 106, 143 1
84, 99, 138 1
80, 94, 136 1
68, 81, 125 1
55, 65, 112 1
49, 59, 107 1
74, 84, 132 1
89, 112, 162 1
93, 117, 169 1
98, 125, 176 1
102, 130, 184 1
100, 128, 182 1
99, 125, 171 1
104, 131, 175 1
105, 126, 164 1
101, 123, 159 1
89, 110, 142 1
77, 99, 127 1
75, 105, 130 1
34, 50, 56 1
40, 58, 65 1
49, 66, 79 1
69, 89, 114 1
84, 105, 136 1
115, 139, 181 1
131, 156, 200 1
150, 169, 204 1
139, 158, 191 1
115, 136, 164 1
34, 55, 76 1
63, 85, 110 1
52, 74, 99 1
40, 60, 85 1
26, 47, 69 1
14, 32, 55 1
18, 28, 45 1
22, 32, 49 1
23, 35, 53 1
25, 39, 57 1
29, 44, 63 1
33, 50, 71 1
43, 59, 82 1
52, 69, 96 1
60, 77, 116 1
85, 100, 149 1
101, 119, 178 1
115, 133, 192 1
131, 149, 208 1
130, 147, 204 1
128, 145, 202 1
124, 141, 197 1
117, 134, 190 1
111, 129, 182 1
104, 122, 175 1
95, 114, 165 1
91, 110, 161 1
87, 107, 155 1
79, 99, 147 1
90, 110, 151 1
74, 90, 132 1
62, 78, 121 1
45, 60, 106 1
46, 61, 107 1
72, 87, 133 1
85, 108, 154 1
104, 133, 178 1
101, 130, 175 1
99, 128, 173 1
97, 126, 171 1
104, 129, 171 1
107, 131, 173 1
108, 132, 174 1
111, 132, 170 1
110, 131, 169 1
106, 128, 164 1
103, 123, 158 1
76, 97, 125 1
40, 57, 66 1
51, 68, 81 1
61, 81, 99 1
119, 143, 185 1
136, 161, 205 1
137, 162, 206 1
144, 169, 209 1
147, 166, 201 1
135, 154, 187 1
111, 131, 162 1
46, 67, 88 1
39, 60, 81 1
48, 69, 90 1
60, 83, 105 1
70, 92, 117 1
64, 85, 112 1
19, 37, 60 1
23, 33, 50 1
24, 34, 52 1
25, 37, 55 1
24, 38, 56 1
37, 54, 75 1
62, 80, 111 1
59, 76, 115 1
78, 94, 140 1
89, 104, 153 1
104, 122, 181 1
122, 140, 199 1
128, 146, 205 1
129, 148, 205 1
125, 142, 198 1
119, 136, 192 1
113, 131, 184 1
107, 125, 178 1
99, 118, 169 1
86, 106, 154 1
87, 106, 144 1
77, 93, 135 1
68, 84, 127 1
54, 70, 113 1
55, 70, 116 1
76, 91, 137 1
100, 129, 174 1
96, 125, 169 1
104, 126, 162 1
34, 47, 49 1
42, 59, 68 1
55, 72, 85 1
65, 85, 103 1
81, 102, 133 1
112, 135, 173 1
123, 147, 189 1
135, 159, 201 1
140, 165, 209 1
141, 166, 210 1
132, 158, 204 1
143, 168, 208 1
144, 163, 200 1
132, 151, 186 1
110, 130, 161 1
47, 68, 90 1
42, 63, 85 1
53, 74, 96 1
66, 86, 111 1
70, 91, 118 1
62, 83, 111 1
51, 70, 97 1
38, 57, 84 1
21, 38, 64 1
23, 33, 51 1
22, 34, 52 1
24, 36, 54 1
43, 60, 81 1
64, 81, 107 1
70, 87, 114 1
57, 74, 113 1
94, 109, 158 1
98, 115, 164 1
108, 126, 185 1
119, 137, 196 1
136, 154, 213 1
117, 137, 192 1
114, 132, 185 1
109, 128, 179 1
103, 122, 173 1
102, 121, 172 1
99, 119, 167 1
84, 106, 148 1
78, 100, 142 1
73, 95, 136 1
77, 97, 138 1
85, 106, 144 1
82, 100, 141 1
79, 97, 138 1
73, 90, 133 1
65, 81, 127 1
79, 95, 141 1
97, 121, 167 1
97, 126, 170 1
97, 125, 166 1
100, 125, 167 1
80, 101, 128 1
29, 42, 44 1
32, 50, 57 1
46, 63, 72 1
56, 75, 88 1
66, 86, 104 1
125, 149, 191 1
145, 168, 213 1
141, 169, 210 1
145, 164, 202 1
131, 150, 187 1
66, 85, 112 1
42, 62, 87 1
73, 94, 121 1
72, 93, 121 1
43, 59, 88 1
35, 52, 79 1
26, 43, 70 1
18, 28, 46 1
16, 28, 46 1
20, 32, 50 1
31, 45, 67 1
47, 63, 86 1
65, 82, 108 1
74, 91, 118 1
69, 87, 118 1
54, 71, 110 1
97, 112, 161 1
103, 120, 169 1
111, 129, 188 1
135, 154, 211 1
117, 138, 190 1
112, 133, 185 1
83, 105, 147 1
74, 96, 137 1
81, 100, 138 1
78, 95, 138 1
74, 91, 134 1
75, 92, 135 1
99, 124, 166 1
94, 114, 149 1
89, 110, 141 1
74, 95, 122 1
28, 41, 43 1
33, 51, 58 1
63, 83, 101 1
129, 153, 195 1
129, 159, 200 1
143, 169, 209 1
141, 161, 202 1
130, 149, 187 1
111, 131, 166 1
48, 67, 94 1
60, 79, 106 1
70, 89, 116 1
74, 92, 123 1
53, 71, 102 1
37, 53, 82 1
33, 47, 75 1
17, 29, 47 1
19, 30, 50 1
28, 42, 61 1
37, 51, 73 1
50, 66, 89 1
62, 79, 105 1
68, 85, 118 1
51, 70, 108 1
61, 78, 121 1
79, 95, 142 1
114, 132, 191 1
135, 153, 212 1
131, 150, 207 1
113, 134, 186 1
80, 102, 144 1
81, 101, 142 1
80, 101, 139 1
84, 105, 143 1
79, 99, 140 1
78, 97, 140 1
85, 108, 153 1
89, 112, 157 1
96, 121, 165 1
100, 125, 169 1
94, 121, 165 1
97, 123, 163 1
32, 44, 48 1
35, 53, 60 1
46, 64, 75 1
59, 81, 99 1
68, 89, 116 1
117, 139, 180 1
131, 155, 197 1
150, 173, 218 1
139, 168, 207 1
134, 160, 200 1
137, 157, 198 1
127, 148, 186 1
112, 131, 168 1
87, 106, 139 1
53, 72, 99 1
79, 97, 128 1
70, 87, 120 1
42, 56, 85 1
27, 38, 58 1
36, 47, 67 1
40, 54, 73 1
41, 55, 77 1
49, 63, 85 1
59, 75, 98 1
66, 83, 109 1
54, 72, 113 1
80, 96, 143 1
95, 112, 161 1
115, 135, 193 1
131, 151, 209 1
122, 143, 195 1
116, 137, 189 1
111, 132, 183 1
102, 123, 174 1
96, 117, 168 1
100, 120, 167 1
89, 110, 155 1
88, 109, 154 1
87, 109, 151 1
81, 103, 145 1
86, 110, 152 1
90, 114, 156 1
97, 122, 164 1
89, 117, 158 1
88, 116, 157 1
92, 118, 158 1
99, 121, 156 1
35, 52, 61 1
43, 61, 72 1
71, 94, 120 1
119, 144, 184 1
132, 156, 198 1
137, 166, 205 1
138, 164, 204 1
136, 162, 202 1
133, 159, 199 1
130, 150, 191 1
118, 137, 174 1
69, 89, 120 1
60, 78, 107 1
79, 97, 126 1
71, 88, 121 1
60, 75, 108 1
48, 62, 91 1
45, 59, 88 1
44, 55, 75 1
42, 53, 73 1
53, 66, 88 1
63, 76, 98 1
62, 76, 98 1
65, 81, 104 1
74, 89, 115 1
74, 92, 121 1
61, 79, 116 1
62, 80, 121 1
100, 117, 166 1
111, 128, 179 1
118, 138, 196 1
126, 146, 204 1
132, 152, 210 1
137, 157, 215 1
90, 112, 154 1
94, 119, 161 1
93, 118, 160 1
91, 116, 158 1
77, 101, 125 1
79, 103, 127 1
36, 53, 62 1
40, 58, 69 1
48, 66, 83 1
62, 83, 104 1
90, 113, 145 1
134, 158, 200 1
151, 175, 217 1
135, 161, 201 1
132, 158, 198 1
137, 159, 201 1
134, 156, 197 1
124, 146, 182 1
99, 119, 154 1
75, 95, 126 1
65, 84, 111 1
83, 100, 133 1
76, 93, 126 1
65, 80, 113 1
54, 69, 101 1
50, 64, 93 1
56, 67, 89 1
51, 64, 86 1
65, 78, 100 1
78, 92, 114 1
79, 93, 116 1
80, 96, 119 1
84, 101, 127 1
69, 88, 123 1
62, 81, 118 1
68, 86, 127 1
82, 101, 146 1
96, 114, 161 1
115, 132, 183 1
120, 140, 198 1
133, 153, 211 1
138, 158, 216 1
129, 150, 205 1
101, 124, 174 1
96, 118, 166 1
93, 115, 156 1
33, 51, 62 1
42, 59, 72 1
51, 71, 88 1
131, 152, 190 1
105, 125, 160 1
86, 103, 136 1
69, 86, 119 1
58, 73, 105 1
58, 72, 101 1
49, 61, 85 1
60, 74, 97 1
74, 88, 111 1
76, 92, 115 1
78, 95, 121 1
84, 101, 128 1
73, 93, 124 1
68, 87, 125 1
104, 121, 170 1
117, 136, 187 1
119, 141, 199 1
90, 115, 155 1
90, 117, 154 1
83, 107, 131 1
34, 51, 64 1
43, 59, 75 1
54, 74, 92 1
67, 88, 110 1
109, 135, 172 1
126, 151, 191 1
144, 166, 207 1
136, 159, 197 1
115, 135, 170 1
78, 99, 127 1
82, 100, 129 1
87, 104, 137 1
82, 99, 132 1
75, 92, 125 1
63, 81, 112 1
53, 69, 98 1
52, 63, 90 1
47, 60, 86 1
56, 69, 95 1
69, 84, 110 1
80, 97, 124 1
82, 101, 128 1
77, 97, 128 1
73, 92, 125 1
71, 90, 127 1
119, 137, 190 1
114, 137, 187 1
84, 108, 132 1
35, 52, 65 1
46, 62, 78 1
128, 153, 195 1
142, 166, 208 1
137, 160, 205 1
140, 163, 201 1
124, 146, 181 1
102, 123, 155 1
84, 103, 136 1
89, 108, 141 1
86, 105, 138 1
81, 98, 131 1
55, 73, 104 1
55, 68, 94 1
49, 62, 88 1
51, 66, 92 1
73, 90, 117 1
88, 106, 135 1
83, 103, 134 1
76, 96, 131 1
78, 97, 134 1
84, 104, 145 1
95, 114, 159 1
104, 124, 171 1
118, 136, 189 1
123, 141, 194 1
102, 125, 175 1
101, 123, 171 1
37, 53, 69 1
49, 65, 82 1
73, 95, 120 1
117, 142, 182 1
137, 161, 203 1
134, 156, 192 1
113, 134, 166 1
81, 99, 130 1
80, 98, 129 1
92, 111, 146 1
91, 110, 145 1
82, 101, 134 1
54, 72, 103 1
58, 72, 100 1
50, 64, 92 1
51, 65, 93 1
60, 77, 104 1
76, 92, 121 1
89, 107, 136 1
94, 114, 155 1
132, 156, 208 1
104, 126, 178 1
101, 124, 172 1
87, 113, 150 1
86, 109, 135 1
81, 106, 132 1
40, 55, 71 1
66, 85, 106 1
108, 132, 168 1
120, 145, 185 1
133, 158, 200 1
144, 168, 210 1
130, 154, 200 1
142, 164, 206 1
141, 162, 200 1
123, 143, 178 1
80, 99, 132 1
86, 105, 140 1
95, 114, 149 1
70, 89, 122 1
58, 77, 110 1
50, 70, 101 1
56, 70, 99 1
51, 65, 94 1
63, 79, 108 1
97, 117, 148 1
94, 115, 147 1
89, 111, 147 1
108, 128, 175 1
115, 136, 188 1
121, 141, 196 1
106, 128, 180 1
100, 123, 169 1
99, 122, 168 1
98, 121, 166 1
43, 57, 75 1
56, 71, 90 1
70, 88, 111 1
111, 135, 171 1
120, 146, 186 1
134, 159, 203 1
148, 173, 215 1
133, 156, 202 1
141, 163, 205 1
130, 149, 186 1
102, 121, 156 1
90, 109, 146 1
89, 108, 145 1
77, 97, 132 1
65, 84, 119 1
51, 70, 103 1
47, 63, 92 1
52, 68, 97 1
93, 113, 144 1
107, 129, 171 1
112, 135, 181 1
117, 138, 189 1
117, 140, 190 1
107, 129, 181 1
45, 59, 77 1
59, 74, 93 1
74, 92, 115 1
85, 106, 134 1
99, 122, 154 1
143, 168, 212 1
147, 172, 214 1
142, 167, 209 1
127, 152, 196 1
140, 161, 206 1
145, 165, 206 1
115, 134, 169 1
84, 103, 138 1
83, 102, 139 1
72, 92, 127 1
56, 76, 111 1
51, 66, 98 1
87, 105, 136 1
99, 121, 157 1
121, 142, 193 1
123, 144, 196 1
110, 132, 184 1
46, 60, 78 1
77, 95, 118 1
88, 109, 137 1
102, 125, 157 1
123, 148, 190 1
138, 164, 210 1
142, 168, 214 1
141, 166, 208 1
126, 151, 195 1
141, 161, 208 1
146, 165, 208 1
144, 163, 201 1
104, 123, 158 1
89, 108, 143 1
85, 104, 142 1
84, 103, 140 1
77, 96, 133 1
62, 82, 117 1
56, 71, 103 1
51, 69, 100 1
101, 122, 154 1
102, 124, 159 1
112, 135, 180 1
125, 146, 198 1
128, 148, 205 1
83, 108, 134 1
32, 57, 61 1
40, 61, 82 1
107, 132, 166 1
116, 143, 180 1
122, 150, 191 1
133, 165, 208 1
134, 166, 209 1
135, 167, 210 1
137, 169, 212 1
140, 170, 211 1
139, 169, 210 1
143, 170, 214 1
135, 164, 208 1
129, 161, 204 1
116, 150, 193 1
133, 157, 203 1
133, 150, 193 1
122, 138, 180 1
99, 115, 157 1
83, 100, 139 1
78, 101, 139 1
68, 91, 129 1
59, 78, 111 1
47, 68, 100 1
49, 70, 102 1
62, 83, 115 1
78, 100, 135 1
104, 130, 170 1
114, 140, 186 1
124, 151, 207 1
125, 145, 202 1
118, 142, 194 1
113, 138, 188 1
98, 119, 157 1
84, 112, 136 1
28, 53, 57 1
61, 82, 104 1
108, 133, 167 1
118, 144, 181 1
132, 164, 207 1
133, 165, 206 1
115, 149, 192 1
118, 151, 196 1
132, 155, 201 1
139, 156, 199 1
130, 148, 189 1
110, 126, 168 1
91, 108, 147 1
92, 113, 151 1
83, 106, 144 1
73, 96, 134 1
54, 75, 107 1
53, 73, 108 1
59, 81, 116 1
74, 96, 131 1
126, 153, 209 1
128, 147, 208 1
129, 147, 206 1
128, 147, 204 1
123, 144, 199 1
117, 141, 193 1
83, 111, 135 1
27, 52, 56 1
78, 100, 125 1
134, 164, 205 1
135, 165, 206 1
136, 162, 208 1
126, 158, 201 1
118, 152, 195 1
136, 159, 204 1
142, 161, 204 1
140, 157, 200 1
125, 141, 183 1
108, 124, 166 1
79, 102, 140 1
64, 84, 119 1
59, 79, 114 1
71, 93, 129 1
130, 151, 212 1
108, 129, 174 1
79, 107, 131 1
33, 55, 61 1
108, 131, 163 1
117, 143, 179 1
128, 156, 197 1
135, 156, 201 1
135, 153, 194 1
120, 138, 179 1
106, 124, 165 1
80, 99, 136 1
74, 93, 130 1
69, 88, 125 1
64, 85, 123 1
72, 93, 131 1
110, 134, 176 1
130, 154, 212 1
122, 142, 199 1
35, 57, 63 1
45, 62, 81 1
80, 101, 123 1
121, 145, 181 1
126, 152, 192 1
120, 151, 196 1
116, 146, 193 1
128, 151, 196 1
137, 156, 199 1
129, 146, 189 1
115, 133, 174 1
100, 120, 161 1
95, 115, 156 1
98, 118, 159 1
71, 91, 132 1
75, 97, 138 1
111, 136, 180 1
131, 155, 213 1
124, 144, 201 1
121, 141, 198 1
110, 133, 181 1
87, 114, 148 1
33, 54, 62 1
45, 63, 80 1
60, 80, 98 1
79, 100, 122 1
120, 144, 180 1
125, 151, 191 1
126, 155, 199 1
111, 144, 189 1
115, 145, 192 1
114, 144, 191 1
133, 152, 195 1
102, 122, 163 1
98, 116, 157 1
113, 137, 183 1
128, 152, 210 1
102, 124, 166 1
86, 113, 147 1
32, 53, 61 1
57, 77, 95 1
77, 98, 120 1
96, 117, 145 1
118, 142, 178 1
119, 148, 193 1
108, 141, 186 1
133, 154, 199 1
108, 130, 172 1
86, 108, 150 1
124, 149, 199 1
119, 141, 193 1
79, 106, 132 1
36, 55, 63 1
55, 77, 95 1
76, 99, 121 1
97, 119, 147 1
111, 134, 166 1
112, 141, 186 1
109, 140, 185 1
100, 119, 162 1
95, 117, 159 1
116, 138, 190 1
84, 110, 146 1
83, 109, 145 1
37, 56, 64 1
39, 62, 78 1
54, 76, 94 1
73, 96, 118 1
94, 116, 144 1
107, 132, 164 1
116, 142, 179 1
123, 152, 196 1
124, 157, 203 1
121, 154, 200 1
118, 151, 197 1
116, 145, 189 1
113, 142, 186 1
110, 139, 183 1
109, 138, 182 1
108, 137, 181 1
106, 138, 181 1
107, 139, 180 1
109, 141, 184 1
123, 146, 191 1
130, 156, 210 1
84, 107, 139 1
80, 105, 131 1
39, 56, 65 1
38, 61, 77 1
50, 74, 92 1
69, 93, 115 1
114, 140, 176 1
118, 147, 186 1
121, 154, 199 1
116, 149, 195 1
116, 146, 187 1
112, 142, 183 1
109, 140, 179 1
110, 141, 180 1
123, 149, 195 1
127, 150, 196 1
125, 148, 194 1
115, 138, 184 1
111, 134, 180 1
125, 152, 203 1
38, 56, 63 1
33, 59, 73 1
46, 71, 87 1
65, 90, 110 1
111, 137, 173 1
117, 143, 183 1
117, 146, 185 1
113, 142, 181 1
109, 138, 177 1
101, 133, 169 1
101, 133, 168 1
102, 134, 169 1
105, 137, 173 1
108, 140, 176 1
113, 139, 185 1
115, 141, 187 1
117, 143, 189 1
127, 149, 197 1
125, 147, 195 1
110, 133, 178 1
97, 120, 152 1
92, 114, 150 1
81, 106, 138 1
36, 52, 59 1
31, 57, 69 1
43, 69, 83 1
60, 86, 103 1
78, 104, 128 1
113, 140, 177 1
114, 143, 182 1
117, 149, 190 1
118, 150, 193 1
116, 148, 191 1
112, 144, 187 1
104, 134, 169 1
102, 132, 167 1
100, 130, 165 1
96, 127, 160 1
101, 132, 165 1
106, 137, 170 1
112, 139, 183 1
126, 148, 196 1
123, 145, 193 1
121, 143, 191 1
114, 138, 192 1
92, 114, 149 1
80, 107, 134 1
31, 56, 66 1
40, 66, 78 1
57, 82, 98 1
75, 100, 120 1
110, 137, 171 1
112, 139, 176 1
113, 144, 183 1
116, 144, 179 1
113, 141, 175 1
110, 138, 172 1
108, 136, 170 1
106, 134, 168 1
104, 133, 164 1
102, 131, 162 1
100, 130, 159 1
98, 128, 157 1
95, 125, 154 1
93, 125, 154 1
98, 130, 159 1
108, 133, 175 1
112, 137, 179 1
117, 142, 186 1
128, 149, 200 1
120, 143, 191 1
124, 153, 204 1
123, 150, 201 1
31, 57, 64 1
40, 65, 75 1
52, 78, 92 1
68, 94, 111 1
110, 139, 176 1
111, 140, 171 1
107, 136, 167 1
99, 127, 157 1
88, 118, 145 1
99, 129, 156 1
113, 138, 180 1
118, 143, 187 1
127, 148, 199 1
124, 146, 194 1
87, 110, 142 1
32, 56, 62 1
38, 64, 71 1
49, 73, 85 1
77, 101, 123 1
109, 137, 171 1
108, 138, 173 1
107, 137, 172 1
103, 133, 168 1
101, 131, 166 1
107, 135, 165 1
104, 132, 162 1
97, 125, 155 1
91, 120, 147 1
81, 112, 137 1
89, 120, 145 1
128, 149, 201 1
126, 148, 200 1
117, 145, 199 1
76, 104, 134 1
77, 106, 133 1
31, 56, 60 1
38, 62, 68 1
45, 70, 80 1
54, 79, 95 1
83, 109, 133 1
99, 124, 156 1
101, 129, 159 1
92, 121, 148 1
87, 117, 142 1
88, 119, 142 1
87, 118, 141 1
84, 115, 138 1
82, 113, 136 1
82, 114, 137 1
86, 118, 141 1
109, 133, 175 1
131, 152, 204 1
114, 142, 196 1
112, 140, 194 1
112, 137, 193 1
107, 131, 183 1
78, 107, 134 1
37, 58, 60 1
45, 65, 70 1
51, 73, 79 1
57, 79, 90 1
68, 91, 106 1
81, 105, 123 1
99, 125, 149 1
96, 126, 151 1
95, 125, 150 1
93, 124, 147 1
102, 125, 151 1
99, 122, 148 1
96, 117, 144 1
95, 116, 143 1
95, 114, 141 1
92, 111, 138 1
91, 108, 135 1
90, 107, 134 1
110, 141, 172 1
112, 145, 178 1
111, 143, 179 1
129, 151, 199 1
125, 148, 204 1
119, 145, 199 1
109, 138, 189 1
110, 139, 190 1
117, 138, 193 1
109, 132, 180 1
105, 128, 176 1
81, 109, 140 1
81, 111, 136 1
33, 54, 56 1
40, 61, 63 1
47, 66, 73 1
63, 85, 97 1
75, 98, 114 1
93, 117, 141 1
93, 121, 145 1
91, 119, 143 1
98, 122, 146 1
96, 120, 144 1
94, 118, 142 1
93, 115, 140 1
90, 112, 137 1
90, 110, 135 1
87, 107, 132 1
84, 104, 129 1
82, 102, 127 1
101, 131, 160 1
107, 138, 169 1
113, 144, 177 1
113, 143, 178 1
114, 143, 180 1
122, 147, 191 1
130, 152, 200 1
106, 129, 177 1
104, 127, 175 1
82, 112, 137 1
32, 47, 50 1
30, 49, 52 1
36, 55, 58 1
42, 62, 67 1
60, 79, 92 1
70, 91, 106 1
79, 101, 119 1
84, 108, 128 1
87, 111, 135 1
88, 112, 136 1
90, 117, 138 1
89, 116, 137 1
92, 116, 138 1
91, 115, 137 1
90, 113, 135 1
86, 109, 131 1
84, 105, 127 1
81, 102, 124 1
78, 99, 121 1
76, 97, 119 1
75, 98, 120 1
77, 100, 122 1
73, 97, 119 1
113, 142, 173 1
114, 144, 179 1
121, 147, 187 1
113, 133, 190 1
110, 130, 187 1
83, 113, 138 1
29, 46, 49 1
40, 59, 64 1
65, 84, 97 1
71, 92, 107 1
83, 104, 125 1
82, 106, 126 1
83, 106, 128 1
84, 107, 129 1
85, 108, 130 1
88, 112, 132 1
87, 112, 132 1
83, 107, 127 1
82, 103, 124 1
81, 102, 123 1
80, 101, 122 1
77, 98, 119 1
74, 95, 116 1
72, 93, 114 1
71, 95, 115 1
73, 97, 117 1
71, 96, 116 1
71, 97, 121 1
100, 129, 156 1
110, 138, 169 1
114, 142, 176 1
117, 145, 180 1
120, 147, 184 1
124, 148, 190 1
129, 152, 197 1
82, 113, 138 1
52, 69, 78 1
66, 83, 96 1
70, 89, 104 1
81, 101, 118 1
83, 103, 121 1
84, 104, 122 1
86, 106, 124 1
88, 108, 126 1
90, 110, 128 1
91, 111, 129 1
84, 110, 127 1
83, 107, 125 1
83, 105, 123 1
81, 103, 121 1
80, 100, 118 1
76, 96, 114 1
74, 94, 112 1
69, 93, 111 1
68, 92, 110 1
66, 90, 108 1
64, 90, 107 1
65, 89, 111 1
73, 97, 121 1
95, 122, 148 1
106, 132, 162 1
111, 139, 170 1
117, 144, 178 1
121, 147, 184 1
125, 150, 190 1
127, 151, 193 1
115, 138, 194 1
102, 125, 181 1
102, 128, 182 1
84, 114, 141 1
25, 40, 43 1
31, 46, 49 1
53, 70, 79 1
62, 78, 90 1
69, 87, 98 1
79, 96, 109 1
81, 97, 113 1
82, 100, 117 1
84, 102, 119 1
87, 105, 122 1
89, 107, 124 1
83, 108, 124 1
81, 106, 122 1
83, 106, 122 1
75, 95, 112 1
73, 93, 110 1
71, 91, 108 1
69, 89, 106 1
67, 90, 106 1
62, 87, 103 1
65, 86, 107 1
70, 94, 114 1
81, 105, 127 1
91, 117, 141 1
101, 126, 152 1
109, 135, 165 1
116, 144, 175 1
122, 149, 183 1
125, 151, 188 1
127, 152, 192 1
130, 154, 196 1
128, 154, 200 1
104, 129, 179 1
104, 130, 177 1
87, 117, 144 1
25, 40, 42 1
35, 47, 51 1
62, 77, 86 1
69, 86, 95 1
75, 91, 103 1
76, 92, 105 1
77, 93, 106 1
84, 98, 116 1
87, 101, 119 1
82, 105, 121 1
80, 103, 119 1
82, 102, 119 1
83, 103, 120 1
85, 103, 120 1
76, 94, 111 1
73, 91, 108 1
72, 90, 107 1
69, 87, 104 1
65, 85, 102 1
61, 84, 100 1
60, 83, 99 1
63, 85, 103 1
77, 101, 121 1
86, 110, 132 1
92, 118, 142 1
102, 129, 155 1
120, 145, 177 1
126, 152, 189 1
130, 155, 195 1
89, 119, 146 1
35, 47, 53 1
61, 77, 84 1
70, 85, 94 1
73, 88, 97 1
72, 88, 100 1
73, 89, 101 1
72, 88, 101 1
79, 94, 110 1
83, 98, 114 1
81, 100, 115 1
82, 98, 114 1
73, 89, 105 1
71, 87, 103 1
66, 85, 100 1
63, 82, 97 1
62, 81, 96 1
63, 83, 100 1
68, 88, 105 1
74, 96, 114 1
79, 103, 123 1
95, 121, 145 1
121, 149, 180 1
129, 155, 191 1
131, 158, 195 1
129, 158, 197 1
126, 156, 197 1
124, 156, 197 1
119, 146, 196 1
111, 136, 192 1
110, 135, 191 1
109, 134, 190 1
60, 76, 83 1
70, 84, 96 1
68, 81, 95 1
70, 83, 97 1
75, 88, 104 1
80, 93, 109 1
78, 94, 110 1
76, 92, 108 1
78, 93, 109 1
77, 92, 108 1
73, 88, 104 1
52, 73, 88 1
69, 92, 107 1
69, 94, 110 1
74, 100, 117 1
85, 112, 132 1
95, 123, 147 1
107, 134, 160 1
111, 140, 167 1
118, 146, 177 1
124, 152, 186 1
129, 157, 192 1
131, 160, 197 1
130, 162, 198 1
125, 158, 197 1
123, 156, 195 1
120, 150, 197 1
124, 154, 201 1
126, 153, 203 1
125, 152, 202 1
118, 145, 196 1
115, 142, 193 1
107, 133, 180 1
30, 44, 50 1
33, 47, 53 1
60, 74, 86 1
66, 79, 93 1
69, 82, 98 1
74, 87, 103 1
76, 91, 107 1
70, 83, 99 1
68, 83, 99 1
55, 77, 89 1
61, 85, 97 1
68, 94, 110 1
78, 106, 123 1
85, 115, 134 1
112, 141, 168 1
121, 149, 179 1
126, 155, 186 1
128, 159, 192 1
127, 160, 193 1
125, 160, 194 1
124, 159, 193 1
122, 154, 197 1
122, 153, 198 1
113, 140, 190 1
110, 137, 187 1
108, 135, 186 1
105, 131, 177 1
93, 123, 150 1
27, 42, 45 1
48, 61, 69 1
58, 72, 84 1
73, 86, 100 1
72, 85, 101 1
67, 80, 96 1
66, 79, 95 1
64, 77, 93 1
61, 76, 92 1
63, 78, 94 1
50, 70, 81 1
56, 78, 89 1
58, 82, 94 1
64, 90, 104 1
72, 98, 114 1
93, 122, 143 1
102, 130, 154 1
110, 140, 165 1
115, 145, 172 1
119, 149, 178 1
120, 152, 181 1
119, 153, 183 1
119, 155, 185 1
120, 150, 191 1
119, 149, 190 1
118, 148, 189 1
114, 144, 185 1
111, 140, 184 1
111, 140, 185 1
109, 138, 183 1
108, 137, 182 1
106, 134, 181 1
105, 133, 180 1
103, 131, 178 1
104, 127, 165 1
28, 43, 45 1
65, 79, 91 1
71, 85, 97 1
56, 76, 87 1
64, 91, 105 1
69, 96, 110 1
75, 104, 119 1
84, 112, 129 1
91, 121, 140 1
100, 129, 150 1
104, 135, 158 1
107, 138, 163 1
110, 141, 166 1
112, 145, 171 1
116, 149, 175 1
106, 135, 174 1
107, 136, 175 1
105, 135, 176 1
104, 134, 175 1
102, 131, 175 1
103, 132, 177 1
105, 131, 171 1
84, 112, 143 1
28, 44, 43 1
30, 45, 47 1
31, 46, 48 1
34, 49, 51 1
46, 58, 68 1
45, 57, 67 1
58, 73, 82 1
64, 79, 88 1
57, 73, 86 1
57, 74, 83 1
57, 80, 88 1
56, 83, 93 1
67, 94, 108 1
74, 100, 116 1
81, 107, 124 1
88, 116, 133 1
93, 120, 140 1
97, 128, 149 1
102, 134, 157 1
107, 139, 162 1
104, 132, 167 1
102, 130, 165 1
101, 129, 164 1
100, 129, 166 1
35, 48, 50 1
40, 52, 62 1
57, 73, 80 1
56, 74, 85 1
62, 80, 91 1
65, 83, 94 1
63, 81, 92 1
57, 75, 86 1
57, 75, 82 1
55, 80, 90 1
59, 85, 97 1
68, 94, 108 1
73, 99, 115 1
77, 103, 120 1
80, 108, 125 1
88, 118, 137 1
92, 124, 143 1
94, 122, 157 1
28, 43, 39 1
40, 53, 55 1
42, 53, 61 1
40, 51, 59 1
39, 51, 61 1
44, 60, 67 1
63, 82, 90 1
62, 81, 89 1
49, 68, 76 1
56, 72, 79 1
60, 78, 85 1
63, 82, 89 1
57, 81, 93 1
60, 84, 96 1
61, 87, 101 1
65, 90, 106 1
69, 95, 111 1
71, 99, 116 1
78, 108, 125 1
77, 102, 134 1
78, 103, 135 1
81, 108, 142 1
90, 118, 153 1
100, 125, 159 1
26, 40, 39 1
27, 42, 38 1
30, 45, 41 1
33, 47, 45 1
39, 52, 54 1
39, 50, 58 1
37, 48, 56 1
57, 78, 86 1
47, 68, 76 1
62, 81, 88 1
58, 81, 89 1
55, 78, 86 1
54, 76, 87 1
50, 75, 85 1
52, 76, 88 1
54, 77, 92 1
55, 81, 95 1
59, 84, 100 1
61, 87, 103 1
63, 92, 107 1
66, 94, 111 1
65, 91, 121 1
67, 93, 123 1
71, 96, 128 1
74, 99, 131 1
75, 100, 132 1
77, 105, 136 1
79, 106, 140 1
82, 109, 143 1
46, 59, 61 1
47, 61, 73 1
53, 67, 79 1
48, 64, 76 1
43, 59, 71 1
57, 77, 88 1
54, 74, 85 1
54, 73, 86 1
55, 74, 87 1
69, 88, 103 1
68, 87, 102 1
64, 88, 100 1
66, 89, 104 1
67, 93, 107 1
72, 97, 113 1
77, 102, 118 1
80, 106, 123 1
79, 105, 122 1
79, 104, 124 1
78, 105, 126 1
81, 108, 129 1
85, 113, 137 1
84, 111, 137 1
73, 96, 122 1
93, 117, 145 1
99, 123, 151 1
89, 117, 148 1
94, 123, 154 1
95, 123, 157 1
97, 125, 159 1
99, 127, 161 1
104, 134, 163 1
33, 47, 46 1
44, 57, 59 1
56, 71, 80 1
57, 72, 81 1
56, 73, 82 1
54, 71, 80 1
50, 67, 76 1
40, 59, 67 1
41, 60, 68 1
55, 75, 86 1
52, 72, 83 1
53, 72, 85 1
61, 80, 93 1
63, 82, 95 1
51, 74, 89 1
55, 78, 93 1
62, 85, 100 1
66, 91, 107 1
70, 95, 111 1
67, 93, 110 1
69, 95, 112 1
70, 95, 115 1
67, 94, 114 1
66, 93, 114 1
67, 94, 115 1
70, 96, 120 1
73, 99, 123 1
71, 95, 119 1
69, 92, 118 1
72, 97, 123 1
94, 118, 146 1
101, 128, 155 1
102, 130, 164 1
44, 49, 48 1
37, 51, 50 1
42, 57, 60 1
55, 67, 77 1
52, 64, 74 1
41, 59, 66 1
53, 71, 78 1
53, 72, 79 1
52, 71, 78 1
50, 69, 77 1
53, 71, 82 1
67, 85, 96 1
54, 75, 90 1
56, 79, 94 1
58, 81, 97 1
64, 87, 103 1
63, 88, 104 1
63, 87, 105 1
60, 84, 102 1
57, 82, 102 1
61, 86, 106 1
58, 82, 104 1
62, 86, 110 1
70, 94, 118 1
97, 121, 149 1
103, 129, 159 1
103, 128, 160 1
102, 127, 159 1
104, 129, 161 1
101, 129, 163 1
104, 135, 166 1
45, 50, 49 1
45, 61, 68 1
45, 63, 70 1
47, 65, 72 1
48, 66, 73 1
51, 68, 77 1
55, 72, 81 1
57, 76, 91 1
56, 77, 92 1
54, 77, 93 1
51, 73, 91 1
46, 70, 90 1
49, 73, 93 1
53, 76, 98 1
61, 85, 107 1
74, 98, 122 1
86, 110, 134 1
95, 120, 146 1
104, 128, 156 1
86, 113, 140 1
105, 133, 167 1
105, 136, 167 1
42, 47, 46 1
37, 54, 57 1
44, 60, 66 1
52, 64, 70 1
53, 63, 70 1
38, 54, 61 1
37, 53, 60 1
42, 58, 65 1
57, 73, 79 1
52, 69, 82 1
60, 77, 90 1
58, 77, 92 1
53, 72, 87 1
41, 63, 81 1
37, 61, 79 1
41, 65, 85 1
62, 85, 107 1
78, 102, 124 1
89, 113, 137 1
97, 122, 148 1
103, 127, 155 1
105, 129, 159 1
47, 52, 50 1
34, 50, 49 1
40, 56, 55 1
34, 49, 52 1
50, 64, 70 1
52, 62, 69 1
49, 57, 64 1
54, 68, 74 1
53, 68, 71 1
50, 67, 70 1
48, 64, 77 1
55, 71, 84 1
50, 67, 80 1
47, 64, 77 1
46, 63, 76 1
45, 62, 75 1
44, 61, 74 1
42, 63, 84 1
43, 67, 87 1
68, 91, 113 1
85, 109, 133 1
101, 125, 153 1
104, 128, 158 1
52, 59, 56 1
33, 49, 48 1
47, 57, 64 1
45, 55, 62 1
50, 65, 68 1
52, 67, 69 1
58, 76, 77 1
57, 75, 76 1
49, 63, 75 1
59, 73, 85 1
62, 76, 88 1
64, 77, 91 1
52, 67, 83 1
51, 73, 98 1
61, 83, 108 1
94, 117, 143 1
101, 123, 151 1
103, 127, 157 1
106, 129, 161 1
102, 129, 166 1
101, 128, 165 1
89, 113, 149 1
104, 136, 171 1
48, 55, 52 1
42, 56, 54 1
37, 51, 49 1
30, 46, 45 1
36, 54, 55 1
39, 56, 59 1
50, 62, 68 1
54, 72, 73 1
49, 67, 68 1
58, 71, 79 1
57, 70, 78 1
52, 65, 79 1
54, 67, 81 1
52, 64, 82 1
55, 67, 85 1
56, 68, 86 1
47, 68, 96 1
49, 70, 98 1
56, 77, 105 1
67, 88, 116 1
83, 104, 135 1
98, 121, 153 1
100, 123, 155 1
98, 123, 163 1
91, 114, 152 1
81, 108, 134 1
46, 56, 50 1
29, 43, 41 1
34, 48, 46 1
50, 62, 72 1
35, 48, 56 1
52, 69, 72 1
48, 66, 67 1
53, 71, 72 1
55, 73, 74 1
55, 68, 76 1
53, 66, 74 1
44, 57, 71 1
41, 54, 70 1
34, 46, 64 1
31, 42, 62 1
33, 44, 66 1
39, 52, 74 1
54, 66, 90 1
61, 81, 116 1
102, 122, 157 1
107, 129, 165 1
88, 113, 139 1
104, 133, 170 1
45, 55, 49 1
43, 57, 55 1
40, 55, 64 1
34, 50, 57 1
33, 49, 56 1
46, 63, 66 1
45, 59, 71 1
45, 58, 72 1
42, 55, 71 1
41, 55, 73 1
50, 64, 83 1
48, 61, 83 1
48, 61, 87 1
56, 68, 96 1
67, 79, 107 1
83, 94, 124 1
96, 116, 157 1
110, 132, 173 1
106, 131, 171 1
106, 131, 173 1
103, 131, 172 1
90, 112, 153 1
109, 135, 171 1
110, 136, 172 1
107, 133, 173 1
47, 59, 53 1
48, 62, 60 1
45, 59, 57 1
46, 61, 63 1
39, 55, 62 1
32, 48, 55 1
45, 64, 67 1
44, 63, 66 1
50, 66, 72 1
43, 59, 72 1
45, 60, 76 1
48, 62, 81 1
55, 69, 91 1
62, 76, 99 1
64, 78, 107 1
67, 80, 112 1
71, 83, 117 1
75, 90, 123 1
81, 96, 129 1
86, 101, 134 1
104, 126, 174 1
89, 111, 152 1
84, 106, 147 1
92, 116, 144 1
110, 138, 173 1
110, 136, 176 1
52, 64, 58 1
51, 65, 63 1
46, 60, 58 1
49, 64, 66 1
40, 52, 56 1
36, 52, 58 1
48, 67, 70 1
46, 64, 71 1
58, 74, 90 1
64, 81, 102 1
84, 99, 131 1
90, 107, 140 1
97, 113, 149 1
99, 117, 154 1
100, 118, 155 1
109, 133, 179 1
105, 132, 176 1
103, 130, 174 1
88, 111, 143 1
92, 116, 146 1
94, 118, 148 1
107, 135, 170 1
112, 138, 178 1
