69, 44, 34 265
71, 43, 36 184
72, 46, 34 182
71, 45, 33 177
70, 46, 34 176
69, 45, 33 150
68, 43, 33 135
71, 44, 34 124
69, 43, 36 111
70, 45, 35 109
72, 44, 37 104
58, 40, 33 103
59, 41, 34 101
57, 39, 32 100
59, 40, 32 96
56, 38, 31 80
66, 44, 33 73
67, 44, 36 70
66, 43, 35 67
61, 40, 32 63
71, 47, 35 59
68, 44, 32 58
58, 39, 31 58
70, 44, 37 57
70, 42, 35 55
67, 45, 34 54
66, 42, 36 52
70, 44, 32 50
70, 43, 33 50
63, 43, 32 50
68, 42, 35 47
57, 38, 31 47
58, 39, 32 41
68, 46, 34 41
59, 37, 31 41
60, 39, 31 40
64, 44, 33 40
67, 45, 33 39
60, 38, 32 39
73, 47, 35 38
72, 45, 35 36
63, 39, 33 36
93, 115, 150 36
71, 45, 31 33
73, 45, 38 33
91, 116, 150 30
65, 42, 34 28
60, 41, 33 28
60, 42, 35 28
67, 42, 32 27
59, 40, 33 27
67, 43, 37 27
57, 38, 30 27
68, 45, 37 25
58, 41, 32 25
90, 115, 147 25
129, 157, 198 25
103, 126, 164 24
71, 46, 36 23
67, 41, 34 21
68, 46, 35 21
90, 115, 149 21
104, 128, 170 21
103, 128, 168 21
94, 116, 151 21
64, 43, 35 20
69, 43, 37 20
62, 38, 32 20
68, 42, 36 19
103, 127, 169 19
105, 128, 173 19
72, 46, 32 18
56, 40, 33 18
60, 41, 34 17
55, 37, 30 17
57, 40, 31 17
72, 48, 36 17
66, 44, 32 17
128, 156, 197 17
90, 114, 150 17
107, 130, 176 17
92, 119, 146 17
59, 42, 33 16
65, 43, 32 16
58, 36, 30 16
81, 111, 138 16
64, 41, 33 15
71, 45, 38 15
56, 39, 30 15
65, 44, 36 15
56, 37, 30 15
102, 126, 162 15
89, 114, 146 15
91, 117, 147 15
81, 110, 137 15
79, 109, 136 15
62, 40, 34 14
61, 43, 32 14
129, 151, 203 14
85, 110, 142 14
109, 133, 185 14
108, 133, 183 14
104, 129, 169 14
89, 115, 145 14
80, 110, 137 14
71, 42, 37 13
61, 39, 33 13
62, 39, 31 13
90, 113, 151 13
104, 127, 165 13
103, 129, 166 13
119, 139, 194 13
89, 113, 149 13
126, 154, 195 13
91, 116, 148 13
90, 116, 146 13
104, 130, 167 13
62, 42, 31 12
69, 46, 31 12
70, 47, 32 12
106, 129, 174 12
100, 125, 159 12
90, 112, 153 12
86, 110, 146 12
108, 131, 177 12
91, 115, 151 12
88, 113, 147 12
92, 117, 151 12
82, 109, 136 12
80, 109, 136 12
104, 129, 163 12
70, 44, 30 11
61, 41, 30 11
67, 43, 31 11
65, 45, 34 11
69, 42, 32 11
60, 42, 31 11
64, 40, 34 11
72, 43, 36 11
102, 125, 163 11
98, 122, 158 11
99, 124, 158 11
100, 124, 160 11
104, 127, 172 11
88, 113, 145 11
102, 128, 165 11
81, 108, 135 11
80, 107, 134 11
78, 107, 134 11
109, 134, 184 11
63, 42, 34 10
62, 41, 33 10
60, 43, 34 10
59, 38, 30 10
69, 47, 35 10
63, 40, 32 10
57, 39, 28 10
72, 43, 34 10
62, 44, 33 10
73, 45, 34 10
99, 125, 161 10
91, 114, 152 10
95, 117, 153 10
122, 147, 191 10
128, 150, 202 10
95, 117, 152 10
101, 127, 164 10
107, 132, 182 10
83, 110, 137 10
92, 118, 148 10
79, 108, 135 10
96, 122, 152 10
93, 120, 147 10
105, 131, 168 10
102, 129, 166 10
82, 111, 142 10
70, 41, 36 9
62, 43, 35 9
68, 44, 38 9
54, 39, 30 9
89, 111, 152 9
87, 111, 147 9
94, 116, 152 9
106, 129, 167 9
106, 131, 175 9
86, 111, 143 9
124, 144, 199 9
125, 145, 200 9
125, 152, 196 9
91, 116, 156 9
134, 159, 201 9
127, 155, 196 9
106, 129, 175 9
94, 117, 149 9
125, 153, 194 9
89, 114, 148 9
80, 104, 132 9
92, 114, 149 9
87, 112, 144 9
98, 124, 160 9
112, 136, 190 9
106, 130, 176 9
82, 111, 138 9
114, 137, 193 9
77, 110, 136 9
83, 112, 143 9
101, 128, 162 9
61, 42, 34 8
55, 38, 29 8
61, 43, 36 8
66, 46, 35 8
73, 46, 36 8
74, 44, 39 8
53, 38, 29 8
126, 145, 202 8
129, 148, 205 8
98, 121, 159 8
99, 122, 160 8
93, 115, 151 8
103, 130, 167 8
105, 129, 171 8
128, 147, 204 8
88, 111, 149 8
126, 149, 195 8
83, 107, 135 8
81, 105, 133 8
120, 149, 188 8
100, 123, 161 8
83, 109, 139 8
96, 122, 158 8
122, 146, 200 8
104, 129, 173 8
84, 109, 141 8
96, 121, 153 8
83, 112, 139 8
78, 105, 132 8
94, 121, 148 8
57, 78, 86 8
69, 46, 38 7
61, 42, 35 7
65, 43, 31 7
73, 44, 35 7
59, 41, 30 7
72, 43, 38 7
61, 37, 31 7
54, 38, 31 7
123, 146, 192 7
113, 134, 186 7
94, 113, 151 7
101, 124, 162 7
109, 135, 181 7
109, 133, 179 7
105, 128, 174 7
107, 131, 177 7
123, 142, 199 7
102, 126, 168 7
104, 126, 167 7
121, 141, 196 7
119, 146, 190 7
116, 136, 191 7
89, 112, 150 7
126, 150, 196 7
97, 119, 155 7
124, 152, 193 7
85, 110, 144 7
98, 120, 161 7
123, 150, 194 7
87, 112, 146 7
85, 109, 139 7
100, 122, 163 7
102, 127, 167 7
119, 143, 197 7
113, 137, 191 7
84, 110, 140 7
100, 127, 161 7
103, 127, 163 7
77, 106, 133 7
98, 123, 155 7
113, 136, 192 7
102, 127, 161 7
79, 106, 133 7
88, 114, 144 7
63, 85, 103 7
82, 112, 139 7
107, 130, 168 7
101, 128, 165 7
105, 130, 164 7
85, 114, 145 7
102, 129, 163 7
67, 41, 35 6
61, 44, 35 6
69, 45, 39 6
63, 41, 35 6
65, 41, 35 6
74, 48, 36 6
55, 39, 32 6
72, 42, 37 6
69, 40, 35 6
74, 46, 35 6
72, 44, 33 6
120, 138, 191 6
115, 139, 193 6
56, 39, 36 6
105, 127, 168 6
117, 140, 196 6
120, 143, 189 6
106, 131, 171 6
78, 99, 137 6
88, 107, 145 6
107, 130, 175 6
116, 134, 187 6
92, 113, 151 6
94, 119, 161 6
105, 130, 170 6
121, 148, 192 6
131, 150, 207 6
90, 115, 155 6
93, 116, 148 6
127, 151, 205 6
101, 125, 161 6
133, 158, 200 6
87, 113, 150 6
86, 112, 149 6
92, 116, 152 6
82, 105, 127 6
130, 158, 199 6
124, 149, 193 6
86, 111, 145 6
136, 161, 203 6
82, 106, 134 6
92, 117, 149 6
121, 145, 199 6
111, 135, 187 6
82, 108, 138 6
114, 138, 192 6
106, 131, 181 6
88, 113, 139 6
88, 117, 144 6
122, 146, 198 6
99, 124, 156 6
95, 122, 149 6
65, 87, 105 6
106, 130, 172 6
109, 132, 180 6
105, 128, 166 6
75, 108, 134 6
59, 80, 88 6
86, 115, 146 6
80, 111, 142 6
81, 110, 141 6
56, 37, 32 5
56, 37, 29 5
70, 44, 38 5
56, 42, 30 5
57, 41, 34 5
66, 42, 30 5
61, 42, 29 5
55, 41, 29 5
65, 43, 37 5
71, 42, 33 5
71, 42, 35 5
63, 44, 36 5
63, 45, 34 5
64, 45, 32 5
73, 44, 39 5
61, 38, 30 5
63, 44, 37 5
58, 39, 34 5
121, 140, 197 5
68, 45, 30 5
141, 158, 209 5
50, 36, 37 5
131, 152, 204 5
118, 141, 187 5
89, 108, 146 5
113, 135, 187 5
87, 106, 144 5
117, 141, 195 5
126, 146, 193 5
128, 148, 203 5
100, 123, 168 5
81, 102, 140 5
79, 100, 138 5
105, 127, 169 5
133, 152, 195 5
102, 124, 165 5
120, 140, 195 5
102, 125, 170 5
98, 125, 159 5
112, 140, 181 5
120, 146, 200 5
120, 149, 194 5
98, 122, 164 5
122, 148, 202 5
98, 119, 164 5
94, 119, 159 5
125, 149, 201 5
123, 149, 195 5
126, 153, 197 5
97, 123, 159 5
124, 150, 197 5
124, 151, 195 5
112, 130, 183 5
92, 115, 153 5
128, 153, 195 5
118, 138, 193 5
92, 114, 155 5
127, 151, 197 5
86, 110, 140 5
79, 104, 130 5
111, 132, 184 5
86, 112, 142 5
78, 103, 129 5
123, 151, 192 5
120, 147, 191 5
128, 149, 201 5
106, 129, 179 5
113, 140, 184 5
96, 118, 154 5
108, 132, 184 5
118, 142, 196 5
105, 130, 174 5
92, 117, 143 5
99, 123, 159 5
97, 122, 156 5
97, 123, 153 5
108, 134, 181 5
101, 126, 160 5
85, 112, 139 5
84, 111, 138 5
103, 128, 162 5
107, 132, 176 5
104, 125, 163 5
63, 83, 94 5
79, 112, 138 5
106, 131, 165 5
107, 132, 166 5
93, 124, 157 5
88, 116, 147 5
84, 112, 143 5
80, 109, 140 5
66, 40, 33 4
57, 38, 33 4
76, 50, 38 4
56, 43, 29 4
55, 40, 31 4
62, 43, 30 4
69, 41, 34 4
72, 47, 37 4
64, 46, 35 4
75, 45, 34 4
63, 43, 38 4
60, 44, 37 4
58, 42, 35 4
54, 36, 29 4
61, 41, 36 4
71, 48, 33 4
56, 38, 37 4
71, 45, 39 4
56, 40, 34 4
137, 156, 207 4
138, 159, 211 4
130, 149, 206 4
141, 160, 211 4
120, 144, 198 4
130, 151, 203 4
115, 138, 184 4
119, 140, 192 4
89, 108, 151 4
102, 124, 166 4
106, 128, 169 4
125, 143, 184 4
108, 131, 187 4
86, 105, 143 4
99, 117, 164 4
82, 101, 138 4
110, 134, 180 4
118, 141, 186 4
93, 111, 152 4
92, 111, 154 4
111, 137, 183 4
116, 140, 186 4
117, 140, 186 4
125, 145, 192 4
130, 150, 205 4
108, 134, 180 4
116, 147, 192 4
102, 121, 164 4
95, 114, 152 4
101, 119, 160 4
112, 141, 186 4
111, 142, 187 4
86, 109, 147 4
103, 126, 171 4
87, 110, 148 4
121, 142, 194 4
85, 104, 149 4
97, 115, 156 4
96, 121, 165 4
104, 126, 168 4
122, 141, 198 4
125, 144, 201 4
84, 105, 143 4
117, 145, 199 4
127, 146, 203 4
95, 117, 159 4
99, 120, 165 4
97, 123, 163 4
124, 150, 196 4
91, 113, 154 4
83, 105, 130 4
127, 151, 203 4
124, 148, 200 4
122, 148, 195 4
135, 160, 204 4
88, 114, 151 4
125, 150, 200 4
132, 157, 199 4
88, 112, 148 4
98, 123, 157 4
80, 103, 125 4
93, 115, 156 4
122, 142, 197 4
85, 111, 141 4
80, 105, 131 4
126, 146, 201 4
96, 118, 159 4
143, 166, 211 4
123, 148, 192 4
121, 144, 189 4
123, 148, 190 4
121, 144, 190 4
126, 148, 200 4
97, 120, 158 4
79, 102, 128 4
121, 146, 188 4
121, 144, 192 4
130, 152, 204 4
111, 133, 185 4
117, 141, 187 4
109, 132, 182 4
118, 147, 186 4
113, 142, 179 4
109, 139, 174 4
128, 152, 206 4
125, 149, 203 4
123, 147, 201 4
95, 121, 157 4
122, 145, 191 4
107, 131, 183 4
110, 135, 175 4
122, 149, 186 4
123, 147, 199 4
115, 138, 194 4
118, 141, 197 4
95, 121, 151 4
76, 105, 132 4
87, 115, 146 4
124, 146, 198 4
113, 137, 189 4
97, 122, 154 4
125, 147, 199 4
112, 136, 188 4
103, 128, 172 4
93, 119, 149 4
109, 134, 168 4
110, 136, 183 4
112, 135, 191 4
105, 129, 181 4
125, 150, 194 4
62, 84, 102 4
71, 94, 110 4
78, 108, 135 4
66, 88, 100 4
100, 127, 154 4
53, 74, 82 4
47, 66, 73 4
52, 75, 83 4
56, 77, 85 4
50, 72, 78 4
58, 78, 89 4
99, 126, 153 4
94, 125, 158 4
94, 122, 156 4
90, 118, 149 4
91, 119, 150 4
92, 120, 151 4
93, 121, 155 4
60, 40, 29 3
58, 38, 33 3
70, 47, 39 3
62, 43, 36 3
69, 43, 31 3
54, 40, 28 3
57, 40, 27 3
59, 39, 28 3
64, 42, 31 3
59, 40, 27 3
70, 48, 36 3
62, 44, 37 3
69, 39, 34 3
68, 38, 33 3
71, 43, 32 3
58, 43, 34 3
52, 38, 32 3
74, 43, 34 3
60, 37, 29 3
59, 44, 35 3
52, 37, 28 3
55, 38, 35 3
52, 35, 46 3
58, 42, 30 3
57, 41, 29 3
63, 44, 41 3
57, 39, 38 3
53, 35, 42 3
55, 42, 34 3
64, 38, 32 3
69, 47, 36 3
121, 142, 197 3
51, 33, 40 3
72, 49, 34 3
107, 133, 180 3
59, 35, 35 3
64, 40, 40 3
57, 36, 34 3
74, 48, 34 3
143, 161, 214 3
144, 162, 215 3
142, 159, 210 3
54, 37, 40 3
49, 35, 37 3
137, 159, 211 3
131, 153, 205 3
134, 156, 208 3
125, 146, 201 3
59, 74, 100 3
112, 135, 180 3
129, 149, 207 3
113, 136, 182 3
64, 86, 122 3
128, 149, 194 3
124, 145, 197 3
103, 121, 168 3
97, 116, 161 3
36, 50, 72 3
103, 129, 165 3
111, 135, 189 3
101, 121, 168 3
96, 115, 160 3
91, 111, 152 3
87, 108, 146 3
110, 133, 179 3
84, 108, 138 3
101, 127, 163 3
127, 148, 203 3
83, 102, 140 3
103, 126, 172 3
104, 124, 171 3
119, 142, 188 3
92, 119, 153 3
123, 144, 199 3
105, 125, 172 3
96, 117, 162 3
82, 103, 135 3
114, 145, 190 3
118, 149, 194 3
122, 153, 198 3
117, 136, 193 3
110, 127, 183 3
98, 116, 163 3
89, 110, 148 3
86, 107, 145 3
92, 115, 160 3
133, 153, 200 3
69, 89, 120 3
120, 139, 196 3
81, 99, 146 3
90, 108, 155 3
94, 112, 153 3
90, 109, 147 3
83, 104, 142 3
108, 129, 174 3
106, 127, 172 3
97, 116, 154 3
89, 108, 141 3
114, 140, 187 3
132, 151, 194 3
99, 121, 163 3
111, 144, 189 3
94, 113, 156 3
113, 130, 186 3
97, 117, 165 3
102, 124, 172 3
95, 120, 164 3
110, 140, 189 3
109, 142, 188 3
113, 146, 191 3
72, 94, 130 3
96, 121, 163 3
136, 159, 205 3
58, 77, 112 3
124, 143, 200 3
123, 143, 198 3
121, 145, 191 3
116, 144, 198 3
53, 72, 105 3
104, 127, 173 3
107, 133, 170 3
113, 138, 180 3
84, 104, 145 3
101, 124, 169 3
99, 125, 162 3
81, 101, 126 3
87, 107, 148 3
91, 113, 155 3
96, 118, 160 3
96, 120, 162 3
94, 120, 160 3
127, 154, 198 3
101, 122, 167 3
75, 98, 136 3
80, 99, 137 3
88, 110, 138 3
123, 149, 196 3
93, 115, 157 3
84, 107, 145 3
89, 114, 154 3
84, 110, 147 3
85, 111, 148 3
131, 156, 198 3
92, 114, 156 3
97, 121, 157 3
87, 110, 136 3
110, 136, 173 3
122, 143, 195 3
92, 112, 153 3
94, 118, 154 3
96, 120, 156 3
136, 161, 205 3
137, 160, 210 3
83, 105, 147 3
93, 117, 153 3
90, 112, 140 3
137, 162, 206 3
128, 154, 201 3
114, 135, 187 3
96, 118, 153 3
142, 166, 208 3
139, 163, 205 3
133, 161, 202 3
131, 159, 200 3
129, 154, 196 3
122, 149, 193 3
117, 137, 192 3
80, 103, 129 3
91, 110, 148 3
115, 135, 190 3
99, 123, 165 3
94, 116, 157 3
87, 114, 148 3
125, 148, 194 3
109, 132, 178 3
78, 101, 127 3
144, 167, 212 3
122, 150, 191 3
124, 147, 197 3
126, 147, 199 3
129, 149, 204 3
112, 133, 185 3
77, 100, 126 3
138, 162, 204 3
142, 165, 210 3
103, 125, 166 3
129, 150, 202 3
87, 111, 141 3
137, 162, 204 3
135, 160, 202 3
117, 140, 188 3
114, 134, 189 3
110, 131, 182 3
79, 103, 131 3
118, 147, 191 3
108, 132, 174 3
130, 155, 197 3
116, 145, 189 3
114, 139, 183 3
115, 136, 191 3
108, 131, 181 3
115, 141, 187 3
122, 147, 189 3
121, 150, 189 3
116, 145, 182 3
114, 138, 184 3
124, 151, 201 3
123, 147, 193 3
116, 139, 185 3
116, 148, 184 3
124, 150, 204 3
96, 121, 155 3
111, 135, 177 3
105, 132, 159 3
116, 139, 184 3
123, 145, 197 3
109, 132, 188 3
111, 134, 190 3
110, 134, 186 3
106, 132, 178 3
95, 120, 152 3
94, 120, 150 3
86, 115, 142 3
84, 113, 140 3
110, 133, 189 3
110, 134, 188 3
110, 135, 185 3
108, 132, 178 3
95, 119, 141 3
83, 106, 128 3
127, 149, 201 3
109, 135, 182 3
102, 127, 171 3
88, 115, 142 3
112, 137, 171 3
111, 137, 184 3
107, 133, 179 3
86, 113, 140 3
83, 108, 124 3
81, 104, 120 3
68, 90, 108 3
66, 90, 110 3
124, 148, 202 3
113, 135, 193 3
104, 128, 180 3
83, 107, 129 3
82, 107, 123 3
87, 113, 143 3
78, 104, 118 3
63, 86, 102 3
105, 129, 159 3
62, 85, 101 3
60, 83, 99 3
57, 77, 94 3
104, 129, 161 3
110, 135, 169 3
75, 105, 132 3
58, 81, 96 3
61, 83, 94 3
94, 119, 151 3
76, 109, 135 3
106, 130, 166 3
52, 74, 85 3
62, 83, 91 3
106, 135, 180 3
85, 115, 142 3
51, 72, 80 3
45, 64, 71 3
97, 125, 160 3
40, 54, 60 3
48, 70, 81 3
48, 67, 74 3
92, 120, 154 3
84, 113, 144 3
41, 53, 59 3
83, 111, 142 3
94, 122, 153 3
96, 124, 155 3
100, 121, 152 3
97, 124, 158 3
99, 126, 160 3
100, 126, 162 3
39, 51, 57 3
37, 61, 67 3
60, 40, 35 2
56, 41, 32 2
64, 42, 36 2
66, 45, 37 2
63, 45, 38 2
74, 50, 38 2
63, 41, 30 2
71, 41, 36 2
73, 43, 38 2
74, 46, 39 2
63, 44, 31 2
74, 45, 40 2
72, 51, 30 2
58, 45, 37 2
57, 35, 29 2
75, 44, 35 2
60, 45, 36 2
73, 44, 37 2
61, 45, 33 2
65, 46, 33 2
57, 42, 33 2
57, 37, 32 2
68, 48, 37 2
64, 45, 38 2
59, 40, 35 2
57, 42, 40 2
57, 40, 43 2
60, 42, 43 2
59, 38, 36 2
52, 34, 41 2
56, 37, 40 2
60, 41, 38 2
57, 37, 36 2
54, 34, 39 2
61, 42, 45 2
55, 39, 27 2
53, 39, 27 2
57, 40, 37 2
49, 37, 25 2
52, 40, 28 2
48, 31, 45 2
48, 34, 45 2
63, 37, 31 2
72, 45, 41 2
59, 38, 40 2
53, 38, 35 2
60, 37, 41 2
151, 147, 196 2
116, 137, 188 2
55, 34, 42 2
49, 32, 46 2
84, 102, 149 2
58, 70, 110 2
53, 37, 30 2
105, 128, 178 2
90, 93, 124 2
72, 46, 40 2
132, 151, 208 2
54, 41, 33 2
71, 44, 40 2
66, 44, 46 2
62, 41, 40 2
66, 38, 37 2
52, 40, 58 2
145, 160, 216 2
124, 142, 201 2
48, 64, 101 2
66, 41, 39 2
60, 36, 36 2
67, 41, 41 2
68, 44, 44 2
67, 46, 49 2
61, 41, 46 2
62, 41, 44 2
146, 161, 217 2
123, 141, 200 2
89, 104, 153 2
56, 37, 46 2
58, 38, 37 2
56, 35, 33 2
56, 36, 31 2
55, 41, 35 2
73, 47, 33 2
57, 37, 42 2
64, 40, 42 2
64, 44, 49 2
140, 157, 208 2
86, 79, 94 2
54, 38, 49 2
135, 152, 203 2
137, 155, 208 2
144, 160, 213 2
140, 156, 209 2
142, 158, 211 2
146, 163, 219 2
52, 33, 36 2
61, 35, 41 2
54, 39, 36 2
67, 47, 36 2
75, 46, 37 2
63, 41, 36 2
54, 35, 44 2
50, 36, 38 2
75, 46, 41 2
108, 115, 142 2
141, 162, 213 2
144, 163, 214 2
136, 155, 212 2
48, 34, 40 2
49, 35, 41 2
51, 36, 44 2
51, 40, 48 2
94, 105, 135 2
135, 155, 210 2
139, 157, 210 2
58, 36, 41 2
134, 135, 161 2
75, 89, 117 2
74, 88, 116 2
82, 94, 122 2
130, 149, 200 2
123, 146, 196 2
139, 160, 212 2
83, 88, 133 2
104, 102, 124 2
61, 47, 41 2
58, 44, 38 2
57, 72, 98 2
60, 73, 99 2
138, 157, 208 2
73, 87, 145 2
87, 93, 140 2
88, 86, 115 2
58, 46, 44 2
53, 70, 91 2
51, 65, 87 2
89, 105, 147 2
121, 140, 183 2
137, 154, 205 2
127, 146, 197 2
131, 151, 206 2
87, 101, 143 2
90, 107, 146 2
92, 95, 140 2
51, 39, 45 2
44, 59, 78 2
43, 57, 76 2
45, 59, 78 2
54, 68, 90 2
72, 91, 129 2
79, 99, 140 2
108, 130, 172 2
134, 154, 201 2
144, 159, 208 2
144, 158, 210 2
128, 147, 208 2
79, 90, 134 2
58, 54, 60 2
115, 134, 179 2
119, 138, 183 2
49, 64, 83 2
56, 73, 99 2
95, 117, 158 2
119, 141, 183 2
122, 143, 188 2
131, 152, 197 2
86, 100, 142 2
97, 104, 154 2
78, 93, 139 2
111, 128, 171 2
114, 131, 174 2
120, 140, 187 2
58, 79, 107 2
67, 88, 126 2
135, 153, 206 2
102, 126, 180 2
89, 98, 148 2
92, 109, 148 2
96, 115, 153 2
82, 98, 144 2
89, 108, 153 2
105, 123, 170 2
96, 113, 156 2
92, 110, 151 2
109, 130, 168 2
111, 133, 175 2
124, 147, 193 2
127, 148, 193 2
122, 140, 181 2
32, 47, 66 2
52, 71, 92 2
57, 77, 102 2
61, 82, 114 2
62, 82, 117 2
87, 110, 142 2
109, 135, 172 2
97, 121, 175 2
91, 106, 145 2
94, 111, 150 2
87, 103, 149 2
102, 122, 169 2
107, 127, 175 2
105, 125, 173 2
93, 112, 155 2
113, 129, 165 2
107, 132, 174 2
109, 134, 178 2
127, 150, 196 2
132, 152, 199 2
133, 152, 197 2
89, 104, 136 2
40, 54, 76 2
51, 66, 92 2
70, 89, 122 2
82, 103, 134 2
129, 152, 198 2
99, 107, 160 2
90, 113, 159 2
99, 122, 168 2
104, 126, 174 2
100, 120, 167 2
88, 109, 147 2
83, 104, 136 2
118, 134, 170 2
106, 131, 173 2
107, 134, 178 2
130, 150, 197 2
134, 153, 198 2
35, 49, 72 2
61, 75, 103 2
54, 73, 106 2
57, 77, 108 2
93, 118, 162 2
131, 152, 203 2
97, 113, 155 2
115, 134, 167 2
111, 135, 181 2
110, 139, 184 2
112, 143, 188 2
129, 145, 187 2
31, 45, 67 2
56, 70, 99 2
52, 72, 97 2
88, 111, 143 2
91, 114, 146 2
119, 137, 196 2
117, 134, 191 2
72, 92, 140 2
102, 120, 161 2
96, 114, 155 2
92, 111, 149 2
95, 113, 166 2
94, 117, 162 2
105, 126, 171 2
104, 125, 170 2
105, 124, 167 2
87, 106, 141 2
81, 99, 128 2
112, 136, 182 2
112, 138, 184 2
110, 141, 186 2
117, 148, 193 2
119, 150, 195 2
121, 152, 197 2
125, 156, 201 2
28, 42, 64 2
50, 64, 87 2
75, 96, 128 2
97, 115, 168 2
92, 108, 161 2
100, 118, 159 2
76, 97, 135 2
84, 104, 135 2
113, 139, 186 2
135, 157, 205 2
56, 71, 97 2
57, 73, 96 2
62, 76, 104 2
56, 71, 103 2
118, 137, 194 2
106, 124, 177 2
64, 82, 123 2
99, 120, 171 2
99, 117, 158 2
88, 107, 140 2
110, 140, 187 2
108, 141, 186 2
114, 147, 192 2
116, 149, 194 2
119, 152, 197 2
123, 156, 201 2
137, 159, 207 2
55, 72, 99 2
67, 86, 119 2
77, 99, 135 2
113, 132, 183 2
118, 136, 189 2
119, 138, 195 2
115, 132, 188 2
110, 128, 181 2
91, 110, 155 2
75, 97, 133 2
69, 91, 127 2
42, 60, 101 2
86, 104, 151 2
101, 125, 167 2
93, 112, 149 2
112, 141, 192 2
108, 141, 187 2
135, 158, 204 2
71, 86, 112 2
48, 62, 85 2
70, 92, 128 2
77, 98, 136 2
121, 138, 194 2
116, 133, 189 2
78, 97, 142 2
67, 89, 125 2
61, 78, 117 2
102, 125, 171 2
100, 121, 159 2
81, 102, 130 2
97, 118, 149 2
121, 145, 187 2
120, 143, 188 2
113, 142, 193 2
110, 142, 191 2
110, 143, 189 2
137, 160, 206 2
135, 156, 201 2
94, 113, 148 2
84, 103, 146 2
117, 135, 188 2
123, 140, 196 2
127, 144, 201 2
106, 123, 179 2
78, 100, 136 2
65, 83, 124 2
95, 114, 159 2
103, 123, 170 2
97, 122, 166 2
100, 126, 166 2
101, 127, 167 2
99, 121, 157 2
95, 115, 150 2
98, 121, 153 2
115, 139, 181 2
120, 145, 189 2
112, 144, 193 2
137, 160, 205 2
133, 153, 194 2
118, 137, 175 2
71, 89, 120 2
61, 76, 109 2
92, 111, 156 2
81, 101, 142 2
64, 82, 119 2
100, 121, 166 2
99, 125, 165 2
102, 124, 160 2
98, 120, 155 2
95, 116, 148 2
115, 144, 195 2
115, 145, 194 2
114, 144, 191 2
117, 134, 190 2
100, 118, 165 2
90, 109, 152 2
95, 120, 162 2
100, 126, 163 2
93, 114, 146 2
119, 148, 193 2
138, 159, 204 2
134, 152, 193 2
59, 77, 108 2
57, 76, 109 2
72, 96, 132 2
77, 96, 133 2
74, 93, 131 2
98, 125, 162 2
89, 111, 139 2
113, 141, 182 2
120, 149, 193 2
119, 146, 196 2
133, 150, 193 2
57, 77, 112 2
77, 100, 138 2
93, 118, 158 2
99, 122, 154 2
102, 128, 164 2
112, 138, 178 2
123, 152, 196 2
123, 148, 198 2
129, 156, 200 2
133, 158, 202 2
72, 86, 109 2
115, 133, 186 2
106, 126, 173 2
102, 123, 168 2
95, 116, 161 2
90, 110, 151 2
81, 104, 142 2
82, 105, 143 2
90, 111, 149 2
87, 112, 152 2
79, 102, 124 2
132, 159, 203 2
129, 153, 205 2
133, 154, 199 2
74, 88, 106 2
119, 137, 190 2
100, 123, 155 2
92, 114, 142 2
85, 107, 132 2
125, 151, 197 2
127, 150, 195 2
136, 155, 198 2
101, 120, 158 2
81, 100, 135 2
76, 90, 109 2
60, 79, 116 2
120, 141, 193 2
138, 163, 207 2
127, 153, 200 2
126, 152, 198 2
129, 149, 190 2
64, 85, 123 2
123, 144, 196 2
89, 115, 152 2
86, 109, 135 2
83, 107, 131 2
131, 157, 204 2
127, 153, 199 2
130, 153, 198 2
131, 153, 195 2
88, 109, 141 2
90, 110, 145 2
129, 149, 206 2
92, 117, 157 2
88, 114, 154 2
93, 116, 154 2
85, 109, 145 2
82, 106, 130 2
139, 162, 207 2
137, 160, 208 2
126, 156, 197 2
127, 156, 195 2
125, 147, 188 2
98, 121, 166 2
97, 119, 161 2
92, 115, 147 2
131, 151, 198 2
53, 71, 102 2
96, 119, 164 2
86, 113, 147 2
93, 118, 152 2
136, 161, 201 2
140, 164, 206 2
136, 164, 205 2
82, 101, 139 2
84, 109, 143 2
89, 115, 151 2
91, 118, 152 2
141, 165, 207 2
144, 168, 210 2
135, 154, 199 2
116, 138, 186 2
121, 143, 191 2
127, 147, 202 2
89, 116, 150 2
138, 163, 205 2
138, 157, 200 2
102, 123, 161 2
109, 130, 182 2
125, 150, 192 2
121, 146, 190 2
108, 127, 165 2
122, 145, 195 2
125, 148, 198 2
100, 122, 164 2
97, 119, 160 2
95, 118, 156 2
124, 149, 191 2
119, 144, 188 2
119, 142, 187 2
106, 128, 170 2
109, 132, 177 2
115, 136, 188 2
103, 125, 167 2
96, 119, 157 2
90, 113, 145 2
116, 141, 185 2
129, 151, 193 2
113, 136, 181 2
121, 144, 194 2
101, 123, 165 2
120, 148, 189 2
117, 146, 190 2
119, 148, 187 2
117, 146, 185 2
109, 134, 176 2
115, 140, 184 2
128, 149, 204 2
124, 145, 200 2
122, 143, 198 2
117, 138, 193 2
113, 134, 189 2
118, 146, 187 2
118, 142, 184 2
102, 127, 169 2
117, 142, 186 2
121, 147, 193 2
129, 154, 204 2
116, 137, 192 2
124, 153, 192 2
123, 152, 191 2
116, 146, 187 2
112, 144, 180 2
114, 140, 186 2
119, 143, 189 2
108, 131, 176 2
105, 130, 172 2
118, 144, 190 2
110, 132, 184 2
107, 130, 180 2
125, 154, 193 2
122, 151, 190 2
112, 141, 178 2
112, 141, 180 2
117, 143, 189 2
112, 137, 181 2
120, 146, 192 2
126, 153, 203 2
134, 159, 203 2
112, 139, 183 2
116, 140, 194 2
123, 154, 193 2
114, 144, 179 2
108, 138, 173 2
113, 140, 177 2
113, 138, 182 2
123, 150, 200 2
129, 153, 207 2
114, 146, 182 2
108, 139, 172 2
119, 139, 187 2
121, 147, 194 2
124, 151, 202 2
94, 120, 156 2
127, 153, 193 2
119, 150, 189 2
103, 134, 167 2
99, 128, 159 2
98, 127, 158 2
114, 137, 183 2
123, 143, 190 2
122, 142, 190 2
122, 139, 188 2
123, 150, 201 2
125, 151, 205 2
126, 150, 204 2
125, 151, 191 2
124, 144, 191 2
121, 146, 202 2
99, 118, 155 2
98, 120, 156 2
102, 129, 155 2
100, 125, 151 2
105, 131, 167 2
112, 139, 195 2
105, 131, 177 2
91, 118, 145 2
85, 114, 141 2
116, 142, 179 2
105, 133, 163 2
102, 129, 156 2
93, 118, 144 2
94, 121, 155 2
113, 137, 179 2
121, 147, 201 2
112, 139, 173 2
113, 140, 174 2
101, 128, 154 2
93, 117, 141 2
88, 112, 136 2
107, 134, 168 2
91, 115, 137 2
74, 98, 126 2
102, 127, 159 2
125, 148, 193 2
113, 138, 194 2
110, 135, 191 2
89, 116, 143 2
96, 123, 150 2
89, 113, 141 2
106, 131, 163 2
120, 144, 196 2
106, 130, 184 2
98, 124, 154 2
91, 115, 143 2
94, 118, 146 2
76, 98, 116 2
74, 95, 116 2
78, 102, 126 2
103, 127, 157 2
126, 151, 195 2
121, 145, 197 2
105, 129, 183 2
101, 125, 179 2
110, 136, 182 2
85, 111, 135 2
83, 106, 122 2
78, 101, 117 2
72, 94, 112 2
73, 96, 118 2
80, 104, 128 2
99, 123, 177 2
77, 104, 131 2
76, 103, 130 2
80, 104, 126 2
77, 100, 116 2
124, 148, 194 2
114, 136, 194 2
75, 104, 131 2
77, 101, 119 2
116, 142, 178 2
119, 142, 198 2
108, 133, 177 2
105, 126, 164 2
71, 94, 109 2
74, 97, 113 2
74, 100, 114 2
61, 84, 100 2
79, 103, 127 2
98, 122, 150 2
122, 148, 188 2
108, 132, 186 2
83, 113, 140 2
77, 107, 134 2
66, 87, 102 2
70, 93, 108 2
59, 82, 98 2
105, 130, 162 2
119, 143, 195 2
63, 85, 96 2
68, 92, 104 2
65, 86, 101 2
54, 75, 90 2
78, 111, 137 2
74, 107, 133 2
63, 85, 97 2
58, 80, 92 2
52, 74, 86 2
116, 142, 189 2
107, 131, 167 2
53, 72, 79 2
55, 76, 84 2
54, 77, 85 2
56, 79, 87 2
59, 82, 90 2
51, 73, 84 2
50, 72, 83 2
65, 85, 96 2
60, 80, 91 2
61, 81, 92 2
115, 143, 178 2
104, 132, 173 2
101, 130, 174 2
105, 134, 173 2
106, 132, 172 2
106, 129, 161 2
49, 68, 75 2
60, 81, 89 2
54, 76, 82 2
48, 70, 76 2
50, 73, 81 2
98, 126, 161 2
97, 125, 166 2
98, 128, 169 2
103, 128, 160 2
87, 117, 144 2
43, 57, 63 2
45, 61, 68 2
48, 76, 83 2
52, 71, 78 2
59, 83, 101 2
89, 118, 149 2
89, 117, 148 2
41, 57, 64 2
44, 73, 78 2
48, 71, 79 2
43, 65, 76 2
51, 75, 87 2
47, 72, 88 2
70, 94, 116 2
88, 115, 149 2
78, 103, 135 2
98, 125, 152 2
93, 121, 152 2
36, 64, 65 2
41, 68, 72 2
52, 71, 79 2
58, 77, 85 2
57, 79, 91 2
68, 92, 116 2
72, 95, 121 2
76, 100, 128 2
77, 101, 129 2
76, 102, 132 2
78, 104, 134 2
90, 118, 152 2
79, 110, 141 2
81, 109, 139 2
35, 49, 55 2
50, 71, 79 2
54, 74, 85 2
42, 60, 67 2
41, 59, 66 2
46, 69, 85 2
56, 77, 99 2
103, 130, 164 2
91, 119, 153 2
82, 110, 140 2
83, 111, 141 2
98, 126, 157 2
50, 70, 81 2
47, 63, 70 2
38, 56, 63 2
55, 74, 82 2
64, 81, 100 2
102, 123, 154 2
104, 123, 156 2
89, 117, 151 2
39, 61, 67 2
54, 71, 84 2
64, 39, 37 1
65, 40, 36 1
59, 39, 34 1
55, 35, 30 1
66, 40, 34 1
59, 36, 34 1
60, 38, 33 1
54, 34, 29 1
66, 41, 31 1
54, 35, 30 1
75, 49, 37 1
68, 42, 30 1
56, 38, 27 1
65, 41, 29 1
55, 42, 26 1
55, 42, 28 1
62, 40, 28 1
64, 42, 30 1
56, 43, 27 1
70, 41, 32 1
74, 47, 37 1
70, 40, 35 1
76, 46, 35 1
68, 39, 34 1
75, 45, 40 1
68, 40, 33 1
72, 42, 31 1
71, 48, 26 1
69, 48, 33 1
65, 45, 40 1
63, 42, 40 1
61, 42, 39 1
64, 45, 37 1
65, 38, 34 1
54, 38, 32 1
57, 43, 37 1
61, 45, 38 1
60, 36, 30 1
64, 38, 31 1
71, 47, 29 1
73, 48, 32 1
66, 44, 38 1
57, 44, 36 1
65, 39, 32 1
64, 47, 34 1
62, 45, 32 1
62, 45, 36 1
62, 46, 33 1
60, 47, 33 1
59, 47, 35 1
60, 45, 42 1
59, 44, 41 1
58, 41, 38 1
55, 36, 28 1
55, 40, 38 1
50, 36, 40 1
53, 38, 42 1
60, 40, 39 1
66, 47, 32 1
65, 46, 31 1
63, 46, 33 1
65, 46, 38 1
62, 41, 39 1
56, 35, 37 1
50, 29, 37 1
50, 31, 40 1
40, 27, 41 1
42, 30, 42 1
46, 32, 43 1
50, 33, 42 1
61, 40, 42 1
62, 43, 40 1
59, 43, 31 1
73, 49, 37 1
65, 51, 29 1
63, 48, 29 1
63, 47, 31 1
57, 38, 35 1
48, 28, 40 1
45, 26, 43 1
48, 28, 51 1
52, 33, 58 1
55, 44, 70 1
55, 45, 68 1
56, 44, 66 1
54, 40, 58 1
52, 37, 51 1
54, 37, 48 1
58, 40, 47 1
55, 36, 29 1
71, 49, 37 1
64, 48, 25 1
63, 46, 27 1
64, 48, 32 1
62, 42, 41 1
54, 35, 38 1
51, 31, 36 1
48, 31, 42 1
51, 34, 48 1
64, 48, 71 1
84, 69, 97 1
107, 91, 125 1
121, 106, 144 1
125, 119, 154 1
113, 106, 141 1
103, 95, 126 1
82, 72, 102 1
61, 48, 72 1
51, 39, 59 1
53, 38, 52 1
56, 41, 49 1
61, 44, 48 1
56, 38, 39 1
62, 42, 25 1
57, 38, 25 1
57, 38, 41 1
54, 37, 51 1
49, 33, 51 1
57, 43, 67 1
89, 77, 105 1
119, 110, 143 1
138, 129, 169 1
144, 137, 180 1
140, 133, 178 1
129, 128, 172 1
122, 119, 164 1
118, 114, 155 1
110, 106, 142 1
92, 85, 118 1
76, 67, 94 1
65, 53, 75 1
55, 42, 58 1
51, 35, 46 1
48, 33, 37 1
52, 36, 37 1
55, 40, 37 1
56, 44, 34 1
53, 41, 29 1
68, 42, 28 1
71, 50, 52 1
62, 44, 51 1
41, 26, 47 1
48, 34, 62 1
76, 65, 98 1
113, 105, 142 1
138, 132, 173 1
139, 136, 181 1
135, 135, 181 1
135, 139, 187 1
134, 140, 187 1
126, 129, 180 1
118, 122, 171 1
108, 110, 158 1
106, 107, 151 1
101, 100, 140 1
92, 88, 123 1
80, 75, 102 1
64, 55, 76 1
52, 41, 57 1
51, 36, 40 1
52, 37, 35 1
55, 43, 33 1
55, 43, 31 1
51, 42, 29 1
65, 39, 33 1
65, 42, 40 1
43, 28, 42 1
47, 34, 56 1
63, 52, 84 1
94, 85, 125 1
132, 125, 170 1
151, 148, 198 1
144, 145, 196 1
135, 139, 192 1
130, 141, 193 1
126, 140, 189 1
119, 134, 183 1
120, 130, 184 1
112, 123, 175 1
96, 105, 155 1
95, 103, 150 1
98, 104, 147 1
98, 101, 139 1
95, 94, 126 1
77, 72, 99 1
63, 54, 74 1
54, 41, 55 1
52, 38, 44 1
52, 38, 39 1
53, 41, 31 1
61, 37, 39 1
54, 31, 39 1
40, 23, 34 1
37, 21, 38 1
53, 40, 66 1
90, 81, 114 1
127, 119, 160 1
150, 147, 202 1
141, 143, 201 1
138, 144, 203 1
136, 147, 204 1
127, 142, 198 1
110, 125, 181 1
103, 117, 170 1
88, 102, 154 1
89, 103, 151 1
91, 102, 146 1
90, 98, 138 1
98, 100, 135 1
94, 92, 121 1
73, 65, 88 1
56, 45, 61 1
51, 37, 48 1
55, 40, 44 1
52, 33, 42 1
54, 42, 62 1
80, 68, 98 1
117, 109, 146 1
147, 142, 187 1
160, 156, 208 1
143, 142, 198 1
146, 147, 207 1
145, 150, 211 1
139, 149, 209 1
128, 142, 200 1
107, 128, 180 1
95, 116, 167 1
85, 105, 153 1
71, 87, 130 1
73, 79, 114 1
91, 93, 123 1
85, 81, 106 1
62, 52, 69 1
50, 36, 48 1
52, 37, 41 1
55, 39, 33 1
42, 31, 39 1
48, 38, 50 1
73, 62, 82 1
108, 100, 130 1
140, 132, 172 1
151, 148, 203 1
144, 144, 204 1
150, 153, 214 1
154, 162, 222 1
155, 165, 225 1
147, 158, 218 1
132, 149, 206 1
124, 144, 201 1
117, 137, 194 1
95, 118, 166 1
87, 110, 158 1
79, 102, 148 1
59, 78, 121 1
43, 58, 97 1
59, 68, 105 1
96, 92, 117 1
69, 58, 78 1
52, 38, 50 1
51, 33, 34 1
55, 36, 31 1
70, 46, 40 1
69, 61, 71 1
98, 91, 104 1
130, 124, 147 1
147, 141, 176 1
142, 139, 184 1
137, 134, 189 1
139, 138, 200 1
145, 147, 211 1
149, 153, 218 1
158, 167, 230 1
154, 165, 225 1
144, 158, 216 1
138, 155, 212 1
126, 146, 204 1
120, 140, 198 1
96, 122, 169 1
86, 112, 158 1
69, 94, 138 1
45, 67, 109 1
35, 52, 91 1
54, 66, 102 1
93, 90, 116 1
68, 59, 79 1
55, 40, 54 1
53, 35, 36 1
58, 40, 29 1
53, 40, 32 1
65, 45, 28 1
66, 43, 28 1
73, 47, 40 1
70, 42, 41 1
70, 45, 43 1
68, 43, 41 1
64, 41, 39 1
65, 41, 41 1
68, 47, 46 1
69, 48, 47 1
56, 35, 34 1
65, 39, 39 1
69, 40, 36 1
70, 41, 37 1
69, 42, 38 1
64, 43, 46 1
59, 42, 51 1
51, 36, 50 1
70, 58, 80 1
92, 88, 129 1
122, 120, 162 1
136, 137, 181 1
132, 138, 183 1
130, 140, 188 1
130, 144, 193 1
134, 150, 203 1
139, 155, 208 1
154, 169, 225 1
158, 173, 229 1
153, 167, 225 1
144, 161, 218 1
141, 157, 216 1
136, 154, 213 1
115, 126, 183 1
100, 114, 167 1
87, 101, 153 1
72, 88, 135 1
43, 61, 102 1
34, 51, 90 1
75, 87, 123 1
84, 91, 124 1
57, 59, 90 1
42, 37, 64 1
42, 30, 52 1
49, 32, 45 1
55, 34, 33 1
58, 37, 35 1
57, 35, 30 1
53, 39, 33 1
54, 40, 34 1
63, 38, 28 1
65, 40, 30 1
75, 49, 35 1
70, 47, 31 1
66, 41, 37 1
67, 42, 40 1
63, 42, 41 1
63, 41, 43 1
67, 46, 48 1
62, 43, 46 1
63, 43, 48 1
60, 41, 44 1
63, 44, 47 1
66, 42, 44 1
66, 40, 40 1
64, 36, 35 1
63, 38, 36 1
59, 37, 39 1
59, 42, 46 1
53, 36, 49 1
86, 76, 99 1
126, 117, 143 1
140, 139, 181 1
147, 149, 190 1
143, 148, 193 1
138, 146, 193 1
136, 148, 196 1
135, 149, 201 1
138, 154, 207 1
143, 159, 212 1
153, 168, 224 1
155, 170, 226 1
152, 167, 223 1
147, 164, 221 1
146, 163, 220 1
139, 157, 216 1
115, 128, 184 1
104, 118, 171 1
66, 82, 128 1
36, 54, 95 1
33, 50, 89 1
71, 83, 119 1
93, 99, 134 1
66, 68, 99 1
47, 42, 71 1
41, 31, 54 1
49, 33, 50 1
55, 34, 37 1
55, 31, 33 1
58, 37, 39 1
57, 36, 35 1
56, 37, 34 1
58, 34, 34 1
62, 35, 38 1
56, 42, 36 1
69, 43, 29 1
67, 44, 29 1
69, 44, 40 1
67, 45, 47 1
58, 41, 45 1
58, 42, 49 1
61, 45, 52 1
68, 53, 61 1
74, 60, 71 1
75, 61, 72 1
72, 58, 70 1
67, 54, 62 1
66, 51, 59 1
56, 39, 48 1
62, 39, 43 1
70, 46, 46 1
48, 32, 43 1
41, 31, 48 1
75, 69, 94 1
128, 124, 153 1
158, 155, 187 1
149, 152, 197 1
146, 151, 196 1
140, 148, 195 1
138, 150, 198 1
139, 154, 203 1
147, 165, 218 1
152, 168, 221 1
149, 165, 218 1
148, 165, 222 1
142, 161, 218 1
113, 126, 182 1
105, 119, 172 1
61, 77, 123 1
30, 47, 90 1
31, 48, 87 1
47, 63, 100 1
67, 79, 115 1
78, 86, 123 1
65, 67, 101 1
52, 47, 78 1
44, 35, 62 1
44, 32, 52 1
52, 35, 49 1
53, 34, 43 1
53, 32, 40 1
49, 31, 38 1
52, 32, 37 1
53, 33, 38 1
57, 36, 39 1
57, 36, 38 1
54, 36, 35 1
55, 35, 34 1
56, 36, 35 1
56, 34, 36 1
57, 35, 37 1
60, 36, 38 1
61, 34, 38 1
75, 47, 36 1
65, 43, 38 1
64, 43, 42 1
57, 36, 44 1
52, 35, 44 1
56, 40, 51 1
58, 46, 58 1
70, 60, 73 1
90, 80, 96 1
106, 99, 114 1
109, 103, 120 1
103, 97, 116 1
95, 89, 108 1
68, 61, 76 1
57, 47, 63 1
55, 42, 56 1
54, 37, 46 1
63, 42, 50 1
60, 42, 49 1
52, 38, 49 1
54, 44, 61 1
87, 83, 108 1
140, 139, 171 1
165, 168, 206 1
157, 161, 202 1
141, 151, 198 1
141, 151, 199 1
136, 150, 199 1
137, 152, 201 1
146, 164, 217 1
149, 166, 217 1
145, 162, 218 1
118, 131, 187 1
108, 122, 175 1
87, 102, 151 1
55, 71, 118 1
22, 39, 82 1
25, 42, 81 1
48, 63, 102 1
73, 84, 122 1
81, 88, 127 1
77, 78, 116 1
67, 66, 100 1
56, 50, 81 1
50, 39, 65 1
46, 33, 55 1
47, 31, 48 1
50, 35, 49 1
53, 36, 50 1
50, 33, 46 1
49, 32, 43 1
54, 36, 43 1
54, 37, 41 1
51, 34, 38 1
50, 33, 36 1
55, 33, 38 1
58, 35, 40 1
52, 37, 34 1
69, 49, 38 1
76, 47, 38 1
72, 46, 39 1
71, 48, 40 1
69, 48, 40 1
49, 32, 41 1
55, 41, 53 1
63, 52, 68 1
84, 74, 91 1
99, 93, 112 1
119, 117, 137 1
132, 131, 151 1
133, 134, 155 1
127, 129, 153 1
121, 122, 148 1
116, 117, 143 1
110, 111, 132 1
91, 89, 111 1
78, 76, 96 1
71, 65, 84 1
56, 46, 63 1
51, 38, 52 1
54, 40, 52 1
53, 37, 48 1
45, 32, 46 1
57, 49, 66 1
103, 99, 124 1
155, 157, 188 1
173, 180, 219 1
158, 168, 215 1
145, 157, 205 1
134, 149, 198 1
134, 148, 200 1
135, 156, 208 1
145, 166, 218 1
145, 166, 217 1
143, 162, 213 1
145, 162, 213 1
148, 165, 221 1
119, 134, 190 1
110, 126, 179 1
88, 105, 156 1
54, 70, 117 1
18, 35, 78 1
23, 39, 81 1
47, 62, 101 1
72, 82, 122 1
75, 81, 122 1
73, 75, 115 1
67, 66, 105 1
68, 64, 100 1
70, 64, 95 1
71, 62, 89 1
72, 61, 87 1
74, 61, 85 1
72, 60, 82 1
73, 60, 82 1
64, 52, 72 1
55, 40, 61 1
53, 37, 55 1
50, 34, 51 1
48, 31, 44 1
45, 29, 40 1
47, 31, 42 1
50, 33, 44 1
55, 34, 43 1
56, 32, 42 1
56, 31, 41 1
53, 36, 39 1
56, 39, 42 1
57, 41, 42 1
55, 39, 40 1
65, 47, 36 1
66, 48, 37 1
74, 45, 38 1
76, 47, 40 1
67, 42, 38 1
60, 41, 36 1
65, 44, 42 1
61, 41, 40 1
52, 36, 43 1
64, 51, 67 1
87, 79, 96 1
108, 103, 124 1
131, 129, 151 1
135, 135, 159 1
130, 134, 159 1
118, 123, 148 1
110, 117, 144 1
111, 117, 146 1
108, 116, 145 1
103, 111, 140 1
107, 111, 139 1
102, 106, 131 1
93, 93, 117 1
77, 74, 96 1
63, 58, 79 1
59, 50, 70 1
55, 47, 64 1
58, 50, 67 1
82, 77, 98 1
120, 117, 142 1
158, 160, 191 1
177, 184, 223 1
161, 174, 220 1
142, 156, 208 1
139, 156, 212 1
139, 161, 213 1
141, 162, 214 1
138, 155, 206 1
139, 156, 207 1
150, 167, 223 1
149, 166, 222 1
119, 136, 193 1
114, 129, 185 1
90, 106, 159 1
50, 65, 114 1
14, 30, 76 1
21, 37, 80 1
47, 59, 101 1
67, 76, 119 1
79, 85, 128 1
77, 80, 124 1
75, 74, 116 1
76, 75, 115 1
78, 76, 112 1
77, 73, 108 1
80, 75, 106 1
82, 77, 108 1
87, 79, 109 1
90, 80, 110 1
80, 71, 98 1
68, 56, 84 1
58, 45, 71 1
48, 34, 58 1
42, 29, 51 1
45, 33, 53 1
56, 41, 62 1
64, 50, 68 1
71, 58, 74 1
75, 59, 76 1
73, 55, 72 1
65, 46, 63 1
54, 35, 52 1
50, 28, 46 1
52, 37, 45 1
47, 34, 42 1
48, 35, 43 1
46, 33, 41 1
49, 36, 44 1
52, 39, 47 1
50, 39, 47 1
62, 46, 34 1
63, 47, 35 1
76, 47, 43 1
75, 48, 44 1
68, 40, 39 1
66, 42, 42 1
63, 42, 44 1
58, 40, 41 1
44, 30, 34 1
59, 45, 56 1
77, 67, 80 1
100, 92, 109 1
119, 114, 135 1
132, 129, 154 1
136, 137, 163 1
125, 128, 156 1
116, 123, 150 1
109, 117, 146 1
106, 117, 145 1
100, 112, 140 1
92, 103, 133 1
90, 101, 129 1
98, 106, 135 1
100, 108, 137 1
100, 106, 135 1
102, 105, 133 1
101, 102, 130 1
106, 105, 131 1
117, 114, 139 1
134, 134, 158 1
157, 158, 186 1
173, 176, 207 1
165, 173, 210 1
150, 163, 207 1
140, 157, 206 1
136, 156, 214 1
136, 158, 210 1
135, 157, 209 1
136, 156, 204 1
133, 150, 201 1
134, 153, 204 1
147, 164, 220 1
148, 167, 224 1
141, 159, 218 1
127, 143, 202 1
115, 132, 189 1
89, 104, 160 1
49, 63, 115 1
16, 30, 79 1
26, 39, 85 1
52, 62, 109 1
73, 82, 126 1
78, 84, 129 1
82, 87, 132 1
81, 84, 128 1
82, 84, 125 1
80, 80, 120 1
75, 76, 114 1
79, 81, 116 1
84, 86, 121 1
93, 87, 122 1
89, 83, 118 1
79, 72, 105 1
71, 62, 95 1
61, 53, 84 1
50, 39, 71 1
48, 38, 68 1
62, 50, 78 1
81, 69, 97 1
90, 79, 105 1
96, 85, 111 1
98, 85, 109 1
92, 79, 103 1
81, 67, 91 1
71, 55, 78 1
65, 49, 72 1
54, 44, 57 1
51, 41, 54 1
47, 37, 50 1
45, 35, 48 1
44, 34, 47 1
45, 34, 50 1
48, 38, 54 1
53, 43, 59 1
60, 50, 66 1
69, 59, 75 1
77, 70, 85 1
84, 77, 92 1
85, 78, 93 1
61, 46, 37 1
62, 47, 38 1
68, 43, 39 1
70, 45, 41 1
69, 44, 42 1
61, 38, 42 1
56, 35, 43 1
53, 37, 44 1
54, 39, 47 1
56, 45, 55 1
62, 53, 63 1
68, 59, 69 1
80, 73, 88 1
94, 89, 104 1
115, 109, 128 1
127, 125, 145 1
136, 133, 158 1
126, 130, 158 1
117, 123, 152 1
114, 122, 151 1
105, 116, 144 1
97, 109, 137 1
88, 102, 130 1
81, 95, 123 1
76, 90, 119 1
84, 94, 124 1
89, 99, 129 1
96, 103, 136 1
101, 108, 141 1
115, 120, 151 1
133, 138, 169 1
146, 154, 184 1
150, 159, 192 1
159, 168, 205 1
156, 168, 208 1
140, 156, 202 1
118, 140, 198 1
133, 155, 207 1
140, 159, 210 1
133, 153, 201 1
131, 150, 201 1
134, 152, 205 1
140, 159, 216 1
145, 163, 222 1
141, 160, 221 1
125, 143, 204 1
113, 129, 188 1
91, 108, 165 1
62, 77, 133 1
34, 47, 99 1
37, 48, 98 1
56, 66, 114 1
76, 84, 131 1
74, 80, 127 1
84, 90, 133 1
85, 91, 134 1
83, 89, 130 1
89, 96, 135 1
91, 98, 137 1
95, 94, 133 1
83, 80, 119 1
66, 63, 102 1
61, 57, 93 1
59, 52, 89 1
52, 45, 82 1
59, 52, 87 1
80, 73, 108 1
88, 82, 117 1
94, 89, 121 1
96, 91, 123 1
93, 87, 118 1
89, 83, 114 1
85, 77, 107 1
81, 73, 103 1
84, 74, 104 1
85, 78, 99 1
80, 73, 94 1
73, 66, 87 1
68, 60, 83 1
65, 59, 82 1
71, 65, 88 1
82, 76, 99 1
91, 88, 110 1
98, 95, 117 1
102, 99, 121 1
105, 102, 124 1
105, 103, 125 1
59, 45, 39 1
61, 40, 38 1
64, 43, 41 1
66, 45, 44 1
64, 42, 44 1
54, 33, 41 1
65, 46, 55 1
69, 53, 64 1
75, 62, 76 1
85, 74, 90 1
95, 88, 103 1
105, 99, 116 1
116, 112, 131 1
126, 124, 143 1
128, 130, 154 1
134, 137, 165 1
134, 138, 167 1
130, 135, 166 1
123, 131, 161 1
118, 127, 160 1
114, 125, 155 1
108, 119, 149 1
97, 111, 139 1
85, 99, 127 1
73, 88, 114 1
66, 81, 107 1
62, 77, 103 1
68, 80, 108 1
75, 86, 116 1
78, 91, 123 1
82, 94, 128 1
90, 102, 138 1
104, 116, 152 1
118, 129, 167 1
132, 145, 183 1
136, 149, 187 1
136, 151, 190 1
132, 149, 192 1
127, 145, 192 1
119, 140, 191 1
118, 140, 192 1
126, 149, 197 1
132, 153, 204 1
135, 156, 207 1
128, 147, 198 1
125, 144, 195 1
124, 143, 194 1
135, 155, 213 1
134, 153, 214 1
129, 147, 210 1
123, 140, 203 1
114, 132, 193 1
98, 114, 173 1
54, 66, 120 1
56, 67, 119 1
69, 78, 128 1
76, 83, 132 1
82, 88, 133 1
84, 90, 135 1
83, 92, 135 1
86, 95, 138 1
93, 105, 145 1
91, 103, 143 1
89, 91, 131 1
78, 78, 118 1
66, 66, 106 1
59, 58, 98 1
52, 48, 89 1
58, 54, 95 1
79, 75, 116 1
89, 85, 126 1
90, 89, 129 1
92, 91, 131 1
92, 91, 130 1
86, 85, 124 1
79, 79, 115 1
75, 75, 111 1
80, 78, 114 1
84, 82, 118 1
90, 88, 118 1
92, 92, 122 1
96, 96, 126 1
99, 98, 130 1
100, 99, 131 1
97, 99, 130 1
100, 102, 133 1
99, 101, 132 1
97, 99, 129 1
92, 96, 125 1
89, 93, 122 1
89, 93, 121 1
61, 49, 47 1
59, 47, 45 1
57, 45, 43 1
62, 44, 43 1
62, 45, 49 1
64, 48, 55 1
76, 60, 71 1
94, 80, 92 1
103, 92, 108 1
110, 102, 119 1
119, 112, 133 1
123, 120, 142 1
126, 123, 148 1
123, 124, 150 1
125, 129, 154 1
131, 134, 162 1
120, 129, 162 1
124, 133, 166 1
125, 135, 169 1
127, 137, 171 1
125, 137, 173 1
122, 134, 168 1
120, 132, 166 1
112, 127, 159 1
100, 116, 145 1
86, 103, 130 1
74, 90, 113 1
62, 78, 101 1
47, 61, 83 1
49, 63, 85 1
52, 66, 89 1
59, 73, 96 1
64, 78, 106 1
68, 83, 115 1
71, 87, 123 1
76, 93, 132 1
101, 117, 159 1
116, 134, 175 1
120, 138, 179 1
123, 141, 182 1
118, 139, 184 1
116, 139, 187 1
120, 143, 193 1
134, 154, 202 1
139, 159, 207 1
144, 161, 210 1
143, 160, 211 1
119, 138, 189 1
133, 153, 210 1
132, 151, 212 1
132, 150, 213 1
125, 143, 206 1
115, 133, 196 1
109, 126, 189 1
97, 112, 174 1
78, 92, 151 1
61, 74, 130 1
64, 74, 128 1
73, 82, 132 1
77, 84, 133 1
86, 93, 142 1
88, 96, 143 1
85, 94, 138 1
87, 96, 140 1
85, 97, 139 1
95, 110, 149 1
88, 92, 133 1
71, 75, 116 1
62, 64, 105 1
55, 56, 100 1
53, 52, 96 1
68, 67, 111 1
89, 87, 133 1
94, 94, 140 1
87, 93, 136 1
83, 89, 132 1
78, 84, 127 1
76, 82, 123 1
78, 84, 125 1
80, 86, 127 1
85, 89, 124 1
88, 92, 127 1
91, 97, 132 1
96, 102, 139 1
99, 105, 142 1
101, 107, 144 1
101, 106, 145 1
99, 104, 143 1
97, 105, 142 1
95, 103, 140 1
93, 101, 138 1
90, 99, 133 1
86, 95, 129 1
85, 94, 127 1
59, 53, 54 1
58, 52, 53 1
57, 50, 53 1
54, 47, 50 1
53, 46, 49 1
52, 38, 42 1
52, 41, 49 1
58, 48, 60 1
67, 58, 71 1
84, 76, 93 1
105, 99, 118 1
115, 112, 134 1
114, 114, 138 1
114, 115, 143 1
112, 116, 145 1
111, 116, 147 1
111, 118, 151 1
114, 123, 156 1
122, 131, 165 1
115, 132, 171 1
119, 136, 175 1
120, 137, 176 1
124, 139, 178 1
125, 140, 179 1
121, 137, 174 1
115, 132, 165 1
107, 122, 154 1
89, 106, 133 1
71, 88, 114 1
60, 77, 98 1
52, 67, 86 1
48, 62, 81 1
62, 80, 111 1
67, 86, 121 1
98, 120, 162 1
110, 131, 176 1
123, 144, 189 1
142, 160, 207 1
143, 160, 209 1
108, 129, 184 1
121, 141, 198 1
127, 145, 208 1
123, 141, 206 1
110, 128, 191 1
103, 121, 182 1
93, 108, 170 1
79, 93, 152 1
67, 79, 137 1
69, 79, 133 1
77, 85, 138 1
81, 88, 138 1
84, 91, 140 1
89, 97, 144 1
89, 98, 142 1
88, 100, 142 1
85, 99, 141 1
87, 104, 143 1
85, 93, 133 1
64, 70, 111 1
54, 60, 103 1
50, 53, 97 1
53, 56, 101 1
78, 80, 128 1
97, 99, 147 1
98, 102, 151 1
96, 101, 150 1
91, 98, 147 1
84, 94, 141 1
80, 90, 137 1
78, 88, 135 1
78, 89, 133 1
81, 91, 131 1
85, 95, 135 1
92, 101, 144 1
98, 107, 150 1
101, 110, 153 1
102, 111, 154 1
99, 110, 154 1
98, 109, 153 1
96, 108, 150 1
93, 105, 147 1
90, 102, 142 1
86, 99, 137 1
82, 95, 133 1
79, 93, 129 1
56, 52, 57 1
52, 49, 58 1
50, 47, 56 1
44, 38, 49 1
38, 31, 44 1
46, 42, 54 1
71, 66, 81 1
93, 91, 110 1
115, 114, 134 1
126, 126, 150 1
123, 127, 152 1
114, 118, 147 1
111, 119, 149 1
110, 119, 152 1
113, 123, 157 1
115, 127, 163 1
114, 127, 165 1
116, 129, 167 1
120, 132, 172 1
126, 143, 186 1
120, 138, 175 1
110, 127, 160 1
94, 112, 141 1
76, 93, 119 1
58, 74, 97 1
41, 55, 73 1
42, 56, 74 1
45, 59, 77 1
48, 62, 80 1
61, 79, 110 1
65, 85, 120 1
69, 90, 128 1
73, 95, 136 1
79, 101, 143 1
113, 135, 176 1
138, 156, 203 1
143, 158, 207 1
136, 154, 207 1
125, 146, 198 1
100, 121, 176 1
125, 147, 205 1
121, 139, 202 1
119, 137, 200 1
108, 128, 186 1
97, 115, 174 1
85, 101, 160 1
66, 79, 135 1
70, 80, 134 1
80, 88, 141 1
86, 93, 143 1
85, 92, 141 1
90, 98, 145 1
87, 98, 142 1
89, 106, 145 1
82, 91, 134 1
58, 67, 110 1
51, 58, 101 1
46, 52, 97 1
60, 64, 112 1
89, 93, 142 1
99, 104, 153 1
92, 101, 151 1
85, 96, 146 1
80, 94, 142 1
78, 92, 140 1
78, 94, 137 1
80, 96, 139 1
83, 99, 142 1
90, 105, 151 1
95, 110, 156 1
98, 113, 159 1
100, 115, 161 1
101, 116, 162 1
99, 114, 160 1
97, 112, 158 1
93, 109, 152 1
84, 101, 140 1
79, 97, 134 1
76, 95, 130 1
46, 48, 56 1
46, 47, 57 1
48, 48, 60 1
50, 50, 64 1
53, 53, 67 1
55, 54, 74 1
70, 71, 91 1
98, 99, 120 1
113, 117, 141 1
117, 122, 147 1
120, 127, 154 1
119, 130, 158 1
116, 127, 159 1
114, 126, 160 1
112, 126, 162 1
108, 124, 161 1
107, 124, 163 1
110, 126, 168 1
111, 127, 169 1
126, 145, 188 1
118, 136, 173 1
104, 121, 154 1
86, 102, 131 1
64, 79, 105 1
45, 62, 83 1
39, 54, 73 1
39, 55, 72 1
38, 52, 70 1
41, 55, 74 1
49, 63, 82 1
49, 66, 85 1
63, 84, 116 1
69, 92, 130 1
80, 103, 141 1
95, 119, 155 1
109, 132, 170 1
114, 140, 177 1
121, 143, 185 1
135, 153, 200 1
142, 159, 208 1
145, 159, 211 1
115, 137, 189 1
98, 122, 176 1
121, 141, 199 1
115, 134, 195 1
111, 129, 190 1
101, 122, 177 1
87, 107, 162 1
69, 89, 144 1
63, 78, 134 1
65, 78, 134 1
75, 85, 139 1
85, 93, 146 1
89, 96, 145 1
93, 101, 148 1
89, 100, 144 1
89, 104, 143 1
78, 90, 132 1
57, 69, 111 1
46, 57, 101 1
49, 57, 104 1
72, 77, 126 1
98, 102, 153 1
98, 105, 155 1
97, 103, 156 1
95, 103, 156 1
92, 103, 155 1
88, 102, 151 1
85, 100, 149 1
83, 99, 146 1
83, 100, 143 1
87, 106, 151 1
94, 112, 159 1
78, 98, 133 1
40, 45, 54 1
37, 43, 56 1
42, 47, 62 1
54, 58, 76 1
67, 71, 89 1
87, 94, 121 1
121, 129, 158 1
121, 131, 161 1
116, 129, 161 1
111, 126, 159 1
109, 125, 161 1
110, 129, 166 1
111, 131, 172 1
112, 134, 176 1
114, 135, 180 1
116, 135, 180 1
118, 137, 182 1
123, 142, 187 1
127, 146, 189 1
115, 131, 168 1
97, 112, 144 1
49, 65, 88 1
35, 50, 69 1
38, 53, 72 1
43, 57, 79 1
48, 62, 84 1
54, 68, 91 1
56, 74, 97 1
61, 83, 119 1
73, 95, 130 1
80, 102, 137 1
85, 108, 140 1
117, 141, 183 1
124, 147, 192 1
145, 162, 211 1
147, 164, 215 1
98, 124, 178 1
103, 123, 180 1
105, 124, 181 1
99, 115, 174 1
86, 109, 159 1
73, 94, 145 1
59, 80, 132 1
60, 76, 129 1
70, 84, 137 1
81, 94, 146 1
90, 98, 151 1
91, 100, 150 1
95, 102, 151 1
97, 106, 150 1
90, 102, 144 1
91, 103, 145 1
73, 86, 130 1
52, 65, 109 1
44, 54, 101 1
53, 63, 110 1
82, 89, 138 1
101, 108, 158 1
99, 105, 158 1
96, 104, 157 1
93, 104, 156 1
92, 105, 157 1
92, 106, 155 1
90, 106, 153 1
88, 105, 148 1
89, 106, 149 1
88, 111, 157 1
91, 114, 160 1
96, 119, 165 1
106, 126, 174 1
84, 104, 139 1
79, 100, 132 1
46, 55, 65 1
52, 59, 74 1
61, 68, 87 1
78, 85, 105 1
96, 103, 123 1
111, 122, 154 1
117, 129, 163 1
116, 131, 164 1
116, 134, 171 1
113, 135, 171 1
110, 135, 179 1
111, 134, 180 1
113, 133, 180 1
118, 138, 185 1
131, 148, 191 1
122, 139, 178 1
111, 127, 163 1
60, 74, 102 1
39, 53, 76 1
29, 43, 65 1
27, 42, 61 1
47, 61, 84 1
55, 76, 98 1
56, 79, 101 1
58, 79, 106 1
59, 80, 108 1
59, 80, 111 1
58, 79, 111 1
59, 80, 112 1
77, 98, 129 1
96, 123, 157 1
141, 161, 209 1
134, 154, 209 1
109, 135, 189 1
101, 127, 181 1
93, 120, 171 1
85, 109, 163 1
86, 107, 162 1
91, 108, 164 1
84, 101, 157 1
71, 94, 142 1
69, 91, 139 1
65, 87, 135 1
72, 89, 140 1
82, 96, 148 1
90, 103, 155 1
95, 106, 156 1
97, 106, 156 1
102, 109, 158 1
101, 110, 154 1
93, 104, 148 1
92, 104, 146 1
68, 84, 127 1
46, 62, 105 1
38, 51, 97 1
59, 69, 117 1
86, 95, 145 1
101, 107, 160 1
98, 106, 159 1
96, 107, 159 1
95, 108, 160 1
95, 109, 158 1
93, 109, 156 1
92, 108, 154 1
91, 108, 151 1
94, 117, 163 1
105, 127, 175 1
94, 115, 160 1
85, 107, 143 1
78, 99, 130 1
60, 69, 82 1
77, 85, 102 1
90, 100, 118 1
105, 113, 136 1
121, 129, 152 1
117, 131, 167 1
119, 137, 174 1
117, 136, 173 1
114, 135, 173 1
107, 132, 172 1
106, 134, 175 1
106, 133, 177 1
133, 151, 192 1
124, 141, 180 1
113, 127, 163 1
88, 102, 131 1
57, 70, 96 1
28, 41, 63 1
27, 41, 60 1
30, 44, 66 1
40, 54, 77 1
46, 61, 87 1
51, 65, 93 1
52, 75, 97 1
56, 78, 103 1
57, 78, 105 1
55, 77, 105 1
54, 75, 106 1
53, 74, 106 1
64, 84, 115 1
71, 92, 120 1
77, 98, 126 1
81, 102, 133 1
93, 121, 156 1
94, 121, 158 1
132, 152, 207 1
112, 138, 192 1
111, 137, 191 1
105, 132, 183 1
98, 125, 176 1
90, 114, 166 1
83, 104, 156 1
79, 96, 152 1
74, 89, 145 1
67, 91, 137 1
74, 97, 143 1
79, 101, 149 1
88, 105, 154 1
94, 108, 160 1
98, 111, 163 1
103, 114, 164 1
106, 115, 165 1
108, 115, 164 1
106, 115, 159 1
96, 107, 151 1
95, 107, 149 1
92, 107, 146 1
91, 108, 147 1
81, 100, 138 1
68, 85, 128 1
45, 60, 106 1
36, 51, 97 1
62, 74, 122 1
103, 111, 164 1
102, 110, 163 1
103, 114, 166 1
102, 113, 165 1
98, 112, 161 1
96, 112, 159 1
96, 112, 158 1
97, 114, 153 1
93, 117, 163 1
97, 121, 167 1
102, 126, 172 1
93, 113, 154 1
83, 105, 140 1
78, 100, 128 1
67, 84, 103 1
82, 100, 123 1
95, 113, 142 1
109, 127, 158 1
110, 139, 183 1
109, 138, 182 1
109, 138, 183 1
136, 153, 202 1
132, 148, 194 1
121, 137, 173 1
95, 108, 140 1
29, 43, 62 1
25, 39, 58 1
42, 56, 79 1
51, 64, 90 1
54, 68, 97 1
47, 68, 100 1
50, 70, 101 1
53, 74, 102 1
49, 70, 97 1
48, 70, 95 1
50, 71, 93 1
49, 70, 92 1
61, 82, 109 1
66, 87, 115 1
72, 93, 124 1
126, 147, 198 1
98, 115, 171 1
90, 108, 161 1
85, 101, 154 1
77, 93, 146 1
79, 99, 147 1
93, 111, 158 1
99, 118, 163 1
104, 121, 164 1
67, 85, 126 1
45, 62, 105 1
36, 52, 98 1
55, 73, 120 1
82, 99, 148 1
94, 111, 162 1
93, 111, 164 1
92, 113, 165 1
94, 115, 167 1
93, 114, 165 1
92, 114, 162 1
91, 113, 161 1
97, 120, 165 1
107, 126, 171 1
91, 109, 146 1
82, 102, 133 1
81, 98, 119 1
95, 112, 138 1
106, 124, 153 1
120, 139, 174 1
113, 137, 183 1
133, 154, 205 1
133, 149, 195 1
90, 105, 137 1
36, 50, 73 1
29, 44, 63 1
55, 70, 96 1
59, 73, 102 1
58, 72, 101 1
46, 65, 98 1
45, 65, 96 1
45, 66, 94 1
42, 61, 88 1
40, 60, 85 1
42, 63, 85 1
43, 64, 86 1
48, 69, 91 1
58, 77, 104 1
63, 84, 112 1
83, 106, 138 1
84, 107, 139 1
119, 139, 186 1
121, 142, 193 1
112, 129, 185 1
104, 121, 177 1
83, 99, 152 1
71, 91, 139 1
104, 123, 168 1
107, 126, 169 1
107, 124, 167 1
68, 86, 127 1
47, 64, 107 1
39, 56, 99 1
57, 76, 121 1
91, 108, 157 1
92, 111, 162 1
95, 116, 168 1
96, 117, 169 1
96, 117, 168 1
95, 117, 165 1
93, 116, 162 1
92, 115, 161 1
106, 125, 168 1
93, 111, 148 1
82, 100, 129 1
90, 108, 131 1
104, 123, 150 1
113, 133, 164 1
120, 140, 175 1
121, 140, 177 1
111, 140, 185 1
126, 157, 202 1
136, 157, 208 1
128, 145, 184 1
85, 100, 132 1
63, 77, 106 1
46, 63, 96 1
42, 60, 91 1
38, 56, 85 1
31, 50, 77 1
32, 49, 75 1
36, 54, 77 1
39, 57, 80 1
43, 61, 84 1
47, 64, 90 1
53, 72, 99 1
61, 79, 108 1
65, 85, 116 1
72, 93, 125 1
75, 98, 130 1
78, 102, 138 1
109, 129, 176 1
118, 137, 188 1
115, 134, 191 1
114, 131, 187 1
101, 117, 170 1
80, 100, 148 1
75, 93, 140 1
74, 92, 139 1
82, 100, 147 1
93, 112, 157 1
101, 120, 165 1
101, 118, 161 1
84, 103, 141 1
73, 94, 132 1
45, 63, 104 1
40, 57, 100 1
59, 78, 123 1
83, 101, 148 1
93, 110, 159 1
94, 113, 164 1
99, 118, 169 1
98, 119, 171 1
100, 121, 172 1
99, 121, 169 1
97, 120, 166 1
95, 118, 164 1
94, 119, 163 1
104, 123, 166 1
100, 120, 161 1
96, 115, 152 1
92, 111, 146 1
83, 103, 134 1
93, 113, 138 1
107, 127, 158 1
117, 137, 172 1
121, 142, 180 1
120, 141, 179 1
114, 141, 191 1
112, 139, 189 1
111, 138, 188 1
112, 140, 187 1
109, 139, 186 1
107, 140, 185 1
109, 142, 187 1
125, 144, 182 1
104, 123, 158 1
80, 95, 127 1
35, 51, 74 1
29, 46, 67 1
41, 58, 79 1
59, 75, 98 1
65, 80, 106 1
67, 81, 109 1
64, 80, 109 1
45, 60, 92 1
40, 55, 87 1
34, 50, 79 1
29, 44, 70 1
27, 43, 66 1
31, 47, 70 1
35, 52, 73 1
39, 55, 78 1
47, 62, 88 1
52, 69, 96 1
59, 77, 106 1
65, 83, 114 1
68, 87, 120 1
69, 90, 122 1
72, 92, 127 1
116, 135, 192 1
104, 122, 175 1
76, 94, 141 1
79, 97, 144 1
95, 113, 154 1
85, 104, 142 1
60, 78, 119 1
41, 58, 101 1
64, 80, 126 1
95, 112, 161 1
100, 119, 170 1
101, 122, 173 1
101, 123, 171 1
103, 123, 164 1
99, 119, 160 1
89, 108, 143 1
85, 104, 137 1
81, 101, 132 1
80, 98, 127 1
94, 115, 143 1
108, 129, 161 1
118, 140, 176 1
122, 144, 185 1
120, 142, 184 1
111, 141, 190 1
110, 143, 188 1
118, 151, 196 1
121, 154, 199 1
125, 158, 203 1
134, 155, 200 1
121, 140, 178 1
98, 117, 152 1
74, 92, 123 1
56, 73, 100 1
40, 56, 79 1
37, 53, 76 1
50, 67, 88 1
67, 83, 106 1
70, 86, 115 1
66, 81, 113 1
55, 70, 102 1
44, 57, 89 1
36, 50, 79 1
30, 44, 72 1
24, 37, 63 1
21, 35, 58 1
26, 40, 62 1
35, 49, 71 1
50, 65, 91 1
54, 70, 99 1
58, 76, 107 1
63, 80, 113 1
63, 82, 115 1
64, 84, 119 1
68, 88, 123 1
102, 120, 167 1
110, 129, 180 1
118, 135, 191 1
99, 117, 170 1
89, 107, 154 1
80, 98, 145 1
80, 99, 142 1
87, 106, 149 1
43, 62, 100 1
65, 82, 125 1
95, 113, 160 1
100, 120, 168 1
100, 122, 170 1
103, 125, 173 1
99, 123, 169 1
99, 124, 166 1
100, 125, 167 1
96, 117, 155 1
85, 105, 136 1
81, 100, 127 1
109, 131, 167 1
117, 139, 180 1
110, 141, 192 1
115, 148, 193 1
117, 150, 195 1
126, 159, 204 1
119, 138, 176 1
72, 90, 121 1
42, 59, 85 1
44, 60, 83 1
73, 90, 117 1
71, 87, 116 1
64, 79, 111 1
52, 67, 100 1
41, 52, 82 1
33, 45, 73 1
28, 39, 66 1
19, 31, 55 1
14, 27, 49 1
19, 33, 52 1
26, 40, 59 1
30, 44, 63 1
42, 55, 77 1
42, 55, 81 1
44, 58, 86 1
49, 65, 94 1
52, 70, 101 1
62, 81, 116 1
64, 83, 120 1
70, 91, 129 1
109, 129, 177 1
120, 137, 193 1
99, 116, 172 1
91, 109, 156 1
80, 99, 144 1
73, 92, 137 1
71, 90, 133 1
75, 94, 137 1
84, 102, 143 1
47, 64, 103 1
46, 64, 105 1
82, 101, 144 1
100, 124, 170 1
103, 129, 169 1
103, 124, 162 1
91, 110, 143 1
87, 107, 138 1
84, 105, 133 1
84, 103, 130 1
108, 131, 169 1
115, 143, 197 1
113, 144, 197 1
113, 144, 195 1
112, 143, 194 1
112, 145, 191 1
111, 144, 190 1
128, 159, 204 1
136, 158, 200 1
93, 112, 147 1
53, 69, 98 1
44, 61, 87 1
63, 78, 104 1
75, 90, 116 1
78, 92, 120 1
73, 88, 120 1
47, 62, 95 1
38, 49, 77 1
31, 42, 69 1
29, 39, 63 1
20, 31, 53 1
14, 25, 45 1
18, 30, 48 1
24, 36, 54 1
28, 40, 58 1
34, 48, 67 1
36, 48, 72 1
40, 53, 79 1
47, 61, 90 1
52, 67, 99 1
52, 69, 102 1
65, 84, 122 1
73, 92, 130 1
110, 127, 178 1
122, 139, 195 1
125, 142, 199 1
107, 124, 180 1
100, 117, 173 1
79, 98, 143 1
74, 93, 136 1
72, 91, 134 1
73, 93, 134 1
85, 106, 144 1
74, 96, 132 1
55, 72, 111 1
56, 75, 113 1
70, 88, 129 1
81, 100, 143 1
98, 123, 167 1
102, 128, 168 1
90, 111, 142 1
88, 109, 137 1
84, 105, 132 1
83, 102, 129 1
122, 148, 194 1
112, 142, 189 1
128, 157, 202 1
132, 161, 206 1
139, 160, 205 1
140, 161, 206 1
137, 159, 201 1
70, 87, 120 1
50, 66, 95 1
48, 62, 90 1
69, 84, 110 1
79, 93, 121 1
83, 97, 126 1
77, 90, 122 1
46, 60, 96 1
38, 47, 74 1
33, 42, 69 1
31, 41, 65 1
26, 35, 55 1
19, 29, 47 1
21, 31, 48 1
26, 36, 53 1
27, 40, 56 1
34, 46, 64 1
36, 49, 71 1
43, 57, 80 1
53, 67, 95 1
58, 74, 103 1
56, 74, 105 1
55, 74, 107 1
59, 78, 111 1
66, 85, 123 1
73, 91, 132 1
86, 103, 146 1
112, 129, 180 1
125, 142, 198 1
109, 126, 182 1
102, 119, 175 1
72, 92, 133 1
79, 101, 137 1
71, 89, 126 1
64, 83, 121 1
68, 87, 125 1
78, 96, 137 1
82, 102, 143 1
98, 123, 165 1
98, 124, 164 1
89, 110, 141 1
87, 108, 136 1
82, 103, 130 1
108, 135, 172 1
116, 145, 196 1
116, 146, 195 1
116, 146, 193 1
117, 147, 194 1
118, 147, 192 1
122, 151, 195 1
127, 156, 200 1
130, 159, 203 1
137, 156, 199 1
121, 138, 177 1
98, 116, 153 1
74, 91, 124 1
54, 69, 101 1
52, 66, 95 1
83, 97, 125 1
85, 99, 128 1
80, 93, 125 1
67, 79, 113 1
52, 64, 100 1
45, 54, 81 1
41, 50, 77 1
39, 47, 70 1
32, 41, 61 1
29, 39, 56 1
35, 46, 60 1
40, 51, 65 1
43, 53, 70 1
41, 53, 71 1
40, 54, 73 1
66, 82, 111 1
76, 94, 135 1
86, 105, 150 1
101, 119, 166 1
114, 131, 182 1
122, 140, 193 1
130, 147, 203 1
103, 120, 176 1
103, 122, 167 1
100, 119, 164 1
86, 105, 148 1
83, 103, 144 1
75, 96, 134 1
75, 94, 131 1
77, 96, 134 1
80, 100, 141 1
100, 124, 166 1
96, 122, 162 1
96, 123, 160 1
97, 124, 161 1
99, 121, 156 1
95, 118, 150 1
93, 114, 145 1
87, 108, 135 1
83, 104, 131 1
109, 135, 175 1
120, 147, 198 1
119, 146, 197 1
119, 147, 194 1
120, 148, 195 1
130, 157, 201 1
133, 160, 204 1
137, 158, 203 1
139, 158, 203 1
135, 154, 197 1
123, 139, 181 1
101, 119, 156 1
77, 93, 129 1
57, 72, 104 1
65, 79, 108 1
78, 92, 121 1
86, 100, 129 1
87, 100, 132 1
81, 93, 127 1
69, 81, 117 1
56, 68, 104 1
52, 60, 89 1
49, 58, 85 1
49, 60, 82 1
44, 53, 73 1
40, 50, 67 1
50, 61, 75 1
59, 70, 84 1
63, 74, 88 1
57, 70, 86 1
55, 69, 88 1
60, 74, 97 1
69, 83, 111 1
68, 86, 115 1
58, 78, 109 1
77, 96, 139 1
105, 122, 171 1
116, 135, 186 1
124, 141, 197 1
131, 148, 205 1
86, 106, 147 1
82, 103, 141 1
80, 101, 139 1
78, 101, 139 1
76, 99, 137 1
81, 100, 137 1
96, 121, 161 1
92, 119, 156 1
93, 120, 157 1
95, 122, 159 1
97, 123, 160 1
91, 112, 143 1
86, 107, 134 1
116, 144, 185 1
124, 153, 197 1
137, 156, 201 1
127, 145, 186 1
108, 125, 164 1
83, 99, 135 1
66, 81, 114 1
61, 76, 108 1
69, 83, 112 1
81, 95, 124 1
90, 104, 133 1
90, 103, 135 1
84, 96, 130 1
70, 84, 120 1
58, 72, 108 1
52, 63, 91 1
51, 62, 90 1
57, 67, 91 1
50, 61, 81 1
46, 56, 74 1
59, 69, 86 1
74, 85, 99 1
76, 89, 103 1
71, 84, 100 1
69, 83, 102 1
74, 91, 118 1
70, 88, 117 1
53, 73, 108 1
59, 79, 114 1
76, 95, 138 1
112, 129, 178 1
83, 106, 144 1
86, 111, 151 1
88, 115, 152 1
91, 117, 154 1
93, 119, 156 1
95, 121, 158 1
92, 116, 146 1
91, 113, 141 1
87, 109, 137 1
85, 106, 133 1
106, 132, 168 1
116, 142, 182 1
121, 149, 190 1
132, 154, 206 1
130, 154, 206 1
128, 155, 199 1
131, 150, 195 1
118, 135, 174 1
92, 110, 147 1
74, 90, 126 1
67, 84, 117 1
70, 85, 117 1
79, 94, 126 1
92, 107, 140 1
87, 102, 135 1
74, 88, 124 1
60, 73, 111 1
54, 65, 97 1
54, 64, 94 1
60, 71, 98 1
54, 67, 89 1
48, 59, 79 1
61, 74, 90 1
78, 91, 107 1
81, 94, 110 1
74, 88, 110 1
76, 91, 117 1
77, 93, 122 1
68, 88, 119 1
55, 77, 113 1
97, 115, 162 1
94, 116, 158 1
93, 114, 152 1
82, 108, 145 1
83, 109, 146 1
90, 116, 153 1
92, 118, 154 1
101, 123, 158 1
94, 118, 148 1
120, 146, 186 1
135, 162, 206 1
132, 155, 205 1
130, 153, 203 1
126, 152, 199 1
125, 151, 198 1
129, 152, 197 1
129, 150, 195 1
132, 153, 198 1
71, 90, 123 1
78, 96, 127 1
88, 106, 137 1
91, 108, 141 1
87, 103, 139 1
75, 91, 127 1
61, 77, 114 1
56, 68, 102 1
55, 66, 98 1
60, 71, 101 1
56, 67, 94 1
48, 61, 83 1
60, 74, 93 1
77, 91, 109 1
79, 93, 116 1
79, 96, 123 1
77, 95, 126 1
69, 88, 121 1
63, 84, 122 1
73, 96, 134 1
91, 111, 158 1
110, 130, 178 1
99, 123, 153 1
82, 104, 129 1
113, 139, 176 1
124, 149, 189 1
136, 159, 209 1
134, 157, 207 1
131, 154, 202 1
128, 151, 196 1
135, 157, 199 1
88, 107, 144 1
74, 94, 129 1
73, 92, 125 1
80, 100, 131 1
79, 98, 133 1
66, 84, 121 1
57, 70, 108 1
53, 65, 101 1
56, 69, 101 1
55, 67, 95 1
59, 72, 94 1
70, 84, 103 1
80, 94, 116 1
82, 97, 123 1
82, 98, 127 1
78, 95, 128 1
69, 88, 125 1
70, 92, 133 1
114, 133, 184 1
117, 138, 190 1
127, 145, 204 1
128, 146, 205 1
121, 139, 192 1
97, 121, 151 1
94, 116, 144 1
119, 142, 180 1
128, 152, 194 1
138, 162, 208 1
135, 158, 206 1
131, 154, 199 1
119, 140, 178 1
81, 101, 136 1
78, 99, 131 1
89, 110, 142 1
85, 105, 140 1
73, 92, 129 1
64, 76, 116 1
55, 68, 106 1
57, 69, 105 1
57, 70, 102 1
56, 68, 96 1
61, 75, 98 1
71, 85, 107 1
81, 95, 117 1
87, 101, 124 1
89, 103, 131 1
85, 103, 134 1
78, 97, 132 1
74, 94, 135 1
102, 122, 170 1
109, 130, 181 1
130, 150, 208 1
87, 113, 153 1
97, 119, 154 1
93, 117, 147 1
85, 108, 134 1
123, 145, 186 1
131, 155, 197 1
139, 163, 209 1
136, 159, 207 1
129, 155, 201 1
128, 154, 200 1
124, 154, 195 1
129, 158, 197 1
128, 153, 197 1
134, 156, 198 1
103, 125, 161 1
85, 107, 142 1
81, 102, 134 1
91, 112, 144 1
67, 81, 123 1
56, 69, 107 1
58, 71, 103 1
57, 71, 99 1
62, 75, 101 1
85, 99, 122 1
93, 108, 134 1
94, 111, 138 1
89, 107, 138 1
93, 116, 161 1
110, 132, 180 1
118, 139, 191 1
123, 143, 201 1
128, 148, 206 1
94, 118, 160 1
89, 115, 155 1
86, 112, 152 1
90, 114, 144 1
84, 107, 133 1
125, 151, 188 1
134, 159, 199 1
139, 164, 204 1
135, 163, 204 1
130, 154, 200 1
113, 132, 175 1
84, 103, 140 1
89, 108, 145 1
73, 90, 123 1
57, 74, 107 1
51, 68, 101 1
55, 73, 104 1
60, 78, 107 1
69, 87, 116 1
90, 110, 141 1
87, 109, 144 1
84, 106, 147 1
91, 112, 157 1
101, 124, 170 1
113, 133, 188 1
110, 131, 183 1
95, 118, 163 1
95, 119, 161 1
83, 110, 144 1
84, 111, 145 1
90, 116, 152 1
91, 117, 153 1
128, 154, 191 1
143, 167, 209 1
128, 152, 198 1
123, 142, 185 1
104, 122, 163 1
85, 104, 141 1
78, 94, 130 1
62, 79, 112 1
54, 71, 104 1
54, 72, 103 1
93, 112, 145 1
96, 116, 151 1
91, 113, 149 1
97, 121, 163 1
95, 120, 160 1
85, 112, 146 1
90, 117, 151 1
133, 158, 198 1
138, 163, 203 1
119, 137, 178 1
83, 102, 139 1
85, 101, 137 1
70, 86, 122 1
60, 76, 112 1
55, 72, 105 1
52, 71, 104 1
86, 105, 138 1
100, 120, 155 1
97, 118, 156 1
99, 122, 167 1
89, 113, 143 1
77, 102, 128 1
127, 147, 194 1
130, 148, 189 1
112, 130, 171 1
89, 107, 144 1
76, 94, 131 1
65, 83, 120 1
54, 73, 108 1
56, 75, 108 1
82, 102, 137 1
94, 114, 149 1
100, 122, 158 1
88, 112, 142 1
139, 164, 206 1
132, 151, 196 1
137, 154, 197 1
93, 112, 150 1
93, 110, 149 1
83, 100, 139 1
73, 90, 129 1
58, 76, 113 1
56, 76, 111 1
76, 95, 132 1
88, 110, 146 1
107, 128, 173 1
94, 117, 155 1
145, 168, 213 1
131, 151, 192 1
90, 106, 148 1
82, 99, 138 1
65, 84, 121 1
62, 81, 118 1
111, 132, 183 1
99, 121, 162 1
143, 166, 212 1
139, 162, 208 1
118, 143, 185 1
125, 146, 191 1
119, 139, 180 1
105, 125, 166 1
96, 116, 157 1
97, 116, 159 1
91, 109, 150 1
75, 94, 132 1
72, 93, 131 1
127, 150, 200 1
112, 132, 187 1
108, 129, 180 1
141, 164, 209 1
140, 163, 208 1
140, 163, 209 1
118, 145, 189 1
115, 143, 184 1
122, 145, 190 1
112, 134, 175 1
106, 124, 165 1
90, 108, 149 1
74, 95, 133 1
68, 91, 129 1
84, 109, 149 1
100, 125, 165 1
128, 153, 203 1
110, 131, 186 1
108, 130, 182 1
89, 112, 144 1
138, 161, 206 1
138, 161, 207 1
115, 145, 186 1
115, 144, 181 1
114, 143, 182 1
123, 147, 189 1
125, 149, 191 1
126, 150, 192 1
107, 125, 166 1
101, 121, 162 1
94, 114, 155 1
79, 105, 142 1
131, 156, 206 1
119, 140, 195 1
109, 131, 183 1
126, 155, 194 1
117, 145, 186 1
114, 144, 185 1
113, 142, 181 1
120, 144, 186 1
108, 127, 170 1
104, 124, 165 1
98, 118, 159 1
83, 108, 148 1
130, 155, 205 1
120, 141, 196 1
117, 136, 179 1
112, 131, 174 1
109, 128, 171 1
110, 135, 177 1
116, 143, 187 1
129, 150, 205 1
110, 133, 183 1
101, 126, 166 1
117, 146, 183 1
121, 150, 187 1
119, 148, 185 1
118, 147, 184 1
111, 140, 177 1
113, 139, 185 1
113, 132, 177 1
125, 152, 202 1
127, 154, 205 1
92, 114, 150 1
134, 160, 200 1
127, 158, 197 1
125, 156, 195 1
120, 151, 190 1
117, 149, 185 1
115, 147, 183 1
115, 145, 180 1
118, 148, 183 1
116, 146, 181 1
112, 142, 177 1
109, 137, 172 1
111, 139, 174 1
113, 139, 179 1
123, 146, 191 1
121, 139, 186 1
117, 135, 182 1
117, 136, 181 1
111, 132, 177 1
116, 142, 188 1
119, 145, 191 1
126, 153, 204 1
128, 155, 206 1
79, 106, 132 1
131, 157, 197 1
133, 159, 199 1
124, 155, 194 1
121, 152, 191 1
119, 151, 187 1
112, 144, 179 1
111, 141, 176 1
109, 140, 173 1
106, 137, 170 1
105, 136, 169 1
106, 134, 168 1
104, 132, 166 1
106, 133, 167 1
109, 135, 171 1
110, 137, 174 1
115, 139, 185 1
121, 141, 188 1
123, 140, 189 1
119, 136, 185 1
120, 138, 185 1
115, 135, 182 1
111, 131, 178 1
122, 149, 199 1
125, 152, 203 1
126, 152, 206 1
127, 153, 207 1
130, 154, 208 1
130, 156, 196 1
118, 149, 188 1
113, 145, 181 1
110, 142, 177 1
108, 140, 175 1
100, 131, 164 1
99, 130, 163 1
99, 130, 161 1
96, 125, 156 1
95, 124, 155 1
112, 136, 178 1
123, 143, 191 1
126, 143, 192 1
114, 136, 184 1
115, 137, 185 1
100, 119, 156 1
98, 117, 154 1
119, 147, 188 1
113, 146, 185 1
114, 147, 186 1
110, 142, 178 1
106, 138, 173 1
103, 135, 170 1
101, 132, 165 1
97, 128, 161 1
94, 125, 156 1
93, 124, 155 1
94, 123, 154 1
93, 122, 153 1
92, 121, 152 1
90, 119, 150 1
109, 131, 172 1
122, 142, 189 1
125, 145, 193 1
127, 144, 193 1
129, 146, 197 1
123, 140, 191 1
124, 141, 192 1
118, 140, 188 1
120, 142, 190 1
122, 145, 193 1
123, 148, 204 1
103, 128, 170 1
102, 121, 158 1
121, 149, 183 1
122, 150, 185 1
118, 145, 182 1
118, 146, 177 1
115, 143, 174 1
113, 141, 171 1
112, 140, 170 1
111, 137, 167 1
108, 135, 162 1
101, 126, 152 1
95, 120, 146 1
90, 115, 141 1
126, 143, 199 1
121, 143, 195 1
123, 149, 203 1
119, 146, 202 1
117, 144, 200 1
114, 141, 197 1
109, 133, 187 1
87, 116, 143 1
115, 143, 177 1
117, 145, 180 1
118, 146, 181 1
119, 145, 181 1
111, 139, 169 1
108, 136, 166 1
106, 133, 160 1
97, 122, 148 1
94, 119, 145 1
90, 116, 140 1
87, 112, 138 1
85, 110, 136 1
82, 107, 133 1
81, 109, 140 1
109, 134, 174 1
110, 134, 176 1
115, 138, 183 1
129, 149, 196 1
116, 143, 199 1
113, 140, 196 1
110, 137, 193 1
116, 139, 195 1
104, 128, 174 1
109, 137, 168 1
115, 141, 177 1
112, 138, 174 1
109, 136, 163 1
102, 127, 153 1
99, 124, 150 1
95, 121, 145 1
92, 116, 140 1
90, 114, 138 1
89, 113, 137 1
86, 110, 134 1
77, 103, 133 1
104, 130, 166 1
128, 151, 197 1
127, 148, 200 1
120, 145, 201 1
118, 143, 199 1
109, 136, 192 1
105, 129, 175 1
102, 130, 161 1
103, 131, 162 1
105, 133, 164 1
105, 132, 166 1
106, 131, 157 1
103, 129, 153 1
100, 126, 150 1
98, 124, 148 1
98, 122, 146 1
87, 111, 133 1
89, 112, 134 1
87, 110, 132 1
85, 108, 130 1
112, 137, 177 1
119, 144, 200 1
116, 141, 197 1
111, 136, 186 1
103, 127, 149 1
101, 125, 147 1
100, 124, 146 1
97, 121, 143 1
93, 118, 138 1
91, 115, 135 1
88, 112, 132 1
84, 108, 128 1
83, 107, 127 1
82, 103, 124 1
80, 101, 122 1
78, 99, 120 1
76, 97, 118 1
77, 98, 119 1
78, 99, 121 1
77, 98, 120 1
70, 96, 120 1
74, 100, 124 1
81, 106, 132 1
111, 137, 173 1
113, 138, 178 1
116, 141, 181 1
117, 142, 198 1
114, 139, 195 1
112, 137, 193 1
87, 114, 141 1
97, 122, 142 1
96, 121, 141 1
96, 120, 138 1
93, 117, 135 1
90, 114, 132 1
87, 111, 129 1
86, 108, 126 1
83, 105, 123 1
81, 103, 121 1
78, 100, 118 1
73, 95, 113 1
70, 91, 112 1
72, 93, 114 1
69, 93, 115 1
72, 96, 118 1
84, 109, 135 1
92, 116, 144 1
110, 135, 167 1
114, 138, 174 1
118, 143, 183 1
119, 143, 185 1
120, 143, 199 1
111, 136, 192 1
109, 134, 190 1
102, 126, 178 1
85, 112, 133 1
88, 113, 129 1
87, 112, 128 1
86, 111, 127 1
85, 110, 126 1
69, 91, 109 1
67, 91, 111 1
88, 111, 137 1
97, 121, 149 1
108, 132, 162 1
113, 138, 172 1
114, 140, 176 1
118, 144, 181 1
121, 146, 186 1
111, 133, 191 1
106, 129, 185 1
100, 124, 178 1
79, 104, 124 1
80, 105, 125 1
73, 96, 112 1
70, 93, 109 1
70, 92, 110 1
75, 98, 120 1
81, 105, 129 1
91, 114, 140 1
109, 134, 166 1
117, 143, 180 1
122, 147, 187 1
128, 152, 204 1
110, 132, 190 1
105, 128, 184 1
100, 124, 176 1
74, 103, 130 1
73, 98, 114 1
76, 100, 118 1
79, 103, 121 1
77, 103, 117 1
82, 108, 122 1
83, 109, 123 1
79, 105, 119 1
82, 105, 121 1
72, 95, 111 1
68, 91, 107 1
60, 82, 100 1
69, 93, 113 1
87, 111, 135 1
93, 117, 145 1
123, 149, 186 1
127, 152, 196 1
126, 150, 202 1
112, 134, 192 1
107, 130, 186 1
104, 128, 182 1
103, 127, 181 1
68, 91, 106 1
73, 99, 113 1
78, 101, 116 1
69, 92, 108 1
65, 88, 104 1
61, 81, 98 1
58, 81, 97 1
72, 96, 116 1
121, 147, 184 1
107, 131, 185 1
74, 104, 131 1
65, 87, 99 1
68, 89, 104 1
67, 93, 105 1
72, 98, 110 1
73, 99, 111 1
70, 96, 110 1
72, 95, 110 1
74, 97, 112 1
73, 96, 111 1
67, 90, 106 1
66, 89, 105 1
59, 80, 95 1
55, 76, 91 1
67, 89, 107 1
91, 116, 142 1
117, 143, 179 1
119, 146, 183 1
121, 147, 187 1
127, 150, 198 1
123, 146, 194 1
60, 86, 98 1
66, 92, 104 1
70, 94, 106 1
67, 90, 105 1
62, 85, 100 1
60, 83, 98 1
59, 82, 97 1
62, 81, 94 1
56, 78, 90 1
55, 78, 94 1
68, 92, 110 1
74, 98, 120 1
84, 110, 134 1
107, 135, 166 1
116, 144, 179 1
120, 148, 183 1
125, 152, 189 1
120, 144, 190 1
125, 148, 196 1
119, 144, 194 1
118, 142, 194 1
115, 139, 191 1
108, 131, 179 1
58, 79, 87 1
55, 80, 90 1
62, 87, 97 1
65, 90, 100 1
64, 89, 99 1
69, 91, 103 1
68, 90, 102 1
64, 86, 98 1
61, 83, 95 1
59, 81, 92 1
57, 77, 88 1
57, 80, 95 1
62, 87, 103 1
67, 93, 110 1
77, 102, 122 1
80, 106, 130 1
89, 116, 142 1
112, 140, 171 1
117, 145, 179 1
123, 151, 185 1
128, 156, 190 1
122, 146, 192 1
112, 138, 185 1
108, 136, 183 1
106, 134, 181 1
81, 114, 140 1
55, 74, 81 1
54, 73, 80 1
61, 84, 92 1
65, 88, 96 1
64, 86, 97 1
67, 89, 100 1
66, 88, 99 1
66, 85, 98 1
63, 82, 95 1
64, 84, 95 1
59, 79, 90 1
53, 75, 86 1
56, 76, 87 1
53, 77, 89 1
57, 83, 97 1
61, 86, 102 1
68, 94, 111 1
72, 99, 119 1
81, 110, 131 1
91, 119, 143 1
96, 126, 151 1
104, 133, 160 1
110, 138, 168 1
115, 144, 175 1
121, 150, 181 1
117, 144, 181 1
120, 147, 184 1
123, 150, 187 1
123, 149, 189 1
120, 145, 187 1
111, 138, 182 1
105, 134, 179 1
108, 135, 179 1
107, 135, 176 1
108, 133, 175 1
105, 131, 171 1
104, 130, 170 1
50, 70, 75 1
50, 69, 76 1
62, 85, 93 1
52, 74, 80 1
55, 77, 83 1
51, 76, 86 1
53, 79, 91 1
56, 82, 96 1
62, 88, 104 1
65, 93, 110 1
72, 102, 121 1
78, 107, 128 1
82, 113, 136 1
91, 121, 146 1
97, 126, 153 1
100, 129, 156 1
103, 133, 160 1
113, 141, 176 1
114, 141, 178 1
111, 137, 177 1
108, 134, 174 1
105, 133, 174 1
104, 131, 175 1
103, 132, 176 1
103, 133, 174 1
102, 132, 173 1
104, 131, 168 1
105, 128, 160 1
95, 120, 154 1
86, 116, 143 1
44, 64, 69 1
41, 61, 66 1
41, 60, 67 1
57, 79, 85 1
56, 78, 84 1
49, 74, 84 1
49, 76, 86 1
51, 77, 89 1
57, 84, 98 1
54, 83, 98 1
62, 90, 107 1
65, 95, 114 1
69, 100, 121 1
80, 111, 134 1
86, 116, 141 1
88, 118, 143 1
91, 120, 147 1
105, 133, 167 1
101, 129, 163 1
95, 124, 163 1
96, 125, 164 1
95, 125, 166 1
96, 126, 167 1
99, 129, 170 1
100, 129, 168 1
99, 128, 167 1
99, 126, 163 1
104, 128, 158 1
94, 119, 153 1
47, 59, 65 1
43, 56, 64 1
50, 66, 73 1
45, 73, 74 1
48, 76, 77 1
49, 78, 82 1
50, 79, 84 1
50, 78, 85 1
52, 78, 85 1
49, 75, 82 1
45, 67, 78 1
42, 64, 76 1
40, 64, 76 1
56, 75, 82 1
54, 76, 87 1
48, 72, 84 1
52, 75, 90 1
53, 78, 94 1
66, 91, 111 1
73, 98, 118 1
77, 101, 123 1
91, 115, 139 1
89, 114, 140 1
96, 124, 159 1
96, 122, 159 1
94, 120, 157 1
93, 118, 150 1
100, 126, 156 1
103, 130, 156 1
108, 133, 167 1
92, 123, 156 1
82, 113, 144 1
45, 57, 63 1
41, 55, 61 1
37, 65, 66 1
40, 68, 69 1
42, 71, 75 1
45, 74, 79 1
44, 72, 79 1
47, 75, 82 1
51, 77, 84 1
54, 75, 83 1
38, 62, 74 1
46, 64, 71 1
56, 75, 83 1
55, 77, 88 1
50, 73, 88 1
53, 77, 95 1
61, 86, 106 1
67, 92, 112 1
77, 100, 122 1
79, 103, 125 1
81, 104, 130 1
84, 108, 136 1
83, 108, 140 1
93, 120, 154 1
85, 111, 147 1
87, 113, 149 1
81, 108, 142 1
90, 117, 144 1
101, 128, 155 1
81, 112, 143 1
45, 61, 67 1
33, 61, 62 1
43, 72, 77 1
43, 71, 78 1
47, 73, 80 1
50, 76, 83 1
52, 73, 81 1
46, 68, 79 1
41, 63, 75 1
43, 61, 68 1
45, 63, 70 1
58, 80, 91 1
51, 74, 89 1
50, 73, 89 1
52, 76, 94 1
63, 87, 107 1
64, 88, 108 1
62, 86, 106 1
67, 88, 109 1
66, 89, 111 1
65, 88, 110 1
66, 88, 113 1
76, 99, 125 1
81, 106, 138 1
82, 110, 141 1
80, 106, 136 1
79, 105, 135 1
99, 123, 151 1
103, 127, 155 1
101, 125, 153 1
96, 120, 148 1
88, 117, 148 1
38, 50, 56 1
37, 51, 57 1
30, 56, 56 1
32, 57, 59 1
40, 66, 72 1
38, 64, 70 1
39, 65, 72 1
44, 67, 75 1
47, 71, 77 1
45, 64, 72 1
50, 71, 86 1
50, 72, 90 1
57, 79, 97 1
64, 86, 104 1
65, 84, 105 1
64, 83, 104 1
60, 81, 102 1
58, 79, 100 1
58, 80, 105 1
64, 86, 111 1
71, 94, 120 1
70, 95, 121 1
70, 94, 122 1
71, 95, 123 1
73, 97, 125 1
74, 101, 128 1
72, 96, 124 1
69, 93, 121 1
100, 122, 150 1
104, 125, 156 1
103, 124, 155 1
104, 131, 165 1
95, 123, 157 1
88, 116, 150 1
87, 116, 147 1
38, 52, 58 1
30, 54, 54 1
31, 55, 55 1
35, 60, 62 1
39, 64, 68 1
36, 62, 68 1
33, 59, 65 1
35, 59, 65 1
44, 66, 72 1
46, 68, 74 1
48, 69, 77 1
39, 56, 65 1
45, 62, 71 1
51, 70, 78 1
55, 75, 86 1
56, 75, 88 1
57, 76, 89 1
58, 77, 92 1
54, 72, 89 1
50, 68, 85 1
53, 71, 88 1
61, 79, 96 1
63, 80, 99 1
59, 76, 95 1
53, 73, 91 1
50, 69, 90 1
54, 75, 96 1
59, 80, 101 1
62, 85, 107 1
67, 90, 112 1
69, 92, 114 1
68, 92, 114 1
66, 90, 112 1
63, 87, 109 1
62, 86, 110 1
50, 79, 100 1
55, 84, 105 1
62, 88, 112 1
64, 90, 114 1
63, 89, 113 1
59, 85, 109 1
57, 82, 108 1
60, 83, 109 1
73, 95, 123 1
80, 102, 130 1
99, 120, 151 1
106, 125, 158 1
87, 115, 149 1
84, 112, 142 1
95, 123, 154 1
39, 51, 55 1
38, 50, 54 1
36, 48, 52 1
33, 48, 51 1
34, 49, 52 1
33, 55, 53 1
32, 56, 56 1
37, 60, 62 1
38, 63, 65 1
38, 63, 67 1
43, 62, 69 1
47, 68, 76 1
53, 73, 84 1
53, 69, 76 1
42, 59, 68 1
48, 65, 74 1
53, 70, 79 1
56, 74, 85 1
54, 72, 83 1
56, 73, 86 1
49, 65, 81 1
51, 67, 83 1
58, 74, 90 1
64, 80, 96 1
66, 82, 98 1
66, 82, 99 1
65, 81, 98 1
62, 78, 95 1
57, 75, 92 1
56, 74, 91 1
55, 75, 92 1
60, 80, 98 1
61, 83, 101 1
60, 84, 102 1
58, 82, 100 1
57, 81, 99 1
51, 77, 94 1
52, 78, 95 1
53, 78, 98 1
54, 79, 99 1
56, 81, 101 1
57, 81, 103 1
60, 84, 108 1
66, 89, 115 1
86, 108, 136 1
95, 116, 147 1
103, 122, 155 1
107, 126, 161 1
109, 128, 163 1
86, 114, 148 1
86, 114, 145 1
85, 113, 144 1
85, 113, 143 1
86, 114, 144 1
87, 115, 145 1
100, 129, 160 1
