69, 43, 36 241
70, 44, 37 233
71, 43, 36 225
69, 44, 34 210
72, 44, 37 186
70, 45, 35 155
72, 46, 34 151
70, 42, 35 138
71, 45, 38 134
68, 42, 35 127
67, 44, 36 120
73, 45, 38 120
66, 43, 35 102
68, 43, 33 93
64, 43, 35 92
72, 43, 36 88
71, 44, 34 85
73, 47, 35 84
73, 44, 37 81
59, 40, 33 80
72, 45, 35 80
68, 45, 37 79
71, 45, 33 78
63, 42, 34 77
60, 41, 34 75
60, 41, 33 75
61, 42, 35 75
62, 41, 33 72
65, 44, 36 72
65, 42, 34 72
71, 46, 36 64
61, 42, 34 64
58, 39, 32 62
58, 40, 33 61
67, 45, 34 61
59, 41, 34 57
61, 39, 33 55
73, 46, 36 53
62, 43, 36 53
67, 43, 37 53
61, 40, 32 52
63, 41, 35 52
62, 40, 34 50
68, 44, 38 48
62, 43, 35 47
67, 41, 34 47
64, 42, 36 46
59, 40, 32 45
66, 44, 33 45
66, 42, 36 45
72, 46, 39 44
70, 43, 33 43
69, 46, 38 42
60, 42, 35 41
61, 43, 36 41
74, 45, 38 40
63, 43, 32 39
70, 46, 34 39
57, 39, 32 37
65, 43, 37 37
60, 38, 32 37
69, 43, 37 36
68, 42, 36 36
107, 131, 167 35
69, 45, 33 35
70, 44, 32 35
68, 46, 35 34
65, 41, 35 34
74, 46, 39 34
67, 42, 32 34
58, 42, 35 33
69, 41, 34 33
106, 130, 166 31
56, 40, 33 31
66, 45, 37 30
63, 44, 37 30
59, 42, 33 29
64, 44, 33 28
74, 46, 35 28
70, 41, 36 28
71, 42, 35 28
63, 44, 36 27
73, 45, 34 27
71, 42, 37 27
73, 44, 35 26
105, 129, 165 24
64, 41, 33 24
108, 132, 168 23
104, 129, 169 23
71, 47, 35 23
69, 47, 36 23
74, 45, 36 23
64, 40, 34 23
98, 123, 157 22
61, 44, 35 21
65, 45, 34 21
66, 44, 38 21
69, 45, 39 21
74, 48, 36 21
57, 41, 34 20
58, 39, 31 20
62, 44, 33 20
72, 47, 37 20
70, 44, 38 19
72, 44, 33 19
65, 43, 32 19
63, 40, 32 19
99, 121, 157 18
105, 130, 170 18
103, 128, 168 18
99, 124, 158 18
61, 43, 32 18
60, 39, 31 18
60, 43, 34 18
104, 128, 170 17
55, 39, 32 17
70, 47, 39 17
64, 42, 31 17
104, 128, 164 15
106, 128, 164 15
109, 131, 179 15
108, 131, 176 15
102, 127, 167 15
106, 129, 167 15
99, 120, 158 15
104, 130, 167 15
55, 41, 35 15
62, 42, 31 15
64, 45, 37 15
63, 39, 33 15
72, 43, 38 15
68, 40, 33 15
97, 122, 156 14
58, 41, 32 14
63, 46, 37 14
59, 37, 31 14
62, 44, 37 14
67, 45, 39 14
70, 46, 40 14
69, 42, 32 14
107, 131, 173 13
105, 130, 164 13
119, 146, 197 13
107, 130, 168 13
119, 145, 199 13
67, 45, 33 13
76, 44, 38 13
104, 126, 162 12
87, 111, 139 12
106, 129, 175 12
107, 130, 175 12
118, 145, 196 12
106, 131, 165 12
100, 122, 158 12
112, 137, 187 12
109, 132, 178 12
105, 129, 171 12
106, 130, 172 12
125, 148, 194 12
55, 39, 33 12
68, 46, 34 12
57, 38, 31 12
66, 40, 34 12
73, 44, 39 12
72, 48, 36 12
72, 43, 34 12
103, 127, 163 11
95, 116, 148 11
105, 127, 163 11
108, 131, 177 11
84, 108, 136 11
102, 126, 168 11
101, 125, 167 11
102, 128, 165 11
54, 39, 36 11
67, 46, 38 11
65, 46, 38 11
67, 41, 35 11
74, 44, 39 11
109, 133, 169 10
92, 115, 147 10
107, 129, 165 10
107, 132, 172 10
105, 128, 174 10
101, 123, 159 10
113, 138, 188 10
136, 160, 206 10
100, 124, 160 10
126, 149, 195 10
80, 101, 128 10
101, 126, 166 10
58, 39, 34 10
64, 46, 35 10
72, 46, 32 10
71, 45, 39 10
75, 45, 34 10
62, 45, 36 10
68, 44, 32 10
99, 121, 156 9
87, 111, 141 9
103, 129, 166 9
113, 139, 193 9
108, 132, 174 9
94, 115, 146 9
81, 102, 129 9
107, 130, 176 9
114, 141, 192 9
92, 118, 148 9
103, 126, 164 9
100, 125, 159 9
102, 125, 170 9
125, 149, 203 9
135, 159, 205 9
57, 38, 33 9
59, 39, 34 9
57, 38, 30 9
61, 41, 36 9
64, 45, 38 9
69, 40, 35 9
70, 41, 34 9
75, 47, 40 9
74, 44, 33 9
73, 47, 33 9
69, 43, 31 9
70, 44, 30 9
96, 116, 151 8
105, 128, 166 8
91, 117, 147 8
87, 110, 142 8
124, 147, 193 8
109, 134, 184 8
82, 109, 135 8
110, 135, 185 8
106, 130, 176 8
129, 153, 195 8
112, 136, 188 8
114, 138, 190 8
102, 126, 162 8
103, 127, 169 8
131, 153, 194 8
99, 122, 154 8
104, 127, 172 8
129, 152, 197 8
102, 125, 163 8
96, 121, 155 8
104, 127, 165 8
127, 154, 205 8
129, 152, 198 8
131, 154, 200 8
54, 41, 33 8
59, 41, 30 8
66, 40, 33 8
73, 43, 38 8
95, 115, 150 7
86, 113, 140 7
109, 133, 175 7
110, 132, 180 7
104, 129, 163 7
90, 111, 139 7
111, 134, 182 7
86, 110, 138 7
107, 131, 177 7
88, 110, 138 7
111, 136, 186 7
89, 110, 141 7
117, 144, 195 7
109, 130, 181 7
79, 100, 127 7
130, 154, 196 7
108, 129, 180 7
128, 152, 194 7
99, 123, 159 7
124, 151, 201 7
93, 119, 149 7
124, 148, 190 7
129, 151, 193 7
128, 151, 196 7
83, 104, 131 7
84, 105, 132 7
128, 149, 204 7
101, 124, 169 7
133, 156, 202 7
134, 157, 203 7
137, 160, 206 7
100, 126, 163 7
120, 146, 200 7
59, 44, 35 7
58, 38, 33 7
56, 38, 31 7
66, 46, 35 7
67, 47, 36 7
59, 43, 36 7
75, 46, 37 7
70, 48, 37 7
71, 41, 36 7
73, 47, 40 7
76, 47, 38 7
75, 47, 36 7
75, 49, 37 7
98, 118, 153 6
89, 115, 145 6
38, 55, 58 6
47, 59, 65 6
91, 114, 146 6
108, 134, 171 6
88, 112, 142 6
128, 151, 197 6
106, 132, 169 6
110, 131, 182 6
108, 130, 178 6
127, 152, 202 6
123, 150, 201 6
112, 138, 192 6
110, 133, 181 6
102, 124, 160 6
110, 134, 176 6
93, 114, 145 6
112, 139, 190 6
108, 131, 179 6
113, 140, 191 6
134, 158, 204 6
115, 139, 191 6
119, 143, 195 6
130, 152, 193 6
121, 145, 197 6
111, 132, 184 6
83, 102, 129 6
127, 151, 193 6
134, 159, 209 6
129, 156, 207 6
105, 131, 168 6
127, 150, 196 6
131, 158, 209 6
101, 127, 164 6
100, 125, 165 6
126, 153, 204 6
110, 136, 183 6
123, 147, 201 6
139, 164, 208 6
104, 130, 176 6
124, 150, 204 6
104, 131, 175 6
57, 41, 35 6
53, 41, 31 6
59, 40, 35 6
60, 41, 36 6
56, 39, 30 6
66, 47, 40 6
63, 45, 34 6
65, 47, 36 6
56, 43, 35 6
73, 46, 32 6
71, 47, 41 6
60, 42, 31 6
74, 47, 37 6
63, 41, 30 6
59, 38, 30 6
70, 40, 35 6
75, 43, 37 6
62, 39, 31 6
66, 41, 31 6
71, 43, 32 6
77, 45, 32 6
37, 54, 57 5
43, 55, 61 5
88, 114, 144 5
87, 114, 141 5
85, 112, 139 5
110, 134, 170 5
90, 116, 146 5
90, 115, 147 5
102, 123, 161 5
111, 132, 177 5
97, 117, 152 5
108, 130, 166 5
110, 133, 178 5
86, 109, 141 5
93, 114, 146 5
118, 143, 193 5
88, 111, 143 5
128, 153, 197 5
112, 135, 183 5
126, 151, 201 5
86, 107, 139 5
89, 112, 144 5
132, 156, 202 5
91, 112, 143 5
83, 110, 136 5
112, 138, 185 5
109, 135, 182 5
93, 117, 147 5
95, 117, 145 5
83, 108, 140 5
86, 108, 136 5
93, 117, 145 5
84, 111, 138 5
87, 109, 137 5
128, 150, 191 5
98, 122, 158 5
98, 122, 152 5
82, 109, 136 5
121, 148, 198 5
122, 146, 198 5
99, 123, 153 5
82, 101, 128 5
132, 154, 195 5
123, 150, 200 5
131, 153, 195 5
96, 121, 153 5
83, 107, 135 5
97, 122, 154 5
104, 126, 167 5
108, 132, 178 5
107, 128, 173 5
133, 160, 211 5
125, 145, 200 5
103, 128, 162 5
98, 123, 155 5
82, 103, 130 5
84, 103, 130 5
104, 125, 170 5
102, 127, 161 5
124, 148, 202 5
130, 153, 199 5
141, 173, 209 5
138, 169, 208 5
124, 149, 205 5
100, 125, 169 5
125, 150, 206 5
94, 116, 158 5
100, 125, 167 5
120, 147, 198 5
54, 40, 34 5
56, 44, 34 5
57, 47, 40 5
64, 46, 39 5
60, 40, 35 5
60, 44, 37 5
71, 48, 40 5
68, 46, 40 5
61, 45, 38 5
58, 36, 30 5
61, 41, 30 5
65, 46, 39 5
76, 45, 36 5
76, 46, 35 5
71, 48, 33 5
73, 48, 38 5
69, 40, 33 5
71, 45, 31 5
77, 45, 39 5
78, 46, 33 5
64, 45, 32 5
46, 58, 64 4
108, 134, 170 4
105, 132, 166 4
85, 112, 138 4
94, 117, 149 4
92, 117, 151 4
91, 108, 134 4
110, 130, 171 4
111, 131, 172 4
110, 133, 165 4
87, 113, 143 4
81, 110, 141 4
110, 131, 176 4
99, 119, 154 4
88, 112, 140 4
79, 108, 139 4
86, 110, 140 4
107, 132, 174 4
107, 133, 170 4
108, 131, 169 4
84, 107, 139 4
81, 109, 140 4
107, 129, 177 4
108, 133, 173 4
123, 148, 188 4
128, 152, 198 4
108, 135, 186 4
92, 113, 145 4
85, 116, 141 4
76, 100, 128 4
128, 154, 200 4
128, 153, 203 4
98, 119, 150 4
96, 117, 149 4
87, 108, 135 4
128, 153, 193 4
93, 114, 142 4
120, 145, 185 4
131, 155, 197 4
130, 155, 199 4
130, 156, 203 4
129, 155, 202 4
114, 140, 194 4
111, 137, 184 4
92, 113, 144 4
83, 104, 132 4
118, 143, 183 4
131, 156, 196 4
132, 157, 201 4
130, 155, 205 4
96, 118, 146 4
85, 109, 137 4
93, 107, 130 4
91, 105, 128 4
86, 107, 135 4
106, 131, 171 4
84, 111, 137 4
85, 108, 134 4
88, 111, 137 4
125, 147, 188 4
126, 151, 195 4
81, 108, 134 4
79, 107, 137 4
131, 157, 203 4
122, 149, 199 4
110, 131, 183 4
107, 128, 180 4
101, 125, 161 4
85, 106, 134 4
122, 147, 191 4
125, 152, 202 4
80, 107, 134 4
126, 150, 192 4
132, 157, 207 4
131, 156, 206 4
95, 120, 152 4
117, 140, 185 4
128, 156, 203 4
105, 127, 168 4
121, 146, 188 4
100, 121, 159 4
83, 106, 132 4
131, 158, 208 4
127, 151, 205 4
124, 145, 200 4
113, 139, 186 4
106, 127, 172 4
100, 124, 166 4
129, 153, 207 4
115, 141, 188 4
114, 140, 187 4
94, 119, 153 4
128, 155, 206 4
140, 167, 204 4
137, 159, 200 4
96, 118, 160 4
120, 145, 195 4
80, 104, 132 4
101, 124, 156 4
103, 127, 157 4
101, 125, 155 4
103, 126, 158 4
132, 155, 201 4
139, 168, 207 4
125, 152, 203 4
102, 127, 171 4
98, 122, 164 4
148, 179, 212 4
138, 163, 207 4
97, 122, 166 4
150, 182, 217 4
143, 166, 212 4
105, 131, 177 4
96, 121, 161 4
97, 122, 164 4
103, 129, 169 4
85, 107, 135 4
154, 186, 221 4
140, 172, 208 4
141, 161, 208 4
101, 122, 167 4
105, 130, 172 4
103, 120, 153 4
148, 180, 215 4
118, 144, 198 4
100, 127, 171 4
87, 112, 152 4
104, 132, 173 4
104, 129, 171 4
140, 160, 207 4
121, 149, 203 4
116, 143, 200 4
98, 125, 176 4
100, 121, 166 4
103, 130, 181 4
118, 146, 200 4
120, 148, 202 4
93, 119, 155 4
51, 38, 36 4
56, 41, 32 4
53, 38, 35 4
58, 43, 34 4
56, 39, 36 4
57, 37, 32 4
57, 40, 31 4
58, 46, 40 4
60, 44, 38 4
60, 45, 36 4
54, 38, 32 4
68, 48, 37 4
69, 47, 35 4
63, 45, 38 4
63, 44, 39 4
69, 42, 38 4
67, 38, 33 4
55, 37, 30 4
66, 47, 34 4
62, 45, 32 4
75, 46, 39 4
69, 46, 31 4
72, 46, 40 4
60, 40, 29 4
68, 41, 31 4
79, 45, 39 4
75, 44, 35 4
75, 43, 32 4
67, 40, 36 4
39, 56, 59 3
61, 77, 84 3
43, 54, 62 3
82, 101, 122 3
85, 103, 140 3
89, 108, 145 3
108, 135, 169 3
100, 122, 157 3
88, 115, 142 3
88, 113, 139 3
93, 118, 152 3
31, 48, 45 3
51, 67, 73 3
48, 58, 68 3
45, 57, 63 3
65, 81, 97 3
96, 117, 148 3
101, 123, 158 3
102, 124, 159 3
100, 120, 155 3
86, 112, 142 3
93, 116, 148 3
91, 116, 150 3
48, 63, 72 3
62, 74, 86 3
104, 125, 153 3
109, 131, 172 3
112, 134, 175 3
111, 130, 173 3
110, 133, 171 3
111, 134, 172 3
85, 111, 141 3
54, 69, 78 3
49, 60, 68 3
48, 60, 66 3
109, 129, 160 3
118, 141, 186 3
112, 132, 179 3
110, 135, 175 3
109, 135, 172 3
105, 131, 167 3
106, 132, 168 3
84, 110, 140 3
90, 111, 143 3
82, 110, 141 3
55, 66, 74 3
49, 61, 67 3
112, 134, 182 3
106, 128, 176 3
101, 121, 156 3
83, 106, 138 3
85, 108, 140 3
106, 128, 169 3
103, 125, 161 3
88, 110, 145 3
87, 109, 144 3
90, 113, 145 3
76, 88, 106 3
50, 67, 76 3
116, 143, 194 3
110, 137, 188 3
106, 131, 181 3
104, 127, 173 3
106, 129, 174 3
95, 116, 147 3
85, 107, 142 3
89, 111, 139 3
84, 114, 139 3
81, 93, 111 3
127, 152, 196 3
116, 142, 196 3
97, 118, 149 3
130, 154, 200 3
108, 133, 183 3
109, 132, 180 3
101, 122, 153 3
86, 100, 119 3
116, 141, 181 3
131, 156, 200 3
121, 148, 199 3
83, 113, 140 3
122, 147, 187 3
127, 152, 192 3
132, 156, 198 3
131, 156, 198 3
133, 159, 206 3
122, 147, 197 3
113, 137, 189 3
97, 119, 147 3
94, 116, 144 3
83, 110, 137 3
83, 105, 133 3
91, 111, 142 3
131, 157, 204 3
81, 104, 130 3
116, 140, 192 3
109, 132, 177 3
94, 118, 146 3
129, 151, 192 3
123, 149, 196 3
118, 142, 194 3
117, 142, 192 3
125, 150, 194 3
120, 144, 196 3
116, 141, 191 3
77, 105, 135 3
86, 109, 135 3
79, 97, 120 3
78, 99, 126 3
127, 150, 195 3
124, 149, 193 3
127, 153, 199 3
124, 150, 196 3
120, 147, 197 3
123, 147, 199 3
111, 135, 187 3
109, 132, 170 3
89, 107, 130 3
94, 115, 147 3
110, 133, 179 3
100, 123, 155 3
81, 108, 135 3
119, 138, 173 3
97, 117, 148 3
133, 155, 196 3
123, 147, 189 3
123, 148, 192 3
125, 152, 196 3
129, 154, 204 3
108, 128, 183 3
105, 128, 173 3
101, 126, 160 3
95, 121, 151 3
96, 115, 148 3
121, 144, 189 3
123, 148, 190 3
126, 154, 201 3
126, 153, 203 3
130, 157, 207 3
107, 127, 182 3
103, 126, 171 3
79, 106, 133 3
122, 141, 178 3
122, 147, 189 3
125, 155, 202 3
122, 144, 196 3
137, 157, 192 3
102, 121, 158 3
80, 105, 131 3
113, 138, 180 3
133, 158, 208 3
122, 140, 193 3
123, 145, 187 3
121, 142, 187 3
122, 145, 190 3
126, 149, 194 3
123, 146, 191 3
123, 141, 194 3
95, 120, 154 3
98, 121, 166 3
128, 149, 194 3
130, 151, 206 3
101, 124, 162 3
100, 123, 161 3
91, 112, 140 3
143, 171, 206 3
132, 155, 200 3
126, 147, 192 3
114, 138, 180 3
111, 136, 176 3
119, 144, 194 3
114, 139, 179 3
100, 126, 156 3
95, 116, 144 3
80, 102, 130 3
140, 162, 203 3
100, 122, 163 3
120, 144, 198 3
105, 129, 175 3
104, 128, 158 3
138, 163, 205 3
137, 162, 206 3
139, 163, 205 3
104, 128, 174 3
81, 100, 127 3
149, 180, 211 3
140, 163, 208 3
139, 162, 207 3
100, 118, 149 3
152, 183, 216 3
136, 164, 205 3
141, 164, 209 3
110, 136, 173 3
113, 140, 184 3
117, 143, 189 3
119, 143, 197 3
117, 141, 193 3
107, 133, 180 3
105, 128, 160 3
138, 167, 206 3
135, 158, 204 3
91, 111, 146 3
108, 135, 179 3
126, 150, 204 3
98, 123, 163 3
86, 107, 138 3
81, 102, 130 3
136, 159, 205 3
88, 109, 141 3
99, 125, 165 3
106, 132, 178 3
122, 149, 200 3
123, 149, 203 3
95, 120, 160 3
88, 109, 140 3
135, 155, 202 3
106, 134, 181 3
121, 147, 201 3
127, 152, 208 3
103, 130, 174 3
101, 126, 168 3
107, 122, 155 3
98, 117, 150 3
151, 183, 218 3
144, 176, 212 3
127, 151, 209 3
125, 149, 207 3
102, 129, 173 3
97, 119, 161 3
90, 115, 155 3
85, 105, 136 3
147, 179, 215 3
142, 162, 209 3
128, 152, 206 3
124, 148, 206 3
109, 136, 186 3
98, 125, 169 3
137, 169, 205 3
136, 168, 204 3
83, 107, 143 3
106, 132, 186 3
111, 136, 178 3
101, 129, 170 3
85, 106, 133 3
101, 128, 172 3
114, 139, 181 3
124, 151, 202 3
132, 159, 210 3
114, 141, 197 3
125, 153, 207 3
96, 123, 174 3
110, 137, 193 3
30, 47, 74 3
91, 118, 168 3
111, 138, 194 3
100, 125, 175 3
147, 174, 218 3
125, 151, 205 3
137, 163, 210 3
142, 166, 212 3
118, 145, 201 3
137, 161, 203 3
36, 53, 80 3
110, 136, 190 3
90, 115, 165 3
103, 123, 171 3
138, 161, 206 3
77, 102, 136 3
126, 152, 206 3
117, 145, 192 3
144, 171, 215 3
146, 175, 219 3
53, 40, 32 3
49, 37, 35 3
56, 37, 32 3
57, 48, 45 3
59, 47, 43 3
49, 41, 41 3
65, 47, 40 3
59, 38, 36 3
58, 45, 37 3
66, 47, 39 3
69, 49, 38 3
68, 47, 39 3
64, 45, 40 3
62, 42, 37 3
56, 40, 34 3
58, 42, 29 3
55, 42, 34 3
62, 46, 34 3
70, 49, 41 3
67, 42, 38 3
64, 39, 35 3
67, 42, 40 3
65, 40, 36 3
63, 44, 31 3
68, 39, 34 3
68, 41, 37 3
70, 43, 39 3
65, 46, 33 3
76, 48, 41 3
66, 38, 31 3
70, 47, 32 3
68, 47, 32 3
65, 39, 32 3
67, 40, 30 3
78, 44, 38 3
74, 42, 36 3
77, 43, 37 3
71, 42, 33 3
66, 44, 32 3
73, 43, 32 3
75, 48, 34 3
77, 45, 34 3
76, 44, 31 3
43, 59, 65 2
48, 64, 70 2
49, 65, 71 2
51, 67, 74 2
56, 72, 79 2
38, 49, 57 2
42, 54, 60 2
59, 71, 83 2
79, 95, 112 2
80, 97, 116 2
93, 111, 134 2
99, 118, 145 2
92, 112, 143 2
91, 110, 145 2
95, 114, 151 2
99, 118, 156 2
104, 125, 163 2
107, 128, 166 2
109, 131, 167 2
110, 132, 168 2
107, 134, 168 2
106, 133, 167 2
108, 133, 167 2
110, 132, 167 2
103, 125, 160 2
98, 120, 155 2
91, 118, 152 2
63, 79, 86 2
47, 62, 71 2
40, 51, 59 2
85, 102, 123 2
87, 105, 128 2
99, 119, 150 2
103, 123, 158 2
105, 127, 162 2
96, 115, 153 2
95, 113, 154 2
104, 124, 165 2
106, 126, 167 2
109, 136, 170 2
106, 134, 165 2
106, 131, 163 2
107, 132, 164 2
104, 126, 161 2
87, 112, 138 2
89, 114, 140 2
86, 113, 147 2
57, 73, 80 2
67, 83, 90 2
68, 84, 91 2
55, 67, 77 2
63, 74, 88 2
74, 91, 110 2
83, 100, 121 2
88, 106, 129 2
115, 134, 177 2
108, 127, 170 2
109, 135, 171 2
109, 132, 164 2
91, 112, 144 2
89, 114, 148 2
40, 57, 60 2
41, 58, 61 2
70, 86, 93 2
51, 63, 73 2
65, 76, 90 2
78, 93, 119 2
112, 132, 167 2
118, 139, 177 2
116, 138, 180 2
115, 138, 183 2
119, 139, 186 2
116, 136, 183 2
114, 134, 181 2
113, 133, 180 2
109, 129, 176 2
85, 109, 139 2
88, 113, 145 2
61, 77, 83 2
69, 85, 92 2
65, 80, 89 2
52, 63, 71 2
51, 63, 69 2
58, 70, 82 2
64, 75, 89 2
120, 142, 184 2
128, 150, 192 2
131, 154, 199 2
111, 133, 181 2
104, 126, 174 2
107, 133, 173 2
104, 130, 170 2
87, 112, 144 2
82, 105, 137 2
75, 104, 135 2
77, 93, 100 2
59, 70, 78 2
71, 82, 96 2
131, 150, 187 2
122, 143, 188 2
111, 132, 183 2
107, 132, 176 2
89, 114, 146 2
49, 59, 69 2
58, 67, 80 2
56, 73, 86 2
53, 69, 81 2
52, 69, 78 2
48, 64, 76 2
63, 82, 103 2
117, 142, 182 2
126, 151, 193 2
127, 152, 194 2
124, 150, 197 2
125, 150, 200 2
109, 133, 185 2
111, 135, 181 2
109, 133, 179 2
107, 132, 166 2
81, 101, 136 2
86, 108, 143 2
86, 113, 139 2
82, 106, 134 2
74, 101, 128 2
79, 93, 111 2
62, 79, 92 2
61, 78, 97 2
69, 89, 114 2
112, 137, 177 2
125, 150, 190 2
128, 153, 195 2
115, 142, 193 2
111, 137, 191 2
89, 110, 138 2
86, 117, 142 2
81, 105, 133 2
77, 101, 129 2
82, 96, 114 2
81, 97, 114 2
53, 69, 85 2
62, 78, 91 2
49, 65, 78 2
68, 86, 109 2
112, 138, 175 2
127, 153, 200 2
125, 149, 201 2
111, 138, 189 2
111, 134, 184 2
61, 77, 94 2
126, 151, 191 2
130, 155, 195 2
130, 155, 197 2
92, 106, 128 2
78, 95, 114 2
70, 88, 105 2
63, 79, 96 2
74, 93, 120 2
134, 159, 203 2
137, 161, 207 2
135, 161, 208 2
108, 134, 181 2
100, 122, 150 2
95, 119, 149 2
82, 110, 140 2
82, 112, 139 2
83, 112, 139 2
79, 96, 115 2
81, 99, 128 2
105, 126, 158 2
115, 136, 168 2
133, 157, 199 2
133, 158, 202 2
135, 160, 204 2
121, 146, 196 2
98, 120, 148 2
100, 115, 141 2
91, 107, 130 2
62, 79, 98 2
73, 91, 114 2
129, 154, 194 2
131, 155, 201 2
115, 140, 190 2
114, 139, 189 2
92, 116, 144 2
84, 109, 141 2
103, 120, 146 2
85, 103, 126 2
82, 100, 123 2
74, 93, 114 2
114, 136, 171 2
95, 119, 147 2
105, 119, 147 2
107, 124, 151 2
74, 92, 115 2
68, 87, 108 2
76, 96, 121 2
84, 105, 133 2
100, 121, 152 2
124, 146, 187 2
132, 158, 204 2
133, 159, 205 2
128, 154, 201 2
97, 121, 151 2
79, 107, 138 2
112, 130, 161 2
106, 124, 155 2
82, 102, 127 2
83, 102, 123 2
87, 108, 139 2
103, 124, 156 2
100, 124, 154 2
91, 118, 145 2
90, 117, 144 2
86, 111, 137 2
124, 141, 174 2
94, 115, 143 2
87, 106, 133 2
80, 100, 125 2
84, 104, 129 2
127, 149, 190 2
125, 151, 197 2
126, 150, 202 2
115, 137, 189 2
109, 130, 182 2
120, 141, 169 2
128, 147, 180 2
118, 137, 172 2
117, 136, 171 2
114, 133, 166 2
89, 108, 135 2
91, 111, 136 2
90, 110, 135 2
120, 144, 186 2
126, 153, 197 2
125, 147, 199 2
106, 126, 181 2
111, 134, 180 2
94, 120, 150 2
83, 109, 139 2
78, 107, 134 2
121, 139, 176 2
99, 118, 151 2
93, 111, 140 2
90, 108, 137 2
127, 154, 198 2
124, 154, 201 2
131, 152, 183 2
132, 153, 185 2
103, 122, 155 2
102, 121, 156 2
95, 113, 144 2
94, 112, 143 2
100, 119, 156 2
112, 134, 176 2
130, 152, 194 2
131, 159, 206 2
133, 160, 210 2
119, 140, 192 2
109, 129, 184 2
94, 119, 151 2
81, 106, 132 2
128, 147, 185 2
124, 143, 180 2
120, 139, 176 2
117, 137, 172 2
111, 129, 166 2
101, 120, 155 2
101, 118, 151 2
107, 126, 164 2
125, 148, 198 2
125, 149, 191 2
121, 145, 187 2
129, 157, 204 2
130, 158, 205 2
132, 160, 207 2
133, 156, 206 2
123, 144, 196 2
117, 138, 190 2
112, 131, 188 2
110, 130, 185 2
112, 132, 187 2
78, 105, 132 2
141, 162, 194 2
118, 143, 185 2
137, 163, 199 2
137, 163, 200 2
135, 160, 200 2
127, 149, 191 2
112, 135, 180 2
132, 157, 199 2
122, 142, 197 2
108, 129, 174 2
101, 122, 160 2
85, 104, 131 2
140, 166, 202 2
140, 166, 203 2
126, 148, 190 2
124, 145, 190 2
120, 143, 188 2
123, 146, 192 2
130, 157, 208 2
131, 157, 211 2
123, 143, 198 2
80, 103, 129 2
130, 157, 191 2
143, 169, 205 2
122, 146, 188 2
129, 150, 195 2
128, 149, 187 2
125, 148, 193 2
87, 110, 155 2
128, 148, 203 2
124, 142, 195 2
117, 143, 190 2
105, 126, 171 2
103, 124, 162 2
99, 124, 156 2
96, 122, 152 2
78, 103, 129 2
122, 147, 167 2
95, 119, 161 2
126, 147, 202 2
98, 124, 154 2
90, 112, 140 2
147, 175, 209 2
145, 173, 207 2
109, 131, 173 2
102, 124, 166 2
86, 108, 150 2
79, 101, 143 2
103, 124, 169 2
81, 105, 129 2
138, 164, 204 2
137, 160, 205 2
134, 155, 200 2
99, 121, 162 2
87, 109, 150 2
82, 104, 145 2
74, 96, 137 2
68, 90, 131 2
120, 145, 187 2
121, 148, 192 2
124, 144, 199 2
82, 106, 130 2
144, 175, 208 2
141, 170, 207 2
137, 166, 205 2
135, 164, 203 2
136, 161, 203 2
141, 163, 205 2
138, 162, 204 2
136, 159, 204 2
141, 164, 202 2
93, 116, 154 2
84, 107, 145 2
64, 87, 125 2
117, 143, 180 2
123, 149, 195 2
95, 115, 146 2
79, 101, 129 2
145, 176, 209 2
142, 172, 207 2
140, 164, 206 2
134, 157, 202 2
105, 126, 164 2
102, 126, 156 2
79, 100, 128 2
83, 107, 131 2
151, 182, 213 2
87, 109, 145 2
86, 108, 144 2
130, 150, 205 2
121, 145, 199 2
103, 128, 172 2
77, 98, 125 2
80, 106, 130 2
113, 140, 160 2
142, 174, 210 2
137, 165, 206 2
92, 112, 147 2
86, 106, 141 2
127, 148, 203 2
122, 146, 200 2
99, 124, 164 2
102, 119, 152 2
90, 111, 142 2
80, 104, 128 2
146, 178, 213 2
143, 175, 211 2
139, 167, 208 2
72, 93, 125 2
79, 100, 132 2
61, 82, 114 2
98, 124, 161 2
104, 129, 173 2
100, 126, 166 2
98, 124, 164 2
106, 121, 154 2
116, 147, 178 2
139, 170, 209 2
140, 165, 209 2
77, 98, 129 2
91, 117, 157 2
110, 137, 187 2
132, 153, 208 2
111, 138, 188 2
101, 123, 165 2
98, 123, 165 2
103, 128, 170 2
102, 128, 168 2
152, 184, 219 2
156, 188, 223 2
138, 161, 207 2
137, 157, 204 2
63, 84, 112 2
75, 96, 124 2
92, 113, 141 2
90, 114, 150 2
96, 124, 171 2
103, 129, 175 2
95, 117, 159 2
93, 118, 158 2
88, 113, 153 2
91, 116, 156 2
103, 131, 172 2
101, 127, 167 2
153, 185, 220 2
138, 170, 206 2
137, 168, 207 2
133, 157, 203 2
138, 158, 205 2
139, 159, 206 2
49, 70, 98 2
101, 128, 178 2
107, 134, 185 2
128, 152, 210 2
93, 115, 157 2
94, 116, 157 2
79, 104, 144 2
80, 105, 145 2
102, 127, 169 2
91, 122, 155 2
148, 178, 213 2
157, 187, 222 2
67, 88, 115 2
91, 113, 154 2
75, 100, 140 2
109, 134, 176 2
107, 136, 180 2
68, 89, 116 2
94, 121, 172 2
108, 134, 188 2
107, 134, 184 2
92, 120, 161 2
99, 120, 165 2
114, 143, 187 2
110, 139, 183 2
101, 127, 163 2
156, 181, 223 2
142, 167, 211 2
125, 157, 198 2
126, 155, 206 2
137, 162, 212 2
141, 164, 212 2
142, 165, 211 2
58, 82, 104 2
66, 82, 111 2
33, 47, 75 2
116, 146, 201 2
122, 149, 205 2
114, 140, 200 2
97, 124, 175 2
97, 118, 163 2
81, 100, 138 2
104, 127, 177 2
109, 130, 162 2
141, 165, 211 2
140, 167, 211 2
130, 162, 205 2
139, 164, 214 2
61, 85, 109 2
46, 61, 87 2
87, 108, 136 2
60, 82, 118 2
122, 153, 204 2
118, 145, 202 2
94, 122, 169 2
100, 119, 162 2
83, 105, 146 2
80, 99, 144 2
103, 126, 176 2
110, 135, 179 2
148, 173, 217 2
144, 168, 214 2
127, 153, 207 2
39, 56, 83 2
118, 147, 198 2
121, 148, 204 2
101, 128, 185 2
97, 125, 172 2
90, 118, 159 2
88, 109, 154 2
105, 132, 183 2
104, 128, 180 2
101, 126, 176 2
130, 166, 196 2
119, 147, 201 2
80, 102, 127 2
98, 117, 162 2
105, 131, 185 2
102, 129, 180 2
99, 125, 172 2
100, 126, 172 2
99, 126, 170 2
30, 54, 60 2
102, 128, 182 2
90, 117, 167 2
94, 114, 155 2
101, 122, 174 2
107, 124, 181 2
101, 127, 173 2
111, 134, 179 2
103, 120, 159 2
126, 153, 209 2
136, 160, 202 2
121, 143, 184 2
97, 119, 160 2
20, 37, 63 2
61, 81, 112 2
117, 144, 201 2
113, 140, 196 2
86, 111, 161 2
102, 128, 175 2
103, 127, 173 2
96, 112, 159 2
103, 127, 179 2
105, 120, 159 2
98, 116, 153 2
31, 53, 58 2
120, 150, 207 2
117, 150, 206 2
59, 80, 108 2
64, 85, 116 2
97, 113, 160 2
99, 117, 170 2
101, 121, 176 2
98, 124, 160 2
101, 118, 157 2
84, 104, 135 2
91, 126, 146 2
95, 115, 163 2
90, 109, 146 2
111, 144, 200 2
119, 144, 200 2
93, 110, 167 2
96, 116, 164 2
85, 112, 149 2
103, 129, 176 2
93, 107, 129 2
24, 45, 47 2
118, 145, 195 2
139, 162, 208 2
50, 72, 90 2
90, 116, 170 2
90, 110, 167 2
95, 115, 172 2
97, 119, 167 2
92, 109, 158 2
86, 113, 150 2
90, 107, 133 2
110, 144, 197 2
120, 149, 200 2
131, 155, 207 2
139, 161, 209 2
50, 73, 88 2
68, 87, 120 2
92, 114, 149 2
88, 112, 148 2
64, 84, 141 2
90, 112, 160 2
96, 111, 160 2
94, 109, 172 2
96, 119, 157 2
113, 149, 187 2
114, 148, 191 2
116, 145, 190 2
116, 144, 191 2
115, 145, 194 2
40, 64, 76 2
85, 108, 154 2
79, 103, 139 2
106, 141, 185 2
113, 142, 186 2
135, 157, 209 2
76, 94, 131 2
96, 118, 154 2
141, 168, 212 2
120, 142, 200 2
103, 123, 181 2
90, 109, 154 2
79, 93, 142 2
102, 119, 140 2
102, 118, 141 2
25, 41, 40 2
110, 140, 181 2
145, 172, 216 2
122, 140, 203 2
112, 131, 192 2
89, 100, 152 2
83, 99, 142 2
87, 98, 142 2
59, 68, 78 2
40, 39, 48 2
104, 140, 178 2
108, 139, 178 2
36, 62, 74 2
100, 120, 161 2
145, 171, 217 2
36, 38, 38 2
38, 38, 44 2
51, 44, 47 2
106, 137, 176 2
105, 135, 176 2
126, 145, 202 2
125, 143, 208 2
44, 42, 41 2
41, 41, 41 2
114, 141, 161 2
105, 139, 169 2
104, 137, 170 2
124, 143, 200 2
37, 41, 52 2
47, 48, 58 2
55, 40, 31 2
35, 46, 50 2
115, 140, 156 2
103, 133, 160 2
101, 131, 160 2
133, 145, 215 2
52, 40, 30 2
45, 53, 53 2
109, 136, 173 2
113, 139, 179 2
125, 141, 210 2
46, 38, 38 2
47, 39, 39 2
46, 51, 50 2
48, 50, 51 2
37, 43, 48 2
99, 115, 152 2
98, 109, 147 2
36, 35, 39 2
45, 40, 37 2
50, 46, 45 2
49, 47, 46 2
128, 145, 212 2
37, 36, 40 2
56, 38, 27 2
46, 41, 40 2
56, 44, 42 2
57, 46, 42 2
58, 46, 42 2
56, 46, 39 2
49, 46, 41 2
47, 47, 41 2
46, 56, 63 2
105, 124, 159 2
140, 155, 218 2
45, 40, 39 2
55, 37, 26 2
55, 38, 29 2
55, 38, 35 2
50, 41, 38 2
60, 50, 43 2
57, 43, 37 2
56, 42, 36 2
66, 48, 41 2
48, 43, 40 2
171, 193, 229 2
136, 157, 212 2
134, 154, 211 2
145, 156, 218 2
131, 148, 211 2
92, 101, 134 2
60, 38, 33 2
60, 47, 39 2
62, 46, 39 2
68, 49, 41 2
48, 41, 38 2
41, 36, 38 2
57, 38, 35 2
64, 39, 37 2
70, 51, 43 2
69, 48, 40 2
63, 47, 40 2
59, 47, 41 2
60, 36, 36 2
52, 35, 32 2
58, 40, 29 2
64, 47, 38 2
56, 48, 49 2
61, 44, 41 2
51, 42, 38 2
55, 40, 37 2
53, 39, 33 2
66, 47, 44 2
55, 43, 39 2
61, 45, 39 2
61, 48, 40 2
64, 48, 36 2
54, 33, 42 2
56, 42, 30 2
57, 45, 35 2
59, 42, 29 2
57, 42, 33 2
58, 42, 36 2
66, 39, 35 2
66, 41, 37 2
68, 43, 39 2
59, 42, 39 2
56, 37, 29 2
70, 45, 43 2
61, 39, 34 2
66, 41, 39 2
66, 40, 40 2
69, 44, 40 2
65, 39, 39 2
63, 43, 38 2
65, 43, 38 2
61, 42, 37 2
53, 42, 34 2
60, 41, 28 2
63, 46, 33 2
57, 44, 36 2
62, 38, 32 2
67, 48, 35 2
71, 44, 40 2
64, 42, 37 2
56, 37, 30 2
48, 40, 40 2
72, 40, 34 2
73, 41, 35 2
78, 47, 38 2
64, 38, 31 2
77, 47, 36 2
67, 43, 31 2
70, 41, 32 2
62, 40, 29 2
75, 45, 40 2
77, 49, 38 2
74, 45, 40 2
67, 39, 32 2
76, 42, 36 2
70, 42, 31 2
65, 40, 30 2
74, 47, 33 2
61, 45, 33 2
59, 43, 31 2
69, 43, 29 2
80, 46, 33 2
64, 42, 30 2
65, 43, 31 2
65, 39, 33 2
67, 38, 34 2
78, 46, 35 2
79, 47, 36 2
76, 44, 33 2
38, 52, 50 1
35, 52, 55 1
49, 65, 72 1
43, 59, 66 1
45, 61, 68 1
58, 74, 81 1
62, 78, 85 1
47, 57, 67 1
40, 52, 58 1
41, 53, 59 1
42, 56, 62 1
45, 58, 66 1
43, 55, 65 1
48, 60, 70 1
65, 79, 91 1
56, 72, 84 1
60, 76, 88 1
68, 84, 97 1
76, 92, 105 1
78, 94, 110 1
78, 96, 113 1
96, 116, 141 1
100, 121, 149 1
97, 118, 146 1
93, 113, 144 1
89, 108, 143 1
86, 105, 140 1
84, 103, 138 1
83, 102, 137 1
88, 106, 143 1
92, 111, 148 1
103, 122, 160 1
106, 127, 165 1
111, 133, 168 1
109, 131, 166 1
89, 115, 139 1
90, 116, 140 1
91, 117, 141 1
89, 116, 150 1
87, 114, 148 1
84, 112, 146 1
83, 112, 143 1
82, 111, 142 1
36, 53, 56 1
52, 68, 75 1
46, 62, 69 1
50, 66, 73 1
59, 74, 83 1
52, 67, 76 1
41, 54, 62 1
42, 54, 64 1
44, 56, 66 1
55, 67, 79 1
65, 77, 89 1
63, 77, 89 1
57, 73, 89 1
75, 91, 107 1
82, 98, 115 1
83, 100, 119 1
102, 123, 151 1
101, 122, 154 1
106, 125, 163 1
104, 123, 161 1
100, 119, 157 1
98, 116, 157 1
100, 118, 159 1
102, 122, 163 1
109, 129, 170 1
105, 133, 164 1
88, 115, 149 1
85, 112, 146 1
44, 60, 66 1
53, 69, 76 1
64, 79, 88 1
57, 72, 81 1
51, 66, 75 1
45, 56, 64 1
44, 55, 63 1
43, 56, 64 1
47, 59, 69 1
58, 71, 85 1
66, 83, 102 1
88, 105, 126 1
94, 111, 137 1
100, 119, 146 1
106, 126, 157 1
106, 127, 159 1
113, 132, 175 1
107, 126, 169 1
110, 129, 174 1
111, 130, 175 1
112, 131, 176 1
113, 136, 174 1
113, 137, 173 1
110, 136, 172 1
84, 111, 145 1
79, 109, 138 1
34, 51, 48 1
46, 62, 68 1
55, 71, 77 1
68, 83, 92 1
61, 76, 85 1
49, 64, 73 1
48, 59, 67 1
46, 57, 65 1
44, 57, 65 1
70, 83, 97 1
83, 100, 126 1
94, 111, 138 1
96, 114, 143 1
103, 121, 150 1
114, 135, 167 1
113, 134, 172 1
118, 140, 181 1
118, 138, 185 1
115, 135, 182 1
111, 131, 178 1
111, 133, 174 1
105, 132, 169 1
103, 131, 166 1
102, 130, 165 1
85, 113, 144 1
80, 109, 140 1
78, 107, 138 1
77, 106, 137 1
77, 107, 136 1
33, 50, 47 1
42, 59, 62 1
45, 62, 65 1
50, 66, 72 1
56, 72, 78 1
65, 81, 88 1
60, 75, 84 1
50, 65, 74 1
50, 61, 69 1
55, 67, 73 1
47, 60, 68 1
75, 86, 100 1
87, 100, 114 1
92, 108, 137 1
95, 111, 140 1
100, 116, 145 1
105, 123, 154 1
115, 133, 164 1
120, 139, 172 1
120, 140, 175 1
117, 136, 173 1
119, 140, 178 1
124, 147, 195 1
123, 146, 194 1
122, 145, 193 1
122, 142, 190 1
121, 141, 189 1
117, 139, 187 1
113, 135, 183 1
103, 125, 173 1
106, 132, 172 1
109, 130, 168 1
108, 129, 167 1
86, 111, 143 1
84, 112, 143 1
76, 105, 136 1
74, 104, 133 1
44, 61, 64 1
47, 64, 67 1
54, 70, 76 1
67, 83, 89 1
72, 88, 95 1
74, 90, 97 1
67, 82, 91 1
62, 77, 86 1
58, 73, 82 1
51, 62, 70 1
54, 66, 72 1
53, 65, 71 1
54, 65, 73 1
52, 65, 73 1
83, 94, 108 1
91, 104, 118 1
100, 115, 147 1
107, 125, 156 1
116, 134, 165 1
123, 140, 173 1
128, 147, 182 1
133, 152, 187 1
126, 147, 185 1
123, 142, 185 1
127, 150, 198 1
124, 147, 197 1
121, 144, 194 1
121, 142, 193 1
119, 140, 191 1
117, 138, 189 1
114, 135, 186 1
102, 124, 172 1
110, 130, 177 1
107, 129, 170 1
102, 122, 157 1
81, 104, 136 1
83, 111, 142 1
73, 102, 133 1
72, 102, 131 1
40, 53, 55 1
46, 55, 65 1
54, 64, 74 1
60, 69, 83 1
73, 83, 100 1
78, 91, 107 1
73, 87, 105 1
74, 89, 105 1
71, 87, 103 1
51, 68, 81 1
49, 68, 81 1
53, 70, 83 1
55, 71, 83 1
45, 62, 75 1
48, 67, 82 1
58, 76, 93 1
66, 87, 109 1
77, 99, 124 1
92, 113, 140 1
126, 152, 198 1
117, 143, 197 1
107, 129, 164 1
89, 110, 142 1
80, 102, 137 1
83, 105, 140 1
73, 100, 127 1
41, 54, 56 1
44, 54, 64 1
55, 64, 77 1
61, 70, 84 1
64, 74, 91 1
72, 82, 99 1
77, 93, 109 1
70, 86, 102 1
57, 74, 87 1
55, 74, 87 1
52, 69, 82 1
58, 74, 86 1
52, 68, 80 1
47, 64, 73 1
48, 65, 74 1
51, 68, 77 1
53, 70, 79 1
47, 64, 77 1
51, 70, 85 1
65, 84, 105 1
97, 118, 145 1
119, 144, 184 1
127, 151, 197 1
126, 152, 199 1
110, 134, 186 1
84, 106, 141 1
78, 102, 130 1
40, 55, 57 1
53, 62, 75 1
60, 69, 82 1
62, 73, 87 1
69, 79, 96 1
73, 85, 103 1
78, 90, 108 1
72, 88, 104 1
59, 78, 93 1
58, 77, 90 1
60, 76, 92 1
54, 70, 83 1
46, 62, 74 1
45, 61, 73 1
51, 67, 79 1
57, 73, 85 1
50, 66, 82 1
56, 74, 91 1
73, 93, 118 1
71, 98, 125 1
39, 54, 57 1
53, 65, 77 1
66, 77, 91 1
72, 83, 97 1
75, 85, 102 1
80, 92, 110 1
80, 94, 113 1
84, 99, 118 1
75, 91, 108 1
66, 84, 101 1
63, 82, 97 1
62, 81, 96 1
64, 80, 96 1
63, 79, 95 1
56, 72, 85 1
48, 64, 77 1
55, 71, 84 1
60, 76, 89 1
49, 65, 81 1
54, 70, 87 1
67, 86, 107 1
70, 90, 115 1
79, 98, 125 1
113, 136, 184 1
107, 130, 178 1
101, 123, 151 1
82, 111, 138 1
83, 113, 138 1
73, 98, 124 1
41, 56, 59 1
58, 69, 83 1
76, 89, 105 1
83, 95, 113 1
82, 96, 115 1
83, 97, 116 1
92, 105, 127 1
91, 106, 125 1
84, 101, 120 1
73, 91, 108 1
68, 86, 103 1
72, 88, 105 1
69, 85, 102 1
56, 72, 88 1
54, 70, 86 1
58, 73, 89 1
61, 77, 93 1
57, 74, 93 1
65, 82, 103 1
70, 88, 111 1
112, 133, 164 1
90, 114, 144 1
75, 100, 126 1
45, 61, 67 1
60, 73, 89 1
66, 79, 95 1
74, 87, 103 1
84, 98, 117 1
86, 99, 121 1
84, 98, 120 1
96, 110, 133 1
97, 111, 134 1
93, 110, 131 1
87, 104, 125 1
81, 98, 119 1
77, 94, 113 1
72, 92, 110 1
71, 91, 109 1
71, 88, 107 1
63, 78, 97 1
57, 73, 90 1
60, 76, 93 1
67, 83, 99 1
68, 84, 100 1
65, 81, 98 1
63, 80, 99 1
72, 92, 117 1
134, 160, 207 1
94, 118, 148 1
91, 115, 145 1
81, 109, 139 1
82, 112, 141 1
81, 103, 131 1
79, 102, 128 1
55, 71, 78 1
67, 81, 99 1
72, 86, 104 1
80, 94, 112 1
88, 102, 121 1
94, 108, 130 1
101, 116, 142 1
98, 114, 137 1
83, 101, 124 1
80, 99, 120 1
78, 97, 118 1
75, 94, 115 1
74, 91, 112 1
56, 73, 92 1
71, 87, 104 1
73, 89, 106 1
70, 86, 103 1
68, 85, 104 1
71, 88, 109 1
77, 96, 123 1
99, 120, 151 1
112, 133, 165 1
116, 138, 173 1
99, 121, 149 1
89, 113, 141 1
81, 111, 140 1
83, 111, 141 1
61, 78, 87 1
74, 89, 108 1
79, 94, 113 1
87, 102, 121 1
95, 109, 131 1
101, 115, 138 1
101, 117, 140 1
99, 114, 140 1
98, 113, 139 1
107, 121, 149 1
106, 123, 150 1
96, 113, 139 1
89, 106, 132 1
64, 81, 102 1
58, 75, 94 1
74, 92, 109 1
72, 89, 108 1
75, 92, 111 1
75, 95, 120 1
119, 141, 176 1
90, 114, 142 1
85, 110, 144 1
80, 108, 139 1
80, 110, 139 1
71, 87, 99 1
90, 107, 128 1
95, 111, 134 1
97, 113, 136 1
108, 124, 153 1
109, 125, 154 1
106, 122, 151 1
102, 118, 147 1
99, 116, 143 1
95, 114, 141 1
92, 112, 137 1
89, 109, 134 1
86, 106, 131 1
73, 92, 113 1
123, 145, 181 1
125, 147, 183 1
129, 154, 198 1
132, 158, 205 1
107, 128, 179 1
96, 120, 148 1
89, 116, 143 1
87, 114, 140 1
84, 109, 143 1
79, 96, 109 1
98, 116, 139 1
105, 122, 148 1
112, 128, 157 1
116, 132, 161 1
116, 131, 163 1
109, 127, 158 1
104, 122, 151 1
102, 120, 149 1
98, 116, 145 1
94, 113, 140 1
91, 110, 137 1
75, 93, 116 1
79, 98, 119 1
77, 97, 122 1
115, 137, 172 1
121, 145, 181 1
124, 147, 185 1
130, 156, 202 1
108, 129, 181 1
102, 123, 154 1
84, 106, 134 1
84, 109, 135 1
92, 108, 124 1
103, 123, 148 1
108, 128, 153 1
113, 132, 159 1
115, 134, 161 1
117, 135, 164 1
121, 139, 170 1
124, 142, 173 1
118, 135, 168 1
116, 133, 166 1
114, 131, 164 1
110, 128, 159 1
101, 119, 148 1
114, 138, 174 1
122, 145, 183 1
123, 148, 198 1
116, 138, 190 1
110, 132, 184 1
96, 120, 150 1
85, 110, 136 1
100, 119, 134 1
109, 130, 157 1
115, 136, 163 1
121, 142, 170 1
123, 143, 174 1
126, 145, 178 1
127, 146, 181 1
116, 135, 168 1
102, 122, 153 1
89, 107, 136 1
115, 137, 178 1
127, 154, 204 1
127, 151, 203 1
118, 140, 192 1
114, 136, 188 1
112, 134, 186 1
109, 131, 183 1
104, 122, 139 1
114, 135, 163 1
126, 147, 175 1
127, 147, 178 1
130, 149, 182 1
131, 150, 185 1
129, 148, 183 1
120, 138, 175 1
111, 130, 163 1
104, 123, 156 1
92, 110, 139 1
91, 109, 138 1
92, 110, 141 1
90, 109, 142 1
94, 114, 149 1
117, 139, 181 1
123, 150, 194 1
128, 155, 205 1
128, 151, 201 1
123, 145, 197 1
121, 143, 195 1
117, 139, 191 1
111, 133, 185 1
82, 107, 133 1
82, 112, 137 1
107, 124, 143 1
119, 141, 169 1
126, 147, 178 1
133, 153, 188 1
132, 151, 188 1
123, 142, 179 1
122, 140, 177 1
114, 133, 168 1
108, 127, 162 1
99, 118, 153 1
95, 114, 147 1
94, 113, 146 1
96, 115, 150 1
122, 145, 191 1
126, 148, 196 1
124, 149, 191 1
119, 144, 188 1
127, 155, 202 1
135, 160, 210 1
127, 150, 200 1
113, 134, 186 1
114, 135, 187 1
103, 125, 166 1
81, 110, 137 1
116, 133, 152 1
125, 146, 177 1
137, 158, 189 1
138, 159, 191 1
136, 155, 192 1
133, 152, 189 1
130, 149, 187 1
109, 129, 164 1
107, 125, 162 1
103, 122, 157 1
100, 117, 150 1
100, 119, 154 1
115, 136, 181 1
119, 141, 189 1
124, 146, 194 1
117, 142, 186 1
113, 138, 182 1
116, 141, 185 1
123, 153, 200 1
126, 156, 203 1
130, 153, 203 1
120, 141, 193 1
116, 137, 189 1
112, 133, 185 1
93, 118, 150 1
76, 105, 132 1
80, 110, 137 1
125, 142, 161 1
129, 150, 181 1
135, 156, 187 1
141, 161, 196 1
140, 159, 196 1
138, 157, 194 1
135, 154, 192 1
136, 155, 193 1
132, 151, 189 1
115, 135, 170 1
117, 134, 173 1
113, 131, 168 1
108, 126, 163 1
106, 125, 160 1
104, 123, 158 1
106, 122, 158 1
109, 125, 161 1
111, 130, 165 1
105, 123, 160 1
108, 127, 165 1
113, 131, 172 1
114, 133, 176 1
117, 137, 184 1
121, 143, 191 1
125, 146, 197 1
119, 143, 185 1
109, 134, 178 1
112, 137, 181 1
120, 145, 189 1
120, 150, 197 1
122, 152, 199 1
134, 157, 207 1
129, 152, 202 1
122, 143, 195 1
121, 142, 194 1
119, 137, 190 1
114, 133, 190 1
111, 131, 186 1
77, 104, 131 1
75, 104, 131 1
79, 109, 136 1
124, 148, 168 1
125, 151, 187 1
131, 157, 193 1
136, 162, 198 1
138, 164, 201 1
120, 141, 186 1
121, 140, 177 1
118, 137, 175 1
115, 134, 172 1
112, 133, 171 1
110, 132, 174 1
111, 133, 175 1
113, 134, 179 1
116, 137, 182 1
119, 142, 187 1
99, 122, 167 1
114, 137, 182 1
128, 154, 194 1
134, 161, 212 1
133, 157, 211 1
120, 140, 195 1
80, 107, 133 1
79, 106, 132 1
125, 149, 169 1
128, 154, 190 1
134, 160, 196 1
139, 165, 201 1
138, 163, 203 1
125, 147, 189 1
127, 146, 184 1
124, 143, 181 1
120, 141, 179 1
117, 137, 178 1
116, 136, 177 1
116, 135, 178 1
115, 137, 179 1
117, 138, 183 1
119, 140, 185 1
113, 136, 181 1
94, 117, 162 1
100, 123, 168 1
78, 105, 131 1
79, 104, 130 1
124, 149, 169 1
144, 170, 206 1
143, 169, 206 1
142, 168, 205 1
141, 167, 204 1
142, 167, 207 1
132, 157, 197 1
132, 153, 191 1
130, 151, 189 1
127, 147, 188 1
126, 146, 187 1
124, 144, 185 1
122, 144, 186 1
130, 153, 198 1
91, 114, 159 1
93, 116, 161 1
129, 155, 201 1
130, 156, 210 1
130, 154, 208 1
100, 125, 157 1
77, 104, 130 1
138, 165, 199 1
145, 172, 206 1
146, 174, 209 1
144, 172, 207 1
142, 169, 206 1
141, 168, 205 1
142, 168, 208 1
134, 160, 200 1
138, 159, 197 1
137, 158, 196 1
135, 155, 196 1
134, 154, 195 1
133, 153, 194 1
90, 114, 156 1
83, 107, 149 1
79, 103, 145 1
84, 108, 150 1
94, 118, 160 1
125, 150, 192 1
125, 143, 196 1
103, 126, 172 1
97, 123, 153 1
118, 143, 163 1
128, 156, 190 1
137, 165, 199 1
146, 174, 208 1
142, 170, 205 1
136, 162, 202 1
132, 158, 198 1
135, 158, 203 1
141, 161, 202 1
140, 160, 201 1
135, 157, 199 1
133, 155, 197 1
132, 154, 196 1
131, 152, 197 1
134, 156, 198 1
137, 159, 201 1
103, 125, 167 1
91, 113, 155 1
73, 95, 137 1
78, 100, 142 1
88, 110, 152 1
124, 151, 195 1
129, 156, 206 1
122, 143, 198 1
126, 144, 197 1
102, 125, 171 1
102, 123, 168 1
97, 124, 151 1
92, 114, 142 1
116, 141, 161 1
127, 156, 187 1
137, 166, 197 1
147, 176, 207 1
148, 176, 210 1
141, 169, 204 1
137, 163, 203 1
137, 162, 204 1
135, 160, 202 1
139, 161, 203 1
138, 160, 202 1
136, 158, 200 1
98, 120, 161 1
93, 115, 156 1
72, 94, 135 1
121, 142, 197 1
125, 146, 198 1
100, 124, 152 1
96, 117, 145 1
116, 143, 163 1
128, 157, 188 1
138, 167, 198 1
148, 177, 208 1
150, 179, 210 1
142, 173, 206 1
140, 170, 205 1
139, 169, 204 1
140, 162, 204 1
133, 156, 201 1
135, 158, 196 1
120, 143, 181 1
95, 118, 156 1
98, 121, 159 1
91, 114, 152 1
79, 102, 140 1
71, 94, 132 1
69, 92, 130 1
78, 101, 139 1
111, 137, 174 1
118, 144, 184 1
123, 151, 198 1
110, 134, 180 1
104, 127, 159 1
99, 117, 148 1
119, 146, 166 1
130, 159, 190 1
140, 169, 200 1
148, 179, 210 1
143, 174, 207 1
141, 171, 206 1
145, 174, 211 1
138, 167, 204 1
133, 162, 201 1
138, 166, 207 1
140, 165, 207 1
141, 165, 207 1
148, 169, 207 1
145, 166, 204 1
135, 156, 194 1
116, 137, 175 1
97, 118, 156 1
90, 111, 149 1
96, 117, 155 1
92, 113, 151 1
86, 107, 145 1
80, 101, 139 1
72, 93, 131 1
65, 86, 124 1
69, 90, 128 1
79, 100, 138 1
112, 136, 172 1
116, 142, 179 1
121, 150, 195 1
128, 152, 204 1
126, 146, 201 1
84, 108, 138 1
81, 103, 128 1
118, 145, 165 1
123, 154, 185 1
140, 171, 202 1
153, 184, 215 1
147, 178, 211 1
144, 174, 209 1
143, 172, 209 1
142, 171, 208 1
136, 165, 204 1
135, 163, 204 1
143, 165, 201 1
140, 162, 198 1
117, 139, 175 1
79, 101, 137 1
93, 115, 151 1
97, 119, 155 1
91, 113, 149 1
74, 96, 132 1
58, 80, 116 1
48, 70, 106 1
52, 74, 110 1
69, 91, 127 1
85, 107, 143 1
122, 150, 197 1
82, 104, 132 1
80, 101, 129 1
79, 103, 127 1
122, 153, 184 1
139, 170, 201 1
145, 177, 212 1
140, 163, 209 1
148, 168, 203 1
108, 128, 163 1
82, 102, 137 1
83, 103, 138 1
69, 89, 124 1
54, 74, 109 1
46, 66, 101 1
53, 73, 108 1
71, 91, 126 1
108, 134, 174 1
113, 139, 185 1
119, 147, 194 1
129, 150, 205 1
106, 132, 179 1
101, 126, 170 1
99, 124, 168 1
97, 121, 163 1
99, 125, 162 1
107, 130, 162 1
81, 107, 131 1
103, 133, 152 1
121, 152, 183 1
137, 168, 199 1
147, 178, 209 1
151, 182, 215 1
150, 181, 214 1
144, 176, 211 1
151, 172, 204 1
128, 149, 181 1
98, 119, 151 1
78, 99, 131 1
46, 67, 99 1
43, 64, 96 1
53, 74, 106 1
100, 128, 169 1
113, 141, 188 1
116, 143, 193 1
128, 151, 207 1
127, 150, 206 1
99, 123, 165 1
102, 127, 159 1
82, 108, 132 1
95, 125, 144 1
133, 164, 195 1
150, 183, 216 1
145, 177, 213 1
140, 169, 208 1
147, 167, 214 1
147, 168, 199 1
116, 137, 168 1
79, 100, 131 1
65, 86, 117 1
73, 94, 125 1
54, 75, 106 1
42, 63, 94 1
45, 66, 97 1
59, 80, 111 1
98, 121, 153 1
92, 118, 154 1
93, 118, 160 1
97, 124, 168 1
126, 151, 207 1
94, 119, 159 1
97, 122, 162 1
88, 118, 137 1
108, 139, 172 1
127, 158, 191 1
141, 172, 205 1
154, 185, 218 1
146, 178, 214 1
136, 156, 203 1
146, 166, 213 1
136, 157, 185 1
72, 93, 121 1
71, 92, 120 1
52, 73, 101 1
45, 66, 94 1
54, 75, 103 1
70, 91, 119 1
96, 119, 151 1
85, 111, 148 1
84, 109, 151 1
88, 115, 159 1
104, 131, 181 1
134, 155, 210 1
108, 135, 185 1
95, 121, 161 1
99, 124, 166 1
78, 102, 126 1
79, 106, 127 1
79, 109, 128 1
99, 130, 163 1
120, 151, 184 1
138, 169, 202 1
155, 185, 220 1
136, 163, 207 1
122, 143, 171 1
67, 88, 116 1
64, 85, 113 1
65, 86, 114 1
88, 109, 137 1
95, 118, 150 1
95, 117, 152 1
86, 110, 146 1
79, 105, 142 1
74, 99, 141 1
76, 103, 147 1
84, 113, 158 1
96, 123, 173 1
131, 155, 209 1
123, 148, 204 1
86, 111, 151 1
82, 107, 147 1
94, 119, 161 1
106, 131, 173 1
106, 133, 177 1
82, 103, 131 1
77, 101, 125 1
77, 104, 125 1
68, 98, 117 1
114, 145, 178 1
135, 166, 199 1
139, 171, 207 1
110, 131, 158 1
63, 84, 111 1
76, 97, 124 1
70, 91, 118 1
56, 77, 104 1
44, 65, 92 1
49, 70, 97 1
73, 99, 136 1
66, 92, 132 1
64, 91, 135 1
71, 100, 145 1
88, 116, 163 1
92, 119, 169 1
100, 127, 178 1
129, 153, 211 1
95, 123, 164 1
89, 111, 152 1
84, 109, 149 1
76, 101, 141 1
95, 120, 162 1
111, 140, 184 1
103, 132, 176 1
109, 123, 159 1
86, 106, 137 1
75, 99, 123 1
75, 102, 123 1
61, 91, 110 1
86, 117, 150 1
111, 141, 176 1
134, 164, 199 1
144, 164, 211 1
143, 163, 210 1
134, 154, 201 1
103, 124, 151 1
75, 96, 123 1
60, 81, 108 1
62, 83, 110 1
48, 69, 96 1
39, 60, 87 1
47, 68, 95 1
83, 104, 135 1
89, 113, 143 1
81, 106, 140 1
70, 96, 133 1
60, 86, 126 1
57, 84, 128 1
62, 91, 136 1
82, 110, 157 1
87, 114, 164 1
101, 127, 181 1
116, 140, 194 1
131, 155, 213 1
105, 133, 180 1
95, 122, 166 1
90, 112, 154 1
85, 107, 148 1
81, 106, 146 1
74, 99, 139 1
96, 121, 163 1
105, 134, 178 1
102, 131, 175 1
105, 131, 171 1
109, 134, 174 1
113, 125, 161 1
109, 124, 157 1
102, 121, 154 1
88, 108, 139 1
73, 97, 121 1
73, 100, 121 1
63, 89, 96 1
75, 114, 136 1
100, 138, 162 1
125, 162, 188 1
144, 178, 207 1
155, 188, 221 1
154, 183, 222 1
153, 176, 221 1
148, 171, 216 1
144, 167, 212 1
132, 162, 203 1
124, 153, 204 1
145, 168, 213 1
139, 160, 205 1
90, 117, 137 1
67, 94, 115 1
59, 83, 107 1
64, 88, 112 1
77, 95, 124 1
44, 61, 88 1
49, 64, 90 1
78, 91, 117 1
86, 100, 122 1
82, 103, 125 1
88, 108, 133 1
83, 103, 134 1
68, 88, 123 1
62, 83, 121 1
79, 102, 147 1
84, 107, 155 1
91, 116, 166 1
99, 126, 177 1
107, 135, 189 1
119, 148, 205 1
121, 153, 202 1
124, 155, 206 1
119, 146, 203 1
117, 143, 203 1
110, 136, 196 1
108, 132, 192 1
103, 128, 184 1
96, 125, 169 1
96, 127, 166 1
93, 125, 160 1
104, 121, 164 1
101, 120, 163 1
92, 115, 160 1
88, 111, 156 1
85, 109, 151 1
84, 106, 147 1
84, 105, 143 1
78, 95, 134 1
80, 96, 138 1
93, 109, 155 1
98, 118, 166 1
101, 122, 177 1
108, 132, 190 1
111, 137, 197 1
118, 141, 191 1
114, 137, 187 1
108, 130, 182 1
105, 127, 179 1
104, 126, 178 1
101, 123, 171 1
104, 130, 166 1
93, 115, 143 1
87, 111, 135 1
83, 106, 128 1
81, 105, 125 1
77, 99, 117 1
78, 98, 115 1
82, 101, 116 1
58, 84, 91 1
68, 107, 129 1
92, 131, 153 1
115, 153, 177 1
132, 169, 197 1
146, 179, 212 1
152, 181, 220 1
150, 175, 219 1
147, 170, 216 1
136, 165, 209 1
123, 152, 203 1
129, 155, 209 1
143, 166, 214 1
143, 166, 211 1
113, 135, 177 1
85, 112, 133 1
66, 90, 112 1
57, 81, 103 1
67, 91, 115 1
76, 95, 122 1
57, 74, 101 1
37, 54, 81 1
29, 43, 71 1
73, 88, 114 1
78, 98, 123 1
80, 100, 131 1
67, 87, 122 1
60, 82, 123 1
74, 97, 142 1
79, 103, 149 1
87, 112, 162 1
103, 131, 185 1
113, 143, 198 1
119, 150, 201 1
107, 133, 193 1
101, 127, 187 1
104, 128, 186 1
100, 125, 181 1
94, 123, 167 1
93, 124, 163 1
90, 122, 158 1
89, 119, 154 1
93, 114, 159 1
86, 109, 154 1
84, 106, 148 1
85, 106, 144 1
71, 90, 128 1
67, 85, 126 1
92, 112, 160 1
98, 119, 174 1
105, 127, 185 1
106, 130, 190 1
108, 132, 184 1
106, 130, 182 1
102, 126, 178 1
102, 124, 176 1
104, 127, 175 1
113, 137, 179 1
113, 139, 176 1
110, 130, 165 1
104, 124, 159 1
99, 120, 152 1
82, 105, 127 1
80, 104, 124 1
81, 103, 121 1
82, 102, 119 1
46, 72, 79 1
60, 97, 117 1
83, 120, 142 1
104, 142, 166 1
120, 157, 185 1
136, 170, 200 1
143, 175, 210 1
148, 177, 216 1
152, 180, 221 1
140, 163, 211 1
138, 164, 210 1
135, 164, 209 1
129, 160, 205 1
125, 156, 201 1
123, 151, 205 1
139, 165, 212 1
106, 128, 170 1
80, 104, 126 1
62, 86, 108 1
56, 80, 102 1
62, 86, 110 1
70, 92, 117 1
73, 92, 119 1
56, 73, 100 1
70, 85, 111 1
86, 100, 123 1
92, 106, 129 1
74, 91, 117 1
70, 87, 113 1
82, 100, 129 1
77, 97, 128 1
68, 89, 121 1
55, 78, 116 1
68, 92, 134 1
73, 97, 143 1
82, 108, 155 1
100, 126, 180 1
105, 133, 187 1
112, 142, 197 1
122, 150, 204 1
124, 152, 206 1
110, 137, 194 1
94, 121, 178 1
94, 119, 175 1
97, 123, 177 1
92, 121, 165 1
89, 118, 157 1
89, 118, 155 1
99, 121, 163 1
94, 115, 160 1
86, 105, 148 1
86, 106, 147 1
88, 108, 149 1
78, 99, 137 1
61, 82, 120 1
48, 70, 111 1
65, 86, 131 1
85, 107, 155 1
96, 118, 170 1
102, 122, 179 1
101, 123, 181 1
106, 133, 184 1
99, 124, 174 1
100, 126, 173 1
111, 130, 167 1
106, 125, 162 1
85, 107, 132 1
81, 104, 126 1
81, 102, 123 1
38, 64, 71 1
53, 90, 110 1
76, 113, 133 1
99, 135, 159 1
115, 152, 178 1
139, 171, 206 1
142, 173, 212 1
143, 169, 215 1
140, 166, 213 1
136, 161, 211 1
130, 160, 209 1
125, 158, 204 1
122, 155, 201 1
75, 99, 121 1
53, 77, 101 1
69, 91, 116 1
71, 90, 117 1
46, 65, 92 1
17, 34, 60 1
23, 38, 64 1
35, 50, 76 1
42, 57, 83 1
46, 62, 85 1
50, 64, 87 1
60, 77, 103 1
55, 72, 98 1
57, 76, 103 1
68, 86, 115 1
70, 90, 121 1
66, 87, 119 1
60, 82, 117 1
56, 80, 116 1
63, 88, 128 1
69, 94, 138 1
78, 104, 150 1
89, 114, 164 1
101, 129, 183 1
107, 134, 190 1
116, 144, 198 1
120, 147, 203 1
108, 135, 192 1
96, 121, 177 1
89, 114, 170 1
94, 120, 174 1
98, 125, 175 1
87, 116, 161 1
85, 112, 156 1
89, 117, 158 1
94, 122, 163 1
94, 110, 156 1
92, 109, 152 1
92, 110, 151 1
92, 112, 153 1
76, 99, 137 1
54, 76, 117 1
37, 61, 103 1
55, 80, 124 1
83, 106, 154 1
98, 119, 171 1
102, 121, 178 1
103, 121, 180 1
104, 130, 184 1
99, 126, 176 1
112, 136, 178 1
113, 132, 170 1
99, 118, 155 1
80, 101, 123 1
46, 84, 102 1
70, 107, 127 1
96, 133, 155 1
114, 151, 177 1
136, 171, 205 1
138, 167, 211 1
138, 166, 213 1
138, 163, 213 1
135, 159, 211 1
128, 157, 208 1
119, 152, 202 1
74, 98, 122 1
56, 80, 104 1
51, 73, 98 1
56, 78, 103 1
63, 85, 110 1
75, 97, 122 1
67, 87, 112 1
43, 63, 88 1
26, 43, 69 1
9, 26, 52 1
8, 25, 51 1
15, 30, 56 1
18, 33, 59 1
21, 36, 62 1
24, 39, 65 1
42, 59, 86 1
38, 57, 84 1
51, 69, 98 1
61, 82, 110 1
62, 83, 114 1
62, 84, 120 1
69, 93, 135 1
79, 104, 148 1
88, 114, 161 1
95, 122, 172 1
106, 134, 188 1
115, 142, 198 1
109, 136, 192 1
107, 132, 188 1
95, 121, 175 1
87, 113, 160 1
85, 111, 158 1
88, 114, 160 1
95, 121, 167 1
96, 112, 158 1
96, 112, 155 1
96, 113, 156 1
76, 98, 139 1
53, 78, 118 1
35, 60, 102 1
54, 78, 124 1
85, 108, 156 1
108, 124, 183 1
101, 127, 174 1
111, 135, 177 1
114, 131, 170 1
109, 126, 165 1
97, 116, 153 1
85, 106, 137 1
79, 99, 124 1
40, 76, 92 1
64, 100, 118 1
89, 126, 146 1
111, 147, 171 1
127, 164, 192 1
133, 168, 202 1
131, 164, 203 1
134, 162, 209 1
127, 155, 209 1
122, 152, 207 1
119, 150, 205 1
118, 149, 204 1
138, 164, 211 1
57, 78, 105 1
46, 68, 93 1
48, 70, 95 1
54, 76, 101 1
74, 95, 117 1
64, 85, 107 1
48, 69, 91 1
31, 49, 72 1
15, 32, 58 1
14, 31, 57 1
25, 42, 68 1
32, 46, 74 1
37, 51, 79 1
34, 50, 79 1
36, 52, 81 1
46, 64, 93 1
57, 78, 106 1
62, 83, 115 1
68, 90, 125 1
67, 91, 127 1
72, 97, 137 1
82, 107, 149 1
91, 117, 163 1
115, 142, 199 1
104, 131, 182 1
92, 118, 165 1
100, 120, 167 1
97, 115, 162 1
97, 112, 158 1
98, 114, 157 1
96, 115, 158 1
56, 81, 123 1
38, 63, 107 1
51, 77, 123 1
85, 108, 158 1
113, 127, 185 1
106, 130, 184 1
102, 125, 173 1
101, 128, 165 1
98, 125, 162 1
112, 135, 181 1
116, 131, 170 1
110, 125, 164 1
101, 119, 156 1
83, 103, 128 1
32, 67, 81 1
55, 89, 105 1
78, 114, 132 1
99, 136, 158 1
120, 154, 183 1
128, 163, 196 1
128, 161, 200 1
128, 160, 203 1
130, 160, 207 1
129, 158, 209 1
128, 156, 210 1
122, 151, 208 1
119, 149, 206 1
123, 145, 186 1
59, 80, 107 1
42, 63, 90 1
41, 61, 86 1
45, 65, 90 1
60, 81, 103 1
69, 90, 112 1
61, 82, 104 1
50, 71, 93 1
32, 50, 73 1
14, 32, 55 1
13, 30, 56 1
26, 43, 70 1
31, 48, 75 1
42, 58, 87 1
40, 56, 85 1
45, 61, 90 1
53, 71, 100 1
60, 80, 111 1
70, 93, 125 1
73, 98, 132 1
77, 103, 140 1
86, 112, 152 1
104, 130, 177 1
114, 141, 198 1
109, 135, 189 1
94, 119, 169 1
105, 130, 180 1
99, 116, 165 1
100, 116, 162 1
100, 119, 164 1
83, 104, 149 1
61, 84, 129 1
38, 62, 108 1
49, 72, 120 1
81, 102, 153 1
107, 122, 178 1
111, 125, 183 1
97, 118, 169 1
98, 120, 168 1
95, 122, 156 1
100, 126, 162 1
115, 129, 171 1
109, 124, 163 1
86, 105, 138 1
84, 102, 131 1
87, 107, 132 1
33, 55, 60 1
26, 60, 73 1
47, 81, 94 1
70, 104, 120 1
112, 147, 173 1
123, 159, 189 1
126, 160, 196 1
127, 159, 202 1
128, 158, 205 1
126, 157, 208 1
126, 157, 210 1
124, 154, 209 1
121, 151, 208 1
117, 149, 208 1
139, 163, 209 1
126, 148, 189 1
62, 80, 109 1
42, 61, 88 1
36, 56, 81 1
39, 59, 84 1
55, 76, 98 1
66, 87, 108 1
59, 80, 101 1
62, 83, 104 1
41, 62, 83 1
22, 43, 65 1
20, 40, 65 1
28, 48, 73 1
41, 57, 86 1
46, 62, 91 1
49, 64, 96 1
47, 62, 94 1
54, 69, 101 1
61, 79, 110 1
59, 79, 110 1
68, 91, 123 1
81, 107, 143 1
107, 133, 179 1
113, 139, 199 1
117, 142, 198 1
83, 110, 160 1
97, 122, 172 1
102, 127, 177 1
105, 129, 181 1
107, 131, 185 1
109, 133, 187 1
113, 131, 184 1
111, 130, 181 1
107, 126, 177 1
102, 119, 168 1
97, 114, 163 1
96, 114, 161 1
101, 119, 166 1
105, 123, 170 1
86, 106, 153 1
65, 85, 132 1
40, 60, 108 1
48, 67, 118 1
79, 97, 150 1
95, 112, 168 1
103, 118, 174 1
108, 122, 180 1
106, 123, 180 1
99, 116, 172 1
94, 112, 165 1
102, 124, 165 1
95, 121, 157 1
112, 128, 170 1
107, 123, 165 1
102, 119, 158 1
96, 115, 152 1
85, 105, 140 1
85, 103, 132 1
92, 109, 130 1
27, 48, 50 1
22, 53, 62 1
33, 65, 76 1
55, 88, 103 1
83, 116, 135 1
106, 140, 164 1
118, 154, 184 1
122, 157, 191 1
120, 155, 195 1
125, 158, 203 1
124, 156, 205 1
121, 152, 205 1
119, 149, 204 1
117, 147, 204 1
113, 146, 202 1
112, 145, 201 1
103, 118, 150 1
75, 90, 122 1
43, 59, 88 1
26, 45, 72 1
29, 50, 72 1
38, 59, 80 1
49, 71, 89 1
57, 79, 97 1
56, 78, 96 1
47, 69, 87 1
37, 58, 79 1
34, 55, 77 1
39, 58, 85 1
47, 65, 94 1
52, 70, 101 1
53, 71, 102 1
45, 60, 93 1
48, 63, 96 1
50, 68, 99 1
56, 74, 105 1
67, 87, 118 1
72, 93, 124 1
73, 96, 128 1
110, 135, 177 1
118, 144, 191 1
115, 140, 196 1
83, 110, 161 1
80, 105, 155 1
72, 97, 147 1
74, 99, 149 1
78, 102, 154 1
85, 109, 161 1
94, 118, 172 1
102, 123, 178 1
104, 125, 180 1
103, 123, 180 1
107, 121, 174 1
109, 125, 178 1
107, 123, 176 1
98, 117, 168 1
93, 113, 161 1
100, 120, 168 1
102, 122, 170 1
88, 105, 154 1
67, 84, 133 1
43, 60, 111 1
49, 66, 117 1
78, 94, 147 1
96, 111, 167 1
101, 116, 172 1
103, 120, 176 1
102, 117, 179 1
97, 113, 172 1
93, 111, 164 1
95, 116, 161 1
91, 117, 154 1
88, 116, 151 1
88, 114, 154 1
96, 121, 165 1
102, 120, 161 1
101, 119, 160 1
97, 117, 158 1
91, 112, 150 1
87, 108, 140 1
30, 59, 66 1
36, 67, 76 1
50, 82, 95 1
70, 103, 119 1
108, 143, 169 1
118, 153, 186 1
121, 157, 195 1
121, 155, 198 1
120, 153, 199 1
118, 149, 200 1
116, 148, 201 1
115, 146, 201 1
112, 146, 200 1
111, 145, 199 1
136, 159, 207 1
133, 154, 199 1
110, 125, 158 1
81, 96, 128 1
48, 64, 93 1
29, 46, 73 1
29, 47, 70 1
38, 57, 78 1
49, 69, 87 1
55, 78, 94 1
56, 79, 95 1
43, 64, 85 1
41, 62, 84 1
45, 64, 91 1
48, 69, 97 1
51, 71, 102 1
51, 70, 103 1
50, 65, 98 1
50, 67, 100 1
56, 73, 106 1
63, 80, 113 1
69, 88, 121 1
76, 97, 128 1
82, 103, 135 1
82, 107, 141 1
116, 141, 183 1
80, 107, 158 1
82, 106, 158 1
74, 98, 150 1
69, 93, 145 1
64, 88, 140 1
67, 91, 145 1
79, 100, 155 1
104, 115, 172 1
107, 118, 175 1
104, 120, 173 1
97, 116, 167 1
92, 113, 164 1
93, 115, 163 1
76, 90, 142 1
48, 61, 113 1
38, 50, 104 1
62, 74, 128 1
89, 103, 156 1
100, 116, 169 1
100, 118, 171 1
99, 114, 177 1
96, 111, 173 1
93, 109, 168 1
92, 109, 165 1
91, 112, 163 1
91, 114, 160 1
91, 115, 157 1
87, 114, 151 1
87, 116, 155 1
94, 121, 165 1
98, 124, 170 1
97, 126, 171 1
99, 127, 174 1
96, 118, 159 1
88, 111, 149 1
85, 108, 146 1
82, 106, 142 1
29, 48, 51 1
26, 52, 58 1
33, 61, 68 1
49, 78, 87 1
68, 99, 114 1
89, 122, 141 1
107, 141, 165 1
117, 151, 181 1
121, 155, 191 1
116, 151, 191 1
116, 149, 194 1
116, 148, 197 1
114, 147, 197 1
113, 146, 196 1
112, 144, 197 1
117, 144, 194 1
117, 146, 197 1
137, 160, 208 1
120, 132, 168 1
92, 104, 138 1
53, 68, 100 1
25, 43, 66 1
32, 52, 70 1
43, 63, 80 1
54, 77, 92 1
52, 75, 91 1
50, 73, 95 1
53, 74, 101 1
55, 75, 106 1
54, 73, 106 1
52, 71, 106 1
53, 69, 105 1
56, 72, 108 1
62, 78, 114 1
78, 97, 130 1
96, 118, 153 1
98, 124, 178 1
90, 114, 168 1
95, 119, 173 1
88, 112, 166 1
79, 103, 157 1
66, 90, 144 1
61, 82, 137 1
75, 95, 152 1
85, 105, 162 1
101, 110, 167 1
102, 111, 168 1
100, 114, 167 1
95, 114, 165 1
95, 117, 165 1
81, 94, 146 1
57, 68, 120 1
41, 52, 104 1
53, 63, 117 1
83, 97, 149 1
99, 116, 167 1
93, 110, 161 1
92, 107, 169 1
90, 107, 164 1
87, 108, 160 1
86, 108, 156 1
89, 113, 155 1
85, 111, 151 1
84, 110, 150 1
83, 109, 149 1
87, 113, 153 1
98, 126, 167 1
97, 120, 158 1
89, 112, 150 1
96, 109, 131 1
31, 49, 50 1
34, 58, 64 1
40, 68, 75 1
55, 85, 96 1
73, 106, 122 1
96, 128, 151 1
111, 145, 174 1
120, 155, 188 1
115, 148, 193 1
115, 148, 194 1
111, 144, 193 1
110, 143, 192 1
109, 142, 191 1
107, 143, 191 1
115, 143, 190 1
118, 148, 197 1
133, 157, 209 1
137, 160, 210 1
139, 160, 211 1
136, 156, 204 1
129, 149, 197 1
124, 135, 173 1
98, 110, 146 1
61, 74, 106 1
21, 39, 62 1
25, 45, 63 1
35, 56, 71 1
48, 72, 84 1
53, 77, 95 1
58, 81, 103 1
61, 82, 109 1
62, 82, 113 1
58, 78, 113 1
56, 75, 112 1
63, 79, 115 1
66, 82, 118 1
70, 89, 124 1
78, 97, 132 1
99, 122, 160 1
121, 147, 187 1
135, 162, 206 1
136, 162, 208 1
137, 163, 209 1
139, 165, 211 1
103, 129, 183 1
105, 129, 183 1
107, 130, 186 1
113, 136, 192 1
105, 128, 184 1
98, 121, 177 1
87, 107, 164 1
72, 92, 149 1
62, 82, 139 1
76, 96, 153 1
87, 108, 163 1
99, 106, 163 1
96, 106, 160 1
95, 108, 160 1
88, 108, 156 1
93, 113, 160 1
104, 122, 169 1
99, 114, 163 1
82, 93, 143 1
66, 77, 129 1
53, 61, 114 1
45, 56, 108 1
67, 81, 130 1
93, 108, 157 1
91, 106, 168 1
94, 110, 169 1
88, 105, 161 1
84, 103, 154 1
82, 102, 149 1
82, 103, 148 1
80, 103, 141 1
95, 119, 155 1
96, 120, 156 1
95, 112, 138 1
98, 112, 134 1
95, 105, 123 1
23, 41, 42 1
28, 49, 51 1
30, 52, 57 1
37, 61, 67 1
47, 74, 84 1
61, 92, 107 1
80, 113, 133 1
97, 131, 155 1
106, 140, 170 1
113, 148, 182 1
115, 150, 190 1
111, 144, 189 1
107, 142, 186 1
113, 142, 187 1
113, 143, 190 1
119, 146, 196 1
129, 153, 205 1
132, 156, 208 1
136, 157, 209 1
137, 158, 209 1
136, 155, 206 1
130, 149, 200 1
127, 136, 174 1
102, 114, 150 1
68, 80, 114 1
38, 52, 80 1
23, 39, 62 1
21, 41, 58 1
27, 48, 63 1
30, 54, 66 1
46, 69, 84 1
53, 78, 94 1
60, 83, 105 1
63, 86, 112 1
64, 85, 117 1
64, 84, 119 1
63, 82, 119 1
67, 85, 122 1
71, 89, 126 1
83, 101, 138 1
108, 130, 171 1
129, 154, 196 1
139, 164, 206 1
142, 169, 213 1
144, 170, 216 1
143, 172, 217 1
143, 171, 218 1
137, 164, 214 1
111, 135, 189 1
117, 140, 196 1
118, 140, 198 1
114, 135, 196 1
111, 130, 191 1
89, 109, 167 1
71, 91, 148 1
61, 81, 138 1
67, 88, 143 1
80, 101, 156 1
96, 103, 158 1
93, 104, 156 1
90, 103, 155 1
89, 105, 152 1
84, 102, 149 1
84, 103, 148 1
99, 118, 163 1
71, 82, 132 1
61, 72, 122 1
44, 56, 104 1
48, 60, 108 1
73, 86, 132 1
93, 106, 152 1
87, 101, 154 1
91, 105, 158 1
90, 104, 156 1
84, 99, 148 1
79, 94, 140 1
77, 93, 136 1
76, 93, 132 1
74, 92, 129 1
74, 91, 124 1
78, 96, 127 1
80, 99, 126 1
79, 96, 122 1
78, 95, 121 1
81, 98, 124 1
101, 118, 139 1
101, 119, 142 1
102, 120, 143 1
101, 118, 144 1
104, 118, 141 1
94, 108, 127 1
86, 93, 112 1
66, 71, 86 1
18, 38, 39 1
34, 56, 61 1
45, 71, 78 1
59, 88, 102 1
74, 107, 123 1
88, 122, 145 1
96, 130, 159 1
107, 142, 175 1
110, 144, 180 1
112, 148, 186 1
112, 147, 187 1
108, 143, 183 1
105, 139, 182 1
104, 139, 182 1
105, 140, 183 1
111, 141, 182 1
109, 140, 185 1
111, 141, 188 1
115, 142, 192 1
131, 152, 207 1
132, 152, 207 1
133, 154, 206 1
134, 152, 205 1
130, 148, 201 1
127, 135, 175 1
110, 119, 157 1
81, 91, 125 1
49, 63, 91 1
31, 47, 70 1
24, 44, 61 1
26, 48, 60 1
27, 49, 60 1
33, 58, 68 1
39, 65, 77 1
49, 74, 90 1
56, 79, 101 1
60, 83, 109 1
63, 84, 116 1
66, 85, 122 1
68, 87, 125 1
72, 90, 127 1
80, 98, 135 1
85, 104, 141 1
90, 109, 147 1
95, 116, 154 1
101, 121, 162 1
133, 158, 200 1
144, 173, 217 1
149, 178, 223 1
142, 170, 217 1
114, 138, 192 1
119, 140, 201 1
117, 138, 200 1
116, 134, 197 1
82, 102, 159 1
60, 81, 136 1
59, 80, 135 1
72, 94, 146 1
87, 101, 149 1
85, 100, 146 1
88, 105, 148 1
94, 111, 154 1
98, 114, 160 1
83, 99, 146 1
67, 81, 129 1
61, 73, 121 1
54, 67, 113 1
45, 56, 100 1
53, 62, 106 1
73, 82, 125 1
93, 104, 148 1
94, 106, 148 1
89, 101, 141 1
87, 98, 136 1
85, 97, 133 1
81, 92, 124 1
75, 85, 115 1
80, 91, 118 1
76, 87, 109 1
66, 75, 95 1
53, 63, 80 1
44, 53, 67 1
39, 48, 61 1
39, 49, 59 1
42, 52, 62 1
52, 61, 71 1
68, 78, 88 1
77, 86, 99 1
80, 91, 105 1
76, 87, 101 1
70, 81, 95 1
68, 77, 91 1
58, 64, 77 1
50, 52, 63 1
22, 40, 39 1
21, 41, 42 1
24, 44, 49 1
27, 53, 60 1
40, 68, 79 1
58, 88, 105 1
79, 112, 132 1
90, 125, 151 1
97, 133, 163 1
102, 137, 170 1
107, 141, 177 1
107, 143, 179 1
105, 141, 179 1
103, 139, 177 1
106, 142, 180 1
107, 137, 178 1
106, 137, 182 1
108, 138, 185 1
131, 148, 204 1
128, 145, 201 1
129, 137, 177 1
118, 127, 165 1
94, 104, 138 1
65, 79, 107 1
45, 61, 84 1
36, 54, 71 1
31, 53, 65 1
29, 51, 62 1
31, 56, 66 1
45, 70, 86 1
49, 73, 95 1
53, 76, 102 1
57, 78, 110 1
64, 83, 120 1
68, 89, 127 1
82, 100, 137 1
93, 112, 150 1
97, 116, 154 1
146, 173, 217 1
147, 176, 220 1
148, 177, 221 1
117, 141, 195 1
122, 144, 202 1
121, 142, 203 1
119, 140, 202 1
127, 145, 210 1
121, 139, 204 1
120, 138, 201 1
83, 103, 160 1
49, 70, 125 1
44, 65, 117 1
60, 81, 133 1
83, 97, 146 1
88, 100, 148 1
85, 98, 142 1
83, 97, 139 1
84, 98, 140 1
88, 102, 144 1
89, 105, 148 1
98, 115, 158 1
88, 104, 150 1
68, 84, 130 1
57, 72, 118 1
57, 70, 114 1
53, 62, 105 1
48, 56, 96 1
53, 59, 100 1
77, 87, 121 1
87, 97, 131 1
96, 105, 139 1
96, 105, 138 1
98, 106, 136 1
96, 102, 131 1
85, 89, 117 1
73, 77, 101 1
58, 62, 81 1
49, 52, 67 1
37, 39, 50 1
30, 33, 41 1
32, 35, 39 1
37, 39, 40 1
37, 39, 39 1
35, 37, 37 1
34, 38, 39 1
36, 39, 43 1
36, 40, 45 1
36, 39, 47 1
34, 37, 45 1
35, 37, 45 1
45, 41, 46 1
17, 33, 32 1
21, 37, 36 1
20, 38, 39 1
18, 39, 41 1
19, 43, 49 1
24, 52, 63 1
36, 67, 82 1
51, 84, 104 1
61, 95, 119 1
90, 124, 153 1
95, 130, 163 1
102, 137, 171 1
105, 139, 175 1
102, 138, 174 1
102, 138, 176 1
107, 143, 181 1
107, 139, 175 1
105, 136, 175 1
104, 136, 179 1
106, 136, 183 1
125, 145, 202 1
128, 147, 204 1
130, 147, 204 1
127, 144, 201 1
132, 140, 180 1
124, 133, 171 1
104, 114, 148 1
78, 90, 118 1
56, 72, 95 1
45, 63, 80 1
36, 58, 70 1
32, 54, 65 1
32, 57, 67 1
42, 67, 83 1
45, 69, 91 1
47, 70, 96 1
52, 73, 105 1
59, 81, 117 1
67, 88, 126 1
87, 105, 142 1
91, 110, 147 1
108, 130, 172 1
136, 161, 205 1
143, 170, 214 1
143, 172, 216 1
145, 174, 218 1
139, 168, 212 1
126, 148, 206 1
127, 148, 210 1
126, 146, 211 1
129, 147, 212 1
125, 143, 206 1
114, 133, 194 1
74, 94, 151 1
30, 51, 106 1
26, 47, 99 1
47, 68, 119 1
72, 87, 136 1
80, 94, 142 1
87, 100, 146 1
85, 97, 139 1
86, 98, 138 1
86, 101, 140 1
85, 101, 143 1
83, 100, 143 1
85, 104, 147 1
65, 82, 125 1
56, 69, 113 1
55, 65, 105 1
48, 54, 95 1
38, 43, 82 1
47, 55, 84 1
62, 70, 99 1
78, 84, 113 1
85, 92, 119 1
89, 94, 119 1
84, 88, 112 1
67, 70, 91 1
50, 52, 70 1
36, 37, 51 1
36, 35, 45 1
36, 34, 40 1
40, 37, 39 1
46, 43, 38 1
41, 38, 30 1
36, 33, 25 1
42, 40, 32 1
43, 40, 35 1
41, 41, 35 1
42, 40, 39 1
39, 38, 40 1
37, 36, 38 1
36, 35, 37 1
49, 44, 46 1
48, 40, 41 1
48, 36, 36 1
23, 37, 33 1
25, 39, 37 1
30, 44, 43 1
31, 45, 44 1
33, 46, 48 1
36, 48, 52 1
34, 48, 54 1
39, 52, 60 1
69, 85, 97 1
90, 106, 122 1
110, 130, 147 1
117, 140, 156 1
115, 139, 157 1
110, 140, 159 1
104, 138, 168 1
104, 136, 171 1
105, 137, 172 1
106, 138, 174 1
119, 145, 191 1
121, 147, 194 1
125, 148, 196 1
122, 145, 195 1
104, 139, 173 1
104, 134, 169 1
99, 125, 161 1
83, 95, 129 1
71, 77, 112 1
62, 62, 98 1
56, 55, 89 1
58, 57, 91 1
56, 56, 92 1
50, 56, 91 1
48, 60, 94 1
47, 67, 102 1
53, 79, 115 1
64, 94, 129 1
69, 104, 138 1
80, 109, 146 1
86, 115, 152 1
115, 131, 177 1
118, 137, 182 1
121, 144, 190 1
128, 157, 202 1
136, 166, 213 1
143, 173, 220 1
140, 170, 219 1
146, 176, 225 1
144, 173, 224 1
152, 179, 216 1
153, 179, 219 1
135, 158, 208 1
123, 141, 202 1
130, 143, 211 1
135, 147, 217 1
138, 148, 218 1
134, 143, 211 1
132, 141, 205 1
124, 135, 193 1
89, 99, 153 1
34, 46, 94 1
22, 33, 77 1
48, 60, 102 1
65, 83, 120 1
73, 92, 130 1
70, 95, 135 1
70, 93, 131 1
71, 92, 124 1
74, 92, 121 1
79, 95, 118 1
84, 99, 125 1
88, 105, 132 1
87, 101, 130 1
73, 84, 112 1
57, 62, 87 1
44, 45, 65 1
40, 38, 57 1
34, 38, 49 1
44, 46, 56 1
49, 48, 57 1
51, 47, 52 1
49, 42, 45 1
50, 39, 41 1
54, 40, 28 1
52, 41, 27 1
54, 43, 29 1
53, 41, 29 1
27, 39, 33 1
34, 47, 45 1
32, 44, 44 1
30, 42, 42 1
32, 44, 46 1
34, 46, 52 1
34, 44, 54 1
39, 51, 61 1
47, 61, 73 1
81, 100, 115 1
99, 120, 135 1
111, 134, 150 1
102, 132, 159 1
101, 132, 163 1
104, 135, 168 1
106, 136, 171 1
110, 139, 176 1
110, 139, 178 1
112, 140, 181 1
114, 142, 183 1
114, 141, 185 1
115, 141, 187 1
114, 140, 186 1
98, 130, 166 1
100, 130, 165 1
101, 120, 157 1
96, 110, 146 1
89, 97, 134 1
81, 85, 120 1
76, 78, 113 1
69, 71, 106 1
66, 70, 105 1
61, 69, 106 1
58, 72, 108 1
59, 78, 115 1
63, 89, 125 1
72, 102, 137 1
77, 109, 145 1
84, 116, 151 1
95, 125, 160 1
111, 139, 174 1
127, 146, 189 1
135, 162, 212 1
140, 165, 215 1
145, 170, 220 1
144, 169, 219 1
148, 173, 215 1
149, 174, 218 1
145, 168, 216 1
133, 155, 207 1
122, 142, 200 1
122, 139, 202 1
127, 143, 210 1
137, 149, 219 1
133, 144, 212 1
128, 138, 202 1
120, 131, 191 1
88, 100, 154 1
35, 49, 98 1
20, 33, 79 1
43, 56, 100 1
63, 80, 119 1
74, 92, 133 1
76, 96, 137 1
71, 91, 132 1
66, 87, 125 1
71, 88, 115 1
77, 91, 113 1
79, 92, 114 1
83, 97, 119 1
87, 101, 124 1
84, 97, 123 1
71, 81, 105 1
53, 59, 78 1
41, 40, 56 1
36, 32, 44 1
37, 35, 41 1
35, 34, 38 1
37, 33, 38 1
42, 37, 39 1
49, 41, 42 1
54, 42, 42 1
52, 39, 31 1
50, 40, 30 1
51, 41, 31 1
51, 42, 32 1
54, 42, 32 1
31, 41, 35 1
38, 46, 45 1
41, 49, 48 1
41, 48, 51 1
40, 47, 50 1
42, 48, 53 1
41, 49, 56 1
43, 51, 58 1
39, 48, 57 1
37, 47, 57 1
37, 49, 59 1
40, 55, 64 1
78, 94, 106 1
97, 115, 126 1
101, 129, 146 1
106, 133, 153 1
112, 139, 159 1
115, 142, 163 1
113, 142, 163 1
110, 138, 162 1
106, 136, 161 1
106, 135, 162 1
109, 137, 167 1
108, 137, 168 1
108, 136, 170 1
109, 137, 172 1
111, 138, 175 1
108, 140, 176 1
109, 138, 175 1
103, 119, 156 1
100, 111, 149 1
96, 104, 141 1
95, 101, 138 1
78, 84, 121 1
75, 83, 120 1
71, 82, 120 1
69, 85, 122 1
70, 92, 128 1
74, 100, 137 1
79, 108, 145 1
81, 113, 149 1
93, 127, 157 1
124, 153, 184 1
134, 161, 195 1
133, 159, 195 1
136, 161, 201 1
128, 151, 199 1
124, 148, 200 1
137, 158, 210 1
144, 162, 215 1
150, 169, 220 1
144, 167, 215 1
145, 168, 218 1
141, 162, 217 1
131, 151, 209 1
121, 138, 205 1
130, 144, 216 1
136, 150, 222 1
122, 136, 202 1
114, 127, 189 1
85, 100, 156 1
37, 51, 103 1
16, 32, 79 1
37, 53, 100 1
59, 73, 115 1
72, 88, 131 1
75, 91, 134 1
69, 87, 128 1
69, 87, 124 1
72, 85, 117 1
68, 80, 104 1
68, 78, 96 1
60, 70, 87 1
58, 68, 85 1
55, 65, 83 1
51, 61, 79 1
46, 53, 68 1
42, 44, 55 1
41, 38, 47 1
44, 38, 43 1
42, 34, 34 1
44, 36, 36 1
45, 37, 37 1
49, 39, 39 1
49, 36, 34 1
53, 38, 36 1
51, 39, 35 1
50, 38, 34 1
49, 39, 32 1
48, 40, 33 1
47, 41, 34 1
55, 43, 33 1
37, 45, 38 1
41, 46, 44 1
44, 49, 48 1
47, 49, 50 1
48, 49, 53 1
52, 53, 57 1
45, 48, 52 1
41, 44, 49 1
40, 44, 49 1
40, 49, 53 1
46, 55, 59 1
49, 68, 76 1
57, 78, 86 1
72, 92, 103 1
85, 105, 116 1
94, 116, 128 1
102, 125, 140 1
109, 134, 150 1
114, 138, 156 1
120, 146, 170 1
119, 144, 170 1
115, 142, 169 1
113, 140, 167 1
112, 138, 168 1
109, 137, 168 1
108, 136, 167 1
108, 135, 172 1
95, 106, 144 1
82, 93, 131 1
80, 91, 129 1
76, 92, 129 1
77, 94, 133 1
81, 102, 140 1
83, 109, 146 1
100, 133, 159 1
121, 152, 177 1
130, 161, 186 1
145, 175, 200 1
160, 190, 215 1
157, 185, 215 1
135, 161, 201 1
123, 143, 200 1
117, 137, 194 1
125, 142, 199 1
133, 148, 204 1
136, 150, 203 1
144, 157, 209 1
140, 161, 216 1
141, 161, 218 1
139, 159, 217 1
132, 150, 213 1
123, 139, 208 1
126, 141, 213 1
130, 145, 217 1
135, 150, 222 1
133, 148, 217 1
120, 136, 202 1
106, 124, 185 1
82, 99, 156 1
35, 53, 106 1
16, 33, 82 1
34, 51, 100 1
64, 75, 119 1
74, 87, 131 1
76, 89, 133 1
76, 88, 128 1
77, 89, 125 1
71, 79, 108 1
54, 61, 81 1
44, 49, 64 1
33, 38, 47 1
29, 34, 43 1
28, 33, 42 1
31, 33, 41 1
43, 37, 38 1
49, 40, 37 1
45, 38, 35 1
51, 54, 45 1
53, 54, 52 1
58, 56, 55 1
55, 53, 52 1
52, 50, 49 1
56, 52, 51 1
55, 51, 50 1
55, 50, 49 1
56, 50, 51 1
55, 49, 50 1
52, 46, 47 1
51, 46, 45 1
48, 46, 45 1
40, 51, 49 1
45, 55, 55 1
51, 63, 63 1
58, 70, 72 1
64, 76, 80 1
70, 84, 90 1
82, 99, 108 1
100, 118, 129 1
106, 125, 140 1
115, 135, 152 1
120, 142, 160 1
122, 143, 164 1
120, 144, 164 1
119, 142, 164 1
120, 143, 165 1
105, 124, 161 1
99, 117, 154 1
97, 113, 150 1
91, 107, 144 1
88, 104, 141 1
92, 116, 152 1
103, 130, 151 1
123, 151, 168 1
143, 171, 188 1
160, 188, 205 1
164, 193, 214 1
159, 188, 215 1
151, 179, 214 1
124, 144, 201 1
123, 141, 200 1
123, 139, 198 1
132, 146, 204 1
136, 147, 204 1
138, 150, 204 1
139, 157, 218 1
140, 158, 219 1
138, 155, 218 1
134, 150, 216 1
127, 143, 212 1
130, 146, 215 1
133, 149, 218 1
132, 150, 215 1
119, 136, 199 1
104, 122, 181 1
80, 100, 155 1
40, 58, 111 1
19, 39, 87 1
33, 53, 101 1
67, 78, 122 1
77, 88, 132 1
82, 91, 134 1
78, 87, 124 1
74, 82, 112 1
61, 65, 89 1
45, 45, 61 1
37, 36, 46 1
39, 37, 43 1
43, 38, 40 1
49, 38, 34 1
52, 38, 32 1
57, 39, 28 1
57, 41, 29 1
55, 36, 31 1
48, 39, 36 1
58, 57, 47 1
58, 53, 50 1
60, 55, 52 1
56, 49, 46 1
52, 45, 42 1
45, 43, 35 1
47, 45, 37 1
45, 46, 42 1
42, 45, 43 1
40, 46, 45 1
40, 48, 48 1
38, 47, 51 1
57, 68, 76 1
66, 78, 88 1
78, 92, 104 1
95, 109, 121 1
112, 128, 141 1
127, 143, 156 1
126, 144, 175 1
125, 143, 174 1
121, 138, 171 1
109, 128, 163 1
98, 117, 152 1
101, 120, 153 1
106, 123, 156 1
93, 111, 142 1
84, 102, 133 1
79, 95, 111 1
58, 75, 88 1
47, 66, 79 1
69, 89, 100 1
98, 120, 131 1
137, 163, 177 1
166, 191, 211 1
176, 200, 228 1
154, 180, 217 1
136, 155, 212 1
129, 146, 203 1
136, 151, 207 1
134, 149, 205 1
142, 154, 218 1
138, 152, 218 1
132, 148, 214 1
128, 144, 211 1
131, 149, 214 1
133, 151, 216 1
129, 148, 209 1
115, 133, 192 1
84, 102, 155 1
50, 69, 120 1
30, 47, 96 1
37, 55, 102 1
64, 76, 118 1
80, 90, 130 1
87, 96, 133 1
76, 83, 116 1
61, 65, 90 1
49, 49, 67 1
45, 41, 52 1
47, 41, 46 1
46, 40, 41 1
45, 39, 40 1
52, 42, 42 1
54, 42, 38 1
57, 37, 26 1
58, 38, 27 1
51, 40, 36 1
50, 44, 33 1
55, 45, 38 1
66, 50, 44 1
65, 49, 43 1
64, 50, 38 1
63, 49, 37 1
60, 48, 38 1
57, 47, 37 1
55, 46, 37 1
52, 44, 37 1
50, 44, 39 1
44, 44, 44 1
41, 43, 44 1
37, 41, 42 1
39, 42, 46 1
46, 50, 55 1
58, 62, 67 1
69, 73, 78 1
98, 108, 132 1
105, 116, 143 1
117, 128, 155 1
126, 139, 165 1
128, 142, 170 1
122, 139, 166 1
113, 131, 160 1
107, 125, 154 1
115, 133, 162 1
108, 126, 155 1
104, 121, 148 1
104, 117, 143 1
95, 106, 133 1
77, 88, 115 1
64, 74, 98 1
50, 55, 64 1
37, 42, 51 1
30, 38, 45 1
30, 40, 47 1
28, 42, 48 1
60, 76, 83 1
106, 123, 136 1
153, 172, 193 1
174, 196, 224 1
150, 173, 218 1
145, 166, 217 1
136, 156, 213 1
137, 157, 214 1
143, 155, 219 1
141, 156, 219 1
138, 153, 216 1
132, 151, 212 1
134, 154, 212 1
90, 107, 156 1
64, 82, 129 1
43, 59, 105 1
40, 56, 102 1
60, 73, 111 1
82, 94, 130 1
76, 80, 108 1
53, 52, 72 1
43, 38, 53 1
47, 39, 46 1
52, 41, 43 1
44, 34, 34 1
48, 36, 34 1
50, 38, 36 1
53, 41, 39 1
55, 42, 40 1
58, 41, 38 1
61, 49, 39 1
52, 43, 39 1
47, 42, 39 1
47, 42, 41 1
35, 37, 55 1
52, 54, 72 1
76, 83, 100 1
102, 109, 128 1
119, 130, 150 1
126, 140, 159 1
127, 142, 161 1
123, 140, 161 1
118, 135, 156 1
112, 127, 146 1
104, 118, 137 1
100, 111, 131 1
98, 105, 124 1
83, 90, 107 1
63, 65, 83 1
44, 46, 64 1
48, 41, 46 1
42, 41, 43 1
38, 40, 41 1
42, 47, 50 1
83, 95, 107 1
139, 155, 172 1
171, 191, 216 1
161, 182, 214 1
152, 174, 215 1
147, 171, 217 1
141, 165, 217 1
133, 158, 214 1
134, 161, 217 1
147, 158, 218 1
146, 157, 217 1
145, 159, 218 1
144, 160, 219 1
141, 157, 216 1
134, 152, 211 1
132, 152, 210 1
103, 124, 175 1
93, 111, 158 1
74, 90, 136 1
50, 66, 112 1
41, 57, 100 1
51, 67, 103 1
77, 89, 123 1
93, 101, 130 1
77, 79, 103 1
53, 50, 66 1
48, 40, 51 1
53, 41, 47 1
51, 39, 39 1
53, 40, 38 1
53, 41, 37 1
52, 40, 36 1
61, 38, 36 1
65, 48, 39 1
66, 49, 40 1
60, 46, 40 1
45, 37, 47 1
45, 40, 49 1
46, 43, 52 1
52, 56, 67 1
69, 78, 91 1
73, 85, 97 1
86, 98, 110 1
83, 92, 105 1
74, 83, 93 1
67, 71, 82 1
59, 60, 70 1
53, 50, 59 1
46, 41, 50 1
43, 35, 45 1
59, 44, 42 1
57, 44, 42 1
53, 43, 43 1
45, 41, 40 1
36, 41, 44 1
57, 67, 74 1
104, 117, 131 1
141, 158, 179 1
147, 168, 196 1
146, 169, 207 1
141, 170, 221 1
137, 167, 222 1
152, 165, 221 1
149, 164, 220 1
154, 169, 225 1
151, 168, 224 1
148, 168, 223 1
147, 168, 223 1
137, 161, 215 1
135, 159, 213 1
123, 146, 196 1
109, 132, 182 1
95, 113, 160 1
86, 102, 148 1
58, 75, 118 1
30, 46, 89 1
55, 71, 107 1
83, 96, 128 1
94, 101, 128 1
72, 73, 94 1
51, 46, 61 1
49, 38, 48 1
52, 38, 42 1
51, 37, 38 1
57, 36, 34 1
51, 36, 33 1
59, 37, 32 1
64, 50, 52 1
62, 49, 51 1
48, 45, 47 1
46, 47, 51 1
46, 51, 54 1
48, 53, 56 1
62, 67, 70 1
61, 66, 69 1
60, 61, 65 1
60, 57, 59 1
58, 51, 54 1
57, 44, 46 1
57, 43, 45 1
58, 43, 40 1
54, 43, 39 1
45, 42, 38 1
38, 39, 37 1
45, 50, 51 1
64, 75, 83 1
95, 111, 128 1
125, 144, 171 1
134, 157, 195 1
141, 158, 207 1
149, 166, 215 1
159, 179, 227 1
161, 182, 233 1
159, 182, 232 1
152, 176, 228 1
140, 167, 218 1
96, 119, 167 1
90, 113, 159 1
78, 97, 142 1
67, 84, 127 1
77, 93, 130 1
93, 105, 139 1
96, 100, 129 1
74, 71, 93 1
54, 44, 60 1
48, 34, 45 1
51, 36, 40 1
54, 38, 39 1
59, 36, 34 1
60, 37, 35 1
65, 46, 43 1
59, 44, 41 1
51, 42, 39 1
48, 45, 41 1
46, 45, 41 1
45, 44, 40 1
49, 46, 42 1
51, 46, 43 1
56, 47, 44 1
61, 46, 43 1
67, 48, 45 1
54, 43, 35 1
52, 45, 36 1
40, 42, 42 1
36, 44, 51 1
50, 62, 80 1
79, 93, 121 1
138, 156, 197 1
151, 169, 210 1
156, 176, 217 1
156, 178, 220 1
155, 178, 223 1
159, 183, 229 1
161, 189, 236 1
155, 185, 234 1
142, 171, 222 1
127, 158, 209 1
93, 119, 166 1
86, 110, 156 1
91, 110, 155 1
94, 107, 145 1
97, 106, 140 1
87, 89, 119 1
68, 61, 82 1
52, 39, 53 1
52, 35, 44 1
57, 40, 44 1
59, 43, 44 1
57, 45, 39 1
54, 46, 39 1
53, 45, 38 1
55, 43, 31 1
58, 48, 38 1
54, 48, 41 1
43, 41, 41 1
32, 34, 42 1
32, 36, 54 1
50, 57, 82 1
75, 83, 112 1
110, 128, 157 1
137, 155, 186 1
158, 179, 211 1
162, 187, 227 1
141, 170, 215 1
132, 162, 209 1
122, 154, 203 1
117, 147, 196 1
107, 137, 186 1
90, 114, 160 1
84, 107, 152 1
89, 111, 153 1
89, 96, 129 1
72, 70, 99 1
56, 45, 65 1
49, 32, 45 1
56, 36, 41 1
55, 37, 38 1
56, 43, 29 1
51, 37, 31 1
63, 47, 35 1
68, 50, 39 1
58, 47, 43 1
52, 44, 44 1
39, 35, 41 1
38, 37, 47 1
49, 49, 63 1
39, 52, 68 1
64, 78, 96 1
144, 164, 189 1
162, 183, 214 1
153, 177, 213 1
147, 173, 213 1
125, 154, 199 1
106, 135, 180 1
99, 125, 171 1
92, 117, 159 1
85, 110, 150 1
87, 108, 146 1
73, 77, 106 1
56, 50, 73 1
50, 37, 53 1
57, 34, 39 1
57, 35, 37 1
56, 36, 35 1
57, 40, 37 1
61, 47, 41 1
61, 50, 46 1
53, 45, 45 1
31, 38, 41 1
32, 41, 45 1
38, 48, 58 1
64, 77, 93 1
105, 122, 143 1
139, 157, 186 1
149, 169, 204 1
138, 161, 199 1
81, 88, 113 1
60, 61, 82 1
49, 42, 57 1
57, 40, 49 1
64, 41, 45 1
65, 38, 41 1
63, 39, 39 1
64, 43, 42 1
57, 43, 31 1
73, 48, 32 1
72, 47, 45 1
73, 48, 46 1
72, 47, 43 1
68, 46, 41 1
58, 46, 34 1
56, 44, 32 1
39, 40, 31 1
42, 43, 39 1
41, 46, 45 1
41, 47, 54 1
63, 72, 86 1
103, 116, 138 1
129, 146, 173 1
136, 155, 188 1
130, 152, 188 1
119, 142, 180 1
113, 135, 171 1
103, 124, 155 1
63, 70, 87 1
51, 52, 66 1
49, 41, 48 1
61, 42, 45 1
64, 43, 41 1
62, 43, 38 1
58, 37, 36 1
52, 42, 32 1
54, 39, 30 1
54, 37, 28 1
54, 35, 27 1
75, 50, 34 1
63, 37, 37 1
69, 43, 43 1
70, 45, 41 1
59, 43, 27 1
60, 46, 28 1
63, 49, 30 1
52, 49, 35 1
47, 45, 34 1
38, 42, 43 1
30, 37, 46 1
34, 44, 61 1
46, 60, 83 1
107, 127, 162 1
116, 136, 171 1
108, 128, 159 1
93, 112, 139 1
64, 84, 109 1
41, 58, 84 1
39, 45, 58 1
38, 39, 49 1
45, 36, 39 1
55, 35, 34 1
61, 35, 29 1
62, 40, 35 1
59, 38, 37 1
58, 36, 38 1
53, 37, 31 1
52, 41, 33 1
53, 43, 33 1
51, 36, 27 1
55, 39, 27 1
59, 40, 27 1
61, 42, 29 1
72, 43, 39 1
54, 42, 36 1
51, 41, 34 1
46, 40, 33 1
42, 39, 34 1
37, 39, 33 1
42, 46, 41 1
46, 52, 47 1
54, 61, 58 1
59, 65, 64 1
55, 61, 60 1
47, 52, 53 1
42, 47, 48 1
40, 45, 46 1
52, 40, 34 1
61, 46, 37 1
52, 42, 35 1
48, 42, 35 1
47, 43, 38 1
40, 37, 32 1
39, 38, 34 1
40, 41, 39 1
41, 42, 40 1
39, 39, 39 1
37, 37, 37 1
38, 38, 38 1
40, 39, 41 1
55, 36, 29 1
73, 44, 40 1
59, 45, 39 1
48, 42, 37 1
49, 42, 39 1
50, 42, 42 1
53, 37, 30 1
53, 41, 35 1
57, 45, 41 1
56, 44, 40 1
54, 41, 39 1
54, 39, 37 1
52, 37, 35 1
60, 41, 38 1
58, 39, 36 1
77, 46, 37 1
82, 49, 40 1
79, 46, 37 1
77, 44, 35 1
73, 42, 33 1
76, 47, 40 1
72, 49, 34 1
69, 48, 33 1
69, 39, 34 1
74, 50, 38 1
64, 44, 39 1
75, 46, 41 1
79, 49, 44 1
60, 38, 27 1
57, 36, 28 1
76, 48, 37 1
76, 46, 41 1
78, 50, 39 1
71, 49, 38 1
61, 39, 28 1
61, 38, 30 1
75, 48, 38 1
73, 51, 40 1
72, 50, 39 1
72, 42, 37 1
74, 49, 39 1
58, 37, 29 1
71, 39, 33 1
59, 39, 28 1
78, 46, 40 1
80, 46, 40 1
79, 43, 37 1
71, 44, 30 1
60, 44, 32 1
59, 45, 33 1
73, 50, 35 1
74, 43, 34 1
58, 42, 30 1
58, 44, 32 1
77, 42, 32 1
76, 49, 35 1
64, 39, 29 1
66, 47, 32 1
65, 46, 31 1
68, 38, 37 1
69, 39, 38 1
68, 39, 35 1
65, 38, 34 1
81, 46, 36 1
64, 45, 30 1
72, 42, 41 1
80, 48, 37 1
63, 47, 31 1
69, 41, 40 1
64, 48, 32 1
75, 46, 32 1
62, 46, 30 1
61, 44, 31 1
63, 38, 36 1
74, 45, 31 1
