69, 43, 36 238
69, 44, 34 236
70, 45, 35 222
72, 46, 34 212
72, 44, 37 195
71, 43, 36 173
68, 43, 33 162
67, 44, 36 157
70, 44, 37 141
68, 42, 35 137
66, 43, 35 125
73, 47, 35 123
71, 46, 36 113
71, 45, 33 109
68, 45, 37 104
70, 42, 35 99
70, 46, 34 95
64, 43, 35 91
73, 45, 34 91
72, 45, 35 88
65, 44, 36 86
73, 45, 38 85
71, 44, 34 81
62, 40, 34 77
64, 42, 36 77
71, 45, 38 76
63, 41, 35 70
59, 40, 33 68
60, 41, 34 65
66, 42, 36 65
67, 42, 32 63
70, 43, 33 61
63, 42, 34 59
59, 41, 34 57
65, 43, 37 57
64, 40, 34 57
67, 41, 34 54
62, 41, 33 51
65, 42, 34 51
58, 40, 33 50
61, 39, 33 50
68, 46, 35 49
65, 41, 35 49
67, 43, 37 49
67, 45, 34 48
68, 46, 34 48
69, 45, 33 47
72, 44, 33 47
71, 47, 35 46
62, 43, 36 45
60, 41, 33 45
68, 42, 36 45
59, 40, 32 40
68, 44, 38 40
74, 46, 35 40
69, 46, 38 39
73, 46, 36 39
67, 41, 35 39
63, 39, 33 38
106, 130, 166 37
61, 40, 32 36
69, 43, 37 36
105, 129, 165 35
58, 39, 32 35
61, 42, 35 34
69, 41, 34 34
60, 42, 35 33
60, 38, 32 32
74, 48, 36 32
73, 44, 37 32
56, 40, 33 30
62, 43, 35 30
72, 43, 36 30
72, 47, 37 29
61, 42, 34 29
70, 44, 32 29
57, 39, 32 28
72, 43, 34 27
66, 45, 37 26
73, 44, 35 26
68, 44, 32 26
72, 43, 38 26
89, 110, 141 25
70, 41, 36 24
71, 42, 37 24
66, 41, 31 24
109, 131, 179 23
57, 38, 33 23
58, 39, 34 23
63, 44, 37 23
103, 129, 166 22
55, 39, 32 22
61, 43, 36 22
66, 44, 38 22
92, 113, 144 21
72, 46, 39 21
66, 40, 34 21
75, 45, 34 21
107, 130, 175 20
107, 129, 170 20
97, 121, 157 20
67, 46, 38 20
65, 39, 33 20
66, 40, 33 20
69, 47, 35 20
105, 131, 168 19
66, 44, 33 19
71, 43, 32 19
73, 43, 38 19
74, 44, 33 19
71, 45, 31 19
90, 111, 142 18
106, 128, 169 18
102, 128, 164 18
63, 44, 36 18
104, 128, 164 17
57, 38, 31 17
74, 46, 39 17
109, 132, 178 16
108, 130, 178 16
114, 138, 192 16
103, 128, 168 16
64, 41, 33 16
62, 38, 32 16
69, 47, 36 16
67, 45, 33 16
65, 43, 38 16
65, 40, 30 16
108, 131, 176 15
99, 124, 156 15
60, 39, 31 15
66, 44, 39 15
73, 44, 39 15
107, 131, 167 14
99, 121, 156 14
108, 131, 177 14
101, 127, 167 14
56, 38, 31 14
58, 39, 31 14
64, 38, 32 14
63, 38, 34 14
70, 44, 38 14
63, 43, 32 14
108, 132, 174 13
110, 132, 180 13
107, 130, 176 13
98, 122, 158 13
59, 39, 34 13
65, 46, 39 13
62, 44, 37 13
66, 41, 37 13
75, 47, 36 13
103, 127, 163 12
87, 111, 141 12
91, 112, 143 12
109, 133, 175 12
113, 135, 187 12
115, 137, 189 12
102, 128, 165 12
100, 126, 166 12
103, 129, 165 12
65, 39, 32 12
69, 42, 32 12
67, 38, 33 12
64, 42, 37 12
71, 42, 33 12
68, 40, 33 12
74, 45, 36 12
103, 125, 161 11
108, 130, 166 11
92, 116, 144 11
84, 108, 136 11
100, 121, 159 11
105, 126, 171 11
104, 125, 170 11
54, 38, 31 11
57, 41, 34 11
69, 45, 39 11
67, 45, 39 11
70, 41, 32 11
88, 109, 140 10
106, 128, 164 10
109, 131, 167 10
100, 122, 158 10
113, 137, 191 10
129, 153, 195 10
105, 128, 166 10
83, 110, 137 10
104, 130, 167 10
99, 123, 159 10
106, 132, 169 10
129, 152, 197 10
98, 123, 155 10
59, 42, 33 10
58, 38, 33 10
58, 41, 32 10
63, 40, 32 10
65, 43, 32 10
65, 45, 34 10
74, 47, 37 10
69, 40, 35 10
71, 42, 35 10
96, 116, 151 9
90, 116, 152 9
97, 116, 151 9
107, 129, 165 9
110, 131, 182 9
119, 141, 193 9
111, 134, 184 9
105, 127, 162 9
130, 156, 202 9
85, 112, 139 9
80, 101, 128 9
106, 128, 170 9
127, 150, 195 9
95, 122, 156 9
124, 147, 192 9
127, 152, 208 9
64, 45, 37 9
62, 39, 31 9
64, 44, 33 9
66, 46, 35 9
70, 47, 39 9
71, 45, 39 9
70, 47, 32 9
72, 46, 32 9
76, 46, 35 9
73, 43, 32 9
73, 46, 32 9
102, 124, 160 8
92, 116, 146 8
104, 126, 162 8
108, 133, 167 8
105, 127, 163 8
106, 129, 167 8
85, 111, 141 8
109, 132, 177 8
81, 107, 137 8
117, 139, 191 8
104, 130, 166 8
93, 117, 147 8
93, 117, 145 8
130, 154, 196 8
112, 135, 185 8
86, 110, 138 8
81, 110, 137 8
104, 129, 169 8
102, 127, 167 8
129, 150, 195 8
130, 151, 196 8
106, 127, 172 8
100, 125, 159 8
126, 150, 204 8
100, 125, 157 8
140, 165, 209 8
99, 125, 165 8
59, 41, 30 8
64, 45, 38 8
67, 43, 31 8
67, 42, 38 8
75, 44, 35 8
74, 45, 38 8
72, 45, 31 8
101, 125, 161 7
93, 114, 145 7
90, 114, 144 7
111, 136, 170 7
107, 131, 173 7
87, 114, 148 7
111, 133, 185 7
112, 133, 184 7
105, 128, 173 7
100, 122, 157 7
110, 132, 184 7
109, 132, 182 7
110, 133, 183 7
91, 115, 143 7
90, 114, 142 7
133, 159, 205 7
122, 147, 197 7
114, 136, 188 7
82, 111, 138 7
81, 102, 129 7
116, 137, 192 7
105, 129, 171 7
104, 128, 170 7
82, 109, 136 7
125, 151, 197 7
130, 153, 198 7
102, 128, 168 7
127, 154, 205 7
101, 128, 165 7
141, 170, 207 7
102, 129, 166 7
126, 153, 204 7
135, 158, 206 7
153, 185, 221 7
61, 39, 34 7
63, 41, 36 7
60, 38, 33 7
66, 39, 35 7
62, 42, 31 7
62, 44, 33 7
97, 118, 149 6
101, 123, 159 6
96, 115, 150 6
94, 120, 156 6
103, 125, 160 6
109, 134, 168 6
109, 133, 169 6
110, 135, 169 6
94, 115, 146 6
89, 116, 150 6
103, 126, 171 6
106, 129, 174 6
98, 120, 155 6
92, 115, 147 6
91, 114, 146 6
107, 130, 178 6
94, 118, 148 6
89, 113, 143 6
122, 146, 198 6
119, 143, 195 6
131, 157, 203 6
83, 112, 139 6
116, 138, 190 6
115, 136, 191 6
114, 135, 190 6
128, 152, 194 6
122, 143, 198 6
111, 132, 183 6
124, 145, 200 6
125, 146, 201 6
123, 144, 199 6
83, 107, 135 6
127, 148, 193 6
128, 149, 194 6
120, 142, 194 6
85, 108, 134 6
123, 147, 201 6
108, 128, 175 6
79, 104, 130 6
81, 105, 129 6
81, 104, 130 6
80, 105, 131 6
126, 148, 196 6
125, 149, 203 6
98, 120, 162 6
103, 124, 169 6
103, 128, 162 6
101, 126, 158 6
137, 166, 205 6
100, 127, 164 6
112, 137, 179 6
127, 150, 206 6
134, 157, 205 6
84, 103, 130 6
103, 127, 173 6
56, 40, 34 6
60, 43, 34 6
60, 40, 35 6
59, 43, 36 6
65, 38, 34 6
61, 38, 36 6
61, 37, 31 6
59, 37, 31 6
66, 44, 32 6
61, 43, 32 6
74, 43, 34 6
71, 48, 33 6
69, 43, 31 6
68, 39, 34 6
72, 42, 37 6
70, 44, 30 6
40, 55, 58 5
39, 51, 55 5
40, 52, 56 5
109, 132, 164 5
111, 134, 166 5
99, 118, 155 5
92, 118, 154 5
110, 133, 165 5
86, 111, 145 5
100, 122, 164 5
105, 127, 168 5
108, 131, 169 5
102, 121, 158 5
110, 133, 179 5
102, 125, 170 5
108, 134, 170 5
108, 132, 168 5
101, 123, 158 5
82, 108, 138 5
127, 153, 199 5
128, 154, 200 5
109, 132, 180 5
106, 129, 177 5
105, 130, 170 5
91, 115, 145 5
84, 110, 140 5
129, 155, 201 5
129, 155, 202 5
87, 112, 138 5
130, 156, 203 5
89, 113, 141 5
84, 111, 138 5
133, 159, 206 5
134, 160, 206 5
108, 130, 171 5
99, 121, 157 5
87, 111, 139 5
81, 109, 139 5
95, 119, 149 5
81, 109, 140 5
97, 120, 152 5
118, 139, 194 5
95, 120, 154 5
128, 149, 204 5
109, 130, 181 5
96, 121, 155 5
86, 105, 132 5
133, 155, 207 5
103, 127, 169 5
112, 134, 175 5
94, 121, 155 5
96, 120, 156 5
96, 123, 157 5
110, 130, 177 5
124, 147, 193 5
125, 144, 201 5
102, 127, 161 5
80, 104, 128 5
79, 102, 128 5
78, 101, 127 5
94, 114, 155 5
127, 151, 205 5
77, 98, 125 5
126, 153, 203 5
103, 128, 160 5
135, 157, 205 5
140, 160, 207 5
102, 130, 165 5
101, 129, 160 5
97, 121, 163 5
102, 129, 163 5
148, 180, 215 5
140, 168, 209 5
134, 156, 204 5
85, 104, 131 5
105, 129, 175 5
100, 125, 169 5
128, 155, 205 5
57, 38, 30 5
59, 40, 35 5
61, 41, 30 5
68, 47, 39 5
62, 40, 35 5
65, 46, 38 5
62, 37, 33 5
64, 39, 35 5
64, 37, 33 5
68, 46, 41 5
66, 37, 32 5
74, 44, 39 5
67, 45, 40 5
60, 42, 31 5
61, 44, 35 5
71, 48, 32 5
75, 49, 37 5
72, 48, 36 5
75, 46, 39 5
73, 47, 33 5
74, 47, 33 5
73, 44, 30 5
41, 56, 59 4
40, 54, 60 4
45, 57, 61 4
40, 56, 63 4
112, 135, 167 4
113, 135, 170 4
101, 120, 157 4
95, 114, 149 4
88, 112, 142 4
89, 115, 151 4
49, 63, 69 4
98, 120, 156 4
90, 115, 149 4
92, 114, 156 4
111, 135, 171 4
85, 110, 142 4
109, 135, 171 4
88, 115, 149 4
93, 116, 148 4
92, 113, 145 4
83, 109, 139 4
107, 133, 173 4
105, 132, 169 4
107, 133, 169 4
117, 138, 193 4
106, 129, 175 4
102, 124, 159 4
128, 153, 197 4
125, 150, 200 4
120, 144, 196 4
118, 142, 194 4
108, 130, 182 4
108, 131, 181 4
108, 133, 173 4
127, 152, 202 4
110, 133, 181 4
84, 114, 139 4
130, 155, 197 4
130, 155, 199 4
116, 140, 194 4
110, 134, 176 4
131, 155, 197 4
131, 157, 204 4
79, 108, 135 4
132, 157, 197 4
106, 130, 172 4
80, 109, 136 4
132, 157, 199 4
96, 117, 148 4
83, 104, 131 4
79, 98, 125 4
96, 120, 150 4
114, 138, 190 4
97, 118, 150 4
90, 110, 135 4
127, 152, 196 4
107, 129, 177 4
102, 122, 157 4
88, 111, 137 4
79, 100, 127 4
125, 149, 191 4
126, 149, 194 4
125, 150, 194 4
94, 119, 151 4
126, 147, 202 4
109, 130, 182 4
111, 134, 180 4
128, 151, 196 4
125, 148, 193 4
123, 150, 194 4
130, 152, 204 4
88, 110, 138 4
95, 121, 157 4
123, 146, 191 4
107, 129, 171 4
94, 123, 154 4
118, 140, 192 4
98, 123, 157 4
110, 132, 174 4
101, 124, 169 4
130, 160, 207 4
129, 159, 208 4
122, 141, 198 4
117, 139, 181 4
116, 138, 180 4
122, 145, 191 4
124, 146, 194 4
109, 131, 173 4
134, 156, 198 4
94, 116, 158 4
109, 129, 176 4
97, 122, 154 4
136, 160, 202 4
102, 124, 166 4
138, 164, 204 4
98, 118, 159 4
101, 127, 163 4
139, 168, 205 4
139, 162, 207 4
127, 154, 204 4
103, 131, 166 4
136, 165, 204 4
98, 124, 164 4
100, 125, 165 4
137, 164, 208 4
139, 159, 206 4
128, 151, 207 4
137, 159, 207 4
144, 163, 208 4
102, 127, 169 4
103, 128, 172 4
126, 151, 207 4
96, 118, 159 4
125, 151, 205 4
108, 133, 177 4
111, 136, 178 4
116, 147, 198 4
101, 126, 176 4
123, 150, 201 4
131, 157, 211 4
55, 39, 33 4
53, 37, 30 4
54, 42, 36 4
47, 42, 41 4
61, 45, 39 4
60, 44, 38 4
62, 40, 29 4
57, 40, 31 4
62, 41, 39 4
60, 39, 37 4
62, 43, 38 4
70, 46, 40 4
67, 40, 36 4
74, 48, 41 4
73, 47, 40 4
76, 48, 37 4
75, 43, 38 4
69, 43, 29 4
74, 45, 31 4
63, 45, 34 4
43, 57, 63 3
48, 62, 68 3
53, 70, 79 3
112, 134, 169 3
92, 114, 142 3
93, 119, 155 3
91, 117, 153 3
86, 112, 148 3
85, 111, 147 3
45, 60, 63 3
49, 65, 72 3
44, 56, 60 3
42, 55, 63 3
90, 106, 129 3
86, 107, 139 3
91, 112, 144 3
107, 129, 164 3
102, 126, 162 3
97, 116, 153 3
95, 114, 147 3
88, 114, 150 3
38, 50, 54 3
54, 72, 83 3
111, 133, 168 3
103, 122, 159 3
98, 117, 154 3
51, 67, 74 3
43, 52, 61 3
96, 118, 160 3
97, 117, 152 3
57, 73, 80 3
107, 126, 164 3
105, 128, 174 3
86, 111, 143 3
84, 109, 141 3
53, 60, 69 3
118, 137, 180 3
120, 141, 186 3
117, 140, 190 3
113, 136, 186 3
107, 134, 171 3
105, 131, 167 3
110, 134, 170 3
94, 115, 147 3
86, 113, 147 3
48, 65, 74 3
129, 149, 196 3
106, 133, 170 3
97, 119, 154 3
89, 110, 142 3
80, 104, 134 3
132, 152, 200 3
119, 140, 195 3
113, 134, 189 3
108, 129, 180 3
96, 118, 153 3
80, 104, 132 3
72, 87, 103 3
48, 64, 76 3
127, 151, 193 3
126, 151, 201 3
109, 133, 185 3
107, 132, 172 3
107, 130, 168 3
74, 102, 132 3
53, 69, 81 3
129, 154, 198 3
110, 134, 186 3
108, 132, 184 3
97, 121, 149 3
86, 110, 140 3
86, 111, 137 3
132, 154, 195 3
123, 148, 198 3
111, 135, 187 3
86, 112, 142 3
87, 102, 121 3
131, 156, 196 3
132, 158, 204 3
106, 131, 171 3
88, 112, 140 3
94, 118, 146 3
72, 90, 107 3
77, 97, 122 3
131, 156, 200 3
77, 97, 115 3
74, 94, 119 3
112, 134, 186 3
101, 122, 153 3
94, 112, 135 3
75, 94, 115 3
129, 154, 194 3
123, 149, 196 3
85, 109, 137 3
87, 110, 136 3
122, 147, 187 3
98, 119, 151 3
95, 118, 150 3
96, 119, 151 3
80, 109, 140 3
76, 95, 116 3
126, 152, 199 3
121, 142, 197 3
120, 141, 196 3
94, 117, 149 3
81, 110, 141 3
89, 110, 137 3
126, 151, 195 3
106, 127, 179 3
105, 126, 178 3
89, 111, 136 3
87, 106, 133 3
124, 151, 195 3
127, 153, 200 3
94, 122, 153 3
118, 140, 176 3
100, 121, 153 3
131, 153, 205 3
129, 150, 205 3
127, 148, 203 3
101, 126, 166 3
100, 124, 160 3
95, 123, 154 3
135, 157, 209 3
112, 133, 185 3
104, 127, 165 3
134, 157, 189 3
108, 127, 164 3
110, 132, 173 3
120, 143, 188 3
134, 160, 207 3
136, 159, 209 3
101, 127, 164 3
94, 124, 153 3
83, 108, 134 3
111, 130, 168 3
126, 149, 195 3
137, 163, 199 3
137, 164, 198 3
128, 151, 197 3
121, 145, 187 3
123, 145, 193 3
125, 147, 195 3
126, 148, 190 3
114, 136, 178 3
130, 156, 210 3
123, 140, 197 3
101, 126, 160 3
99, 124, 158 3
95, 119, 155 3
97, 123, 159 3
93, 120, 154 3
81, 106, 132 3
139, 165, 201 3
140, 167, 201 3
99, 122, 167 3
82, 103, 130 3
125, 147, 189 3
123, 146, 192 3
104, 126, 168 3
124, 143, 200 3
97, 122, 156 3
98, 125, 159 3
82, 107, 133 3
80, 103, 129 3
93, 117, 159 3
131, 158, 209 3
115, 136, 187 3
96, 124, 155 3
127, 149, 197 3
88, 110, 152 3
98, 126, 157 3
78, 103, 129 3
137, 162, 204 3
136, 162, 202 3
138, 161, 206 3
129, 151, 199 3
103, 130, 167 3
122, 144, 196 3
78, 99, 126 3
132, 154, 202 3
92, 112, 153 3
138, 167, 206 3
135, 158, 204 3
69, 91, 127 3
129, 149, 206 3
101, 129, 164 3
100, 128, 159 3
104, 129, 161 3
151, 182, 215 3
142, 171, 208 3
136, 160, 206 3
121, 148, 198 3
124, 151, 202 3
84, 108, 132 3
131, 151, 198 3
118, 146, 193 3
126, 149, 205 3
98, 123, 163 3
98, 124, 161 3
139, 168, 207 3
113, 141, 188 3
87, 108, 135 3
150, 182, 217 3
152, 184, 220 3
140, 169, 208 3
136, 156, 203 3
45, 63, 92 3
50, 68, 97 3
129, 152, 208 3
105, 130, 172 3
102, 123, 155 3
150, 181, 214 3
145, 177, 212 3
142, 174, 209 3
143, 162, 207 3
90, 115, 157 3
111, 134, 182 3
108, 131, 179 3
103, 128, 170 3
106, 127, 165 3
111, 137, 191 3
129, 154, 210 3
128, 153, 209 3
112, 137, 187 3
99, 124, 168 3
81, 107, 143 3
106, 130, 176 3
154, 186, 222 3
104, 128, 174 3
107, 133, 187 3
102, 126, 172 3
131, 159, 206 3
60, 84, 104 3
124, 154, 209 3
87, 107, 148 3
109, 129, 184 3
105, 127, 179 3
119, 148, 199 3
130, 158, 205 3
115, 142, 198 3
120, 150, 205 3
104, 126, 178 3
143, 166, 211 3
117, 147, 202 3
117, 144, 200 3
89, 109, 150 3
116, 146, 201 3
109, 133, 187 3
103, 122, 160 3
94, 113, 156 3
108, 132, 186 3
112, 135, 180 3
94, 113, 150 3
116, 149, 198 3
116, 145, 196 3
122, 148, 202 3
126, 152, 206 3
112, 140, 194 3
118, 145, 201 3
121, 154, 204 3
102, 120, 167 3
99, 117, 158 3
115, 145, 192 3
135, 159, 211 3
83, 103, 144 3
115, 146, 191 3
119, 146, 196 3
122, 149, 200 3
124, 150, 204 3
92, 110, 157 3
108, 140, 176 3
108, 137, 181 3
126, 144, 205 3
123, 140, 203 3
88, 104, 150 3
120, 149, 194 3
108, 138, 173 3
43, 38, 35 3
55, 41, 35 3
59, 39, 28 3
57, 38, 35 3
63, 45, 38 3
58, 42, 36 3
66, 47, 40 3
65, 47, 36 3
69, 48, 40 3
60, 44, 37 3
52, 43, 40 3
72, 46, 40 3
49, 44, 45 3
60, 41, 38 3
61, 41, 36 3
62, 39, 37 3
63, 38, 36 3
61, 36, 32 3
75, 48, 38 3
57, 43, 31 3
60, 41, 36 3
57, 44, 36 3
58, 40, 29 3
58, 42, 35 3
69, 44, 40 3
64, 42, 31 3
61, 42, 37 3
55, 37, 30 3
72, 49, 34 3
76, 50, 38 3
73, 49, 37 3
70, 48, 36 3
73, 48, 38 3
75, 46, 37 3
65, 40, 36 3
68, 47, 32 3
69, 40, 33 3
45, 58, 60 2
40, 53, 55 2
37, 50, 52 2
39, 52, 54 2
43, 55, 59 2
53, 66, 74 2
51, 64, 72 2
40, 52, 58 2
41, 55, 61 2
74, 88, 110 2
77, 93, 122 2
70, 88, 117 2
84, 104, 135 2
109, 130, 162 2
110, 131, 163 2
111, 132, 163 2
44, 58, 64 2
45, 59, 65 2
55, 71, 78 2
60, 73, 81 2
48, 59, 67 2
42, 54, 58 2
42, 58, 65 2
47, 64, 73 2
59, 71, 83 2
63, 74, 88 2
72, 85, 101 2
72, 86, 104 2
82, 99, 125 2
81, 100, 133 2
78, 97, 130 2
75, 94, 127 2
110, 132, 167 2
113, 136, 168 2
47, 63, 70 2
53, 69, 76 2
63, 79, 86 2
61, 77, 84 2
44, 56, 62 2
40, 57, 66 2
75, 89, 107 2
88, 104, 127 2
93, 112, 149 2
88, 107, 144 2
82, 104, 140 2
110, 135, 167 2
106, 131, 165 2
85, 110, 144 2
33, 47, 46 2
51, 65, 71 2
50, 66, 73 2
62, 78, 85 2
48, 58, 65 2
85, 99, 121 2
104, 121, 148 2
100, 120, 155 2
101, 123, 165 2
110, 133, 171 2
107, 132, 166 2
89, 114, 148 2
46, 60, 66 2
49, 56, 65 2
113, 134, 172 2
111, 131, 172 2
102, 125, 171 2
107, 133, 170 2
98, 118, 153 2
95, 116, 148 2
82, 107, 139 2
83, 108, 140 2
35, 49, 48 2
65, 80, 89 2
66, 83, 92 2
64, 81, 90 2
59, 76, 85 2
52, 69, 78 2
44, 61, 70 2
53, 59, 70 2
51, 60, 69 2
50, 72, 84 2
106, 132, 172 2
106, 132, 168 2
99, 119, 154 2
59, 65, 76 2
54, 61, 70 2
121, 143, 191 2
110, 136, 172 2
110, 132, 168 2
94, 116, 151 2
87, 108, 139 2
74, 91, 100 2
63, 67, 78 2
47, 62, 71 2
104, 133, 172 2
104, 131, 168 2
106, 134, 169 2
82, 103, 134 2
83, 104, 135 2
86, 107, 138 2
42, 53, 61 2
61, 73, 85 2
69, 82, 98 2
74, 90, 106 2
55, 73, 84 2
55, 71, 83 2
52, 67, 76 2
53, 68, 77 2
121, 144, 182 2
126, 149, 187 2
127, 152, 192 2
128, 154, 201 2
123, 147, 199 2
112, 136, 190 2
106, 130, 182 2
104, 126, 161 2
81, 105, 135 2
88, 113, 139 2
87, 114, 140 2
78, 108, 135 2
75, 101, 131 2
79, 95, 111 2
71, 87, 103 2
61, 78, 91 2
58, 75, 88 2
119, 140, 178 2
125, 148, 186 2
128, 153, 193 2
115, 139, 193 2
109, 131, 183 2
109, 134, 174 2
98, 122, 150 2
95, 119, 147 2
87, 117, 142 2
76, 106, 133 2
79, 103, 131 2
46, 58, 68 2
84, 100, 117 2
62, 79, 92 2
54, 70, 82 2
50, 66, 79 2
63, 83, 101 2
68, 89, 110 2
122, 145, 183 2
128, 153, 203 2
116, 140, 192 2
107, 130, 180 2
99, 123, 151 2
79, 109, 136 2
77, 101, 129 2
73, 91, 108 2
55, 71, 84 2
57, 73, 86 2
80, 102, 127 2
121, 146, 196 2
80, 95, 114 2
91, 106, 125 2
62, 78, 94 2
60, 76, 89 2
62, 77, 93 2
71, 89, 112 2
85, 106, 133 2
132, 156, 198 2
131, 156, 198 2
113, 137, 189 2
86, 101, 120 2
86, 103, 124 2
73, 93, 111 2
71, 87, 104 2
127, 149, 190 2
132, 157, 201 2
109, 131, 172 2
78, 105, 132 2
91, 107, 130 2
100, 118, 141 2
78, 97, 118 2
73, 91, 114 2
89, 110, 138 2
98, 119, 150 2
81, 108, 135 2
92, 109, 130 2
96, 114, 137 2
96, 113, 139 2
105, 122, 149 2
91, 111, 136 2
83, 104, 126 2
79, 100, 122 2
95, 116, 144 2
120, 142, 177 2
132, 158, 205 2
96, 117, 149 2
86, 106, 131 2
69, 89, 107 2
121, 145, 197 2
107, 128, 179 2
109, 132, 170 2
85, 109, 139 2
80, 108, 139 2
104, 124, 155 2
99, 120, 148 2
82, 101, 122 2
89, 111, 139 2
104, 125, 157 2
126, 152, 198 2
93, 118, 150 2
114, 135, 162 2
108, 129, 161 2
86, 107, 129 2
88, 109, 131 2
79, 101, 126 2
95, 116, 147 2
124, 149, 193 2
124, 150, 197 2
126, 150, 202 2
102, 121, 159 2
92, 117, 149 2
114, 134, 169 2
85, 107, 135 2
122, 149, 193 2
95, 120, 152 2
89, 115, 145 2
81, 111, 140 2
128, 149, 180 2
120, 142, 178 2
117, 139, 175 2
95, 115, 146 2
91, 111, 142 2
91, 112, 140 2
90, 111, 139 2
122, 147, 191 2
120, 147, 191 2
132, 154, 206 2
110, 130, 185 2
110, 131, 183 2
80, 110, 137 2
133, 155, 190 2
115, 137, 173 2
122, 146, 188 2
131, 152, 197 2
119, 144, 188 2
121, 148, 192 2
128, 155, 199 2
112, 132, 187 2
81, 111, 138 2
77, 107, 134 2
130, 154, 184 2
132, 153, 191 2
123, 144, 182 2
121, 143, 179 2
104, 123, 160 2
126, 147, 192 2
117, 142, 186 2
114, 139, 183 2
127, 154, 198 2
130, 157, 201 2
125, 147, 199 2
94, 123, 150 2
90, 120, 145 2
91, 118, 144 2
90, 117, 143 2
139, 161, 197 2
106, 126, 161 2
108, 128, 163 2
108, 130, 165 2
114, 136, 177 2
118, 140, 182 2
121, 144, 189 2
117, 140, 185 2
109, 134, 176 2
122, 150, 191 2
113, 134, 186 2
97, 119, 155 2
121, 143, 184 2
111, 133, 174 2
111, 133, 175 2
111, 134, 179 2
120, 143, 189 2
127, 149, 191 2
122, 144, 186 2
113, 136, 181 2
127, 158, 203 2
129, 159, 206 2
130, 159, 210 2
128, 152, 206 2
120, 140, 197 2
91, 118, 152 2
93, 118, 152 2
135, 159, 201 2
123, 147, 189 2
119, 141, 183 2
114, 138, 180 2
123, 145, 187 2
99, 123, 165 2
94, 117, 162 2
129, 153, 207 2
123, 142, 199 2
96, 122, 158 2
99, 126, 160 2
82, 104, 129 2
143, 169, 205 2
143, 170, 204 2
142, 166, 208 2
132, 155, 200 2
98, 122, 164 2
101, 125, 167 2
112, 141, 180 2
130, 157, 208 2
125, 145, 202 2
113, 134, 185 2
97, 124, 158 2
146, 173, 207 2
133, 155, 197 2
108, 130, 172 2
129, 156, 207 2
107, 127, 174 2
100, 127, 161 2
113, 143, 162 2
147, 175, 209 2
144, 172, 206 2
142, 170, 204 2
141, 169, 204 2
140, 167, 204 2
140, 166, 206 2
125, 148, 194 2
135, 157, 199 2
130, 157, 207 2
122, 146, 200 2
122, 142, 199 2
121, 143, 195 2
118, 139, 191 2
102, 123, 168 2
97, 125, 156 2
96, 116, 147 2
128, 156, 190 2
148, 176, 210 2
138, 162, 204 2
136, 159, 204 2
129, 152, 198 2
138, 160, 202 2
101, 120, 163 2
100, 120, 161 2
83, 105, 146 2
68, 90, 131 2
118, 144, 184 2
126, 145, 202 2
86, 110, 134 2
135, 164, 203 2
133, 156, 202 2
131, 154, 200 2
128, 150, 198 2
86, 107, 145 2
70, 91, 129 2
110, 136, 173 2
129, 148, 205 2
100, 126, 156 2
102, 128, 158 2
100, 124, 154 2
140, 163, 208 2
139, 162, 208 2
128, 148, 196 2
131, 151, 199 2
143, 164, 202 2
92, 113, 151 2
100, 119, 157 2
82, 103, 141 2
129, 153, 205 2
104, 132, 167 2
138, 169, 200 2
147, 177, 212 2
143, 172, 209 2
138, 162, 208 2
130, 152, 200 2
89, 108, 146 2
96, 115, 152 2
86, 105, 142 2
88, 108, 143 2
128, 148, 205 2
101, 122, 167 2
97, 123, 163 2
104, 127, 159 2
100, 123, 155 2
124, 156, 185 2
134, 158, 204 2
133, 155, 203 2
131, 153, 201 2
82, 101, 138 2
89, 108, 145 2
130, 150, 207 2
96, 123, 160 2
100, 128, 163 2
107, 130, 162 2
81, 107, 131 2
147, 178, 209 2
148, 180, 216 2
144, 176, 211 2
141, 173, 209 2
139, 167, 208 2
138, 165, 209 2
137, 161, 207 2
135, 159, 205 2
136, 158, 206 2
134, 154, 201 2
143, 163, 210 2
115, 141, 187 2
117, 144, 194 2
121, 148, 199 2
104, 127, 172 2
98, 121, 166 2
99, 124, 164 2
97, 123, 160 2
95, 121, 158 2
104, 129, 163 2
99, 120, 152 2
130, 162, 191 2
150, 182, 218 2
134, 154, 202 2
91, 110, 137 2
94, 120, 157 2
107, 133, 179 2
117, 144, 195 2
120, 146, 200 2
130, 153, 209 2
115, 138, 188 2
108, 132, 178 2
93, 121, 156 2
99, 124, 166 2
104, 129, 171 2
90, 112, 140 2
83, 102, 129 2
149, 181, 216 2
136, 163, 207 2
136, 159, 207 2
94, 112, 143 2
86, 104, 135 2
58, 75, 102 2
103, 131, 178 2
119, 145, 199 2
114, 137, 187 2
93, 118, 158 2
93, 119, 156 2
96, 122, 162 2
107, 132, 176 2
104, 129, 173 2
79, 103, 127 2
139, 166, 210 2
135, 162, 206 2
67, 88, 116 2
87, 105, 134 2
90, 108, 131 2
100, 127, 177 2
115, 140, 190 2
102, 127, 171 2
91, 116, 156 2
92, 118, 155 2
79, 106, 143 2
106, 131, 173 2
110, 131, 169 2
112, 144, 173 2
98, 125, 176 2
105, 131, 185 2
121, 146, 202 2
101, 126, 170 2
88, 114, 154 2
109, 130, 168 2
103, 124, 156 2
141, 161, 208 2
100, 126, 180 2
139, 165, 211 2
118, 149, 202 2
129, 156, 206 2
133, 162, 207 2
135, 164, 209 2
123, 142, 185 2
62, 86, 106 2
70, 94, 114 2
85, 106, 128 2
92, 107, 126 2
76, 93, 119 2
65, 84, 122 2
102, 127, 177 2
121, 150, 207 2
109, 135, 189 2
96, 121, 161 2
73, 92, 135 2
97, 117, 165 2
106, 128, 180 2
104, 127, 177 2
102, 125, 175 2
102, 125, 173 2
110, 135, 177 2
136, 165, 209 2
133, 161, 208 2
121, 150, 201 2
91, 109, 132 2
38, 52, 80 2
119, 146, 203 2
122, 152, 207 2
103, 127, 179 2
93, 119, 159 2
93, 115, 157 2
86, 106, 147 2
105, 125, 180 2
101, 124, 174 2
103, 126, 174 2
112, 138, 178 2
98, 117, 152 2
81, 102, 124 2
111, 141, 166 2
124, 151, 201 2
79, 97, 128 2
111, 138, 194 2
119, 149, 204 2
97, 123, 177 2
100, 125, 175 2
99, 121, 163 2
102, 122, 177 2
105, 124, 181 2
102, 126, 178 2
103, 129, 175 2
108, 134, 174 2
128, 158, 207 2
140, 166, 212 2
126, 145, 188 2
105, 125, 166 2
52, 76, 96 2
60, 81, 119 2
72, 96, 138 2
81, 106, 150 2
102, 131, 182 2
102, 128, 182 2
95, 119, 171 2
105, 130, 174 2
108, 127, 165 2
124, 156, 205 2
121, 153, 202 2
119, 151, 200 2
115, 146, 197 2
117, 146, 197 2
140, 166, 213 2
47, 71, 91 2
27, 44, 70 2
39, 58, 85 2
60, 79, 114 2
116, 143, 199 2
95, 116, 161 2
102, 120, 173 2
107, 124, 180 2
110, 127, 183 2
112, 145, 171 2
114, 146, 195 2
54, 75, 96 2
34, 53, 80 2
61, 80, 117 2
99, 127, 174 2
108, 134, 188 2
96, 117, 162 2
95, 114, 157 2
96, 115, 160 2
100, 126, 163 2
83, 106, 128 2
120, 153, 203 2
116, 146, 195 2
118, 145, 196 2
123, 149, 203 2
138, 163, 213 2
138, 159, 204 2
39, 60, 81 2
25, 42, 69 2
41, 59, 88 2
115, 143, 197 2
92, 116, 168 2
97, 119, 171 2
101, 117, 170 2
108, 123, 179 2
103, 123, 178 2
101, 121, 176 2
94, 112, 149 2
89, 108, 143 2
84, 105, 133 2
123, 155, 208 2
115, 149, 195 2
117, 147, 196 2
137, 161, 213 2
41, 61, 86 2
47, 65, 94 2
57, 76, 109 2
112, 138, 192 2
98, 116, 163 2
90, 107, 156 2
110, 146, 192 2
138, 161, 211 2
139, 161, 209 2
92, 114, 155 2
117, 143, 197 2
86, 110, 164 2
96, 113, 162 2
89, 106, 155 2
100, 119, 162 2
117, 150, 189 2
113, 147, 193 2
129, 155, 209 2
139, 162, 212 2
45, 64, 91 2
75, 91, 128 2
79, 96, 135 2
90, 110, 165 2
94, 111, 160 2
92, 110, 171 2
86, 116, 157 2
117, 150, 195 2
112, 147, 191 2
120, 147, 197 2
30, 47, 73 2
51, 72, 93 2
57, 74, 107 2
69, 85, 121 2
89, 106, 145 2
95, 113, 154 2
93, 110, 173 2
78, 107, 146 2
71, 103, 122 2
107, 138, 169 2
113, 144, 189 2
116, 144, 191 2
134, 158, 210 2
55, 78, 100 2
72, 90, 127 2
77, 94, 133 2
75, 94, 151 2
108, 142, 185 2
112, 144, 187 2
117, 145, 192 2
22, 41, 62 2
81, 100, 138 2
142, 168, 214 2
117, 137, 194 2
119, 139, 197 2
117, 135, 196 2
84, 101, 144 2
91, 111, 152 2
106, 118, 142 2
107, 119, 143 2
61, 67, 80 2
86, 119, 139 2
108, 140, 181 2
111, 143, 186 2
111, 140, 184 2
112, 141, 186 2
134, 155, 207 2
26, 49, 65 2
60, 81, 112 2
143, 172, 217 2
123, 141, 202 2
84, 101, 158 2
60, 78, 131 2
20, 39, 42 2
107, 139, 182 2
133, 161, 202 2
144, 175, 220 2
126, 146, 204 2
45, 54, 92 2
37, 38, 42 2
37, 37, 37 2
37, 39, 40 2
104, 136, 179 2
106, 135, 179 2
121, 141, 198 2
79, 99, 134 2
43, 40, 36 2
40, 38, 37 2
109, 136, 170 2
110, 138, 173 2
118, 147, 191 2
147, 168, 220 2
42, 41, 43 2
43, 38, 39 2
46, 38, 38 2
50, 39, 35 2
52, 40, 36 2
54, 40, 34 2
110, 134, 162 2
110, 140, 181 2
77, 86, 124 2
148, 170, 218 2
40, 38, 38 2
53, 39, 33 2
56, 39, 30 2
38, 49, 47 2
41, 47, 52 2
117, 141, 163 2
106, 136, 165 2
127, 145, 206 2
45, 38, 35 2
46, 39, 36 2
52, 41, 37 2
49, 51, 51 2
50, 50, 50 2
52, 51, 53 2
139, 154, 216 2
139, 157, 216 2
124, 140, 209 2
54, 46, 46 2
57, 49, 49 2
49, 44, 43 2
50, 46, 45 2
87, 107, 142 2
99, 119, 150 2
40, 39, 43 2
55, 37, 38 2
56, 41, 32 2
61, 52, 49 2
57, 46, 42 2
58, 46, 42 2
58, 44, 38 2
57, 43, 37 2
107, 121, 149 2
152, 173, 211 2
141, 153, 217 2
132, 148, 214 2
129, 147, 212 2
43, 38, 37 2
57, 39, 28 2
58, 39, 36 2
59, 48, 40 2
62, 45, 42 2
63, 47, 41 2
42, 40, 39 2
37, 39, 39 2
111, 132, 160 2
81, 93, 133 2
54, 42, 38 2
59, 38, 36 2
68, 46, 40 2
66, 47, 39 2
69, 49, 38 2
47, 40, 37 2
125, 142, 163 2
53, 37, 38 2
53, 40, 32 2
60, 40, 29 2
71, 48, 40 2
63, 46, 37 2
61, 42, 39 2
58, 41, 38 2
55, 43, 39 2
144, 166, 202 2
58, 44, 45 2
56, 45, 41 2
64, 46, 35 2
61, 40, 38 2
62, 37, 35 2
68, 41, 37 2
62, 46, 40 2
66, 37, 40 2
51, 42, 38 2
65, 42, 40 2
70, 51, 38 2
66, 46, 41 2
64, 44, 39 2
70, 45, 41 2
66, 43, 41 2
72, 46, 30 2
51, 46, 45 2
73, 47, 31 2
53, 38, 36 2
67, 39, 32 2
68, 43, 39 2
74, 49, 39 2
58, 36, 30 2
73, 48, 32 2
70, 48, 37 2
65, 43, 31 2
69, 46, 31 2
78, 45, 36 2
69, 48, 33 2
76, 43, 34 2
69, 42, 38 2
77, 46, 37 2
76, 48, 41 2
70, 42, 31 2
77, 49, 38 2
68, 39, 30 2
61, 38, 30 2
59, 38, 30 2
76, 49, 39 2
76, 47, 40 2
64, 38, 31 2
77, 47, 36 2
76, 44, 39 2
71, 44, 30 2
59, 43, 30 2
61, 44, 31 2
73, 42, 33 2
72, 41, 32 2
70, 41, 34 2
68, 42, 28 2
70, 43, 29 2
74, 48, 34 2
76, 49, 35 2
43, 57, 56 1
42, 57, 60 1
52, 66, 72 1
55, 68, 76 1
54, 67, 75 1
47, 60, 68 1
39, 53, 59 1
39, 51, 57 1
49, 61, 65 1
43, 59, 66 1
43, 58, 67 1
67, 77, 87 1
61, 71, 81 1
56, 66, 76 1
56, 68, 80 1
64, 76, 88 1
71, 82, 96 1
71, 84, 98 1
71, 84, 100 1
69, 83, 101 1
66, 80, 99 1
67, 81, 100 1
78, 92, 114 1
77, 91, 114 1
78, 92, 115 1
79, 95, 118 1
77, 94, 121 1
74, 90, 119 1
71, 87, 116 1
69, 87, 116 1
73, 91, 120 1
75, 93, 122 1
75, 95, 126 1
79, 99, 130 1
103, 124, 155 1
106, 127, 159 1
109, 130, 161 1
110, 131, 162 1
112, 133, 164 1
111, 135, 165 1
110, 134, 164 1
109, 133, 163 1
94, 113, 146 1
93, 112, 145 1
84, 110, 146 1
87, 111, 147 1
41, 55, 54 1
44, 57, 59 1
47, 61, 67 1
56, 69, 77 1
44, 55, 63 1
38, 50, 56 1
46, 58, 62 1
41, 58, 67 1
58, 74, 86 1
62, 74, 86 1
58, 70, 82 1
67, 80, 94 1
75, 90, 109 1
79, 93, 115 1
85, 101, 124 1
90, 105, 131 1
84, 101, 127 1
83, 100, 127 1
82, 101, 134 1
74, 93, 126 1
76, 95, 128 1
79, 100, 132 1
82, 103, 135 1
36, 50, 49 1
42, 55, 57 1
59, 75, 82 1
47, 58, 66 1
43, 54, 62 1
39, 50, 58 1
40, 50, 57 1
43, 53, 60 1
45, 56, 60 1
46, 57, 61 1
42, 56, 62 1
46, 64, 75 1
59, 77, 88 1
59, 72, 86 1
62, 75, 91 1
67, 80, 96 1
78, 92, 111 1
79, 94, 113 1
81, 95, 117 1
95, 110, 136 1
100, 117, 143 1
101, 118, 145 1
98, 116, 145 1
96, 114, 143 1
94, 112, 141 1
91, 109, 138 1
92, 111, 148 1
83, 105, 141 1
84, 106, 142 1
85, 107, 143 1
87, 109, 145 1
90, 112, 148 1
94, 116, 152 1
109, 134, 166 1
111, 136, 168 1
41, 54, 56 1
54, 70, 77 1
58, 74, 81 1
60, 76, 83 1
52, 68, 75 1
48, 57, 66 1
44, 53, 62 1
42, 51, 60 1
46, 56, 63 1
45, 57, 63 1
43, 55, 61 1
39, 56, 65 1
41, 59, 70 1
51, 69, 80 1
56, 75, 88 1
54, 73, 86 1
63, 77, 96 1
68, 82, 101 1
76, 90, 109 1
82, 95, 117 1
87, 101, 124 1
94, 109, 135 1
104, 122, 151 1
102, 120, 151 1
98, 118, 149 1
101, 120, 153 1
107, 126, 159 1
105, 125, 160 1
93, 115, 156 1
94, 116, 157 1
95, 117, 158 1
100, 122, 163 1
102, 124, 165 1
112, 136, 172 1
84, 109, 143 1
41, 53, 57 1
50, 64, 70 1
60, 75, 84 1
64, 79, 88 1
66, 81, 90 1
63, 78, 87 1
57, 72, 81 1
46, 62, 69 1
50, 56, 67 1
48, 55, 64 1
49, 58, 67 1
51, 61, 68 1
49, 59, 66 1
46, 58, 64 1
40, 59, 67 1
42, 62, 73 1
51, 70, 83 1
54, 76, 88 1
52, 73, 88 1
69, 83, 106 1
75, 89, 112 1
83, 96, 122 1
89, 102, 128 1
90, 104, 132 1
94, 108, 136 1
99, 115, 144 1
105, 120, 152 1
111, 128, 161 1
110, 129, 164 1
107, 126, 161 1
115, 136, 174 1
101, 124, 170 1
109, 135, 172 1
108, 135, 169 1
87, 112, 146 1
56, 72, 79 1
62, 77, 86 1
52, 58, 69 1
50, 60, 67 1
44, 62, 73 1
46, 65, 78 1
55, 78, 93 1
59, 82, 97 1
78, 90, 118 1
84, 95, 125 1
90, 104, 133 1
97, 111, 140 1
99, 114, 146 1
103, 118, 151 1
107, 123, 159 1
112, 128, 164 1
112, 130, 167 1
116, 135, 173 1
120, 138, 179 1
118, 139, 184 1
116, 139, 189 1
108, 135, 172 1
95, 115, 150 1
93, 114, 146 1
90, 111, 143 1
87, 112, 144 1
81, 106, 138 1
43, 58, 61 1
69, 84, 93 1
68, 85, 94 1
67, 84, 93 1
46, 63, 72 1
57, 61, 72 1
60, 64, 75 1
57, 64, 73 1
52, 61, 70 1
52, 63, 71 1
46, 59, 67 1
45, 60, 69 1
43, 62, 70 1
45, 65, 76 1
54, 77, 92 1
61, 87, 101 1
72, 97, 113 1
89, 102, 134 1
95, 107, 141 1
104, 116, 150 1
111, 126, 159 1
117, 131, 167 1
119, 135, 172 1
121, 136, 175 1
120, 136, 178 1
118, 136, 177 1
120, 139, 182 1
127, 146, 191 1
128, 148, 195 1
120, 142, 190 1
95, 117, 152 1
84, 105, 136 1
85, 106, 137 1
85, 112, 146 1
86, 114, 145 1
79, 105, 135 1
82, 106, 136 1
34, 48, 47 1
36, 51, 54 1
55, 69, 75 1
68, 84, 91 1
71, 86, 95 1
72, 89, 98 1
69, 86, 95 1
62, 79, 88 1
57, 74, 83 1
50, 67, 76 1
59, 63, 74 1
64, 68, 79 1
53, 62, 71 1
54, 65, 73 1
42, 60, 71 1
46, 66, 77 1
55, 77, 89 1
60, 83, 98 1
68, 94, 108 1
83, 108, 124 1
101, 113, 149 1
107, 119, 155 1
115, 129, 165 1
127, 140, 178 1
133, 149, 186 1
135, 150, 189 1
131, 147, 189 1
128, 145, 188 1
128, 144, 190 1
123, 142, 187 1
124, 144, 191 1
131, 152, 203 1
125, 146, 197 1
120, 141, 192 1
120, 141, 193 1
105, 134, 173 1
105, 131, 171 1
84, 111, 145 1
87, 115, 146 1
85, 113, 144 1
79, 103, 133 1
78, 102, 132 1
49, 59, 69 1
55, 65, 75 1
57, 69, 81 1
63, 76, 90 1
73, 88, 104 1
76, 91, 107 1
73, 89, 105 1
66, 83, 96 1
55, 72, 85 1
52, 69, 82 1
52, 70, 81 1
49, 66, 75 1
51, 66, 75 1
47, 64, 77 1
49, 68, 83 1
54, 74, 91 1
59, 81, 99 1
65, 89, 109 1
78, 102, 124 1
92, 116, 138 1
107, 128, 166 1
114, 135, 173 1
127, 152, 194 1
106, 128, 163 1
93, 119, 149 1
83, 107, 137 1
87, 115, 139 1
85, 115, 140 1
83, 113, 138 1
80, 111, 136 1
72, 102, 131 1
43, 53, 63 1
51, 61, 71 1
55, 67, 77 1
64, 77, 91 1
80, 95, 111 1
82, 97, 113 1
78, 94, 110 1
56, 73, 86 1
57, 75, 86 1
57, 73, 85 1
50, 65, 74 1
49, 66, 79 1
52, 71, 86 1
58, 78, 95 1
63, 85, 103 1
69, 93, 113 1
82, 106, 128 1
97, 121, 143 1
129, 152, 190 1
129, 154, 196 1
117, 141, 193 1
89, 116, 142 1
79, 110, 135 1
72, 100, 130 1
54, 66, 76 1
65, 77, 89 1
66, 79, 93 1
68, 81, 97 1
70, 85, 101 1
83, 97, 115 1
82, 98, 115 1
65, 81, 97 1
60, 77, 90 1
61, 77, 89 1
49, 65, 77 1
53, 69, 85 1
58, 76, 93 1
74, 97, 119 1
88, 112, 136 1
103, 127, 151 1
128, 151, 189 1
130, 155, 195 1
87, 113, 143 1
84, 111, 137 1
86, 113, 139 1
88, 115, 141 1
73, 102, 129 1
74, 101, 128 1
38, 54, 60 1
52, 64, 76 1
60, 72, 84 1
68, 80, 92 1
70, 83, 97 1
74, 87, 103 1
74, 89, 105 1
76, 90, 108 1
80, 94, 112 1
85, 100, 119 1
81, 97, 114 1
66, 85, 100 1
65, 84, 99 1
64, 83, 98 1
64, 80, 96 1
65, 82, 95 1
53, 69, 82 1
52, 67, 83 1
57, 73, 90 1
62, 79, 98 1
68, 87, 108 1
72, 93, 115 1
94, 117, 143 1
109, 132, 158 1
120, 143, 181 1
130, 153, 191 1
133, 155, 196 1
124, 149, 199 1
96, 120, 148 1
85, 112, 138 1
75, 104, 131 1
76, 102, 132 1
75, 99, 127 1
77, 99, 127 1
41, 57, 64 1
55, 69, 81 1
62, 75, 89 1
69, 82, 96 1
75, 88, 104 1
79, 93, 111 1
81, 95, 113 1
82, 97, 116 1
92, 109, 128 1
88, 105, 124 1
83, 100, 119 1
77, 95, 112 1
68, 84, 100 1
55, 71, 87 1
60, 75, 91 1
56, 72, 89 1
59, 76, 95 1
66, 83, 104 1
100, 122, 150 1
113, 135, 163 1
131, 153, 194 1
129, 154, 204 1
119, 144, 194 1
76, 105, 132 1
77, 104, 131 1
58, 74, 87 1
65, 80, 96 1
78, 92, 110 1
84, 99, 118 1
83, 100, 121 1
95, 112, 133 1
98, 115, 136 1
93, 110, 131 1
74, 94, 112 1
75, 93, 110 1
57, 73, 89 1
60, 76, 92 1
66, 82, 98 1
67, 83, 99 1
64, 80, 97 1
63, 79, 96 1
65, 82, 101 1
69, 87, 110 1
93, 114, 142 1
106, 127, 158 1
116, 137, 168 1
123, 146, 184 1
133, 158, 198 1
134, 161, 205 1
120, 145, 195 1
99, 120, 151 1
82, 110, 140 1
81, 105, 133 1
66, 80, 98 1
72, 88, 105 1
79, 95, 112 1
92, 106, 128 1
91, 108, 129 1
98, 115, 141 1
87, 105, 128 1
81, 99, 122 1
79, 97, 114 1
70, 88, 105 1
62, 80, 97 1
61, 77, 94 1
65, 81, 98 1
73, 89, 106 1
70, 86, 103 1
68, 85, 104 1
71, 88, 109 1
112, 133, 165 1
120, 141, 173 1
124, 146, 187 1
132, 159, 203 1
125, 151, 198 1
118, 142, 196 1
80, 107, 134 1
88, 108, 133 1
73, 88, 107 1
86, 103, 122 1
97, 113, 136 1
106, 123, 150 1
98, 118, 143 1
87, 107, 132 1
84, 105, 127 1
80, 97, 116 1
71, 88, 107 1
63, 80, 99 1
61, 79, 96 1
65, 83, 100 1
71, 89, 106 1
72, 89, 108 1
72, 89, 110 1
75, 95, 120 1
107, 128, 159 1
117, 138, 170 1
125, 150, 190 1
123, 151, 198 1
67, 84, 97 1
85, 102, 123 1
97, 115, 138 1
99, 116, 142 1
106, 125, 152 1
106, 124, 153 1
109, 127, 156 1
105, 123, 152 1
100, 118, 147 1
96, 115, 142 1
95, 114, 141 1
94, 114, 139 1
79, 99, 117 1
72, 92, 110 1
67, 87, 105 1
75, 92, 111 1
78, 95, 114 1
73, 94, 116 1
86, 107, 135 1
114, 135, 167 1
124, 146, 181 1
124, 149, 189 1
111, 132, 187 1
77, 93, 109 1
104, 124, 149 1
105, 125, 150 1
108, 127, 154 1
113, 131, 160 1
115, 133, 162 1
112, 132, 163 1
111, 131, 162 1
108, 128, 159 1
101, 122, 150 1
97, 118, 146 1
94, 115, 142 1
73, 92, 113 1
79, 98, 119 1
83, 102, 123 1
81, 102, 123 1
77, 98, 120 1
76, 96, 121 1
114, 136, 171 1
121, 143, 178 1
124, 146, 182 1
124, 146, 198 1
106, 127, 178 1
88, 110, 135 1
88, 106, 123 1
103, 123, 148 1
109, 129, 154 1
114, 133, 160 1
117, 138, 166 1
121, 141, 172 1
122, 142, 173 1
120, 139, 172 1
116, 135, 168 1
113, 134, 166 1
107, 127, 158 1
81, 101, 126 1
82, 103, 125 1
87, 108, 130 1
84, 106, 134 1
106, 129, 161 1
117, 139, 174 1
121, 145, 181 1
123, 147, 183 1
126, 153, 197 1
128, 150, 202 1
90, 115, 147 1
89, 112, 144 1
80, 108, 138 1
97, 114, 133 1
109, 130, 157 1
115, 136, 163 1
121, 142, 170 1
123, 144, 172 1
124, 145, 176 1
127, 148, 180 1
126, 147, 179 1
124, 144, 179 1
119, 139, 174 1
117, 137, 172 1
116, 136, 171 1
111, 132, 164 1
107, 128, 160 1
102, 123, 154 1
90, 111, 138 1
89, 108, 135 1
84, 105, 132 1
98, 121, 153 1
109, 131, 166 1
116, 140, 176 1
124, 147, 185 1
126, 150, 192 1
130, 151, 206 1
91, 117, 147 1
89, 112, 138 1
101, 120, 141 1
116, 138, 166 1
122, 144, 172 1
129, 150, 181 1
130, 151, 183 1
132, 152, 187 1
131, 151, 186 1
127, 149, 185 1
116, 138, 173 1
110, 130, 165 1
89, 109, 140 1
117, 140, 178 1
123, 145, 186 1
125, 147, 188 1
131, 156, 206 1
92, 120, 150 1
92, 118, 148 1
90, 116, 146 1
88, 115, 142 1
108, 127, 148 1
122, 143, 174 1
133, 154, 185 1
133, 154, 186 1
131, 153, 188 1
132, 154, 190 1
130, 152, 188 1
125, 146, 184 1
122, 143, 181 1
101, 120, 155 1
119, 141, 182 1
125, 152, 196 1
133, 158, 208 1
135, 158, 208 1
131, 152, 207 1
111, 132, 184 1
95, 123, 153 1
94, 122, 152 1
93, 121, 151 1
91, 120, 147 1
91, 118, 145 1
90, 117, 144 1
89, 116, 143 1
116, 134, 157 1
125, 149, 179 1
134, 156, 191 1
136, 158, 194 1
135, 157, 193 1
130, 151, 189 1
126, 147, 185 1
116, 138, 174 1
115, 137, 179 1
119, 143, 185 1
122, 143, 188 1
116, 143, 187 1
136, 158, 210 1
115, 135, 190 1
113, 133, 188 1
94, 124, 151 1
92, 121, 148 1
82, 112, 139 1
74, 106, 135 1
122, 140, 163 1
136, 159, 191 1
136, 158, 193 1
137, 159, 194 1
138, 159, 197 1
134, 155, 193 1
133, 154, 192 1
128, 149, 187 1
124, 145, 183 1
119, 141, 177 1
115, 137, 172 1
115, 134, 172 1
107, 126, 163 1
118, 141, 186 1
113, 138, 180 1
108, 133, 175 1
110, 138, 179 1
114, 142, 183 1
129, 151, 203 1
117, 137, 192 1
116, 136, 191 1
114, 134, 189 1
95, 124, 155 1
95, 125, 154 1
95, 125, 152 1
92, 122, 147 1
82, 109, 135 1
75, 105, 132 1
72, 104, 133 1
86, 113, 140 1
121, 148, 168 1
127, 150, 188 1
134, 157, 195 1
135, 161, 198 1
127, 150, 196 1
120, 142, 183 1
118, 140, 181 1
116, 138, 179 1
114, 137, 182 1
116, 139, 185 1
118, 141, 187 1
117, 148, 187 1
123, 153, 194 1
128, 158, 199 1
127, 159, 202 1
121, 140, 197 1
92, 119, 153 1
92, 117, 151 1
87, 109, 137 1
83, 105, 130 1
118, 145, 165 1
127, 153, 190 1
134, 160, 196 1
140, 166, 202 1
138, 164, 201 1
122, 144, 185 1
115, 138, 183 1
119, 142, 188 1
115, 146, 185 1
121, 151, 192 1
127, 157, 198 1
126, 158, 201 1
126, 157, 202 1
128, 159, 204 1
123, 143, 200 1
114, 135, 186 1
91, 116, 150 1
92, 112, 143 1
114, 141, 161 1
130, 156, 193 1
144, 171, 205 1
141, 167, 204 1
122, 145, 190 1
126, 151, 191 1
129, 151, 193 1
128, 150, 192 1
92, 116, 158 1
87, 111, 153 1
91, 115, 157 1
118, 149, 188 1
125, 155, 196 1
126, 155, 199 1
125, 157, 200 1
130, 160, 209 1
129, 158, 209 1
124, 141, 198 1
116, 137, 188 1
101, 128, 162 1
91, 116, 148 1
93, 113, 144 1
111, 141, 160 1
131, 157, 193 1
145, 172, 206 1
143, 171, 205 1
142, 170, 205 1
141, 168, 205 1
142, 168, 208 1
134, 159, 201 1
132, 153, 198 1
131, 153, 195 1
103, 125, 167 1
87, 109, 151 1
79, 103, 145 1
83, 107, 149 1
108, 137, 176 1
116, 145, 184 1
123, 151, 192 1
124, 154, 195 1
125, 154, 198 1
128, 157, 202 1
128, 158, 205 1
124, 144, 201 1
118, 139, 190 1
81, 103, 128 1
130, 156, 192 1
147, 174, 208 1
136, 161, 203 1
135, 160, 200 1
133, 156, 201 1
132, 154, 196 1
130, 152, 194 1
120, 142, 184 1
80, 102, 144 1
74, 96, 138 1
77, 99, 141 1
85, 109, 151 1
120, 149, 188 1
122, 151, 195 1
125, 154, 199 1
129, 157, 204 1
128, 155, 206 1
84, 109, 135 1
86, 109, 135 1
114, 144, 163 1
138, 166, 200 1
135, 160, 202 1
132, 158, 198 1
133, 159, 199 1
134, 157, 202 1
131, 154, 199 1
136, 158, 200 1
124, 146, 188 1
112, 131, 174 1
90, 110, 151 1
75, 97, 138 1
72, 94, 135 1
111, 138, 175 1
119, 148, 187 1
121, 149, 190 1
123, 152, 196 1
126, 155, 200 1
127, 155, 202 1
97, 123, 153 1
139, 167, 201 1
149, 177, 211 1
146, 174, 208 1
141, 172, 205 1
140, 170, 205 1
138, 163, 205 1
137, 163, 203 1
134, 157, 203 1
139, 161, 202 1
140, 162, 203 1
117, 137, 178 1
99, 119, 160 1
93, 113, 154 1
79, 100, 138 1
65, 86, 124 1
70, 93, 131 1
82, 105, 143 1
115, 142, 179 1
118, 146, 187 1
124, 153, 198 1
125, 153, 200 1
124, 148, 202 1
126, 146, 203 1
128, 147, 204 1
115, 136, 188 1
101, 127, 157 1
99, 123, 153 1
111, 141, 158 1
129, 158, 189 1
140, 169, 200 1
148, 179, 210 1
149, 180, 213 1
146, 177, 210 1
143, 174, 207 1
142, 172, 207 1
145, 174, 211 1
133, 162, 201 1
139, 164, 208 1
138, 161, 207 1
136, 159, 205 1
135, 155, 203 1
111, 132, 170 1
93, 112, 150 1
73, 94, 132 1
64, 86, 122 1
60, 82, 118 1
115, 141, 178 1
116, 142, 182 1
119, 144, 186 1
124, 152, 199 1
130, 149, 206 1
111, 133, 181 1
99, 127, 158 1
104, 128, 158 1
102, 126, 156 1
82, 105, 131 1
80, 99, 126 1
87, 111, 135 1
112, 145, 161 1
125, 156, 187 1
150, 181, 212 1
154, 185, 218 1
145, 175, 210 1
144, 173, 210 1
135, 155, 202 1
145, 167, 203 1
88, 110, 146 1
81, 102, 140 1
95, 114, 152 1
74, 93, 130 1
59, 78, 115 1
51, 71, 106 1
55, 75, 110 1
72, 92, 127 1
113, 139, 179 1
117, 142, 184 1
118, 145, 189 1
128, 152, 204 1
127, 147, 204 1
105, 128, 160 1
102, 125, 157 1
81, 100, 127 1
107, 140, 156 1
137, 168, 199 1
149, 180, 211 1
153, 184, 217 1
148, 178, 213 1
144, 176, 212 1
143, 175, 211 1
140, 164, 210 1
137, 157, 204 1
142, 162, 209 1
146, 168, 203 1
79, 98, 135 1
91, 110, 145 1
82, 101, 136 1
68, 87, 122 1
55, 74, 109 1
49, 68, 101 1
56, 75, 108 1
72, 93, 125 1
87, 108, 140 1
114, 141, 185 1
121, 147, 193 1
100, 121, 166 1
98, 125, 162 1
101, 124, 156 1
82, 101, 128 1
99, 132, 148 1
121, 153, 182 1
134, 166, 195 1
152, 183, 216 1
151, 181, 216 1
145, 177, 213 1
139, 163, 209 1
147, 168, 200 1
124, 145, 177 1
73, 93, 128 1
76, 96, 131 1
90, 109, 144 1
87, 106, 141 1
59, 78, 111 1
48, 67, 100 1
47, 67, 98 1
57, 77, 108 1
74, 95, 123 1
88, 109, 137 1
104, 130, 170 1
108, 135, 179 1
100, 123, 168 1
99, 127, 162 1
92, 125, 141 1
117, 149, 178 1
145, 176, 207 1
151, 183, 219 1
146, 178, 213 1
143, 175, 210 1
137, 163, 209 1
136, 162, 208 1
133, 153, 200 1
141, 162, 193 1
79, 100, 131 1
68, 89, 121 1
77, 96, 129 1
90, 109, 142 1
96, 115, 148 1
97, 114, 147 1
87, 104, 137 1
72, 90, 121 1
54, 72, 103 1
63, 81, 110 1
94, 118, 154 1
95, 121, 161 1
99, 127, 168 1
108, 136, 183 1
112, 139, 189 1
125, 148, 204 1
104, 127, 173 1
97, 122, 162 1
94, 122, 157 1
93, 120, 157 1
103, 129, 169 1
101, 122, 154 1
83, 107, 131 1
84, 117, 132 1
109, 141, 170 1
141, 172, 203 1
151, 183, 218 1
147, 179, 214 1
141, 170, 209 1
135, 161, 207 1
136, 156, 204 1
131, 153, 181 1
99, 121, 149 1
72, 92, 123 1
67, 87, 118 1
77, 97, 128 1
88, 108, 139 1
95, 113, 144 1
68, 86, 117 1
46, 64, 93 1
73, 90, 117 1
87, 104, 130 1
95, 112, 138 1
85, 111, 151 1
97, 124, 168 1
107, 134, 184 1
112, 139, 190 1
116, 142, 196 1
122, 147, 203 1
131, 154, 210 1
96, 120, 162 1
94, 119, 159 1
86, 114, 149 1
85, 113, 148 1
87, 114, 151 1
91, 118, 155 1
106, 131, 175 1
103, 123, 158 1
86, 107, 134 1
75, 108, 123 1
100, 133, 159 1
118, 150, 179 1
152, 184, 219 1
137, 157, 205 1
138, 158, 205 1
141, 162, 207 1
120, 141, 168 1
75, 96, 124 1
93, 111, 140 1
92, 110, 139 1
84, 100, 129 1
65, 81, 110 1
49, 66, 93 1
50, 67, 94 1
66, 83, 109 1
81, 98, 124 1
80, 104, 140 1
76, 101, 141 1
79, 104, 146 1
86, 113, 157 1
96, 124, 171 1
106, 133, 184 1
115, 141, 195 1
120, 145, 201 1
124, 149, 205 1
95, 119, 161 1
92, 117, 157 1
87, 113, 149 1
82, 109, 146 1
89, 116, 153 1
107, 132, 174 1
108, 129, 167 1
104, 124, 159 1
77, 101, 125 1
64, 99, 113 1
92, 125, 151 1
135, 166, 197 1
133, 160, 204 1
139, 159, 207 1
140, 159, 204 1
107, 128, 155 1
64, 85, 112 1
68, 89, 116 1
77, 95, 124 1
85, 103, 132 1
90, 108, 137 1
90, 106, 135 1
75, 91, 120 1
45, 62, 89 1
52, 69, 95 1
71, 88, 114 1
85, 103, 126 1
89, 107, 130 1
85, 107, 142 1
75, 99, 135 1
66, 92, 129 1
68, 93, 135 1
74, 101, 145 1
87, 116, 161 1
92, 119, 169 1
117, 142, 198 1
123, 148, 204 1
115, 139, 191 1
98, 123, 167 1
90, 116, 153 1
89, 115, 152 1
83, 109, 145 1
77, 103, 139 1
75, 102, 139 1
113, 133, 174 1
78, 102, 126 1
57, 92, 106 1
87, 120, 146 1
108, 140, 169 1
134, 165, 196 1
150, 180, 215 1
149, 181, 217 1
141, 173, 208 1
138, 166, 207 1
130, 159, 203 1
138, 160, 208 1
141, 161, 209 1
142, 161, 206 1
138, 157, 202 1
97, 118, 145 1
73, 94, 121 1
63, 84, 111 1
70, 91, 118 1
84, 102, 131 1
86, 102, 131 1
67, 84, 111 1
51, 68, 95 1
41, 58, 85 1
51, 68, 94 1
74, 90, 113 1
90, 107, 128 1
80, 101, 132 1
84, 106, 141 1
73, 97, 133 1
61, 87, 124 1
60, 85, 127 1
65, 92, 136 1
80, 109, 154 1
85, 112, 162 1
93, 120, 171 1
114, 139, 195 1
118, 143, 199 1
110, 135, 185 1
106, 132, 179 1
105, 128, 176 1
97, 122, 166 1
90, 115, 155 1
87, 113, 150 1
84, 110, 147 1
79, 105, 141 1
74, 100, 136 1
73, 100, 137 1
78, 105, 142 1
115, 140, 182 1
109, 134, 184 1
100, 124, 170 1
110, 130, 171 1
107, 127, 168 1
105, 126, 158 1
99, 122, 154 1
82, 106, 130 1
67, 86, 99 1
84, 110, 134 1
105, 130, 156 1
128, 155, 182 1
143, 173, 202 1
151, 182, 213 1
152, 185, 218 1
149, 184, 218 1
148, 183, 217 1
145, 179, 215 1
144, 175, 214 1
140, 171, 210 1
137, 163, 210 1
131, 158, 208 1
119, 150, 203 1
120, 149, 200 1
122, 151, 202 1
139, 164, 206 1
141, 165, 207 1
145, 167, 209 1
139, 158, 201 1
93, 118, 138 1
72, 97, 117 1
92, 109, 135 1
83, 100, 126 1
66, 80, 108 1
46, 60, 88 1
37, 51, 79 1
53, 66, 92 1
74, 88, 111 1
89, 103, 125 1
84, 101, 128 1
92, 108, 137 1
89, 107, 138 1
80, 96, 132 1
69, 87, 124 1
65, 85, 126 1
79, 101, 143 1
86, 109, 154 1
95, 119, 165 1
114, 140, 194 1
119, 144, 200 1
121, 148, 205 1
123, 153, 208 1
120, 147, 204 1
117, 144, 201 1
115, 140, 196 1
111, 136, 192 1
104, 129, 179 1
89, 111, 153 1
84, 104, 145 1
82, 102, 143 1
79, 99, 140 1
85, 105, 152 1
101, 122, 174 1
116, 135, 192 1
107, 129, 181 1
111, 137, 177 1
109, 136, 173 1
109, 127, 164 1
105, 123, 160 1
100, 119, 154 1
92, 111, 144 1
87, 107, 138 1
83, 104, 132 1
78, 99, 121 1
81, 100, 121 1
90, 107, 126 1
57, 76, 89 1
78, 104, 128 1
97, 125, 149 1
120, 150, 175 1
137, 167, 196 1
146, 177, 208 1
148, 181, 214 1
147, 182, 216 1
148, 182, 218 1
144, 177, 216 1
143, 174, 213 1
138, 168, 209 1
117, 148, 201 1
144, 166, 208 1
136, 155, 198 1
88, 113, 133 1
68, 93, 113 1
58, 82, 102 1
58, 72, 100 1
30, 44, 72 1
47, 60, 86 1
70, 84, 107 1
86, 100, 122 1
79, 96, 123 1
82, 100, 129 1
79, 98, 133 1
68, 86, 123 1
63, 82, 120 1
64, 84, 125 1
73, 95, 137 1
80, 103, 148 1
90, 114, 160 1
97, 123, 170 1
114, 141, 198 1
110, 135, 191 1
105, 130, 186 1
101, 127, 181 1
98, 123, 165 1
95, 120, 162 1
85, 105, 146 1
78, 98, 139 1
67, 86, 129 1
62, 81, 126 1
75, 95, 142 1
93, 113, 161 1
98, 119, 171 1
110, 129, 186 1
103, 126, 176 1
110, 137, 174 1
109, 128, 165 1
105, 124, 161 1
101, 119, 156 1
93, 112, 147 1
88, 107, 140 1
82, 103, 131 1
78, 100, 125 1
89, 108, 129 1
70, 97, 118 1
88, 116, 140 1
130, 160, 189 1
137, 171, 201 1
141, 176, 210 1
144, 178, 214 1
145, 178, 217 1
141, 173, 214 1
138, 170, 211 1
134, 163, 208 1
143, 168, 212 1
142, 164, 206 1
130, 149, 192 1
111, 130, 173 1
81, 106, 126 1
63, 88, 108 1
55, 79, 99 1
71, 92, 113 1
88, 106, 129 1
79, 96, 122 1
56, 73, 99 1
29, 43, 71 1
42, 57, 83 1
63, 77, 100 1
76, 90, 113 1
84, 98, 120 1
69, 89, 114 1
66, 85, 112 1
78, 97, 132 1
68, 87, 124 1
62, 81, 119 1
62, 82, 123 1
68, 90, 132 1
74, 97, 142 1
84, 108, 154 1
92, 118, 165 1
110, 137, 193 1
104, 129, 185 1
93, 119, 173 1
98, 122, 174 1
98, 122, 168 1
93, 118, 162 1
88, 108, 149 1
77, 97, 138 1
59, 78, 121 1
49, 68, 113 1
65, 85, 132 1
88, 108, 156 1
96, 117, 169 1
104, 128, 180 1
99, 125, 172 1
101, 127, 173 1
109, 135, 175 1
94, 114, 149 1
85, 106, 138 1
81, 103, 131 1
80, 103, 125 1
88, 109, 130 1
48, 66, 77 1
62, 89, 109 1
81, 110, 131 1
105, 136, 159 1
122, 154, 183 1
133, 166, 199 1
136, 170, 206 1
136, 172, 210 1
137, 171, 214 1
136, 170, 213 1
135, 166, 211 1
132, 163, 208 1
125, 155, 204 1
122, 152, 201 1
118, 147, 198 1
125, 152, 203 1
145, 170, 214 1
140, 162, 204 1
78, 102, 122 1
57, 81, 101 1
79, 100, 121 1
84, 102, 125 1
74, 92, 115 1
50, 67, 93 1
31, 46, 72 1
17, 31, 59 1
24, 39, 65 1
35, 50, 76 1
42, 58, 81 1
48, 65, 86 1
53, 70, 91 1
56, 76, 101 1
51, 70, 97 1
53, 71, 100 1
63, 83, 114 1
71, 90, 125 1
66, 85, 122 1
61, 81, 122 1
65, 87, 129 1
89, 115, 162 1
97, 124, 174 1
108, 136, 190 1
119, 146, 202 1
114, 141, 197 1
108, 135, 191 1
95, 121, 175 1
90, 117, 168 1
98, 123, 173 1
97, 120, 168 1
91, 115, 161 1
88, 112, 158 1
91, 116, 160 1
95, 120, 164 1
90, 112, 154 1
91, 110, 153 1
77, 96, 139 1
56, 75, 118 1
42, 61, 106 1
60, 80, 127 1
88, 107, 158 1
100, 118, 171 1
107, 131, 185 1
101, 125, 177 1
101, 127, 174 1
100, 126, 172 1
99, 125, 171 1
95, 114, 151 1
87, 109, 144 1
83, 106, 138 1
86, 109, 131 1
37, 55, 66 1
54, 84, 101 1
74, 104, 123 1
99, 130, 153 1
118, 151, 177 1
130, 163, 196 1
133, 167, 203 1
131, 165, 208 1
131, 164, 209 1
134, 167, 213 1
131, 164, 210 1
129, 161, 210 1
132, 157, 207 1
145, 169, 215 1
139, 161, 203 1
102, 122, 163 1
77, 100, 122 1
57, 80, 102 1
62, 83, 104 1
74, 95, 116 1
80, 99, 120 1
72, 90, 113 1
49, 66, 92 1
12, 27, 53 1
14, 29, 55 1
20, 35, 61 1
22, 37, 63 1
26, 42, 65 1
32, 48, 71 1
36, 55, 82 1
37, 58, 86 1
48, 68, 99 1
63, 82, 119 1
58, 80, 121 1
64, 89, 129 1
89, 115, 161 1
97, 125, 172 1
107, 135, 189 1
111, 139, 193 1
118, 148, 203 1
113, 140, 196 1
109, 137, 191 1
95, 122, 173 1
96, 120, 172 1
93, 118, 168 1
91, 114, 164 1
88, 111, 159 1
89, 112, 160 1
97, 121, 167 1
110, 131, 176 1
93, 112, 155 1
79, 98, 141 1
57, 76, 121 1
42, 60, 107 1
59, 79, 127 1
89, 108, 159 1
105, 129, 181 1
112, 136, 178 1
113, 132, 170 1
89, 109, 144 1
82, 105, 137 1
77, 102, 128 1
86, 110, 130 1
36, 55, 63 1
47, 79, 92 1
67, 97, 114 1
91, 124, 144 1
125, 158, 191 1
127, 163, 201 1
127, 160, 205 1
126, 160, 206 1
130, 163, 212 1
130, 161, 212 1
128, 159, 210 1
126, 157, 208 1
118, 150, 199 1
114, 145, 196 1
139, 164, 214 1
144, 168, 214 1
142, 165, 210 1
124, 143, 186 1
103, 123, 164 1
79, 102, 124 1
56, 79, 101 1
43, 66, 88 1
46, 67, 88 1
67, 88, 109 1
70, 89, 110 1
52, 70, 93 1
32, 49, 75 1
15, 32, 58 1
15, 32, 59 1
20, 37, 63 1
22, 39, 65 1
34, 51, 77 1
36, 57, 85 1
45, 65, 96 1
56, 75, 110 1
62, 83, 121 1
62, 85, 123 1
74, 98, 140 1
83, 108, 152 1
91, 117, 163 1
106, 133, 183 1
109, 138, 189 1
110, 138, 192 1
103, 130, 181 1
99, 123, 175 1
90, 115, 165 1
90, 113, 163 1
92, 115, 165 1
97, 120, 170 1
112, 132, 179 1
102, 122, 169 1
93, 114, 159 1
96, 115, 158 1
82, 101, 146 1
60, 78, 125 1
43, 61, 108 1
60, 77, 126 1
90, 107, 158 1
106, 127, 182 1
101, 124, 172 1
110, 133, 178 1
84, 105, 137 1
91, 111, 129 1
38, 57, 64 1
38, 70, 81 1
57, 89, 102 1
81, 113, 132 1
102, 136, 160 1
118, 151, 184 1
122, 158, 196 1
124, 157, 202 1
124, 157, 206 1
126, 159, 209 1
126, 158, 211 1
125, 157, 210 1
123, 156, 206 1
118, 151, 200 1
115, 148, 197 1
128, 154, 208 1
142, 165, 213 1
140, 163, 209 1
106, 125, 168 1
84, 106, 131 1
58, 80, 105 1
42, 63, 85 1
45, 66, 87 1
58, 80, 98 1
70, 90, 108 1
67, 86, 107 1
50, 68, 91 1
32, 50, 73 1
17, 34, 60 1
16, 33, 60 1
22, 39, 66 1
30, 47, 74 1
37, 54, 81 1
44, 64, 95 1
51, 70, 103 1
58, 77, 112 1
66, 85, 123 1
74, 96, 137 1
79, 104, 144 1
88, 113, 155 1
95, 122, 166 1
104, 130, 176 1
109, 137, 184 1
113, 140, 190 1
114, 143, 194 1
110, 136, 190 1
104, 131, 182 1
99, 126, 177 1
94, 118, 170 1
102, 124, 176 1
113, 132, 183 1
109, 129, 177 1
104, 124, 172 1
98, 118, 165 1
94, 114, 161 1
97, 116, 161 1
99, 118, 163 1
100, 119, 164 1
86, 104, 151 1
64, 81, 130 1
43, 60, 109 1
56, 73, 124 1
86, 102, 155 1
106, 121, 177 1
98, 119, 170 1
98, 120, 168 1
100, 126, 162 1
99, 125, 161 1
109, 128, 166 1
105, 124, 162 1
98, 116, 153 1
85, 104, 137 1
90, 109, 130 1
97, 113, 130 1
33, 52, 59 1
33, 64, 73 1
49, 81, 92 1
72, 105, 121 1
94, 128, 151 1
111, 145, 175 1
120, 153, 192 1
122, 155, 200 1
123, 156, 205 1
122, 155, 205 1
119, 152, 202 1
113, 149, 195 1
115, 148, 194 1
119, 146, 197 1
140, 163, 213 1
139, 160, 205 1
128, 147, 190 1
109, 128, 171 1
63, 83, 108 1
35, 56, 78 1
52, 74, 92 1
65, 85, 103 1
59, 78, 99 1
42, 60, 83 1
26, 43, 69 1
28, 47, 74 1
31, 50, 77 1
35, 54, 81 1
53, 71, 102 1
61, 79, 116 1
72, 93, 131 1
79, 101, 142 1
86, 108, 149 1
113, 139, 186 1
114, 141, 191 1
118, 146, 200 1
93, 117, 169 1
86, 110, 162 1
89, 113, 165 1
98, 120, 172 1
115, 131, 184 1
113, 130, 181 1
108, 125, 176 1
102, 119, 168 1
97, 115, 162 1
104, 122, 169 1
66, 83, 134 1
41, 58, 109 1
53, 69, 122 1
85, 99, 152 1
101, 114, 170 1
105, 118, 174 1
106, 119, 175 1
101, 118, 175 1
99, 116, 172 1
97, 115, 168 1
98, 119, 164 1
96, 124, 159 1
108, 126, 167 1
104, 122, 163 1
96, 115, 153 1
86, 105, 138 1
88, 107, 134 1
94, 111, 130 1
98, 113, 129 1
28, 48, 53 1
23, 55, 60 1
37, 68, 77 1
58, 89, 104 1
81, 114, 134 1
102, 136, 165 1
116, 150, 186 1
120, 154, 197 1
121, 154, 200 1
118, 151, 201 1
117, 150, 199 1
114, 148, 194 1
112, 145, 191 1
120, 147, 198 1
130, 155, 211 1
119, 138, 183 1
99, 117, 146 1
72, 91, 118 1
26, 47, 69 1
30, 51, 72 1
40, 62, 80 1
51, 71, 89 1
56, 76, 94 1
47, 68, 90 1
39, 59, 84 1
37, 56, 83 1
40, 59, 86 1
43, 61, 90 1
45, 63, 94 1
50, 67, 100 1
58, 74, 110 1
65, 83, 120 1
70, 88, 125 1
73, 92, 130 1
76, 95, 133 1
119, 145, 191 1
121, 147, 194 1
123, 151, 205 1
121, 149, 203 1
80, 104, 158 1
73, 97, 149 1
74, 95, 150 1
76, 97, 152 1
81, 102, 157 1
90, 111, 166 1
100, 120, 175 1
104, 124, 179 1
109, 125, 178 1
106, 123, 174 1
100, 117, 166 1
105, 122, 171 1
72, 89, 140 1
42, 58, 111 1
44, 57, 113 1
79, 92, 148 1
100, 113, 169 1
102, 113, 170 1
107, 119, 173 1
100, 115, 177 1
95, 111, 170 1
91, 108, 165 1
91, 112, 164 1
93, 115, 163 1
92, 119, 156 1
86, 116, 151 1
84, 113, 150 1
89, 118, 157 1
99, 126, 170 1
104, 133, 178 1
98, 117, 160 1
94, 112, 153 1
91, 110, 148 1
87, 106, 143 1
84, 103, 138 1
81, 101, 132 1
92, 108, 131 1
96, 111, 130 1
102, 112, 129 1
29, 49, 54 1
26, 57, 60 1
36, 65, 72 1
49, 81, 94 1
68, 100, 119 1
90, 123, 149 1
107, 140, 173 1
120, 153, 198 1
120, 153, 199 1
120, 152, 201 1
117, 149, 198 1
111, 148, 192 1
116, 146, 193 1
136, 160, 212 1
140, 162, 210 1
122, 141, 186 1
107, 125, 156 1
28, 45, 71 1
28, 47, 68 1
37, 57, 75 1
47, 67, 85 1
51, 73, 91 1
53, 75, 93 1
49, 70, 91 1
45, 65, 90 1
47, 68, 96 1
50, 70, 101 1
51, 71, 102 1
52, 72, 103 1
50, 68, 99 1
54, 71, 104 1
60, 77, 110 1
67, 83, 119 1
84, 101, 140 1
86, 104, 145 1
118, 142, 184 1
123, 148, 192 1
127, 151, 197 1
94, 118, 172 1
85, 109, 163 1
79, 100, 155 1
72, 93, 148 1
65, 86, 141 1
66, 87, 142 1
77, 97, 152 1
97, 117, 172 1
99, 119, 174 1
102, 115, 171 1
101, 116, 172 1
97, 114, 165 1
96, 114, 161 1
106, 123, 172 1
92, 109, 160 1
73, 89, 142 1
48, 62, 115 1
39, 52, 108 1
59, 70, 127 1
87, 99, 153 1
102, 114, 168 1
106, 116, 170 1
95, 112, 175 1
89, 107, 166 1
89, 109, 164 1
88, 111, 161 1
87, 111, 157 1
86, 111, 153 1
84, 113, 152 1
87, 116, 153 1
85, 117, 153 1
84, 115, 154 1
87, 119, 162 1
91, 122, 167 1
94, 125, 170 1
96, 126, 173 1
92, 111, 154 1
88, 107, 145 1
86, 106, 141 1
86, 106, 137 1
94, 108, 127 1
97, 107, 124 1
32, 53, 55 1
24, 53, 57 1
32, 61, 66 1
43, 73, 84 1
62, 92, 109 1
82, 114, 137 1
101, 132, 163 1
113, 145, 180 1
118, 151, 190 1
118, 150, 193 1
115, 148, 193 1
114, 147, 192 1
113, 148, 192 1
127, 153, 207 1
138, 160, 212 1
126, 144, 191 1
118, 132, 168 1
89, 104, 137 1
53, 69, 98 1
25, 43, 66 1
31, 51, 69 1
41, 61, 78 1
47, 70, 86 1
50, 72, 90 1
53, 74, 96 1
54, 75, 102 1
58, 79, 107 1
58, 78, 109 1
56, 77, 109 1
63, 80, 113 1
80, 97, 136 1
103, 125, 166 1
133, 157, 203 1
99, 123, 177 1
93, 117, 171 1
92, 115, 171 1
98, 118, 175 1
96, 116, 173 1
85, 105, 162 1
71, 91, 148 1
63, 82, 139 1
64, 83, 140 1
74, 94, 149 1
85, 105, 160 1
95, 108, 164 1
96, 109, 165 1
97, 111, 164 1
94, 112, 159 1
101, 119, 166 1
108, 126, 173 1
92, 109, 158 1
73, 87, 139 1
55, 69, 122 1
45, 57, 111 1
51, 63, 117 1
84, 95, 147 1
106, 117, 169 1
101, 112, 162 1
91, 109, 170 1
87, 107, 164 1
83, 105, 157 1
81, 104, 152 1
80, 105, 149 1
79, 107, 148 1
77, 108, 147 1
81, 112, 151 1
90, 120, 161 1
93, 122, 166 1
94, 123, 167 1
92, 111, 149 1
88, 107, 142 1
90, 108, 139 1
91, 108, 135 1
94, 110, 133 1
97, 108, 128 1
91, 99, 116 1
28, 47, 50 1
28, 53, 55 1
31, 58, 62 1
40, 67, 77 1
54, 83, 97 1
92, 123, 148 1
116, 148, 183 1
114, 148, 184 1
118, 150, 191 1
117, 149, 190 1
113, 147, 190 1
111, 145, 188 1
110, 144, 187 1
109, 144, 188 1
113, 145, 188 1
138, 159, 210 1
135, 154, 205 1
129, 146, 197 1
121, 134, 172 1
95, 109, 145 1
60, 75, 107 1
34, 51, 78 1
24, 42, 65 1
26, 46, 64 1
35, 55, 72 1
40, 63, 79 1
46, 68, 86 1
60, 81, 108 1
63, 84, 112 1
61, 82, 113 1
59, 80, 112 1
58, 78, 113 1
62, 78, 114 1
68, 84, 120 1
86, 103, 142 1
103, 121, 162 1
104, 124, 165 1
134, 159, 203 1
138, 164, 210 1
103, 127, 181 1
102, 125, 181 1
107, 127, 184 1
110, 130, 188 1
108, 128, 186 1
101, 121, 179 1
90, 109, 166 1
66, 85, 142 1
67, 87, 142 1
78, 98, 153 1
90, 107, 163 1
92, 103, 160 1
92, 106, 159 1
93, 107, 159 1
92, 108, 155 1
88, 107, 152 1
89, 108, 153 1
105, 124, 169 1
76, 90, 142 1
60, 74, 126 1
49, 62, 114 1
46, 57, 109 1
65, 76, 126 1
92, 102, 150 1
97, 107, 155 1
94, 112, 171 1
92, 111, 168 1
86, 106, 161 1
80, 101, 152 1
78, 101, 147 1
78, 101, 146 1
78, 103, 143 1
71, 97, 134 1
73, 99, 135 1
76, 102, 138 1
94, 110, 146 1
93, 110, 143 1
98, 114, 143 1
100, 117, 144 1
99, 115, 138 1
97, 111, 130 1
89, 99, 117 1
74, 79, 94 1
21, 38, 41 1
24, 47, 49 1
28, 53, 57 1
36, 62, 69 1
49, 77, 88 1
64, 94, 111 1
81, 112, 133 1
97, 128, 153 1
106, 138, 167 1
115, 148, 181 1
118, 150, 185 1
120, 152, 188 1
116, 149, 188 1
113, 145, 186 1
111, 143, 184 1
111, 142, 187 1
114, 143, 188 1
115, 143, 190 1
122, 149, 199 1
131, 155, 207 1
133, 157, 209 1
136, 157, 209 1
134, 152, 205 1
130, 146, 199 1
122, 134, 174 1
98, 111, 149 1
65, 80, 113 1
39, 55, 84 1
24, 41, 67 1
28, 48, 65 1
32, 55, 71 1
42, 65, 81 1
61, 82, 109 1
63, 85, 113 1
62, 83, 115 1
61, 81, 116 1
59, 81, 116 1
67, 85, 122 1
89, 107, 148 1
104, 123, 166 1
107, 126, 169 1
117, 141, 183 1
143, 169, 216 1
146, 171, 221 1
112, 133, 188 1
112, 130, 189 1
104, 122, 181 1
91, 110, 167 1
67, 84, 140 1
72, 89, 145 1
83, 101, 154 1
90, 102, 156 1
90, 103, 155 1
89, 104, 153 1
87, 103, 149 1
99, 118, 161 1
97, 113, 160 1
80, 95, 144 1
66, 80, 129 1
57, 68, 118 1
45, 56, 106 1
46, 56, 104 1
69, 77, 124 1
92, 101, 145 1
85, 101, 154 1
89, 105, 158 1
90, 104, 156 1
82, 97, 146 1
77, 93, 139 1
75, 92, 135 1
75, 94, 132 1
74, 92, 129 1
82, 102, 133 1
83, 101, 130 1
73, 93, 118 1
95, 109, 132 1
98, 112, 135 1
102, 116, 139 1
105, 118, 140 1
105, 116, 136 1
84, 96, 114 1
76, 85, 99 1
50, 52, 62 1
27, 42, 45 1
17, 38, 40 1
23, 45, 50 1
32, 56, 62 1
43, 70, 80 1
58, 87, 101 1
73, 103, 120 1
96, 130, 154 1
116, 147, 178 1
116, 149, 182 1
114, 146, 181 1
111, 143, 179 1
110, 142, 185 1
111, 140, 185 1
114, 142, 189 1
130, 154, 206 1
133, 151, 204 1
129, 144, 200 1
123, 135, 177 1
103, 115, 155 1
73, 87, 123 1
47, 63, 92 1
24, 44, 61 1
37, 60, 76 1
43, 67, 85 1
51, 74, 96 1
56, 79, 105 1
60, 83, 115 1
63, 85, 120 1
65, 87, 122 1
73, 92, 129 1
77, 96, 134 1
90, 109, 152 1
97, 116, 159 1
133, 158, 200 1
141, 169, 210 1
145, 172, 216 1
144, 172, 219 1
149, 175, 222 1
141, 166, 216 1
126, 148, 200 1
124, 144, 202 1
124, 143, 204 1
122, 140, 201 1
116, 134, 195 1
110, 128, 187 1
104, 120, 179 1
63, 80, 136 1
71, 89, 142 1
86, 99, 151 1
87, 101, 150 1
87, 101, 149 1
82, 100, 141 1
83, 102, 140 1
87, 108, 146 1
98, 115, 158 1
84, 100, 146 1
68, 82, 130 1
62, 74, 122 1
56, 66, 113 1
47, 56, 100 1
53, 62, 105 1
75, 83, 123 1
83, 94, 138 1
89, 100, 144 1
92, 104, 146 1
88, 100, 140 1
87, 98, 136 1
85, 97, 133 1
82, 93, 125 1
76, 86, 116 1
76, 87, 114 1
69, 80, 102 1
58, 67, 87 1
45, 55, 72 1
38, 47, 61 1
35, 44, 57 1
35, 45, 55 1
37, 47, 57 1
49, 55, 66 1
54, 60, 71 1
68, 74, 87 1
71, 77, 90 1
69, 75, 88 1
64, 70, 83 1
60, 66, 77 1
52, 59, 68 1
47, 53, 60 1
42, 45, 50 1
41, 40, 44 1
28, 43, 45 1
22, 43, 45 1
22, 46, 52 1
28, 54, 61 1
38, 66, 77 1
52, 83, 98 1
103, 135, 158 1
107, 140, 166 1
111, 142, 175 1
107, 138, 177 1
106, 138, 179 1
108, 140, 183 1
109, 138, 182 1
112, 138, 184 1
113, 139, 185 1
127, 151, 203 1
131, 151, 206 1
130, 147, 203 1
128, 143, 199 1
127, 136, 180 1
112, 121, 164 1
88, 99, 137 1
63, 78, 110 1
44, 61, 87 1
32, 51, 72 1
27, 47, 64 1
33, 56, 72 1
38, 62, 80 1
46, 69, 91 1
50, 73, 99 1
54, 75, 106 1
58, 81, 113 1
64, 86, 121 1
78, 99, 137 1
97, 119, 161 1
122, 147, 189 1
143, 171, 212 1
145, 174, 218 1
145, 174, 219 1
144, 174, 221 1
150, 173, 221 1
145, 168, 218 1
130, 153, 203 1
117, 132, 194 1
111, 127, 186 1
51, 68, 124 1
45, 63, 116 1
82, 93, 143 1
83, 97, 145 1
84, 99, 145 1
82, 98, 140 1
80, 99, 136 1
100, 118, 159 1
71, 86, 132 1
62, 75, 121 1
58, 69, 113 1
51, 60, 103 1
47, 56, 94 1
71, 80, 114 1
82, 91, 125 1
91, 100, 134 1
95, 102, 135 1
97, 102, 133 1
94, 100, 129 1
84, 88, 116 1
71, 75, 99 1
54, 58, 77 1
46, 49, 64 1
37, 39, 50 1
33, 35, 43 1
40, 42, 43 1
41, 41, 41 1
38, 38, 38 1
38, 37, 39 1
39, 38, 40 1
36, 37, 41 1
35, 37, 38 1
41, 43, 44 1
43, 43, 43 1
46, 42, 41 1
46, 41, 38 1
18, 31, 33 1
19, 40, 42 1
17, 39, 44 1
14, 40, 47 1
18, 46, 57 1
31, 60, 74 1
47, 80, 96 1
61, 94, 113 1
93, 125, 148 1
101, 132, 157 1
107, 139, 168 1
109, 140, 171 1
106, 138, 173 1
106, 137, 176 1
106, 136, 177 1
105, 137, 180 1
110, 136, 182 1
111, 137, 183 1
116, 143, 193 1
125, 149, 201 1
129, 149, 204 1
129, 146, 202 1
127, 141, 199 1
129, 138, 182 1
117, 126, 169 1
100, 111, 149 1
78, 93, 125 1
59, 76, 102 1
42, 61, 82 1
33, 53, 70 1
29, 52, 68 1
31, 54, 70 1
35, 59, 77 1
42, 65, 87 1
45, 68, 94 1
50, 71, 102 1
54, 77, 109 1
62, 84, 119 1
84, 105, 143 1
88, 109, 147 1
111, 135, 177 1
116, 141, 183 1
124, 149, 191 1
140, 169, 213 1
144, 173, 217 1
143, 174, 219 1
146, 176, 223 1
148, 171, 219 1
147, 170, 218 1
125, 142, 205 1
122, 139, 202 1
126, 141, 203 1
117, 133, 192 1
77, 94, 151 1
33, 50, 106 1
26, 44, 97 1
47, 66, 117 1
76, 87, 137 1
79, 91, 139 1
80, 96, 139 1
78, 97, 134 1
81, 101, 136 1
81, 100, 137 1
83, 101, 142 1
87, 103, 146 1
82, 97, 143 1
72, 85, 129 1
63, 75, 117 1
56, 66, 106 1
32, 41, 78 1
42, 48, 77 1
56, 62, 91 1
69, 75, 104 1
78, 82, 110 1
82, 86, 111 1
79, 81, 105 1
63, 64, 85 1
46, 46, 64 1
42, 42, 56 1
42, 38, 49 1
41, 37, 43 1
43, 38, 40 1
45, 41, 40 1
45, 41, 36 1
43, 37, 30 1
39, 33, 26 1
40, 37, 29 1
41, 38, 30 1
43, 39, 34 1
44, 40, 35 1
46, 45, 41 1
45, 42, 38 1
45, 39, 34 1
46, 38, 31 1
28, 34, 33 1
25, 44, 41 1
27, 46, 43 1
30, 47, 44 1
31, 47, 46 1
35, 48, 50 1
51, 62, 70 1
72, 84, 94 1
90, 106, 118 1
110, 127, 140 1
122, 143, 158 1
119, 144, 160 1
111, 139, 156 1
112, 142, 159 1
108, 141, 157 1
107, 136, 173 1
107, 136, 175 1
109, 140, 179 1
107, 137, 178 1
119, 148, 193 1
119, 147, 194 1
110, 136, 176 1
102, 125, 163 1
94, 113, 151 1
82, 98, 135 1
68, 79, 117 1
55, 63, 100 1
48, 54, 91 1
51, 57, 92 1
50, 59, 93 1
49, 60, 92 1
47, 62, 94 1
49, 69, 100 1
55, 79, 109 1
61, 89, 119 1
70, 100, 129 1
81, 105, 147 1
108, 137, 182 1
112, 140, 187 1
110, 140, 189 1
115, 142, 193 1
116, 143, 194 1
151, 172, 224 1
149, 170, 222 1
151, 174, 219 1
151, 174, 220 1
146, 168, 216 1
126, 143, 200 1
124, 140, 199 1
129, 144, 207 1
135, 147, 211 1
136, 148, 212 1
135, 145, 209 1
130, 139, 202 1
121, 132, 190 1
95, 105, 159 1
44, 55, 105 1
21, 33, 81 1
40, 50, 98 1
68, 81, 127 1
76, 88, 136 1
80, 90, 138 1
84, 91, 140 1
79, 88, 132 1
75, 86, 124 1
76, 99, 121 1
88, 103, 129 1
76, 86, 110 1
61, 66, 87 1
48, 48, 64 1
37, 37, 49 1
35, 36, 40 1
42, 40, 40 1
48, 39, 36 1
34, 40, 39 1
31, 48, 45 1
32, 49, 46 1
33, 47, 45 1
35, 47, 47 1
37, 49, 51 1
40, 49, 52 1
41, 50, 54 1
42, 52, 59 1
56, 70, 82 1
74, 91, 104 1
93, 114, 129 1
107, 130, 145 1
112, 139, 153 1
111, 137, 153 1
106, 132, 162 1
105, 131, 161 1
104, 132, 163 1
106, 134, 165 1
107, 135, 169 1
109, 139, 174 1
112, 144, 180 1
114, 145, 184 1
108, 138, 179 1
113, 143, 184 1
116, 145, 189 1
113, 142, 186 1
103, 126, 164 1
101, 120, 158 1
94, 110, 147 1
85, 98, 136 1
71, 79, 116 1
64, 72, 109 1
63, 73, 107 1
59, 71, 105 1
65, 89, 119 1
70, 98, 128 1
78, 106, 136 1
86, 112, 152 1
100, 128, 169 1
119, 150, 195 1
120, 150, 197 1
123, 145, 197 1
127, 147, 202 1
139, 159, 214 1
141, 161, 216 1
146, 166, 221 1
147, 167, 222 1
144, 165, 217 1
135, 155, 210 1
126, 144, 203 1
129, 143, 209 1
133, 147, 213 1
136, 148, 214 1
133, 145, 209 1
127, 138, 200 1
118, 130, 188 1
91, 102, 159 1
42, 55, 107 1
19, 33, 82 1
33, 47, 95 1
62, 77, 123 1
72, 87, 133 1
74, 86, 134 1
77, 87, 134 1
79, 88, 131 1
76, 88, 124 1
78, 92, 120 1
83, 99, 122 1
84, 94, 118 1
75, 79, 103 1
61, 61, 79 1
44, 41, 56 1
37, 31, 42 1
39, 39, 39 1
44, 39, 38 1
48, 40, 40 1
50, 41, 38 1
50, 38, 36 1
51, 39, 35 1
33, 38, 36 1
35, 48, 46 1
41, 49, 48 1
43, 51, 51 1
45, 50, 51 1
44, 49, 52 1
45, 49, 54 1
45, 51, 58 1
46, 55, 64 1
39, 51, 61 1
95, 113, 124 1
108, 129, 150 1
112, 133, 154 1
115, 139, 159 1
113, 139, 163 1
109, 136, 162 1
107, 136, 163 1
107, 136, 167 1
109, 140, 173 1
114, 141, 178 1
111, 137, 174 1
105, 126, 164 1
102, 119, 158 1
97, 112, 151 1
90, 103, 141 1
86, 97, 135 1
74, 86, 122 1
71, 85, 121 1
69, 88, 121 1
75, 96, 128 1
80, 103, 135 1
89, 117, 147 1
95, 123, 158 1
104, 134, 169 1
115, 145, 180 1
119, 151, 187 1
126, 159, 198 1
133, 165, 206 1
129, 161, 204 1
120, 143, 193 1
125, 146, 198 1
125, 145, 200 1
134, 151, 207 1
137, 154, 211 1
141, 158, 215 1
144, 161, 218 1
142, 164, 216 1
142, 163, 218 1
140, 160, 217 1
134, 154, 212 1
123, 139, 205 1
126, 142, 209 1
130, 146, 213 1
133, 149, 216 1
131, 145, 211 1
122, 137, 200 1
113, 127, 186 1
87, 102, 158 1
43, 57, 110 1
19, 34, 83 1
30, 45, 94 1
54, 73, 116 1
72, 89, 132 1
77, 90, 134 1
77, 89, 131 1
70, 79, 112 1
66, 78, 102 1
59, 73, 91 1
56, 71, 87 1
55, 68, 84 1
52, 62, 80 1
50, 54, 73 1
46, 44, 63 1
44, 37, 52 1
42, 33, 43 1
45, 32, 40 1
44, 39, 36 1
49, 40, 37 1
53, 42, 38 1
39, 40, 36 1
44, 49, 47 1
46, 51, 49 1
47, 52, 50 1
47, 46, 50 1
45, 46, 50 1
39, 42, 46 1
38, 43, 46 1
42, 46, 51 1
38, 44, 49 1
58, 75, 84 1
70, 88, 99 1
84, 102, 113 1
94, 113, 126 1
102, 123, 138 1
108, 131, 147 1
112, 136, 154 1
126, 151, 171 1
118, 145, 166 1
112, 140, 164 1
111, 140, 167 1
108, 137, 164 1
106, 134, 164 1
117, 141, 177 1
114, 138, 174 1
111, 133, 169 1
98, 117, 155 1
93, 110, 149 1
89, 107, 144 1
77, 95, 132 1
76, 94, 131 1
76, 95, 130 1
90, 113, 145 1
104, 132, 162 1
113, 143, 172 1
154, 187, 220 1
155, 187, 222 1
149, 180, 219 1
142, 170, 211 1
131, 155, 201 1
125, 148, 196 1
129, 150, 202 1
125, 142, 198 1
129, 145, 204 1
133, 148, 210 1
138, 156, 217 1
135, 152, 215 1
127, 145, 210 1
122, 139, 206 1
128, 144, 213 1
132, 149, 216 1
130, 146, 212 1
120, 137, 200 1
107, 125, 184 1
83, 100, 156 1
41, 59, 112 1
21, 38, 89 1
28, 45, 94 1
55, 77, 119 1
70, 89, 132 1
72, 88, 130 1
77, 87, 127 1
78, 87, 121 1
67, 74, 101 1
51, 58, 77 1
38, 46, 59 1
36, 42, 53 1
34, 38, 49 1
32, 34, 45 1
34, 32, 44 1
39, 31, 42 1
44, 30, 41 1
49, 33, 40 1
54, 37, 40 1
49, 39, 32 1
51, 41, 34 1
53, 41, 35 1
51, 48, 43 1
55, 53, 52 1
58, 54, 53 1
57, 53, 52 1
54, 50, 49 1
53, 48, 47 1
52, 47, 46 1
60, 52, 52 1
56, 48, 48 1
50, 45, 44 1
38, 46, 46 1
44, 52, 52 1
50, 59, 62 1
55, 67, 69 1
62, 74, 78 1
68, 82, 88 1
74, 90, 97 1
79, 96, 105 1
97, 117, 128 1
105, 127, 139 1
113, 136, 151 1
118, 141, 157 1
120, 144, 162 1
122, 146, 164 1
119, 143, 163 1
114, 138, 158 1
115, 136, 168 1
115, 135, 170 1
113, 133, 168 1
109, 129, 164 1
100, 119, 156 1
96, 117, 145 1
92, 113, 141 1
107, 131, 153 1
108, 132, 154 1
119, 146, 167 1
139, 167, 191 1
155, 185, 210 1
163, 192, 219 1
159, 187, 218 1
150, 176, 212 1
138, 163, 203 1
130, 150, 198 1
127, 145, 198 1
129, 146, 209 1
134, 152, 217 1
138, 153, 216 1
136, 153, 216 1
134, 150, 216 1
129, 145, 212 1
123, 140, 207 1
128, 145, 212 1
130, 147, 214 1
128, 146, 211 1
119, 137, 198 1
81, 101, 156 1
46, 65, 116 1
25, 45, 93 1
29, 49, 97 1
54, 76, 117 1
71, 89, 130 1
73, 88, 127 1
77, 85, 122 1
75, 78, 109 1
58, 60, 84 1
44, 44, 60 1
34, 35, 45 1
42, 42, 48 1
38, 34, 40 1
40, 32, 39 1
45, 33, 39 1
51, 34, 37 1
60, 39, 38 1
55, 40, 31 1
58, 43, 34 1
70, 64, 57 1
59, 47, 45 1
57, 45, 43 1
58, 47, 43 1
59, 47, 43 1
60, 48, 44 1
59, 44, 41 1
62, 48, 42 1
61, 47, 41 1
56, 42, 36 1
39, 35, 30 1
42, 39, 34 1
44, 41, 36 1
43, 42, 38 1
41, 42, 40 1
36, 41, 39 1
35, 41, 40 1
34, 42, 42 1
35, 47, 49 1
53, 67, 73 1
63, 76, 84 1
74, 89, 98 1
92, 106, 118 1
114, 128, 140 1
128, 144, 156 1
124, 138, 166 1
127, 141, 170 1
126, 142, 171 1
121, 139, 170 1
114, 134, 165 1
103, 121, 150 1
107, 123, 152 1
98, 113, 139 1
91, 104, 130 1
75, 91, 104 1
51, 67, 83 1
55, 75, 92 1
83, 105, 123 1
123, 147, 167 1
159, 183, 207 1
180, 202, 230 1
162, 184, 219 1
136, 157, 208 1
132, 152, 209 1
129, 150, 211 1
128, 149, 211 1
130, 152, 217 1
139, 154, 217 1
138, 152, 218 1
127, 143, 210 1
126, 143, 210 1
115, 133, 192 1
84, 102, 155 1
56, 73, 122 1
34, 52, 99 1
33, 52, 97 1
55, 73, 114 1
76, 93, 132 1
84, 95, 133 1
79, 84, 117 1
63, 61, 90 1
46, 42, 61 1
43, 37, 48 1
44, 38, 43 1
43, 37, 38 1
50, 40, 40 1
54, 40, 41 1
58, 40, 39 1
64, 48, 42 1
66, 50, 43 1
64, 46, 39 1
62, 50, 40 1
63, 51, 41 1
60, 50, 40 1
57, 48, 39 1
52, 46, 39 1
49, 45, 40 1
49, 46, 42 1
39, 40, 38 1
38, 42, 43 1
39, 43, 44 1
41, 44, 48 1
53, 58, 61 1
69, 74, 77 1
101, 107, 130 1
108, 116, 139 1
118, 129, 151 1
122, 136, 159 1
123, 138, 164 1
118, 137, 164 1
105, 126, 153 1
106, 121, 147 1
102, 110, 133 1
89, 96, 116 1
74, 81, 101 1
62, 64, 72 1
45, 48, 56 1
29, 34, 43 1
24, 33, 42 1
32, 42, 52 1
51, 64, 78 1
94, 110, 127 1
139, 156, 177 1
168, 187, 214 1
170, 189, 222 1
145, 168, 214 1
137, 159, 211 1
131, 156, 212 1
129, 155, 215 1
130, 158, 219 1
143, 154, 216 1
144, 155, 217 1
144, 156, 220 1
143, 155, 219 1
137, 152, 215 1
131, 148, 211 1
132, 149, 212 1
130, 148, 209 1
124, 142, 201 1
99, 117, 170 1
68, 84, 131 1
44, 60, 106 1
37, 54, 97 1
56, 72, 114 1
89, 97, 134 1
79, 78, 110 1
59, 53, 78 1
47, 37, 53 1
48, 37, 45 1
48, 35, 37 1
49, 37, 35 1
61, 42, 29 1
60, 38, 27 1
61, 39, 28 1
62, 48, 36 1
69, 50, 42 1
68, 48, 37 1
65, 48, 39 1
63, 48, 39 1
60, 47, 39 1
57, 46, 38 1
55, 45, 38 1
57, 47, 40 1
52, 43, 39 1
46, 40, 35 1
45, 37, 37 1
45, 45, 59 1
61, 62, 76 1
83, 86, 101 1
102, 109, 126 1
116, 126, 144 1
123, 137, 156 1
119, 136, 157 1
113, 128, 147 1
106, 120, 139 1
104, 114, 132 1
99, 106, 123 1
89, 92, 107 1
72, 72, 86 1
53, 53, 67 1
52, 41, 43 1
51, 40, 42 1
48, 42, 43 1
48, 45, 47 1
43, 44, 48 1
38, 42, 47 1
47, 54, 63 1
69, 78, 92 1
132, 146, 165 1
162, 177, 203 1
161, 178, 211 1
157, 178, 216 1
146, 169, 215 1
140, 167, 217 1
138, 166, 220 1
134, 164, 219 1
144, 155, 215 1
146, 157, 217 1
146, 159, 221 1
145, 158, 220 1
141, 156, 218 1
136, 154, 215 1
134, 152, 213 1
133, 152, 213 1
131, 151, 209 1
107, 125, 178 1
99, 116, 167 1
75, 91, 137 1
51, 67, 110 1
39, 55, 98 1
49, 61, 103 1
83, 91, 131 1
96, 100, 135 1
82, 80, 109 1
58, 49, 70 1
48, 35, 49 1
55, 39, 46 1
52, 37, 34 1
52, 41, 33 1
51, 40, 32 1
54, 41, 33 1
63, 41, 30 1
72, 49, 41 1
64, 47, 38 1
44, 37, 42 1
47, 40, 47 1
50, 47, 56 1
55, 57, 65 1
70, 79, 89 1
78, 87, 100 1
81, 92, 106 1
93, 104, 118 1
90, 99, 112 1
84, 90, 103 1
77, 79, 90 1
69, 68, 78 1
63, 58, 67 1
57, 49, 56 1
52, 41, 49 1
64, 43, 41 1
43, 42, 44 1
41, 43, 51 1
57, 63, 74 1
95, 105, 123 1
130, 144, 167 1
142, 160, 191 1
144, 168, 210 1
139, 167, 214 1
147, 160, 216 1
148, 161, 217 1
149, 163, 221 1
151, 168, 225 1
152, 170, 229 1
149, 169, 227 1
144, 164, 222 1
138, 160, 218 1
127, 147, 205 1
98, 117, 168 1
83, 99, 145 1
61, 77, 120 1
38, 51, 95 1
59, 71, 113 1
90, 99, 137 1
99, 101, 135 1
75, 72, 98 1
54, 43, 63 1
48, 34, 46 1
51, 34, 38 1
54, 38, 32 1
52, 39, 31 1
54, 42, 32 1
55, 43, 33 1
55, 36, 28 1
57, 45, 45 1
55, 44, 46 1
52, 46, 47 1
50, 47, 49 1
49, 50, 54 1
51, 54, 59 1
52, 56, 61 1
62, 66, 71 1
62, 65, 70 1
61, 62, 66 1
60, 56, 61 1
61, 52, 55 1
62, 49, 51 1
61, 47, 48 1
61, 45, 46 1
45, 47, 58 1
59, 66, 83 1
86, 97, 119 1
117, 131, 160 1
136, 153, 186 1
142, 161, 198 1
145, 166, 204 1
148, 165, 216 1
152, 169, 220 1
157, 175, 228 1
162, 183, 235 1
162, 183, 238 1
152, 175, 231 1
140, 164, 222 1
135, 159, 217 1
122, 145, 201 1
108, 129, 184 1
95, 116, 167 1
88, 104, 151 1
79, 94, 140 1
67, 83, 126 1
98, 107, 144 1
93, 98, 129 1
69, 67, 89 1
51, 41, 57 1
48, 32, 43 1
49, 32, 36 1
53, 32, 34 1
57, 42, 33 1
63, 36, 32 1
67, 48, 43 1
66, 47, 42 1
61, 46, 43 1
57, 45, 41 1
47, 43, 42 1
50, 45, 46 1
55, 46, 43 1
57, 44, 42 1
63, 46, 43 1
67, 48, 45 1
69, 49, 44 1
60, 45, 36 1
58, 45, 37 1
52, 44, 44 1
50, 44, 49 1
42, 41, 51 1
42, 42, 58 1
54, 60, 79 1
80, 90, 114 1
111, 124, 150 1
133, 147, 175 1
146, 163, 206 1
154, 171, 214 1
160, 179, 224 1
159, 182, 228 1
163, 186, 236 1
162, 186, 238 1
151, 177, 231 1
139, 166, 222 1
131, 158, 214 1
90, 110, 158 1
88, 106, 153 1
96, 110, 146 1
100, 111, 143 1
83, 90, 115 1
58, 58, 76 1
48, 40, 51 1
53, 39, 45 1
59, 40, 43 1
60, 40, 39 1
60, 37, 35 1
54, 43, 39 1
55, 44, 40 1
62, 46, 39 1
60, 46, 40 1
58, 46, 44 1
53, 44, 47 1
46, 39, 46 1
33, 32, 42 1
31, 32, 46 1
47, 51, 69 1
69, 76, 93 1
111, 129, 160 1
135, 152, 185 1
158, 177, 212 1
166, 187, 225 1
162, 186, 228 1
153, 177, 223 1
139, 165, 212 1
91, 114, 160 1
87, 106, 151 1
86, 103, 146 1
87, 104, 147 1
99, 112, 144 1
90, 101, 128 1
70, 75, 96 1
47, 47, 61 1
43, 36, 43 1
53, 39, 43 1
61, 43, 44 1
62, 42, 41 1
66, 38, 38 1
66, 38, 37 1
69, 47, 41 1
68, 49, 42 1
66, 48, 41 1
65, 46, 41 1
62, 45, 36 1
52, 42, 42 1
46, 39, 42 1
40, 36, 41 1
37, 37, 43 1
41, 40, 49 1
35, 47, 65 1
57, 71, 90 1
97, 111, 133 1
134, 151, 178 1
156, 176, 207 1
160, 182, 218 1
154, 179, 219 1
151, 176, 220 1
117, 143, 189 1
110, 134, 180 1
92, 110, 151 1
88, 105, 144 1
92, 101, 128 1
72, 79, 99 1
50, 53, 68 1
43, 40, 49 1
46, 37, 40 1
59, 39, 38 1
65, 37, 37 1
71, 49, 37 1
70, 49, 41 1
54, 47, 44 1
31, 38, 41 1
34, 43, 47 1
64, 75, 89 1
99, 114, 133 1
131, 148, 174 1
144, 164, 195 1
133, 156, 194 1
126, 148, 189 1
117, 139, 180 1
95, 112, 145 1
91, 106, 138 1
86, 87, 108 1
58, 58, 74 1
43, 39, 50 1
52, 43, 46 1
58, 45, 43 1
57, 40, 37 1
63, 37, 37 1
59, 37, 32 1
64, 35, 31 1
65, 36, 32 1
65, 45, 40 1
66, 47, 34 1
60, 44, 32 1
60, 48, 38 1
57, 48, 38 1
49, 44, 35 1
44, 42, 32 1
42, 40, 32 1
38, 39, 30 1
40, 42, 36 1
36, 39, 37 1
34, 41, 44 1
56, 65, 75 1
93, 106, 122 1
121, 137, 160 1
131, 150, 177 1
128, 148, 179 1
130, 149, 182 1
127, 146, 179 1
119, 138, 171 1
113, 131, 162 1
108, 125, 152 1
96, 110, 138 1
84, 97, 123 1
73, 67, 84 1
55, 48, 61 1
49, 39, 45 1
64, 45, 40 1
59, 43, 31 1
60, 36, 36 1
63, 36, 39 1
60, 36, 30 1
65, 36, 31 1
69, 47, 42 1
63, 43, 38 1
61, 39, 27 1
62, 43, 30 1
63, 46, 33 1
60, 46, 34 1
55, 46, 33 1
53, 47, 34 1
50, 48, 37 1
47, 47, 35 1
56, 53, 38 1
53, 52, 38 1
50, 48, 40 1
42, 45, 43 1
36, 42, 47 1
37, 46, 59 1
51, 63, 81 1
66, 80, 103 1
92, 109, 136 1
102, 120, 149 1
112, 130, 159 1
112, 128, 157 1
97, 111, 134 1
52, 65, 87 1
51, 40, 56 1
48, 36, 48 1
51, 37, 41 1
55, 38, 35 1
58, 37, 36 1
61, 37, 39 1
63, 37, 31 1
52, 36, 29 1
51, 35, 28 1
71, 45, 29 1
57, 47, 37 1
56, 45, 37 1
54, 45, 36 1
51, 44, 35 1
48, 42, 35 1
46, 43, 35 1
45, 42, 37 1
42, 42, 36 1
41, 40, 36 1
44, 45, 41 1
49, 50, 48 1
52, 55, 53 1
53, 56, 54 1
50, 53, 51 1
43, 45, 45 1
51, 38, 30 1
55, 43, 37 1
53, 43, 36 1
45, 40, 39 1
58, 43, 40 1
56, 41, 38 1
56, 41, 39 1
59, 44, 42 1
61, 46, 44 1
74, 48, 32 1
63, 40, 38 1
71, 46, 30 1
70, 45, 29 1
75, 50, 40 1
65, 46, 33 1
70, 47, 31 1
66, 42, 30 1
65, 41, 29 1
55, 36, 29 1
56, 37, 30 1
79, 43, 35 1
80, 44, 36 1
77, 44, 35 1
70, 49, 34 1
77, 41, 33 1
75, 42, 33 1
78, 49, 42 1
77, 48, 41 1
75, 47, 40 1
67, 41, 29 1
63, 37, 30 1
56, 37, 32 1
74, 42, 37 1
67, 49, 38 1
57, 41, 35 1
78, 50, 39 1
77, 51, 39 1
64, 39, 29 1
67, 47, 36 1
56, 38, 27 1
68, 41, 31 1
60, 43, 30 1
63, 44, 31 1
67, 41, 27 1
61, 45, 32 1
60, 44, 31 1
62, 45, 32 1
64, 45, 32 1
62, 46, 34 1
75, 48, 34 1
71, 40, 31 1
