69, 43, 36 130
72, 46, 34 126
69, 44, 34 119
68, 43, 33 112
71, 44, 34 111
58, 39, 32 106
71, 45, 33 106
69, 45, 33 106
71, 43, 36 98
57, 39, 32 96
72, 44, 33 95
59, 40, 33 94
58, 40, 33 93
66, 43, 35 83
68, 42, 35 81
72, 44, 37 78
73, 45, 34 76
61, 39, 33 72
72, 45, 35 69
70, 43, 33 67
73, 44, 37 66
60, 38, 32 62
72, 45, 31 61
73, 46, 32 61
70, 42, 35 57
58, 39, 31 56
70, 44, 32 55
60, 41, 34 54
59, 40, 32 53
67, 44, 36 52
57, 38, 31 52
68, 44, 32 52
72, 43, 34 51
72, 43, 36 49
73, 44, 35 48
56, 38, 31 48
73, 47, 35 46
67, 45, 34 46
70, 46, 34 44
67, 42, 32 39
62, 43, 35 37
60, 41, 33 36
59, 41, 34 36
58, 41, 32 34
70, 45, 35 33
66, 44, 33 31
61, 40, 32 31
85, 111, 141 30
71, 45, 31 29
64, 43, 35 29
61, 42, 34 29
70, 44, 37 28
63, 42, 34 28
71, 43, 32 28
60, 39, 31 28
62, 40, 34 27
59, 37, 31 27
71, 42, 33 24
56, 40, 33 24
90, 116, 146 24
62, 41, 33 23
74, 44, 33 23
83, 110, 137 23
72, 46, 32 22
65, 42, 34 22
73, 45, 38 22
66, 42, 36 22
61, 42, 35 22
71, 42, 35 22
94, 116, 152 22
98, 122, 158 22
82, 109, 136 22
68, 45, 37 21
63, 41, 35 21
57, 40, 31 21
74, 46, 35 21
75, 45, 34 21
56, 37, 30 21
102, 128, 165 21
103, 127, 169 21
62, 43, 36 20
96, 120, 156 20
97, 121, 157 20
86, 112, 142 20
78, 45, 36 19
55, 39, 32 19
89, 115, 145 19
67, 43, 37 18
68, 46, 35 18
76, 46, 35 18
77, 45, 32 18
88, 116, 147 18
100, 126, 163 18
92, 118, 148 18
94, 119, 151 18
77, 44, 35 17
91, 116, 150 17
103, 129, 166 17
67, 41, 34 16
65, 44, 36 16
69, 42, 32 16
64, 41, 33 16
74, 42, 36 16
72, 42, 37 16
59, 42, 33 16
75, 46, 32 16
95, 120, 154 16
94, 117, 149 16
101, 127, 164 16
73, 46, 36 15
74, 43, 34 15
73, 43, 32 15
57, 41, 34 15
59, 38, 30 15
57, 38, 30 15
62, 38, 32 15
99, 123, 159 15
131, 158, 202 15
127, 156, 200 15
126, 150, 202 15
90, 115, 147 15
71, 42, 37 14
74, 45, 36 14
123, 142, 199 14
101, 124, 169 14
91, 115, 151 14
89, 114, 148 14
90, 115, 149 14
92, 116, 152 14
100, 125, 165 14
84, 110, 140 14
101, 126, 166 14
93, 119, 149 14
91, 117, 147 14
75, 44, 35 13
65, 45, 34 13
70, 41, 36 13
107, 129, 171 13
93, 115, 151 13
94, 116, 151 13
93, 115, 150 13
132, 159, 203 13
127, 154, 198 13
87, 114, 148 13
84, 111, 138 13
98, 124, 161 13
89, 114, 146 13
92, 117, 149 13
102, 125, 170 13
88, 113, 145 13
106, 131, 181 13
104, 130, 167 13
80, 108, 139 13
76, 45, 36 12
73, 42, 33 12
55, 37, 30 12
64, 40, 34 12
124, 149, 193 12
107, 128, 173 12
106, 128, 170 12
89, 115, 151 12
128, 157, 201 12
87, 112, 144 12
83, 109, 139 12
89, 113, 149 12
104, 127, 172 12
102, 126, 168 12
107, 133, 170 12
74, 47, 33 11
69, 43, 31 11
73, 41, 35 11
71, 47, 35 11
65, 41, 35 11
54, 38, 31 11
118, 143, 187 11
108, 129, 174 11
106, 128, 169 11
94, 119, 153 11
128, 147, 204 11
131, 150, 207 11
130, 157, 201 11
90, 114, 150 11
98, 121, 159 11
95, 117, 153 11
93, 118, 152 11
82, 108, 138 11
79, 106, 133 11
139, 164, 206 11
104, 128, 170 11
92, 117, 151 11
100, 127, 161 11
88, 114, 144 11
112, 135, 191 11
81, 108, 142 11
75, 43, 37 10
61, 43, 36 10
66, 44, 32 10
71, 46, 36 10
92, 115, 153 10
106, 127, 172 10
138, 163, 207 10
134, 161, 205 10
99, 122, 160 10
96, 121, 155 10
138, 163, 205 10
93, 117, 153 10
127, 152, 196 10
83, 107, 135 10
124, 148, 200 10
105, 128, 174 10
86, 111, 143 10
81, 108, 135 10
102, 128, 164 10
103, 129, 165 10
65, 43, 32 9
64, 42, 36 9
76, 43, 34 9
66, 41, 31 9
60, 43, 34 9
60, 42, 35 9
69, 46, 38 9
71, 45, 39 9
125, 144, 201 9
126, 151, 195 9
115, 138, 194 9
117, 141, 187 9
128, 149, 204 9
133, 160, 204 9
128, 155, 199 9
102, 125, 163 9
101, 125, 161 9
109, 130, 182 9
95, 119, 155 9
87, 115, 146 9
88, 115, 149 9
109, 130, 181 9
89, 117, 148 9
111, 134, 184 9
104, 127, 173 9
95, 118, 150 9
122, 146, 200 9
87, 113, 143 9
113, 136, 192 9
66, 40, 33 8
71, 44, 30 8
69, 41, 34 8
58, 36, 30 8
75, 41, 35 8
72, 46, 39 8
73, 43, 38 8
130, 149, 206 8
131, 149, 208 8
128, 153, 197 8
109, 130, 175 8
87, 113, 149 8
130, 156, 202 8
100, 123, 168 8
105, 131, 178 8
103, 128, 168 8
131, 157, 203 8
126, 155, 199 8
93, 116, 154 8
92, 114, 150 8
81, 105, 133 8
79, 103, 131 8
103, 126, 171 8
104, 126, 168 8
85, 112, 139 8
123, 150, 194 8
91, 116, 148 8
93, 118, 150 8
99, 125, 162 8
96, 122, 158 8
101, 127, 163 8
100, 126, 162 8
106, 132, 169 8
105, 131, 167 8
104, 130, 166 8
79, 107, 138 8
63, 44, 36 7
56, 39, 30 7
66, 41, 37 7
58, 42, 35 7
76, 44, 33 7
69, 40, 35 7
67, 45, 33 7
56, 37, 29 7
71, 45, 38 7
70, 44, 38 7
59, 36, 34 7
126, 145, 202 7
123, 143, 198 7
102, 124, 165 7
129, 150, 205 7
123, 148, 198 7
135, 160, 202 7
119, 147, 194 7
121, 149, 196 7
108, 130, 172 7
141, 166, 210 7
123, 149, 195 7
101, 124, 162 7
105, 129, 165 7
105, 131, 168 7
129, 156, 200 7
132, 151, 208 7
97, 122, 156 7
102, 124, 166 7
97, 120, 158 7
86, 113, 147 7
89, 117, 147 7
78, 105, 132 7
124, 150, 196 7
136, 161, 203 7
126, 152, 206 7
100, 123, 161 7
109, 132, 182 7
125, 149, 201 7
127, 151, 205 7
105, 128, 173 7
112, 137, 187 7
106, 129, 167 7
85, 110, 142 7
114, 137, 193 7
77, 104, 131 7
118, 143, 199 7
81, 109, 139 7
99, 126, 160 7
80, 108, 138 7
47, 63, 69 7
102, 129, 163 7
101, 128, 162 7
68, 44, 38 6
67, 41, 35 6
75, 42, 33 6
61, 44, 35 6
67, 42, 38 6
77, 45, 34 6
56, 41, 32 6
60, 38, 33 6
124, 143, 200 6
116, 137, 189 6
131, 152, 207 6
131, 151, 208 6
94, 115, 153 6
98, 119, 157 6
107, 129, 170 6
122, 150, 197 6
137, 162, 204 6
120, 148, 195 6
103, 124, 169 6
117, 140, 188 6
120, 147, 198 6
140, 165, 209 6
124, 153, 198 6
79, 100, 127 6
85, 107, 135 6
83, 106, 138 6
132, 150, 209 6
98, 123, 157 6
121, 146, 188 6
110, 131, 183 6
96, 121, 161 6
92, 114, 155 6
93, 115, 156 6
88, 114, 150 6
96, 119, 157 6
135, 160, 204 6
89, 116, 150 6
129, 158, 202 6
94, 118, 154 6
94, 117, 155 6
110, 131, 176 6
80, 107, 134 6
85, 112, 146 6
145, 170, 214 6
103, 125, 167 6
88, 116, 146 6
125, 152, 196 6
122, 147, 189 6
122, 149, 193 6
127, 151, 203 6
121, 146, 190 6
102, 127, 167 6
84, 109, 141 6
82, 107, 139 6
128, 152, 206 6
108, 131, 181 6
100, 124, 160 6
99, 127, 158 6
108, 133, 183 6
86, 113, 140 6
123, 147, 201 6
116, 141, 197 6
99, 125, 161 6
66, 84, 95 6
62, 80, 91 6
82, 111, 138 6
68, 42, 36 5
69, 47, 36 5
66, 40, 34 5
76, 47, 33 5
79, 43, 35 5
61, 37, 31 5
74, 45, 38 5
52, 40, 30 5
54, 36, 29 5
72, 47, 37 5
57, 38, 33 5
56, 35, 33 5
130, 150, 205 5
136, 156, 213 5
137, 157, 214 5
133, 151, 210 5
117, 140, 185 5
105, 127, 168 5
108, 130, 171 5
125, 150, 194 5
127, 153, 200 5
118, 139, 194 5
122, 143, 198 5
86, 106, 141 5
101, 125, 167 5
101, 122, 167 5
117, 143, 190 5
118, 146, 193 5
124, 149, 199 5
126, 151, 201 5
112, 133, 178 5
79, 99, 130 5
86, 112, 148 5
108, 127, 172 5
138, 163, 203 5
141, 165, 207 5
137, 162, 202 5
96, 118, 160 5
117, 142, 192 5
90, 107, 146 5
125, 154, 199 5
99, 120, 158 5
134, 160, 206 5
127, 146, 203 5
103, 131, 178 5
105, 127, 169 5
103, 126, 164 5
104, 128, 164 5
84, 106, 141 5
83, 105, 133 5
137, 162, 206 5
93, 115, 157 5
95, 118, 156 5
136, 161, 205 5
90, 116, 152 5
120, 145, 187 5
90, 113, 151 5
96, 121, 153 5
130, 155, 199 5
105, 126, 171 5
94, 116, 158 5
133, 156, 201 5
111, 132, 184 5
96, 118, 154 5
84, 112, 143 5
142, 167, 209 5
146, 171, 213 5
97, 119, 155 5
86, 114, 145 5
131, 154, 199 5
83, 111, 141 5
85, 113, 143 5
77, 101, 129 5
79, 104, 130 5
123, 148, 190 5
123, 148, 192 5
90, 118, 149 5
121, 147, 187 5
90, 118, 148 5
113, 136, 186 5
122, 147, 191 5
110, 133, 183 5
81, 105, 135 5
116, 141, 183 5
123, 149, 196 5
83, 107, 143 5
106, 129, 175 5
96, 124, 155 5
100, 125, 159 5
98, 123, 155 5
95, 120, 152 5
89, 116, 143 5
123, 147, 199 5
115, 139, 193 5
97, 123, 160 5
83, 108, 140 5
108, 135, 186 5
88, 115, 142 5
106, 133, 184 5
111, 134, 190 5
110, 133, 189 5
122, 145, 201 5
121, 144, 200 5
72, 90, 101 5
63, 80, 93 5
80, 107, 141 5
98, 127, 166 5
95, 123, 154 5
103, 130, 164 5
95, 121, 157 5
98, 125, 159 5
65, 46, 33 4
72, 43, 38 4
71, 41, 36 4
74, 42, 37 4
66, 46, 35 4
68, 43, 39 4
76, 44, 31 4
78, 46, 33 4
68, 40, 33 4
77, 47, 36 4
68, 39, 34 4
63, 40, 32 4
78, 46, 35 4
58, 37, 29 4
57, 42, 33 4
55, 40, 31 4
63, 39, 33 4
54, 42, 32 4
53, 37, 30 4
65, 43, 31 4
62, 40, 35 4
54, 39, 30 4
74, 46, 39 4
54, 34, 39 4
61, 39, 34 4
75, 46, 39 4
55, 36, 29 4
57, 37, 32 4
62, 41, 40 4
78, 40, 35 4
75, 43, 38 4
61, 36, 32 4
56, 34, 36 4
127, 147, 202 4
120, 141, 193 4
126, 146, 201 4
127, 148, 203 4
119, 140, 185 4
121, 145, 191 4
101, 123, 164 4
84, 108, 144 4
99, 121, 162 4
110, 132, 173 4
44, 60, 83 4
118, 143, 185 4
124, 145, 200 4
123, 144, 199 4
125, 146, 201 4
118, 141, 197 4
93, 110, 149 4
95, 112, 151 4
113, 136, 181 4
121, 145, 199 4
89, 109, 156 4
107, 126, 171 4
90, 109, 147 4
84, 103, 136 4
77, 95, 124 4
102, 121, 164 4
119, 140, 195 4
94, 111, 150 4
99, 117, 158 4
115, 141, 188 4
131, 157, 204 4
116, 141, 191 4
124, 152, 199 4
133, 159, 205 4
121, 143, 191 4
122, 142, 197 4
99, 122, 167 4
109, 131, 173 4
119, 146, 196 4
90, 112, 154 4
114, 134, 189 4
117, 144, 195 4
118, 145, 196 4
118, 145, 195 4
117, 137, 192 4
85, 109, 137 4
64, 84, 101 4
120, 139, 196 4
86, 110, 140 4
129, 148, 205 4
121, 140, 197 4
107, 130, 168 4
125, 152, 203 4
132, 158, 204 4
104, 127, 165 4
125, 151, 197 4
99, 123, 165 4
103, 127, 163 4
99, 124, 158 4
125, 150, 192 4
136, 162, 208 4
97, 119, 161 4
89, 115, 152 4
102, 127, 161 4
134, 154, 212 4
87, 111, 147 4
82, 106, 136 4
145, 170, 212 4
129, 154, 198 4
108, 131, 177 4
118, 138, 193 4
112, 133, 185 4
82, 110, 141 4
143, 168, 210 4
147, 172, 216 4
126, 152, 198 4
123, 146, 194 4
84, 112, 142 4
126, 153, 197 4
99, 124, 164 4
77, 104, 130 4
122, 148, 194 4
111, 132, 177 4
105, 130, 170 4
125, 150, 200 4
118, 142, 188 4
127, 153, 207 4
126, 150, 204 4
117, 142, 184 4
117, 139, 181 4
84, 106, 142 4
115, 141, 181 4
129, 153, 207 4
109, 134, 184 4
93, 117, 147 4
107, 130, 176 4
128, 152, 204 4
97, 125, 156 4
108, 134, 171 4
119, 141, 189 4
124, 148, 202 4
84, 109, 143 4
107, 132, 182 4
124, 146, 198 4
129, 150, 202 4
112, 136, 190 4
107, 134, 184 4
87, 114, 141 4
105, 133, 180 4
106, 132, 179 4
76, 103, 130 4
80, 104, 122 4
105, 130, 180 4
106, 129, 177 4
61, 83, 101 4
85, 109, 139 4
78, 105, 131 4
82, 110, 140 4
108, 134, 181 4
98, 124, 160 4
99, 124, 156 4
57, 80, 96 4
107, 133, 180 4
57, 74, 83 4
58, 75, 88 4
81, 109, 140 4
100, 128, 163 4
60, 77, 86 4
93, 121, 156 4
56, 74, 81 4
57, 75, 82 4
47, 64, 73 4
70, 94, 112 4
77, 105, 135 4
65, 39, 32 3
79, 46, 37 3
69, 43, 37 3
61, 41, 30 3
65, 40, 36 3
74, 48, 36 3
75, 47, 36 3
60, 40, 35 3
59, 39, 34 3
64, 38, 32 3
69, 46, 31 3
70, 41, 34 3
67, 40, 36 3
67, 43, 31 3
51, 39, 29 3
78, 43, 33 3
63, 38, 34 3
55, 36, 31 3
77, 45, 39 3
69, 40, 31 3
70, 46, 40 3
68, 41, 37 3
56, 35, 38 3
79, 43, 33 3
58, 36, 38 3
57, 35, 37 3
61, 40, 39 3
65, 46, 38 3
56, 37, 32 3
55, 37, 36 3
96, 105, 149 3
50, 37, 29 3
80, 40, 35 3
53, 34, 43 3
137, 156, 213 3
58, 35, 33 3
68, 42, 42 3
64, 43, 41 3
145, 162, 219 3
137, 157, 212 3
140, 160, 215 3
139, 159, 214 3
57, 36, 34 3
59, 37, 39 3
72, 40, 35 3
55, 34, 42 3
55, 33, 38 3
48, 29, 44 3
63, 34, 37 3
125, 145, 200 3
59, 32, 41 3
56, 32, 40 3
127, 146, 197 3
129, 149, 206 3
75, 81, 122 3
128, 150, 202 3
135, 156, 211 3
86, 102, 138 3
89, 108, 143 3
119, 136, 179 3
122, 139, 182 3
115, 137, 179 3
128, 148, 205 3
118, 138, 185 3
113, 133, 188 3
130, 150, 208 3
97, 105, 152 3
82, 106, 142 3
129, 154, 204 3
94, 110, 152 3
129, 149, 196 3
97, 119, 160 3
110, 132, 184 3
93, 113, 154 3
81, 106, 140 3
92, 113, 158 3
94, 115, 160 3
103, 122, 165 3
99, 118, 161 3
96, 114, 155 3
85, 104, 141 3
116, 142, 188 3
120, 146, 193 3
126, 152, 199 3
86, 105, 142 3
125, 151, 198 3
128, 154, 201 3
67, 90, 122 3
82, 108, 144 3
107, 130, 175 3
126, 147, 202 3
105, 124, 169 3
129, 155, 202 3
126, 148, 200 3
99, 120, 165 3
99, 119, 160 3
72, 93, 114 3
88, 109, 136 3
115, 140, 190 3
135, 161, 207 3
116, 136, 191 3
100, 123, 171 3
103, 128, 162 3
114, 139, 183 3
116, 140, 192 3
59, 77, 94 3
117, 139, 187 3
124, 144, 199 3
119, 138, 195 3
88, 105, 144 3
95, 116, 154 3
81, 104, 130 3
93, 116, 148 3
63, 83, 101 3
83, 100, 139 3
102, 123, 168 3
86, 107, 139 3
79, 100, 128 3
119, 146, 197 3
139, 164, 208 3
57, 76, 89 3
104, 124, 171 3
119, 137, 190 3
112, 139, 183 3
122, 148, 202 3
117, 147, 196 3
123, 152, 197 3
96, 123, 167 3
85, 106, 138 3
76, 97, 124 3
121, 147, 194 3
118, 148, 197 3
57, 78, 93 3
97, 111, 159 3
105, 128, 166 3
84, 106, 134 3
77, 98, 125 3
126, 155, 200 3
104, 126, 167 3
102, 126, 162 3
95, 117, 152 3
127, 156, 201 3
120, 140, 195 3
82, 98, 140 3
134, 158, 194 3
129, 158, 203 3
90, 116, 153 3
118, 144, 184 3
136, 163, 207 3
139, 166, 210 3
133, 159, 195 3
84, 104, 129 3
110, 131, 182 3
88, 114, 151 3
91, 113, 154 3
113, 134, 186 3
91, 114, 152 3
121, 147, 184 3
145, 169, 211 3
130, 159, 203 3
131, 156, 200 3
80, 102, 130 3
140, 165, 207 3
87, 108, 136 3
85, 107, 149 3
79, 105, 135 3
80, 104, 134 3
140, 159, 202 3
88, 113, 147 3
147, 172, 214 3
91, 109, 146 3
130, 148, 207 3
122, 141, 198 3
99, 121, 163 3
98, 120, 162 3
98, 120, 161 3
84, 111, 145 3
83, 110, 144 3
146, 171, 215 3
138, 160, 202 3
112, 136, 182 3
130, 153, 198 3
76, 100, 128 3
124, 149, 191 3
87, 106, 143 3
120, 145, 195 3
126, 151, 193 3
129, 152, 197 3
116, 140, 186 3
78, 103, 129 3
115, 137, 189 3
77, 102, 128 3
121, 148, 192 3
120, 145, 189 3
108, 129, 180 3
88, 116, 150 3
83, 107, 137 3
133, 158, 202 3
119, 144, 186 3
82, 107, 141 3
132, 157, 201 3
89, 118, 149 3
88, 117, 148 3
85, 110, 144 3
125, 149, 191 3
119, 144, 194 3
108, 130, 182 3
85, 109, 145 3
117, 142, 186 3
121, 146, 196 3
87, 117, 146 3
115, 140, 182 3
115, 138, 183 3
129, 153, 205 3
107, 135, 169 3
103, 126, 172 3
125, 147, 195 3
84, 107, 133 3
109, 137, 172 3
129, 149, 197 3
120, 140, 188 3
111, 136, 186 3
109, 134, 168 3
97, 122, 154 3
118, 142, 196 3
83, 108, 142 3
130, 149, 200 3
120, 144, 198 3
114, 138, 192 3
126, 147, 199 3
116, 139, 195 3
105, 132, 182 3
107, 133, 187 3
119, 142, 198 3
104, 128, 182 3
89, 110, 131 3
120, 143, 199 3
105, 129, 181 3
105, 129, 175 3
104, 129, 169 3
63, 87, 105 3
91, 115, 143 3
84, 108, 136 3
61, 78, 87 3
68, 92, 112 3
106, 130, 166 3
64, 80, 93 3
103, 126, 174 3
70, 88, 99 3
55, 72, 85 3
64, 82, 93 3
61, 79, 90 3
54, 77, 92 3
102, 130, 171 3
87, 116, 147 3
100, 128, 159 3
98, 126, 160 3
98, 125, 162 3
98, 123, 163 3
41, 55, 61 3
55, 72, 81 3
62, 79, 88 3
53, 69, 81 3
53, 71, 78 3
54, 71, 80 3
91, 119, 149 3
98, 126, 157 3
79, 107, 137 3
64, 84, 95 3
62, 81, 94 3
37, 50, 52 3
36, 49, 51 3
50, 66, 72 3
81, 110, 137 3
50, 68, 75 3
52, 68, 75 3
75, 48, 34 2
74, 47, 37 2
73, 47, 33 2
65, 43, 37 2
70, 40, 35 2
72, 41, 32 2
72, 40, 34 2
63, 43, 32 2
74, 45, 31 2
68, 41, 31 2
62, 39, 31 2
67, 38, 33 2
78, 42, 36 2
79, 43, 37 2
76, 42, 36 2
74, 41, 38 2
68, 42, 30 2
55, 36, 28 2
77, 43, 37 2
70, 47, 32 2
66, 37, 32 2
55, 42, 34 2
69, 40, 33 2
68, 45, 30 2
65, 38, 34 2
68, 39, 32 2
71, 40, 31 2
54, 41, 33 2
64, 45, 32 2
80, 44, 36 2
73, 39, 33 2
53, 38, 29 2
70, 47, 39 2
68, 46, 34 2
77, 41, 33 2
73, 41, 36 2
58, 39, 34 2
62, 42, 37 2
59, 44, 35 2
58, 43, 34 2
72, 49, 41 2
69, 38, 35 2
62, 41, 39 2
75, 47, 40 2
67, 40, 30 2
77, 42, 32 2
70, 44, 30 2
65, 41, 29 2
61, 37, 39 2
53, 34, 37 2
57, 36, 38 2
63, 41, 36 2
54, 37, 28 2
69, 43, 29 2
69, 41, 40 2
66, 43, 41 2
53, 31, 36 2
51, 30, 39 2
53, 32, 47 2
60, 37, 35 2
79, 44, 34 2
67, 41, 29 2
50, 31, 46 2
57, 37, 42 2
60, 39, 37 2
58, 38, 33 2
64, 45, 37 2
50, 33, 47 2
53, 35, 42 2
54, 35, 38 2
57, 38, 35 2
52, 36, 29 2
54, 37, 34 2
53, 38, 36 2
54, 45, 65 2
50, 35, 39 2
51, 35, 28 2
75, 46, 37 2
97, 103, 144 2
95, 99, 134 2
50, 36, 38 2
54, 35, 28 2
79, 41, 36 2
109, 124, 180 2
92, 113, 165 2
91, 100, 138 2
53, 37, 38 2
48, 37, 29 2
81, 41, 36 2
149, 163, 222 2
126, 144, 203 2
115, 135, 190 2
53, 36, 33 2
52, 39, 31 2
79, 42, 38 2
72, 46, 40 2
68, 47, 39 2
67, 46, 38 2
64, 40, 40 2
61, 39, 41 2
69, 44, 40 2
65, 45, 40 2
63, 43, 38 2
45, 28, 41 2
151, 165, 224 2
143, 159, 218 2
128, 148, 203 2
96, 114, 161 2
62, 37, 33 2
71, 44, 40 2
139, 158, 215 2
115, 136, 188 2
49, 36, 50 2
59, 38, 36 2
66, 43, 51 2
64, 44, 43 2
147, 163, 222 2
132, 152, 207 2
93, 110, 159 2
48, 36, 54 2
57, 34, 32 2
56, 33, 31 2
59, 39, 44 2
53, 40, 56 2
142, 159, 216 2
141, 158, 214 2
104, 122, 175 2
56, 35, 37 2
55, 39, 50 2
142, 157, 213 2
107, 122, 178 2
95, 112, 161 2
50, 33, 42 2
58, 33, 31 2
75, 44, 41 2
143, 137, 162 2
123, 123, 147 2
135, 154, 211 2
79, 86, 125 2
51, 34, 45 2
58, 31, 34 2
56, 34, 39 2
89, 78, 94 2
125, 143, 196 2
131, 151, 206 2
60, 77, 128 2
56, 31, 41 2
121, 143, 195 2
132, 153, 208 2
98, 114, 167 2
74, 81, 124 2
75, 78, 116 2
89, 87, 117 2
45, 26, 41 2
94, 107, 133 2
96, 111, 137 2
126, 135, 169 2
122, 143, 194 2
123, 145, 197 2
87, 104, 131 2
123, 138, 177 2
126, 144, 191 2
119, 142, 188 2
120, 143, 191 2
130, 151, 203 2
138, 158, 213 2
98, 96, 125 2
100, 119, 157 2
127, 146, 191 2
120, 141, 186 2
80, 90, 137 2
89, 95, 136 2
116, 132, 174 2
71, 90, 117 2
92, 113, 151 2
110, 132, 174 2
116, 138, 180 2
114, 138, 180 2
122, 145, 190 2
131, 154, 204 2
136, 156, 211 2
121, 141, 196 2
132, 152, 210 2
86, 98, 140 2
93, 100, 143 2
119, 134, 180 2
121, 141, 188 2
122, 141, 186 2
110, 134, 176 2
115, 139, 181 2
121, 145, 187 2
120, 141, 196 2
87, 101, 143 2
90, 104, 146 2
96, 108, 150 2
118, 134, 171 2
121, 137, 184 2
123, 142, 187 2
35, 50, 69 2
48, 64, 80 2
91, 112, 150 2
103, 125, 166 2
132, 157, 207 2
139, 161, 213 2
109, 130, 185 2
130, 150, 207 2
123, 145, 203 2
95, 109, 151 2
98, 112, 154 2
97, 101, 159 2
83, 94, 144 2
84, 95, 139 2
97, 107, 154 2
107, 119, 167 2
95, 107, 149 2
90, 103, 141 2
112, 134, 170 2
112, 133, 171 2
119, 138, 183 2
126, 142, 189 2
122, 144, 192 2
43, 59, 76 2
54, 74, 105 2
57, 78, 110 2
64, 86, 121 2
70, 92, 127 2
92, 111, 148 2
106, 130, 172 2
133, 154, 209 2
91, 104, 148 2
90, 106, 148 2
105, 121, 168 2
89, 107, 144 2
47, 59, 65 2
119, 142, 180 2
114, 140, 177 2
110, 135, 175 2
117, 138, 183 2
106, 123, 162 2
33, 47, 69 2
57, 78, 109 2
61, 82, 114 2
62, 83, 115 2
82, 102, 137 2
90, 110, 145 2
106, 128, 180 2
108, 132, 186 2
97, 114, 153 2
99, 117, 164 2
106, 124, 171 2
110, 130, 178 2
88, 110, 146 2
118, 141, 187 2
114, 140, 186 2
127, 148, 186 2
77, 94, 121 2
29, 45, 58 2
40, 57, 70 2
64, 80, 116 2
62, 81, 116 2
71, 93, 128 2
78, 103, 137 2
91, 117, 154 2
138, 162, 208 2
130, 151, 206 2
75, 96, 148 2
76, 92, 145 2
98, 114, 161 2
35, 44, 94 2
94, 111, 162 2
98, 119, 164 2
101, 119, 150 2
113, 136, 182 2
115, 138, 184 2
117, 140, 186 2
55, 74, 89 2
62, 78, 114 2
76, 101, 135 2
126, 149, 194 2
85, 106, 158 2
100, 116, 163 2
96, 111, 150 2
99, 114, 170 2
98, 113, 169 2
91, 111, 159 2
83, 102, 135 2
116, 139, 185 2
118, 144, 191 2
138, 162, 204 2
134, 156, 197 2
72, 89, 115 2
57, 74, 107 2
56, 73, 106 2
54, 72, 103 2
58, 79, 110 2
77, 102, 136 2
103, 120, 169 2
102, 120, 167 2
76, 92, 129 2
58, 74, 111 2
93, 113, 160 2
92, 111, 149 2
65, 82, 101 2
105, 126, 158 2
119, 145, 192 2
54, 71, 90 2
48, 63, 95 2
52, 73, 101 2
121, 141, 198 2
76, 94, 147 2
98, 118, 166 2
103, 120, 163 2
101, 119, 160 2
57, 73, 110 2
102, 120, 173 2
97, 119, 167 2
94, 117, 162 2
97, 118, 163 2
106, 125, 168 2
93, 112, 149 2
87, 107, 142 2
114, 136, 177 2
118, 141, 189 2
118, 141, 191 2
137, 163, 209 2
52, 71, 86 2
52, 71, 92 2
65, 86, 117 2
81, 107, 143 2
94, 114, 162 2
108, 126, 173 2
92, 109, 148 2
87, 104, 143 2
98, 121, 166 2
99, 118, 156 2
76, 97, 125 2
118, 142, 194 2
64, 85, 113 2
109, 126, 182 2
79, 99, 147 2
108, 127, 170 2
84, 101, 140 2
71, 88, 127 2
80, 96, 143 2
99, 125, 171 2
103, 123, 164 2
91, 110, 147 2
109, 134, 176 2
115, 142, 193 2
119, 143, 195 2
140, 162, 198 2
51, 71, 96 2
63, 84, 112 2
116, 133, 189 2
111, 128, 184 2
97, 116, 159 2
79, 96, 135 2
81, 97, 143 2
101, 126, 176 2
99, 128, 173 2
100, 126, 172 2
83, 103, 134 2
77, 98, 126 2
116, 142, 189 2
143, 166, 204 2
50, 68, 91 2
52, 72, 97 2
77, 98, 143 2
93, 111, 152 2
85, 102, 141 2
82, 97, 136 2
78, 93, 132 2
67, 82, 121 2
106, 134, 181 2
99, 126, 170 2
103, 129, 169 2
121, 148, 199 2
145, 168, 206 2
81, 101, 126 2
45, 65, 82 2
67, 89, 125 2
88, 108, 155 2
111, 130, 181 2
104, 119, 175 2
81, 97, 140 2
85, 100, 139 2
101, 123, 159 2
90, 111, 143 2
80, 101, 129 2
144, 167, 205 2
66, 86, 103 2
64, 84, 109 2
48, 69, 97 2
33, 54, 82 2
36, 45, 72 2
119, 136, 192 2
118, 135, 191 2
80, 96, 138 2
83, 98, 137 2
70, 89, 132 2
102, 131, 176 2
98, 123, 167 2
98, 120, 156 2
86, 107, 138 2
82, 105, 137 2
116, 141, 185 2
124, 151, 201 2
120, 147, 197 2
138, 160, 196 2
101, 122, 153 2
78, 99, 126 2
72, 93, 115 2
62, 81, 108 2
104, 123, 174 2
114, 132, 185 2
119, 139, 194 2
94, 109, 155 2
78, 95, 134 2
64, 83, 126 2
102, 128, 174 2
100, 122, 158 2
123, 151, 198 2
103, 124, 155 2
64, 85, 106 2
41, 49, 78 2
108, 126, 179 2
102, 127, 171 2
96, 121, 163 2
98, 122, 164 2
96, 118, 153 2
90, 113, 145 2
112, 137, 177 2
122, 151, 196 2
100, 119, 170 2
117, 138, 190 2
80, 99, 137 2
79, 98, 136 2
74, 96, 137 2
97, 122, 162 2
94, 119, 159 2
93, 118, 158 2
95, 120, 160 2
97, 120, 152 2
75, 96, 123 2
136, 160, 196 2
69, 88, 115 2
114, 135, 187 2
87, 108, 146 2
82, 101, 139 2
85, 103, 144 2
87, 109, 150 2
89, 111, 152 2
92, 118, 155 2
91, 115, 145 2
138, 165, 209 2
137, 164, 208 2
125, 154, 198 2
135, 159, 195 2
82, 102, 127 2
87, 107, 132 2
121, 142, 194 2
90, 111, 149 2
85, 106, 144 2
86, 106, 147 2
84, 110, 146 2
96, 119, 151 2
109, 135, 172 2
79, 98, 125 2
61, 80, 118 2
90, 112, 153 2
144, 168, 210 2
139, 163, 205 2
138, 159, 204 2
81, 98, 131 2
88, 107, 142 2
51, 64, 96 2
63, 85, 121 2
129, 149, 204 2
133, 152, 209 2
122, 142, 200 2
96, 118, 159 2
93, 114, 152 2
92, 119, 153 2
146, 170, 212 2
86, 103, 136 2
57, 69, 103 2
57, 73, 102 2
84, 105, 136 2
75, 95, 136 2
100, 122, 164 2
91, 117, 153 2
112, 139, 173 2
137, 163, 203 2
132, 155, 200 2
93, 112, 147 2
91, 112, 140 2
122, 140, 193 2
80, 106, 136 2
77, 103, 133 2
78, 101, 127 2
135, 162, 206 2
85, 104, 139 2
112, 135, 181 2
127, 144, 200 2
142, 168, 208 2
127, 153, 199 2
89, 108, 145 2
91, 118, 152 2
148, 173, 217 2
127, 151, 193 2
88, 106, 147 2
111, 136, 180 2
78, 102, 130 2
74, 98, 126 2
148, 173, 215 2
90, 109, 146 2
114, 135, 180 2
100, 122, 163 2
85, 113, 144 2
133, 161, 202 2
136, 158, 200 2
123, 149, 189 2
114, 136, 188 2
88, 116, 151 2
130, 153, 191 2
120, 147, 191 2
122, 148, 188 2
125, 148, 193 2
100, 119, 162 2
72, 94, 135 2
75, 102, 128 2
119, 145, 185 2
129, 153, 195 2
104, 123, 166 2
120, 144, 190 2
89, 117, 151 2
121, 143, 185 2
109, 132, 177 2
121, 144, 192 2
122, 147, 197 2
110, 130, 177 2
83, 105, 140 2
135, 158, 196 2
134, 159, 201 2
117, 143, 183 2
125, 149, 195 2
130, 153, 209 2
109, 131, 183 2
80, 104, 132 2
132, 157, 199 2
118, 144, 190 2
121, 147, 193 2
116, 139, 184 2
125, 148, 196 2
126, 149, 199 2
111, 137, 184 2
80, 106, 130 2
120, 146, 192 2
123, 147, 193 2
118, 143, 193 2
108, 128, 175 2
93, 120, 147 2
114, 139, 181 2
126, 148, 196 2
125, 148, 194 2
126, 149, 195 2
123, 150, 201 2
113, 138, 188 2
112, 135, 185 2
86, 110, 146 2
102, 130, 164 2
100, 128, 162 2
124, 150, 197 2
120, 144, 196 2
107, 130, 180 2
122, 150, 185 2
121, 146, 186 2
110, 138, 173 2
120, 142, 190 2
124, 150, 204 2
102, 125, 171 2
125, 152, 189 2
113, 137, 173 2
112, 134, 175 2
115, 137, 178 2
123, 144, 195 2
126, 145, 196 2
129, 152, 202 2
125, 149, 203 2
114, 138, 190 2
112, 136, 188 2
79, 104, 138 2
115, 141, 178 2
110, 135, 169 2
105, 128, 160 2
104, 127, 159 2
96, 120, 150 2
109, 132, 170 2
120, 140, 187 2
123, 142, 193 2
125, 144, 195 2
124, 145, 196 2
119, 143, 197 2
111, 135, 187 2
80, 103, 135 2
82, 106, 134 2
117, 144, 178 2
106, 129, 161 2
87, 111, 139 2
131, 150, 201 2
128, 149, 201 2
125, 146, 198 2
110, 136, 190 2
80, 105, 137 2
101, 125, 155 2
81, 106, 132 2
80, 105, 131 2
124, 145, 197 2
127, 148, 200 2
108, 134, 188 2
107, 134, 185 2
107, 131, 159 2
81, 103, 128 2
79, 103, 127 2
76, 102, 126 2
127, 149, 201 2
79, 100, 122 2
76, 99, 121 2
123, 146, 202 2
107, 131, 185 2
96, 119, 141 2
95, 117, 142 2
91, 118, 139 2
70, 94, 114 2
110, 134, 188 2
105, 129, 183 2
105, 131, 177 2
104, 130, 176 2
106, 129, 174 2
75, 102, 129 2
78, 101, 116 2
127, 152, 202 2
126, 149, 205 2
101, 125, 179 2
84, 104, 121 2
84, 104, 122 2
78, 101, 117 2
75, 98, 114 2
67, 91, 109 2
104, 128, 180 2
102, 126, 178 2
106, 130, 176 2
104, 129, 173 2
80, 98, 115 2
82, 105, 121 2
79, 102, 118 2
72, 95, 111 2
67, 90, 106 2
63, 86, 102 2
121, 147, 201 2
86, 110, 138 2
63, 81, 92 2
76, 92, 108 2
68, 91, 107 2
106, 129, 179 2
100, 125, 157 2
69, 86, 99 2
71, 86, 102 2
76, 95, 110 2
64, 81, 100 2
119, 145, 199 2
113, 138, 194 2
111, 136, 192 2
104, 127, 175 2
62, 78, 90 2
74, 93, 108 2
72, 93, 108 2
65, 83, 100 2
59, 71, 83 2
58, 70, 82 2
65, 76, 90 2
69, 87, 98 2
62, 79, 92 2
65, 82, 95 2
54, 73, 86 2
120, 150, 191 2
111, 139, 186 2
102, 129, 173 2
97, 123, 159 2
82, 111, 142 2
68, 86, 97 2
61, 78, 91 2
60, 77, 90 2
59, 76, 89 2
84, 108, 130 2
121, 150, 187 2
112, 140, 181 2
101, 129, 170 2
83, 111, 142 2
84, 113, 144 2
52, 65, 73 2
50, 62, 72 2
65, 84, 92 2
68, 87, 95 2
61, 80, 88 2
60, 84, 102 2
101, 130, 167 2
105, 134, 173 2
101, 128, 172 2
100, 129, 173 2
96, 122, 159 2
82, 109, 143 2
45, 58, 66 2
58, 77, 85 2
59, 77, 88 2
55, 73, 84 2
53, 71, 82 2
54, 72, 83 2
61, 77, 89 2
59, 78, 91 2
55, 78, 93 2
55, 78, 94 2
69, 93, 113 2
99, 128, 159 2
95, 123, 158 2
43, 57, 63 2
59, 76, 85 2
57, 73, 85 2
59, 81, 93 2
58, 80, 98 2
75, 99, 121 2
94, 122, 156 2
92, 120, 151 2
97, 125, 160 2
58, 75, 84 2
49, 66, 75 2
58, 78, 89 2
61, 81, 92 2
73, 100, 121 2
97, 124, 158 2
78, 106, 137 2
93, 121, 152 2
54, 72, 79 2
46, 63, 72 2
56, 74, 85 2
68, 94, 111 2
97, 123, 153 2
96, 123, 157 2
107, 133, 169 2
78, 106, 136 2
94, 122, 153 2
41, 54, 56 2
58, 74, 81 2
56, 72, 79 2
53, 69, 76 2
50, 66, 73 2
47, 62, 71 2
60, 78, 89 2
61, 84, 99 2
73, 97, 115 2
76, 99, 125 2
95, 121, 158 2
39, 52, 54 2
35, 48, 50 2
41, 57, 63 2
48, 64, 70 2
45, 61, 67 2
59, 78, 86 2
71, 92, 114 2
86, 114, 144 2
38, 52, 51 2
46, 62, 68 2
51, 67, 73 2
57, 71, 77 2
66, 87, 95 2
62, 82, 99 2
55, 77, 95 2
36, 48, 48 2
44, 61, 64 2
45, 60, 63 2
49, 65, 72 2
61, 80, 95 2
59, 76, 95 2
106, 128, 163 2
83, 112, 139 2
70, 43, 29 1
69, 42, 28 1
62, 42, 31 1
64, 44, 33 1
72, 42, 31 1
64, 39, 35 1
59, 43, 36 1
65, 39, 33 1
81, 45, 39 1
75, 38, 40 1
74, 40, 41 1
73, 39, 39 1
72, 39, 36 1
68, 42, 28 1
64, 38, 31 1
80, 46, 40 1
73, 37, 37 1
75, 39, 39 1
67, 44, 29 1
77, 40, 36 1
76, 41, 37 1
69, 40, 36 1
71, 38, 29 1
57, 36, 28 1
80, 45, 35 1
68, 39, 35 1
75, 39, 31 1
55, 43, 33 1
66, 39, 35 1
54, 35, 32 1
56, 37, 34 1
60, 41, 36 1
57, 45, 35 1
76, 44, 38 1
64, 42, 30 1
71, 39, 33 1
70, 41, 37 1
70, 39, 36 1
54, 36, 37 1
56, 38, 37 1
59, 39, 38 1
60, 40, 39 1
61, 41, 36 1
78, 42, 32 1
72, 41, 38 1
71, 40, 37 1
61, 38, 36 1
61, 37, 37 1
62, 35, 39 1
61, 34, 38 1
58, 37, 36 1
58, 37, 35 1
70, 41, 32 1
72, 50, 38 1
51, 29, 41 1
51, 31, 44 1
51, 33, 46 1
54, 37, 48 1
53, 33, 45 1
54, 33, 42 1
60, 39, 47 1
62, 41, 44 1
57, 36, 35 1
65, 40, 30 1
72, 47, 43 1
70, 48, 37 1
59, 37, 26 1
56, 36, 25 1
50, 29, 32 1
46, 26, 38 1
55, 36, 53 1
59, 42, 63 1
65, 49, 73 1
77, 62, 90 1
82, 67, 95 1
76, 59, 80 1
69, 53, 71 1
59, 41, 58 1
48, 30, 43 1
55, 34, 43 1
59, 38, 41 1
54, 35, 27 1
60, 42, 31 1
59, 40, 35 1
51, 33, 34 1
49, 31, 38 1
49, 32, 46 1
65, 50, 71 1
95, 81, 109 1
116, 102, 136 1
126, 115, 153 1
131, 121, 163 1
126, 116, 159 1
120, 108, 136 1
105, 93, 121 1
86, 73, 99 1
62, 49, 71 1
49, 33, 51 1
53, 36, 47 1
63, 44, 37 1
70, 42, 31 1
56, 40, 34 1
49, 34, 32 1
43, 29, 33 1
47, 33, 44 1
62, 50, 68 1
101, 90, 116 1
131, 122, 155 1
144, 136, 176 1
144, 139, 184 1
137, 132, 183 1
131, 127, 179 1
127, 122, 177 1
124, 120, 156 1
116, 110, 145 1
103, 96, 129 1
87, 79, 109 1
70, 59, 85 1
60, 48, 68 1
55, 39, 56 1
49, 33, 44 1
55, 36, 39 1
69, 50, 43 1
62, 43, 38 1
51, 38, 40 1
44, 33, 41 1
56, 46, 62 1
79, 72, 93 1
122, 117, 148 1
148, 146, 182 1
154, 153, 197 1
144, 143, 193 1
134, 136, 190 1
127, 130, 185 1
123, 125, 183 1
123, 127, 186 1
109, 115, 158 1
106, 110, 151 1
101, 103, 143 1
95, 95, 131 1
87, 82, 113 1
70, 64, 89 1
44, 31, 45 1
51, 35, 46 1
52, 36, 37 1
55, 39, 33 1
75, 43, 32 1
63, 43, 42 1
40, 26, 32 1
43, 33, 45 1
67, 61, 80 1
103, 100, 126 1
130, 131, 165 1
147, 149, 190 1
146, 150, 198 1
141, 147, 200 1
137, 144, 201 1
131, 139, 198 1
122, 133, 191 1
119, 130, 188 1
115, 126, 184 1
100, 114, 163 1
97, 109, 157 1
87, 87, 117 1
68, 64, 89 1
53, 45, 62 1
49, 37, 49 1
49, 34, 42 1
55, 38, 35 1
77, 41, 35 1
65, 40, 44 1
59, 37, 42 1
56, 37, 46 1
68, 53, 67 1
96, 87, 108 1
129, 124, 153 1
151, 151, 187 1
159, 165, 208 1
147, 156, 206 1
139, 151, 205 1
137, 149, 207 1
137, 151, 210 1
134, 148, 207 1
128, 142, 200 1
121, 136, 192 1
89, 108, 159 1
90, 105, 154 1
89, 102, 146 1
96, 98, 132 1
84, 83, 109 1
62, 57, 78 1
50, 41, 54 1
49, 36, 44 1
79, 42, 34 1
78, 42, 34 1
62, 35, 44 1
73, 48, 58 1
98, 78, 91 1
132, 117, 138 1
157, 148, 175 1
164, 160, 195 1
159, 161, 202 1
151, 158, 207 1
150, 161, 218 1
143, 158, 220 1
133, 151, 212 1
98, 116, 169 1
87, 110, 166 1
81, 102, 157 1
73, 94, 145 1
66, 82, 128 1
65, 77, 117 1
84, 90, 125 1
91, 92, 120 1
73, 71, 91 1
52, 45, 60 1
50, 39, 49 1
50, 36, 40 1
53, 41, 31 1
79, 47, 36 1
81, 43, 39 1
78, 43, 39 1
76, 44, 39 1
71, 47, 41 1
71, 50, 42 1
73, 46, 42 1
74, 47, 43 1
68, 40, 39 1
64, 39, 37 1
65, 39, 39 1
64, 42, 44 1
65, 43, 38 1
66, 44, 39 1
68, 47, 45 1
68, 47, 46 1
67, 46, 48 1
63, 43, 48 1
44, 27, 38 1
35, 30, 62 1
68, 64, 99 1
104, 101, 140 1
130, 127, 172 1
145, 144, 194 1
149, 151, 205 1
154, 158, 216 1
155, 163, 223 1
156, 167, 227 1
135, 155, 210 1
114, 135, 190 1
102, 124, 176 1
87, 105, 152 1
72, 91, 136 1
54, 72, 113 1
52, 68, 105 1
77, 87, 121 1
87, 93, 122 1
75, 75, 99 1
50, 35, 49 1
54, 35, 44 1
58, 37, 40 1
60, 40, 29 1
63, 37, 31 1
62, 36, 30 1
55, 33, 27 1
56, 34, 28 1
57, 35, 29 1
56, 36, 31 1
58, 36, 31 1
77, 42, 38 1
66, 45, 37 1
74, 46, 45 1
75, 47, 46 1
66, 42, 44 1
66, 44, 46 1
65, 42, 46 1
63, 42, 45 1
66, 45, 48 1
63, 44, 47 1
70, 49, 48 1
66, 45, 44 1
63, 42, 41 1
60, 39, 41 1
56, 36, 41 1
47, 30, 39 1
59, 43, 60 1
79, 66, 82 1
101, 100, 134 1
123, 121, 157 1
139, 138, 178 1
146, 146, 192 1
146, 150, 199 1
148, 151, 206 1
153, 159, 218 1
156, 166, 226 1
155, 166, 226 1
102, 123, 175 1
95, 113, 160 1
84, 102, 149 1
66, 85, 130 1
46, 64, 105 1
45, 60, 99 1
74, 84, 118 1
88, 93, 124 1
77, 76, 102 1
56, 49, 70 1
52, 35, 44 1
57, 37, 36 1
53, 34, 29 1
53, 33, 28 1
52, 32, 27 1
57, 35, 30 1
60, 35, 31 1
61, 40, 38 1
73, 44, 39 1
63, 38, 36 1
66, 40, 40 1
65, 41, 43 1
64, 40, 42 1
68, 45, 49 1
66, 44, 49 1
71, 50, 58 1
75, 57, 64 1
75, 58, 67 1
76, 59, 68 1
73, 56, 65 1
68, 52, 59 1
61, 46, 50 1
59, 42, 46 1
58, 41, 44 1
58, 39, 42 1
59, 41, 42 1
69, 48, 50 1
64, 43, 46 1
55, 38, 42 1
49, 32, 43 1
48, 33, 47 1
66, 54, 74 1
107, 97, 120 1
143, 134, 160 1
148, 150, 190 1
154, 156, 196 1
152, 155, 199 1
151, 155, 203 1
151, 157, 210 1
152, 159, 214 1
152, 163, 221 1
151, 162, 222 1
101, 122, 174 1
79, 97, 144 1
57, 76, 121 1
37, 54, 97 1
41, 56, 95 1
73, 82, 119 1
89, 94, 125 1
81, 79, 108 1
57, 51, 74 1
49, 32, 45 1
54, 36, 43 1
56, 37, 40 1
54, 38, 32 1
55, 35, 34 1
56, 36, 35 1
62, 37, 35 1
61, 36, 34 1
54, 33, 31 1
64, 41, 39 1
63, 39, 39 1
56, 33, 37 1
71, 51, 63 1
79, 62, 73 1
91, 74, 87 1
103, 89, 101 1
109, 94, 108 1
103, 90, 104 1
94, 81, 95 1
79, 69, 82 1
73, 63, 76 1
62, 52, 64 1
56, 44, 56 1
54, 40, 51 1
52, 37, 45 1
53, 37, 44 1
57, 40, 44 1
52, 34, 41 1
48, 32, 43 1
74, 65, 86 1
110, 105, 132 1
145, 143, 173 1
162, 161, 195 1
148, 155, 198 1
151, 160, 204 1
150, 158, 205 1
148, 157, 207 1
147, 157, 211 1
147, 158, 215 1
151, 163, 221 1
150, 164, 223 1
140, 157, 214 1
140, 157, 213 1
137, 155, 208 1
121, 139, 192 1
92, 109, 158 1
73, 91, 138 1
48, 67, 112 1
33, 50, 93 1
42, 56, 98 1
70, 81, 119 1
86, 93, 126 1
83, 83, 113 1
62, 58, 83 1
49, 40, 61 1
46, 33, 49 1
49, 35, 47 1
51, 34, 43 1
49, 34, 38 1
47, 33, 35 1
51, 32, 35 1
60, 36, 38 1
62, 38, 38 1
62, 40, 42 1
60, 39, 42 1
61, 43, 56 1
74, 57, 71 1
101, 88, 104 1
117, 105, 123 1
132, 121, 141 1
137, 128, 148 1
133, 124, 144 1
121, 115, 134 1
109, 103, 122 1
95, 89, 108 1
83, 81, 100 1
70, 66, 85 1
58, 52, 69 1
51, 44, 59 1
47, 37, 50 1
50, 36, 48 1
58, 41, 52 1
45, 28, 39 1
41, 26, 40 1
52, 40, 58 1
85, 77, 100 1
128, 123, 154 1
159, 159, 195 1
164, 169, 208 1
153, 159, 202 1
139, 153, 201 1
142, 156, 204 1
142, 155, 207 1
143, 157, 210 1
143, 157, 215 1
144, 160, 219 1
134, 153, 210 1
136, 153, 209 1
139, 156, 212 1
125, 140, 196 1
67, 84, 133 1
40, 56, 103 1
31, 47, 93 1
44, 58, 100 1
69, 79, 119 1
84, 90, 127 1
85, 87, 118 1
74, 70, 99 1
59, 53, 78 1
52, 43, 64 1
51, 39, 57 1
46, 34, 46 1
45, 34, 44 1
49, 38, 46 1
51, 32, 41 1
53, 32, 40 1
58, 35, 43 1
56, 33, 41 1
55, 32, 40 1
56, 35, 43 1
53, 33, 38 1
63, 36, 32 1
62, 35, 31 1
59, 34, 30 1
59, 35, 35 1
60, 36, 36 1
63, 37, 37 1
77, 44, 41 1
74, 43, 42 1
72, 42, 41 1
67, 42, 40 1
68, 43, 41 1
45, 25, 30 1
46, 26, 31 1
47, 29, 36 1
55, 38, 49 1
70, 53, 66 1
88, 72, 89 1
108, 96, 116 1
129, 117, 139 1
140, 132, 155 1
139, 135, 160 1
133, 130, 155 1
128, 125, 150 1
118, 118, 142 1
108, 108, 132 1
96, 100, 124 1
84, 86, 110 1
70, 71, 92 1
61, 58, 80 1
52, 47, 68 1
47, 39, 56 1
50, 38, 56 1
44, 32, 50 1
60, 48, 70 1
96, 87, 113 1
143, 138, 169 1
172, 174, 209 1
173, 179, 222 1
156, 166, 213 1
141, 153, 201 1
131, 148, 199 1
132, 149, 200 1
132, 150, 203 1
137, 154, 210 1
140, 159, 216 1
140, 158, 217 1
136, 155, 212 1
134, 151, 207 1
142, 159, 215 1
126, 140, 198 1
110, 124, 182 1
98, 115, 166 1
62, 79, 128 1
31, 47, 94 1
26, 42, 88 1
44, 57, 101 1
66, 75, 118 1
84, 88, 123 1
79, 78, 110 1
70, 66, 95 1
65, 59, 84 1
61, 53, 76 1
60, 51, 71 1
60, 52, 69 1
62, 52, 69 1
66, 56, 72 1
61, 46, 60 1
55, 40, 54 1
52, 31, 46 1
50, 29, 44 1
46, 28, 41 1
47, 29, 42 1
49, 31, 44 1
52, 32, 44 1
52, 33, 42 1
66, 35, 38 1
60, 33, 36 1
59, 32, 35 1
57, 33, 35 1
58, 33, 37 1
57, 32, 36 1
58, 31, 35 1
60, 33, 37 1
63, 36, 40 1
72, 43, 39 1
71, 41, 40 1
72, 41, 42 1
74, 43, 44 1
76, 45, 48 1
74, 44, 49 1
68, 41, 45 1
59, 36, 40 1
62, 48, 60 1
72, 59, 73 1
113, 102, 122 1
130, 122, 145 1
149, 145, 174 1
142, 140, 169 1
135, 135, 165 1
124, 126, 156 1
119, 121, 151 1
117, 121, 149 1
116, 120, 148 1
113, 117, 145 1
106, 111, 136 1
103, 112, 139 1
98, 105, 132 1
88, 92, 120 1
78, 82, 107 1
72, 71, 97 1
60, 57, 82 1
57, 51, 76 1
62, 56, 81 1
87, 81, 106 1
119, 114, 143 1
158, 155, 187 1
179, 180, 218 1
176, 183, 226 1
155, 168, 214 1
136, 150, 202 1
135, 155, 213 1
132, 152, 209 1
135, 152, 209 1
144, 161, 218 1
129, 143, 202 1
115, 129, 188 1
99, 116, 167 1
25, 40, 89 1
20, 36, 83 1
42, 55, 101 1
63, 75, 117 1
76, 84, 124 1
80, 86, 123 1
78, 80, 115 1
75, 74, 106 1
74, 72, 102 1
73, 69, 98 1
74, 69, 96 1
80, 74, 99 1
82, 76, 99 1
84, 78, 101 1
86, 74, 96 1
76, 63, 85 1
61, 48, 70 1
51, 35, 58 1
45, 29, 52 1
43, 25, 48 1
45, 27, 50 1
50, 32, 55 1
55, 40, 61 1
57, 42, 63 1
59, 45, 63 1
58, 44, 62 1
49, 33, 50 1
44, 28, 45 1
44, 27, 41 1
63, 34, 43 1
61, 32, 41 1
57, 32, 42 1
52, 27, 37 1
55, 30, 40 1
57, 33, 41 1
58, 34, 42 1
69, 44, 42 1
67, 40, 43 1
53, 26, 30 1
53, 26, 35 1
60, 36, 48 1
65, 43, 55 1
70, 52, 65 1
81, 64, 77 1
88, 74, 86 1
102, 93, 113 1
118, 109, 129 1
130, 123, 144 1
135, 129, 152 1
138, 135, 161 1
138, 136, 165 1
132, 131, 163 1
126, 128, 162 1
122, 127, 160 1
121, 126, 159 1
116, 123, 156 1
115, 123, 153 1
110, 118, 148 1
104, 112, 141 1
105, 114, 141 1
104, 113, 140 1
100, 112, 140 1
101, 112, 140 1
96, 107, 135 1
95, 103, 132 1
95, 101, 130 1
90, 94, 123 1
91, 93, 123 1
105, 104, 136 1
138, 140, 171 1
169, 171, 206 1
183, 186, 224 1
165, 173, 213 1
144, 157, 203 1
135, 150, 199 1
139, 159, 216 1
144, 159, 221 1
130, 145, 208 1
118, 133, 196 1
23, 37, 89 1
18, 33, 82 1
41, 53, 101 1
63, 74, 118 1
76, 78, 113 1
77, 78, 112 1
77, 76, 108 1
80, 79, 111 1
88, 86, 116 1
93, 85, 115 1
85, 75, 105 1
70, 60, 90 1
60, 48, 78 1
52, 40, 70 1
53, 38, 69 1
64, 49, 80 1
76, 64, 94 1
87, 75, 103 1
89, 77, 105 1
89, 78, 104 1
85, 75, 98 1
74, 64, 87 1
63, 51, 73 1
54, 42, 64 1
50, 37, 59 1
57, 36, 51 1
49, 28, 43 1
52, 35, 49 1
57, 39, 56 1
65, 48, 62 1
72, 55, 69 1
78, 61, 75 1
82, 65, 79 1
83, 66, 80 1
79, 62, 75 1
74, 52, 46 1
70, 48, 42 1
78, 49, 45 1
73, 42, 39 1
66, 42, 42 1
63, 41, 43 1
64, 41, 46 1
75, 53, 65 1
85, 64, 79 1
98, 79, 96 1
107, 91, 109 1
115, 100, 121 1
124, 112, 134 1
133, 124, 145 1
137, 129, 152 1
131, 130, 156 1
134, 132, 161 1
132, 133, 161 1
132, 134, 164 1
133, 135, 169 1
130, 134, 169 1
127, 133, 168 1
122, 130, 167 1
112, 121, 158 1
106, 115, 152 1
103, 113, 147 1
97, 108, 140 1
93, 104, 134 1
94, 106, 134 1
98, 110, 138 1
100, 111, 141 1
104, 115, 147 1
112, 122, 156 1
140, 148, 185 1
153, 160, 199 1
157, 165, 205 1
157, 166, 209 1
149, 162, 206 1
137, 153, 200 1
125, 145, 193 1
143, 161, 222 1
144, 161, 224 1
131, 147, 213 1
116, 132, 198 1
99, 117, 170 1
61, 77, 130 1
25, 42, 93 1
22, 37, 86 1
40, 52, 100 1
62, 72, 119 1
76, 85, 129 1
79, 86, 129 1
77, 83, 124 1
76, 81, 120 1
74, 78, 113 1
79, 81, 116 1
86, 88, 123 1
88, 88, 124 1
84, 84, 120 1
85, 81, 116 1
76, 69, 106 1
66, 59, 96 1
53, 45, 82 1
50, 42, 79 1
56, 48, 85 1
75, 67, 104 1
85, 77, 114 1
93, 86, 121 1
98, 92, 127 1
98, 93, 125 1
93, 87, 118 1
87, 82, 111 1
83, 75, 105 1
76, 69, 96 1
69, 62, 89 1
84, 72, 94 1
73, 61, 83 1
59, 47, 69 1
51, 41, 64 1
55, 45, 68 1
66, 58, 81 1
84, 76, 99 1
97, 89, 112 1
109, 101, 124 1
111, 104, 125 1
112, 105, 126 1
111, 105, 124 1
110, 104, 123 1
107, 101, 120 1
74, 55, 52 1
73, 54, 49 1
77, 57, 52 1
76, 53, 51 1
72, 47, 45 1
67, 39, 38 1
65, 37, 36 1
74, 44, 43 1
63, 40, 38 1
61, 40, 43 1
67, 47, 52 1
81, 62, 71 1
103, 86, 97 1
124, 107, 121 1
130, 114, 132 1
137, 121, 144 1
140, 127, 151 1
134, 125, 152 1
128, 123, 152 1
129, 124, 155 1
125, 125, 155 1
120, 122, 152 1
124, 131, 164 1
128, 134, 169 1
129, 137, 174 1
129, 138, 176 1
124, 135, 173 1
121, 132, 170 1
115, 128, 166 1
106, 119, 157 1
98, 112, 148 1
94, 109, 142 1
86, 101, 133 1
82, 96, 124 1
81, 96, 122 1
81, 97, 120 1
84, 100, 123 1
87, 103, 126 1
88, 103, 129 1
91, 106, 138 1
99, 114, 147 1
108, 124, 161 1
137, 151, 193 1
139, 153, 195 1
142, 155, 199 1
140, 156, 199 1
134, 150, 196 1
124, 147, 195 1
133, 154, 206 1
135, 156, 208 1
140, 157, 220 1
141, 157, 223 1
130, 146, 213 1
119, 134, 203 1
103, 120, 176 1
66, 82, 135 1
30, 46, 99 1
26, 40, 92 1
47, 58, 108 1
68, 78, 126 1
77, 87, 134 1
79, 88, 131 1
82, 89, 132 1
80, 88, 128 1
80, 87, 126 1
86, 91, 130 1
91, 96, 135 1
90, 92, 132 1
81, 83, 123 1
78, 76, 118 1
67, 65, 107 1
58, 54, 96 1
48, 44, 86 1
54, 50, 92 1
66, 61, 106 1
82, 77, 122 1
86, 82, 124 1
89, 87, 129 1
90, 89, 129 1
86, 85, 124 1
80, 79, 118 1
81, 79, 115 1
84, 83, 117 1
88, 85, 117 1
89, 86, 118 1
99, 97, 127 1
99, 99, 129 1
101, 101, 131 1
104, 104, 134 1
107, 109, 139 1
112, 114, 144 1
104, 106, 136 1
104, 107, 135 1
101, 105, 130 1
98, 102, 127 1
98, 100, 124 1
99, 102, 123 1
69, 56, 54 1
72, 57, 55 1
73, 58, 56 1
71, 53, 52 1
71, 51, 50 1
73, 51, 53 1
70, 48, 50 1
71, 47, 49 1
60, 40, 45 1
55, 37, 44 1
52, 36, 43 1
61, 46, 54 1
76, 62, 74 1
105, 95, 112 1
115, 106, 127 1
127, 118, 144 1
126, 121, 150 1
125, 120, 151 1
120, 119, 153 1
118, 120, 155 1
122, 125, 163 1
123, 129, 166 1
121, 128, 167 1
115, 127, 167 1
120, 132, 172 1
122, 134, 174 1
124, 138, 180 1
122, 136, 178 1
118, 133, 172 1
112, 127, 166 1
97, 113, 150 1
81, 96, 128 1
73, 89, 118 1
65, 82, 108 1
66, 82, 105 1
66, 83, 104 1
71, 88, 109 1
75, 91, 114 1
78, 95, 121 1
81, 98, 125 1
82, 100, 131 1
114, 132, 173 1
123, 142, 185 1
126, 145, 188 1
125, 144, 189 1
118, 141, 186 1
126, 150, 196 1
131, 152, 203 1
135, 156, 207 1
137, 158, 210 1
140, 161, 213 1
124, 144, 201 1
131, 150, 211 1
137, 155, 218 1
137, 155, 220 1
130, 147, 214 1
122, 138, 207 1
106, 123, 179 1
73, 90, 146 1
40, 56, 109 1
35, 49, 101 1
53, 67, 116 1
72, 84, 132 1
81, 92, 136 1
86, 95, 138 1
84, 93, 136 1
83, 93, 133 1
86, 94, 134 1
91, 99, 139 1
77, 81, 122 1
70, 70, 116 1
60, 60, 106 1
49, 49, 95 1
46, 43, 92 1
63, 60, 109 1
78, 75, 125 1
89, 86, 136 1
87, 87, 135 1
88, 88, 136 1
83, 86, 131 1
77, 80, 124 1
72, 76, 117 1
74, 76, 116 1
76, 79, 117 1
81, 82, 120 1
83, 85, 120 1
81, 85, 120 1
87, 91, 126 1
100, 103, 141 1
98, 104, 141 1
96, 102, 139 1
94, 100, 137 1
94, 100, 135 1
93, 99, 134 1
92, 99, 132 1
90, 98, 128 1
88, 96, 125 1
86, 95, 122 1
88, 95, 122 1
64, 56, 56 1
59, 51, 52 1
56, 48, 49 1
57, 46, 48 1
66, 52, 56 1
72, 57, 61 1
65, 49, 56 1
61, 43, 50 1
48, 35, 49 1
61, 48, 62 1
78, 67, 83 1
95, 87, 104 1
113, 107, 126 1
123, 120, 142 1
131, 128, 153 1
135, 133, 162 1
122, 121, 153 1
117, 119, 153 1
116, 119, 157 1
117, 122, 161 1
117, 125, 165 1
115, 124, 167 1
115, 127, 169 1
117, 130, 174 1
113, 130, 173 1
117, 134, 177 1
120, 136, 178 1
108, 125, 164 1
93, 109, 146 1
78, 95, 128 1
70, 85, 117 1
62, 79, 106 1
56, 74, 97 1
56, 73, 94 1
57, 74, 93 1
62, 79, 98 1
60, 78, 101 1
67, 84, 110 1
75, 95, 126 1
83, 103, 138 1
114, 136, 178 1
135, 158, 208 1
137, 158, 209 1
139, 160, 212 1
141, 162, 214 1
133, 152, 213 1
130, 150, 215 1
126, 145, 212 1
118, 137, 204 1
104, 123, 180 1
82, 99, 155 1
54, 69, 125 1
47, 61, 114 1
61, 74, 126 1
76, 88, 136 1
82, 92, 139 1
85, 96, 140 1
87, 99, 141 1
85, 97, 139 1
94, 103, 146 1
100, 107, 150 1
90, 97, 140 1
74, 80, 123 1
65, 69, 118 1
54, 58, 107 1
48, 49, 99 1
51, 52, 103 1
72, 73, 124 1
86, 86, 140 1
90, 92, 146 1
88, 90, 144 1
84, 88, 139 1
82, 87, 136 1
78, 83, 132 1
75, 81, 126 1
75, 82, 125 1
77, 82, 121 1
85, 91, 132 1
95, 101, 142 1
97, 103, 146 1
95, 102, 145 1
94, 102, 142 1
90, 99, 137 1
89, 99, 133 1
89, 98, 131 1
87, 97, 127 1
85, 96, 124 1
61, 60, 62 1
50, 49, 51 1
48, 47, 51 1
55, 51, 57 1
56, 51, 60 1
53, 45, 55 1
54, 44, 56 1
64, 54, 66 1
70, 65, 86 1
92, 90, 110 1
114, 112, 134 1
122, 126, 151 1
122, 126, 154 1
117, 125, 155 1
116, 125, 158 1
115, 123, 160 1
114, 123, 161 1
115, 125, 165 1
119, 131, 173 1
120, 133, 177 1
119, 132, 178 1
123, 139, 185 1
118, 136, 177 1
113, 130, 169 1
104, 120, 157 1
72, 87, 119 1
61, 78, 105 1
54, 69, 95 1
47, 64, 85 1
44, 61, 80 1
46, 64, 81 1
53, 71, 88 1
54, 71, 97 1
60, 79, 106 1
65, 86, 114 1
70, 91, 123 1
76, 98, 133 1
133, 156, 206 1
134, 157, 207 1
137, 159, 211 1
140, 162, 214 1
141, 161, 216 1
125, 146, 207 1
125, 146, 208 1
121, 141, 206 1
112, 132, 197 1
101, 120, 177 1
84, 101, 158 1
63, 78, 134 1
58, 72, 125 1
70, 83, 135 1
80, 92, 140 1
85, 95, 142 1
88, 99, 143 1
86, 100, 142 1
88, 102, 144 1
100, 109, 152 1
91, 98, 141 1
64, 68, 119 1
51, 55, 106 1
48, 52, 103 1
62, 64, 118 1
86, 88, 142 1
93, 96, 151 1
95, 98, 153 1
90, 95, 150 1
89, 94, 149 1
84, 92, 145 1
81, 90, 140 1
80, 90, 138 1
81, 90, 134 1
83, 90, 133 1
84, 92, 132 1
89, 95, 140 1
93, 99, 144 1
97, 103, 148 1
95, 104, 147 1
91, 101, 141 1
87, 98, 136 1
86, 96, 130 1
84, 95, 127 1
82, 93, 123 1
53, 58, 61 1
46, 50, 55 1
44, 50, 57 1
45, 50, 59 1
48, 50, 61 1
51, 52, 66 1
65, 64, 80 1
84, 83, 99 1
105, 108, 136 1
117, 121, 150 1
124, 130, 159 1
120, 130, 160 1
121, 132, 164 1
120, 135, 168 1
119, 135, 171 1
112, 129, 168 1
115, 131, 173 1
118, 134, 177 1
118, 133, 179 1
120, 136, 183 1
120, 143, 189 1
123, 143, 190 1
122, 142, 189 1
121, 138, 181 1
107, 124, 163 1
94, 110, 146 1
73, 88, 121 1
62, 76, 105 1
53, 67, 95 1
35, 52, 73 1
39, 55, 72 1
52, 71, 98 1
56, 77, 105 1
61, 81, 112 1
64, 85, 117 1
68, 90, 125 1
76, 98, 134 1
101, 122, 160 1
111, 135, 177 1
135, 159, 211 1
139, 160, 215 1
118, 139, 200 1
107, 128, 190 1
93, 111, 170 1
79, 96, 153 1
65, 80, 136 1
67, 81, 134 1
78, 91, 143 1
86, 98, 146 1
89, 99, 146 1
87, 100, 144 1
89, 103, 145 1
91, 107, 149 1
98, 110, 152 1
87, 96, 139 1
72, 78, 123 1
61, 65, 116 1
46, 50, 101 1
51, 55, 108 1
74, 78, 131 1
97, 100, 155 1
100, 102, 160 1
92, 99, 156 1
90, 100, 154 1
88, 98, 152 1
85, 96, 148 1
83, 96, 142 1
88, 97, 140 1
92, 102, 149 1
103, 113, 161 1
105, 117, 165 1
104, 117, 163 1
101, 114, 160 1
97, 110, 154 1
85, 99, 135 1
84, 97, 129 1
81, 95, 124 1
44, 53, 57 1
42, 52, 59 1
42, 52, 62 1
44, 53, 66 1
54, 63, 77 1
74, 81, 98 1
92, 98, 117 1
108, 112, 131 1
111, 121, 155 1
116, 128, 162 1
118, 133, 166 1
116, 132, 168 1
114, 134, 169 1
114, 133, 176 1
121, 140, 185 1
124, 140, 187 1
123, 140, 189 1
125, 145, 192 1
124, 144, 191 1
124, 143, 188 1
111, 127, 169 1
98, 114, 151 1
81, 95, 131 1
60, 73, 105 1
49, 63, 91 1
45, 58, 84 1
40, 54, 76 1
37, 53, 70 1
52, 68, 84 1
50, 70, 101 1
60, 81, 113 1
78, 100, 135 1
85, 107, 142 1
88, 108, 143 1
112, 137, 181 1
116, 146, 195 1
124, 154, 203 1
130, 157, 208 1
133, 160, 211 1
137, 161, 215 1
136, 160, 214 1
113, 135, 187 1
109, 131, 189 1
98, 120, 178 1
82, 100, 159 1
68, 87, 144 1
65, 79, 137 1
73, 87, 140 1
83, 96, 148 1
90, 102, 150 1
94, 104, 151 1
96, 113, 152 1
83, 92, 135 1
68, 75, 118 1
52, 59, 109 1
43, 50, 100 1
60, 64, 117 1
86, 90, 143 1
102, 105, 160 1
99, 103, 161 1
97, 104, 161 1
95, 102, 159 1
90, 99, 156 1
88, 100, 154 1
87, 100, 152 1
86, 100, 149 1
86, 100, 148 1
88, 101, 147 1
91, 102, 146 1
93, 105, 147 1
89, 105, 152 1
95, 111, 158 1
101, 117, 164 1
108, 124, 171 1
109, 125, 172 1
101, 117, 163 1
95, 112, 155 1
84, 103, 138 1
80, 98, 129 1
76, 94, 123 1
44, 57, 65 1
52, 64, 74 1
62, 75, 89 1
78, 91, 107 1
96, 106, 124 1
108, 117, 137 1
121, 129, 152 1
120, 134, 170 1
120, 136, 172 1
120, 138, 175 1
119, 141, 177 1
110, 135, 177 1
116, 140, 182 1
121, 139, 186 1
124, 142, 189 1
132, 148, 195 1
136, 152, 199 1
129, 151, 199 1
131, 151, 198 1
69, 81, 115 1
46, 59, 91 1
38, 50, 78 1
33, 47, 70 1
36, 51, 70 1
50, 66, 83 1
57, 73, 89 1
59, 80, 112 1
63, 85, 120 1
66, 88, 123 1
73, 93, 128 1
80, 100, 135 1
105, 130, 174 1
107, 134, 178 1
113, 143, 192 1
123, 153, 202 1
130, 159, 210 1
135, 162, 213 1
134, 160, 214 1
135, 159, 213 1
130, 154, 208 1
104, 126, 178 1
115, 136, 191 1
102, 125, 181 1
95, 118, 174 1
86, 108, 166 1
72, 90, 149 1
62, 80, 139 1
66, 80, 138 1
77, 91, 144 1
85, 98, 150 1
91, 103, 151 1
96, 109, 153 1
99, 113, 155 1
82, 91, 134 1
65, 74, 117 1
49, 56, 106 1
46, 53, 103 1
69, 75, 128 1
96, 99, 154 1
102, 107, 162 1
98, 105, 162 1
96, 105, 162 1
90, 101, 158 1
91, 103, 157 1
90, 103, 155 1
88, 102, 151 1
87, 101, 149 1
89, 102, 148 1
94, 107, 151 1
93, 111, 158 1
108, 128, 176 1
106, 126, 173 1
95, 114, 157 1
76, 97, 128 1
73, 94, 121 1
49, 61, 73 1
53, 68, 84 1
63, 78, 97 1
76, 91, 117 1
91, 107, 136 1
102, 119, 152 1
111, 127, 163 1
113, 134, 179 1
114, 137, 182 1
115, 141, 187 1
115, 143, 190 1
116, 144, 191 1
131, 156, 196 1
119, 139, 174 1
103, 121, 152 1
54, 68, 91 1
39, 54, 73 1
32, 47, 63 1
34, 50, 63 1
59, 75, 91 1
66, 84, 101 1
63, 82, 115 1
66, 85, 118 1
69, 90, 122 1
71, 92, 124 1
83, 109, 145 1
92, 119, 156 1
95, 122, 159 1
106, 132, 172 1
140, 163, 213 1
111, 132, 187 1
99, 120, 175 1
95, 117, 169 1
99, 121, 173 1
99, 120, 172 1
94, 115, 167 1
86, 107, 159 1
72, 88, 141 1
71, 87, 140 1
83, 100, 151 1
87, 104, 153 1
95, 110, 159 1
98, 113, 159 1
97, 113, 156 1
97, 111, 153 1
99, 114, 153 1
97, 112, 151 1
94, 107, 145 1
80, 93, 131 1
61, 74, 112 1
47, 58, 110 1
80, 91, 143 1
97, 107, 161 1
93, 104, 161 1
95, 107, 165 1
98, 110, 168 1
95, 110, 166 1
94, 110, 163 1
90, 111, 156 1
111, 130, 175 1
109, 128, 173 1
51, 64, 78 1
62, 76, 94 1
74, 91, 112 1
112, 128, 164 1
116, 134, 171 1
121, 138, 177 1
137, 161, 203 1
133, 155, 196 1
118, 138, 173 1
73, 90, 117 1
49, 63, 85 1
32, 48, 65 1
29, 44, 60 1
28, 44, 57 1
33, 49, 62 1
49, 65, 81 1
61, 79, 96 1
62, 79, 112 1
61, 78, 111 1
58, 77, 110 1
60, 79, 112 1
65, 86, 118 1
64, 87, 119 1
73, 95, 130 1
79, 105, 141 1
87, 114, 151 1
90, 117, 154 1
100, 127, 164 1
111, 134, 179 1
134, 158, 204 1
138, 161, 211 1
136, 158, 210 1
113, 134, 189 1
100, 121, 176 1
93, 115, 167 1
91, 113, 165 1
79, 100, 152 1
70, 91, 143 1
80, 96, 149 1
86, 103, 154 1
92, 109, 160 1
98, 114, 160 1
98, 114, 157 1
96, 110, 152 1
98, 113, 152 1
92, 108, 145 1
77, 93, 130 1
60, 73, 111 1
49, 60, 110 1
82, 93, 145 1
96, 108, 162 1
94, 105, 162 1
97, 110, 166 1
97, 113, 166 1
93, 112, 163 1
90, 110, 157 1
91, 112, 157 1
93, 114, 159 1
95, 116, 161 1
98, 117, 162 1
100, 121, 166 1
110, 129, 174 1
106, 125, 170 1
97, 115, 156 1
57, 72, 88 1
71, 88, 107 1
87, 104, 130 1
99, 117, 146 1
110, 129, 162 1
117, 136, 173 1
120, 138, 179 1
121, 141, 182 1
130, 156, 203 1
133, 159, 206 1
130, 152, 188 1
122, 141, 176 1
102, 120, 151 1
44, 61, 82 1
27, 43, 60 1
27, 42, 58 1
33, 50, 63 1
41, 57, 73 1
49, 68, 83 1
54, 72, 89 1
55, 72, 91 1
53, 73, 104 1
55, 75, 106 1
74, 97, 129 1
84, 111, 148 1
94, 121, 158 1
120, 143, 188 1
129, 152, 198 1
132, 155, 205 1
131, 153, 205 1
107, 128, 183 1
98, 120, 172 1
80, 101, 153 1
73, 94, 146 1
72, 93, 145 1
74, 92, 145 1
80, 98, 151 1
88, 107, 158 1
97, 114, 165 1
101, 118, 167 1
102, 118, 164 1
101, 118, 161 1
99, 116, 159 1
95, 111, 153 1
91, 107, 144 1
32, 44, 92 1
52, 63, 113 1
95, 108, 160 1
94, 108, 161 1
97, 112, 168 1
102, 117, 173 1
100, 118, 171 1
98, 117, 168 1
96, 116, 164 1
92, 112, 159 1
96, 117, 162 1
101, 120, 165 1
78, 98, 129 1
82, 100, 123 1
95, 116, 144 1
118, 138, 179 1
118, 139, 184 1
116, 139, 187 1
117, 145, 192 1
134, 160, 207 1
140, 164, 206 1
132, 154, 190 1
124, 143, 176 1
104, 122, 151 1
43, 60, 79 1
27, 43, 59 1
27, 44, 57 1
31, 48, 61 1
39, 56, 69 1
45, 64, 79 1
51, 69, 86 1
51, 71, 89 1
53, 68, 100 1
51, 66, 98 1
48, 64, 93 1
47, 65, 94 1
49, 67, 96 1
51, 69, 98 1
51, 72, 100 1
62, 83, 114 1
68, 91, 123 1
71, 96, 128 1
74, 100, 136 1
78, 104, 140 1
122, 145, 191 1
127, 149, 197 1
108, 129, 184 1
103, 123, 178 1
97, 118, 170 1
78, 96, 149 1
82, 101, 152 1
92, 111, 162 1
102, 121, 166 1
96, 112, 154 1
90, 106, 143 1
31, 44, 90 1
54, 66, 114 1
81, 95, 144 1
94, 107, 159 1
94, 108, 160 1
100, 121, 173 1
99, 120, 171 1
95, 118, 164 1
103, 124, 156 1
109, 131, 167 1
133, 156, 194 1
131, 153, 189 1
122, 141, 174 1
100, 119, 146 1
69, 87, 110 1
40, 57, 76 1
29, 45, 61 1
28, 45, 58 1
35, 52, 65 1
44, 63, 76 1
51, 65, 94 1
45, 59, 88 1
41, 55, 84 1
41, 55, 83 1
43, 60, 87 1
45, 62, 89 1
48, 65, 92 1
48, 67, 94 1
46, 67, 94 1
57, 78, 106 1
67, 91, 121 1
69, 92, 124 1
67, 92, 126 1
72, 96, 132 1
123, 144, 196 1
110, 130, 185 1
106, 126, 181 1
102, 122, 177 1
95, 113, 166 1
85, 102, 158 1
79, 96, 152 1
76, 93, 149 1
77, 97, 145 1
87, 107, 155 1
94, 112, 153 1
73, 91, 128 1
33, 46, 92 1
58, 71, 117 1
81, 95, 143 1
92, 107, 156 1
97, 116, 167 1
101, 122, 173 1
101, 124, 174 1
99, 122, 170 1
98, 122, 168 1
109, 128, 171 1
76, 98, 123 1
92, 113, 144 1
109, 134, 174 1
116, 143, 193 1
117, 144, 194 1
125, 153, 200 1
139, 163, 209 1
141, 165, 211 1
143, 168, 208 1
141, 163, 204 1
137, 158, 196 1
132, 152, 187 1
117, 137, 168 1
94, 113, 140 1
66, 85, 106 1
39, 57, 74 1
29, 48, 63 1
32, 49, 62 1
39, 58, 71 1
56, 75, 96 1
53, 71, 94 1
49, 70, 92 1
47, 61, 89 1
39, 53, 81 1
32, 46, 74 1
32, 47, 73 1
37, 52, 78 1
41, 56, 82 1
42, 60, 83 1
45, 62, 88 1
50, 70, 95 1
59, 78, 105 1
67, 88, 119 1
71, 96, 130 1
112, 132, 179 1
111, 131, 186 1
102, 119, 175 1
92, 109, 165 1
83, 100, 156 1
79, 94, 150 1
72, 92, 140 1
89, 107, 154 1
91, 110, 148 1
54, 71, 110 1
34, 47, 91 1
59, 74, 120 1
90, 108, 155 1
97, 118, 169 1
102, 125, 175 1
102, 127, 177 1
100, 126, 173 1
100, 125, 169 1
107, 126, 169 1
115, 142, 192 1
116, 142, 196 1
140, 164, 210 1
146, 168, 209 1
143, 165, 206 1
133, 153, 188 1
113, 133, 164 1
88, 108, 133 1
64, 83, 104 1
42, 60, 77 1
33, 52, 65 1
38, 57, 70 1
48, 67, 80 1
60, 79, 94 1
60, 79, 100 1
45, 65, 90 1
43, 56, 82 1
34, 47, 73 1
26, 39, 65 1
26, 40, 63 1
30, 44, 67 1
35, 49, 72 1
39, 56, 77 1
52, 70, 93 1
56, 76, 101 1
61, 80, 107 1
65, 88, 120 1
82, 104, 146 1
107, 127, 174 1
115, 134, 185 1
118, 139, 191 1
104, 121, 177 1
96, 113, 169 1
89, 104, 160 1
81, 96, 152 1
78, 96, 143 1
77, 95, 142 1
82, 100, 147 1
90, 109, 154 1
102, 119, 162 1
102, 120, 161 1
95, 114, 152 1
70, 85, 124 1
54, 69, 108 1
33, 49, 92 1
61, 77, 120 1
91, 109, 156 1
93, 115, 163 1
95, 118, 168 1
101, 129, 176 1
101, 126, 170 1
104, 125, 170 1
107, 127, 168 1
110, 135, 179 1
118, 144, 198 1
118, 146, 200 1
128, 154, 200 1
144, 166, 207 1
141, 163, 199 1
132, 153, 185 1
108, 129, 157 1
83, 103, 128 1
62, 81, 102 1
42, 62, 79 1
37, 56, 71 1
45, 64, 77 1
67, 87, 105 1
61, 82, 104 1
41, 60, 87 1
38, 49, 76 1
29, 40, 67 1
21, 33, 57 1
20, 32, 56 1
24, 37, 59 1
29, 43, 65 1
38, 52, 74 1
45, 59, 81 1
48, 65, 86 1
55, 76, 104 1
112, 131, 182 1
120, 137, 193 1
114, 131, 187 1
107, 124, 180 1
103, 118, 174 1
94, 109, 165 1
86, 101, 157 1
87, 103, 150 1
78, 94, 140 1
82, 98, 144 1
87, 104, 147 1
100, 117, 156 1
98, 115, 154 1
91, 108, 147 1
52, 67, 106 1
32, 48, 91 1
61, 78, 121 1
79, 98, 143 1
94, 116, 164 1
95, 118, 166 1
100, 129, 174 1
108, 128, 169 1
104, 125, 163 1
100, 121, 159 1
91, 111, 146 1
84, 104, 135 1
121, 149, 203 1
116, 145, 196 1
129, 155, 201 1
143, 165, 201 1
128, 149, 181 1
103, 124, 152 1
60, 81, 102 1
40, 61, 76 1
51, 72, 87 1
60, 81, 96 1
69, 89, 106 1
70, 91, 112 1
63, 83, 108 1
50, 69, 96 1
34, 55, 83 1
34, 45, 72 1
24, 36, 60 1
19, 31, 55 1
21, 34, 56 1
26, 39, 61 1
31, 45, 64 1
36, 50, 69 1
37, 52, 71 1
42, 56, 78 1
49, 66, 92 1
53, 72, 99 1
61, 83, 118 1
75, 96, 141 1
100, 120, 168 1
118, 136, 189 1
121, 138, 194 1
93, 108, 164 1
91, 107, 154 1
85, 101, 148 1
80, 96, 142 1
84, 100, 142 1
90, 105, 144 1
55, 70, 109 1
45, 62, 105 1
67, 84, 127 1
84, 103, 148 1
94, 114, 161 1
96, 118, 166 1
96, 122, 169 1
104, 130, 177 1
97, 123, 169 1
99, 124, 168 1
100, 123, 169 1
103, 123, 170 1
105, 125, 172 1
109, 131, 172 1
105, 126, 164 1
84, 108, 138 1
104, 130, 170 1
122, 149, 199 1
124, 151, 202 1
122, 149, 200 1
126, 147, 179 1
102, 122, 153 1
59, 80, 102 1
44, 64, 82 1
71, 93, 111 1
28, 38, 62 1
21, 31, 55 1
22, 33, 55 1
25, 36, 58 1
29, 40, 60 1
28, 42, 61 1
29, 43, 62 1
53, 70, 96 1
57, 75, 104 1
58, 78, 109 1
56, 76, 111 1
59, 78, 115 1
75, 95, 142 1
101, 121, 169 1
122, 139, 195 1
101, 116, 172 1
96, 111, 167 1
92, 106, 154 1
87, 102, 148 1
84, 99, 145 1
82, 99, 138 1
86, 103, 142 1
92, 107, 146 1
89, 104, 143 1
80, 95, 134 1
73, 87, 129 1
63, 77, 119 1
55, 72, 115 1
85, 104, 149 1
103, 129, 176 1
98, 127, 172 1
102, 122, 169 1
102, 124, 160 1
81, 102, 130 1
107, 132, 172 1
127, 154, 204 1
127, 154, 205 1
123, 150, 200 1
121, 148, 198 1
118, 148, 195 1
119, 149, 196 1
142, 166, 202 1
124, 145, 177 1
58, 78, 103 1
44, 65, 86 1
48, 68, 86 1
61, 81, 98 1
71, 91, 109 1
74, 95, 116 1
47, 68, 96 1
29, 38, 65 1
22, 32, 56 1
21, 32, 54 1
24, 35, 57 1
26, 37, 57 1
27, 38, 58 1
26, 40, 59 1
32, 46, 68 1
50, 66, 89 1
58, 75, 101 1
60, 78, 107 1
61, 80, 113 1
54, 74, 109 1
53, 74, 112 1
67, 88, 126 1
77, 97, 144 1
123, 140, 196 1
113, 130, 186 1
101, 115, 163 1
89, 104, 150 1
82, 98, 141 1
78, 94, 136 1
80, 97, 136 1
87, 102, 141 1
86, 101, 140 1
81, 96, 135 1
81, 95, 137 1
77, 91, 133 1
71, 85, 127 1
76, 95, 138 1
82, 103, 148 1
88, 111, 157 1
96, 119, 165 1
102, 128, 175 1
97, 122, 166 1
91, 114, 146 1
89, 110, 142 1
87, 108, 139 1
82, 103, 131 1
125, 152, 202 1
143, 167, 203 1
141, 165, 201 1
137, 159, 195 1
123, 145, 180 1
58, 79, 106 1
47, 68, 90 1
50, 71, 92 1
75, 96, 117 1
35, 56, 84 1
37, 46, 73 1
30, 39, 66 1
29, 39, 63 1
36, 47, 69 1
41, 52, 72 1
42, 53, 73 1
41, 55, 74 1
44, 58, 80 1
59, 75, 98 1
64, 81, 108 1
62, 80, 111 1
59, 78, 113 1
52, 71, 108 1
52, 72, 113 1
67, 87, 128 1
95, 115, 163 1
108, 127, 178 1
113, 131, 184 1
105, 121, 174 1
101, 117, 170 1
102, 116, 165 1
100, 114, 162 1
88, 104, 147 1
83, 99, 141 1
81, 98, 137 1
79, 95, 137 1
77, 93, 135 1
74, 90, 132 1
69, 91, 132 1
77, 99, 141 1
81, 103, 145 1
85, 108, 153 1
93, 116, 162 1
97, 121, 167 1
101, 125, 171 1
99, 124, 166 1
97, 121, 163 1
87, 111, 141 1
81, 102, 129 1
127, 155, 202 1
126, 154, 201 1
140, 164, 200 1
139, 163, 199 1
125, 147, 182 1
106, 127, 159 1
80, 101, 132 1
60, 81, 109 1
56, 77, 99 1
69, 90, 112 1
78, 99, 120 1
80, 101, 123 1
76, 96, 121 1
66, 85, 112 1
40, 61, 89 1
44, 52, 81 1
34, 43, 70 1
37, 47, 71 1
52, 62, 86 1
61, 72, 94 1
59, 70, 92 1
54, 67, 89 1
58, 72, 95 1
67, 82, 108 1
71, 87, 116 1
65, 82, 115 1
56, 74, 111 1
50, 69, 107 1
55, 74, 117 1
83, 103, 151 1
115, 133, 186 1
110, 128, 181 1
105, 123, 176 1
103, 118, 167 1
100, 115, 164 1
96, 112, 158 1
92, 109, 152 1
89, 106, 149 1
87, 105, 146 1
87, 106, 144 1
86, 105, 143 1
83, 102, 140 1
79, 97, 138 1
81, 103, 144 1
83, 105, 147 1
84, 108, 150 1
90, 113, 158 1
100, 124, 166 1
88, 110, 145 1
115, 140, 180 1
134, 160, 196 1
129, 151, 186 1
112, 132, 167 1
56, 77, 104 1
62, 82, 107 1
74, 94, 119 1
82, 103, 125 1
85, 106, 128 1
56, 74, 103 1
42, 63, 91 1
50, 60, 90 1
46, 56, 86 1
40, 48, 77 1
46, 55, 82 1
68, 78, 102 1
80, 91, 113 1
73, 84, 106 1
65, 78, 100 1
67, 81, 104 1
73, 87, 115 1
76, 92, 121 1
68, 85, 118 1
55, 73, 110 1
52, 70, 111 1
63, 82, 127 1
90, 109, 160 1
104, 125, 176 1
133, 153, 211 1
119, 140, 192 1
117, 135, 188 1
112, 130, 183 1
103, 120, 171 1
100, 117, 166 1
97, 114, 163 1
93, 112, 157 1
91, 110, 153 1
89, 109, 150 1
88, 109, 147 1
83, 104, 142 1
83, 101, 142 1
86, 104, 145 1
80, 103, 141 1
86, 109, 147 1
91, 113, 155 1
93, 119, 156 1
82, 104, 132 1
129, 154, 196 1
134, 156, 192 1
119, 141, 176 1
94, 115, 147 1
71, 91, 122 1
77, 97, 122 1
58, 76, 105 1
48, 66, 95 1
52, 61, 94 1
51, 61, 91 1
45, 53, 82 1
48, 57, 84 1
69, 78, 105 1
81, 91, 115 1
75, 85, 109 1
69, 81, 105 1
74, 87, 113 1
77, 91, 119 1
77, 92, 124 1
69, 85, 121 1
58, 75, 114 1
57, 76, 119 1
74, 93, 138 1
96, 117, 168 1
131, 151, 209 1
109, 127, 180 1
105, 124, 175 1
104, 121, 172 1
102, 119, 168 1
99, 116, 165 1
98, 116, 163 1
95, 114, 159 1
93, 112, 155 1
92, 112, 153 1
87, 107, 148 1
88, 108, 149 1
88, 107, 150 1
131, 156, 198 1
126, 148, 183 1
101, 121, 156 1
78, 97, 130 1
68, 89, 117 1
75, 94, 121 1
85, 105, 130 1
74, 93, 120 1
63, 81, 110 1
54, 72, 101 1
55, 64, 97 1
57, 67, 97 1
48, 58, 88 1
49, 57, 86 1
66, 75, 102 1
77, 87, 111 1
76, 86, 110 1
75, 87, 111 1
81, 94, 120 1
80, 94, 122 1
76, 91, 123 1
68, 84, 120 1
81, 99, 146 1
96, 116, 163 1
102, 123, 174 1
125, 145, 202 1
114, 133, 184 1
109, 128, 179 1
102, 121, 172 1
97, 117, 164 1
89, 112, 150 1
90, 114, 144 1
106, 131, 165 1
132, 158, 198 1
131, 160, 204 1
134, 157, 202 1
130, 149, 192 1
110, 128, 169 1
83, 99, 136 1
79, 96, 129 1
85, 102, 135 1
89, 106, 139 1
80, 98, 135 1
67, 84, 123 1
56, 75, 113 1
59, 69, 103 1
56, 68, 102 1
50, 64, 93 1
60, 74, 103 1
70, 87, 114 1
77, 96, 123 1
81, 101, 132 1
73, 94, 126 1
64, 85, 123 1
75, 97, 139 1
113, 132, 183 1
117, 136, 187 1
129, 149, 207 1
125, 145, 203 1
120, 140, 197 1
106, 127, 179 1
95, 117, 158 1
90, 112, 148 1
107, 134, 168 1
124, 150, 187 1
134, 160, 200 1
139, 160, 205 1
136, 155, 198 1
119, 137, 178 1
83, 101, 138 1
79, 95, 131 1
91, 108, 141 1
92, 111, 146 1
85, 103, 140 1
58, 77, 115 1
58, 70, 104 1
49, 62, 94 1
70, 86, 115 1
80, 97, 124 1
83, 102, 129 1
77, 97, 132 1
70, 92, 128 1
116, 135, 186 1
126, 146, 204 1
108, 129, 181 1
79, 101, 129 1
128, 154, 191 1
147, 171, 213 1
129, 147, 188 1
86, 104, 141 1
81, 97, 133 1
83, 100, 133 1
92, 109, 142 1
76, 93, 132 1
60, 72, 108 1
52, 64, 98 1
72, 88, 117 1
82, 100, 129 1
79, 101, 136 1
80, 102, 138 1
110, 133, 179 1
127, 145, 204 1
118, 144, 180 1
133, 159, 196 1
141, 167, 207 1
144, 169, 211 1
136, 157, 202 1
133, 153, 194 1
113, 132, 170 1
86, 105, 138 1
67, 86, 124 1
61, 75, 111 1
56, 70, 106 1
49, 64, 97 1
48, 63, 96 1
56, 74, 105 1
72, 90, 119 1
86, 104, 133 1
90, 111, 142 1
88, 109, 141 1
88, 111, 149 1
124, 142, 195 1
78, 100, 128 1
121, 147, 183 1
135, 162, 199 1
144, 169, 213 1
135, 156, 201 1
137, 157, 198 1
121, 139, 180 1
87, 106, 141 1
86, 105, 140 1
92, 110, 147 1
84, 103, 141 1
74, 93, 131 1
63, 79, 115 1
54, 70, 106 1
45, 61, 97 1
44, 61, 94 1
72, 92, 123 1
87, 107, 138 1
93, 114, 145 1
92, 113, 145 1
90, 112, 147 1
105, 129, 171 1
110, 133, 178 1
124, 141, 197 1
77, 99, 127 1
123, 149, 185 1
127, 147, 188 1
112, 131, 169 1
94, 113, 150 1
88, 106, 143 1
85, 104, 142 1
77, 95, 136 1
69, 85, 122 1
44, 63, 98 1
42, 61, 96 1
52, 71, 104 1
71, 90, 123 1
87, 108, 140 1
96, 117, 149 1
108, 131, 176 1
113, 137, 183 1
128, 145, 201 1
130, 147, 203 1
129, 147, 206 1
96, 117, 155 1
76, 98, 126 1
126, 152, 188 1
139, 165, 205 1
142, 167, 211 1
137, 159, 201 1
140, 162, 204 1
135, 155, 196 1
123, 144, 182 1
105, 124, 162 1
81, 99, 140 1
75, 92, 131 1
63, 81, 118 1
52, 70, 107 1
46, 65, 102 1
51, 71, 106 1
68, 88, 123 1
130, 156, 193 1
124, 148, 190 1
139, 161, 203 1
132, 152, 193 1
117, 138, 176 1
94, 113, 151 1
69, 88, 126 1
59, 78, 116 1
53, 72, 109 1
52, 74, 110 1
64, 86, 122 1
81, 103, 139 1
108, 133, 177 1
75, 99, 127 1
125, 151, 188 1
136, 162, 202 1
143, 168, 212 1
127, 150, 195 1
123, 145, 186 1
93, 110, 153 1
66, 87, 125 1
58, 79, 117 1
56, 77, 115 1
74, 98, 134 1
119, 139, 196 1
126, 152, 189 1
134, 156, 198 1
132, 154, 195 1
120, 142, 183 1
95, 115, 156 1
96, 115, 158 1
91, 111, 152 1
81, 101, 142 1
73, 93, 134 1
65, 85, 126 1
58, 81, 119 1
62, 85, 123 1
74, 97, 135 1
108, 132, 174 1
113, 138, 182 1
122, 142, 199 1
141, 166, 208 1
128, 151, 196 1
133, 157, 199 1
129, 151, 192 1
118, 140, 181 1
98, 118, 159 1
97, 117, 158 1
92, 114, 156 1
80, 102, 143 1
65, 87, 128 1
64, 86, 127 1
75, 97, 138 1
89, 114, 154 1
127, 147, 204 1
117, 138, 193 1
116, 138, 190 1
112, 134, 186 1
131, 155, 197 1
123, 147, 189 1
105, 124, 167 1
87, 109, 151 1
82, 104, 145 1
78, 103, 143 1
93, 117, 159 1
107, 131, 173 1
118, 140, 192 1
115, 138, 188 1
86, 111, 145 1
75, 103, 127 1
132, 155, 193 1
124, 151, 195 1
124, 148, 194 1
112, 134, 176 1
112, 131, 174 1
111, 130, 173 1
81, 105, 147 1
87, 111, 153 1
127, 152, 208 1
120, 143, 193 1
117, 140, 190 1
116, 139, 189 1
84, 107, 139 1
76, 104, 128 1
135, 158, 203 1
121, 149, 190 1
117, 144, 181 1
116, 135, 178 1
112, 131, 176 1
101, 123, 165 1
95, 117, 159 1
91, 115, 157 1
95, 119, 161 1
125, 148, 198 1
114, 139, 189 1
107, 129, 181 1
89, 119, 148 1
88, 118, 147 1
77, 106, 127 1
139, 164, 204 1
116, 143, 180 1
124, 147, 192 1
122, 146, 188 1
120, 142, 184 1
119, 141, 183 1
116, 135, 180 1
128, 151, 207 1
109, 129, 176 1
88, 118, 145 1
87, 109, 145 1
78, 107, 128 1
133, 158, 200 1
130, 155, 197 1
113, 138, 180 1
115, 142, 179 1
116, 143, 187 1
125, 147, 189 1
123, 145, 187 1
120, 139, 184 1
119, 142, 187 1
126, 149, 197 1
127, 150, 200 1
127, 150, 206 1
129, 152, 208 1
105, 127, 179 1
92, 119, 146 1
87, 117, 144 1
86, 116, 145 1
84, 105, 137 1
81, 107, 131 1
79, 108, 129 1
126, 154, 188 1
131, 159, 194 1
132, 161, 200 1
134, 162, 203 1
127, 152, 194 1
116, 145, 184 1
114, 143, 182 1
111, 143, 179 1
110, 142, 178 1
109, 141, 176 1
107, 139, 174 1
107, 137, 172 1
106, 137, 170 1
108, 136, 170 1
109, 136, 173 1
113, 140, 177 1
114, 134, 181 1
84, 107, 145 1
83, 106, 144 1
83, 106, 132 1
121, 149, 183 1
126, 154, 189 1
128, 157, 194 1
129, 158, 197 1
129, 157, 198 1
128, 153, 195 1
126, 150, 192 1
111, 140, 177 1
110, 139, 176 1
110, 140, 175 1
105, 135, 170 1
103, 133, 168 1
101, 132, 165 1
101, 129, 163 1
112, 138, 175 1
114, 139, 179 1
119, 143, 189 1
124, 146, 194 1
128, 149, 194 1
125, 146, 191 1
123, 144, 189 1
111, 134, 180 1
122, 146, 192 1
122, 146, 198 1
82, 105, 143 1
117, 145, 176 1
124, 153, 190 1
126, 155, 194 1
127, 153, 193 1
126, 151, 191 1
124, 149, 189 1
117, 142, 182 1
111, 138, 175 1
104, 132, 166 1
123, 145, 193 1
128, 148, 195 1
126, 146, 193 1
122, 142, 190 1
116, 138, 186 1
115, 137, 185 1
125, 151, 205 1
117, 141, 193 1
87, 112, 146 1
81, 105, 141 1
86, 108, 136 1
114, 142, 172 1
118, 146, 180 1
123, 151, 186 1
124, 147, 185 1
122, 145, 183 1
116, 139, 177 1
111, 135, 171 1
118, 140, 188 1
130, 150, 198 1
124, 144, 192 1
127, 150, 198 1
115, 139, 191 1
113, 137, 189 1
81, 104, 136 1
111, 140, 167 1
114, 142, 173 1
117, 145, 179 1
120, 148, 183 1
117, 143, 180 1
117, 141, 177 1
115, 139, 175 1
109, 131, 166 1
107, 129, 164 1
95, 119, 149 1
94, 118, 148 1
113, 135, 176 1
128, 147, 198 1
126, 147, 198 1
125, 146, 197 1
116, 140, 194 1
110, 135, 185 1
78, 103, 135 1
108, 135, 161 1
109, 138, 165 1
112, 140, 170 1
116, 144, 175 1
118, 145, 179 1
113, 140, 174 1
112, 136, 172 1
108, 133, 165 1
108, 131, 163 1
100, 121, 152 1
95, 117, 145 1
94, 116, 144 1
93, 115, 143 1
91, 113, 141 1
88, 112, 140 1
107, 128, 166 1
126, 144, 197 1
127, 145, 198 1
128, 146, 199 1
130, 148, 201 1
130, 152, 204 1
117, 141, 195 1
111, 137, 191 1
108, 135, 185 1
81, 106, 138 1
79, 104, 136 1
102, 130, 154 1
105, 132, 158 1
108, 135, 162 1
111, 137, 167 1
113, 139, 169 1
112, 137, 169 1
109, 134, 166 1
107, 132, 164 1
104, 130, 160 1
102, 128, 158 1
99, 123, 153 1
99, 121, 149 1
98, 119, 147 1
96, 117, 145 1
94, 115, 142 1
87, 108, 135 1
86, 108, 143 1
119, 139, 187 1
125, 147, 199 1
81, 107, 137 1
97, 124, 144 1
100, 126, 150 1
101, 128, 154 1
104, 131, 157 1
105, 129, 157 1
104, 128, 158 1
99, 126, 153 1
99, 124, 150 1
96, 121, 147 1
95, 118, 144 1
93, 116, 142 1
92, 113, 140 1
92, 112, 137 1
90, 110, 135 1
75, 101, 125 1
71, 99, 123 1
88, 111, 143 1
121, 142, 193 1
129, 151, 203 1
109, 132, 188 1
106, 133, 183 1
107, 135, 182 1
78, 104, 134 1
92, 118, 135 1
98, 123, 143 1
100, 124, 146 1
100, 124, 148 1
103, 127, 151 1
103, 126, 152 1
101, 124, 150 1
100, 123, 149 1
95, 123, 147 1
94, 120, 144 1
92, 118, 142 1
92, 116, 140 1
91, 113, 138 1
88, 111, 133 1
88, 109, 131 1
86, 107, 129 1
75, 98, 120 1
76, 100, 122 1
76, 103, 124 1
74, 101, 122 1
68, 97, 118 1
73, 97, 127 1
79, 103, 133 1
87, 110, 142 1
112, 136, 178 1
122, 145, 193 1
124, 147, 197 1
108, 131, 187 1
107, 130, 186 1
86, 111, 127 1
92, 116, 134 1
94, 118, 138 1
94, 117, 139 1
90, 117, 138 1
87, 114, 135 1
88, 112, 134 1
87, 111, 131 1
84, 108, 128 1
83, 104, 125 1
81, 102, 123 1
77, 98, 119 1
76, 97, 118 1
72, 96, 116 1
70, 95, 115 1
70, 97, 117 1
69, 96, 116 1
66, 93, 113 1
68, 93, 119 1
109, 135, 171 1
113, 138, 178 1
119, 144, 188 1
122, 148, 195 1
111, 135, 189 1
106, 130, 184 1
105, 131, 185 1
105, 132, 183 1
85, 108, 124 1
89, 111, 129 1
88, 110, 128 1
91, 112, 133 1
84, 111, 131 1
85, 110, 130 1
84, 109, 129 1
83, 108, 128 1
82, 106, 124 1
79, 101, 119 1
77, 99, 117 1
76, 98, 116 1
75, 97, 115 1
69, 93, 111 1
65, 89, 107 1
64, 89, 109 1
66, 91, 111 1
67, 92, 112 1
63, 90, 110 1
63, 89, 113 1
68, 94, 118 1
75, 100, 126 1
96, 122, 152 1
106, 133, 167 1
112, 138, 174 1
114, 140, 180 1
103, 127, 181 1
106, 130, 182 1
72, 94, 106 1
80, 101, 116 1
85, 105, 123 1
88, 108, 126 1
82, 108, 125 1
81, 105, 123 1
79, 104, 120 1
76, 99, 115 1
74, 96, 114 1
62, 86, 104 1
61, 87, 104 1
60, 84, 106 1
65, 89, 111 1
70, 96, 120 1
101, 127, 157 1
108, 135, 169 1
114, 140, 176 1
117, 140, 196 1
109, 133, 185 1
107, 131, 183 1
103, 127, 179 1
66, 86, 97 1
74, 93, 106 1
79, 98, 113 1
80, 99, 114 1
81, 99, 116 1
85, 103, 120 1
80, 103, 119 1
81, 104, 120 1
71, 94, 110 1
60, 82, 100 1
58, 82, 102 1
62, 86, 106 1
67, 91, 113 1
76, 100, 124 1
84, 109, 135 1
96, 120, 148 1
105, 131, 161 1
117, 143, 179 1
115, 140, 196 1
71, 88, 101 1
76, 93, 106 1
77, 93, 109 1
77, 93, 110 1
81, 97, 114 1
80, 100, 117 1
79, 99, 116 1
77, 97, 114 1
78, 98, 115 1
79, 102, 117 1
80, 103, 118 1
74, 97, 113 1
69, 92, 108 1
66, 89, 105 1
64, 87, 103 1
62, 82, 100 1
61, 81, 99 1
57, 79, 97 1
58, 82, 100 1
64, 88, 108 1
72, 95, 117 1
80, 104, 128 1
88, 113, 139 1
100, 124, 152 1
110, 135, 167 1
114, 139, 195 1
112, 137, 193 1
70, 85, 101 1
76, 91, 107 1
75, 94, 109 1
74, 95, 110 1
76, 97, 112 1
77, 98, 113 1
74, 97, 112 1
71, 94, 109 1
64, 87, 102 1
65, 88, 104 1
67, 87, 104 1
65, 85, 102 1
66, 83, 102 1
81, 105, 129 1
103, 127, 157 1
111, 136, 168 1
116, 142, 178 1
120, 146, 183 1
104, 129, 179 1
64, 79, 95 1
65, 80, 96 1
69, 84, 100 1
71, 87, 103 1
72, 91, 106 1
69, 92, 107 1
67, 90, 105 1
59, 82, 97 1
60, 83, 99 1
65, 80, 99 1
59, 79, 96 1
57, 77, 94 1
67, 89, 107 1
71, 94, 116 1
75, 99, 123 1
85, 108, 134 1
119, 144, 184 1
116, 143, 194 1
120, 146, 200 1
119, 144, 200 1
110, 135, 191 1
109, 135, 181 1
106, 132, 178 1
105, 128, 176 1
85, 108, 146 1
82, 107, 133 1
79, 106, 132 1
58, 71, 79 1
60, 72, 82 1
61, 73, 83 1
62, 73, 87 1
75, 93, 104 1
68, 85, 98 1
64, 81, 94 1
67, 84, 97 1
65, 88, 103 1
71, 96, 112 1
79, 105, 122 1
89, 114, 134 1
105, 131, 155 1
113, 140, 166 1
117, 144, 171 1
119, 147, 177 1
118, 150, 179 1
120, 152, 181 1
122, 156, 186 1
125, 156, 195 1
123, 154, 193 1
121, 152, 191 1
120, 151, 190 1
119, 149, 190 1
119, 148, 192 1
118, 147, 191 1
117, 146, 190 1
114, 143, 188 1
111, 140, 185 1
110, 139, 184 1
112, 140, 187 1
104, 132, 179 1
103, 132, 177 1
103, 129, 175 1
103, 128, 170 1
80, 106, 142 1
80, 109, 140 1
83, 112, 143 1
53, 66, 74 1
56, 69, 77 1
56, 68, 78 1
55, 67, 77 1
54, 66, 78 1
56, 68, 80 1
60, 72, 84 1
54, 75, 90 1
58, 81, 96 1
63, 88, 104 1
71, 95, 113 1
79, 104, 124 1
93, 119, 143 1
103, 128, 154 1
106, 133, 159 1
110, 139, 166 1
112, 142, 171 1
113, 145, 174 1
117, 149, 178 1
122, 151, 188 1
119, 148, 187 1
118, 147, 186 1
115, 144, 183 1
113, 142, 181 1
111, 138, 182 1
108, 137, 182 1
107, 136, 181 1
105, 134, 179 1
104, 133, 178 1
101, 130, 175 1
101, 130, 174 1
102, 127, 169 1
102, 128, 168 1
85, 114, 145 1
48, 62, 68 1
51, 64, 72 1
53, 65, 77 1
64, 76, 88 1
66, 85, 93 1
56, 73, 86 1
56, 75, 88 1
54, 76, 88 1
66, 90, 108 1
69, 94, 114 1
79, 103, 125 1
91, 115, 139 1
97, 122, 148 1
100, 127, 153 1
100, 129, 156 1
102, 132, 159 1
107, 137, 164 1
107, 135, 170 1
106, 136, 171 1
103, 132, 169 1
104, 132, 173 1
100, 128, 169 1
99, 125, 165 1
99, 126, 163 1
45, 59, 65 1
47, 61, 67 1
46, 59, 67 1
46, 58, 68 1
49, 61, 71 1
54, 66, 76 1
59, 71, 81 1
64, 83, 91 1
57, 76, 84 1
62, 81, 89 1
58, 76, 87 1
55, 79, 97 1
80, 103, 125 1
87, 111, 133 1
88, 114, 138 1
87, 115, 139 1
89, 119, 144 1
95, 125, 150 1
98, 126, 161 1
97, 124, 161 1
97, 126, 165 1
98, 127, 164 1
96, 123, 160 1
102, 129, 166 1
43, 58, 61 1
42, 55, 63 1
48, 61, 69 1
63, 80, 89 1
51, 67, 79 1
50, 66, 78 1
52, 68, 80 1
52, 70, 81 1
57, 75, 86 1
58, 80, 92 1
53, 76, 92 1
73, 97, 119 1
78, 105, 126 1
82, 109, 130 1
87, 114, 140 1
90, 117, 151 1
93, 120, 154 1
91, 119, 154 1
92, 120, 154 1
91, 119, 150 1
99, 127, 161 1
101, 129, 164 1
90, 119, 150 1
91, 120, 151 1
44, 59, 62 1
42, 57, 60 1
39, 54, 57 1
39, 53, 59 1
49, 61, 67 1
47, 65, 72 1
60, 78, 85 1
48, 65, 74 1
49, 65, 77 1
61, 83, 95 1
60, 82, 94 1
58, 79, 94 1
53, 74, 89 1
52, 72, 89 1
55, 75, 92 1
68, 90, 108 1
67, 93, 110 1
72, 99, 120 1
72, 98, 122 1
74, 100, 124 1
76, 103, 129 1
92, 120, 150 1
95, 123, 157 1
108, 134, 170 1
43, 58, 60 1
41, 56, 58 1
38, 53, 56 1
37, 52, 55 1
41, 53, 57 1
42, 54, 58 1
44, 56, 60 1
47, 59, 63 1
42, 60, 67 1
52, 70, 77 1
51, 69, 76 1
58, 76, 83 1
50, 67, 76 1
62, 82, 93 1
56, 75, 90 1
62, 81, 96 1
67, 88, 103 1
71, 91, 108 1
71, 96, 116 1
75, 100, 120 1
80, 105, 125 1
80, 107, 128 1
79, 105, 129 1
85, 110, 136 1
88, 115, 141 1
90, 117, 143 1
91, 118, 144 1
92, 116, 144 1
90, 114, 142 1
73, 100, 127 1
40, 55, 57 1
40, 53, 55 1
38, 51, 53 1
44, 57, 59 1
41, 60, 65 1
50, 69, 74 1
56, 75, 80 1
53, 72, 77 1
48, 67, 72 1
49, 68, 73 1
55, 71, 78 1
57, 73, 80 1
60, 76, 83 1
43, 60, 69 1
51, 70, 78 1
56, 75, 83 1
59, 80, 88 1
53, 70, 83 1
54, 71, 84 1
63, 85, 97 1
62, 84, 96 1
60, 83, 98 1
57, 80, 95 1
54, 79, 95 1
59, 84, 100 1
77, 101, 119 1
74, 99, 119 1
72, 97, 117 1
72, 96, 118 1
80, 104, 126 1
83, 107, 131 1
84, 108, 132 1
90, 112, 137 1
88, 110, 135 1
85, 107, 132 1
74, 99, 125 1
99, 125, 155 1
101, 126, 158 1
105, 132, 166 1
94, 120, 157 1
41, 55, 54 1
43, 59, 65 1
49, 65, 71 1
56, 72, 78 1
59, 75, 81 1
58, 74, 80 1
54, 70, 76 1
43, 58, 67 1
41, 58, 67 1
54, 73, 81 1
60, 79, 87 1
56, 73, 82 1
59, 75, 87 1
61, 83, 94 1
62, 84, 95 1
59, 81, 92 1
52, 74, 86 1
48, 70, 82 1
48, 71, 86 1
72, 96, 114 1
66, 90, 110 1
73, 94, 116 1
74, 95, 117 1
70, 90, 115 1
64, 86, 111 1
65, 86, 113 1
70, 93, 119 1
93, 117, 145 1
103, 129, 159 1
103, 128, 160 1
102, 127, 159 1
40, 54, 53 1
37, 51, 50 1
36, 50, 49 1
37, 49, 51 1
40, 52, 54 1
42, 54, 56 1
38, 54, 60 1
50, 64, 70 1
52, 66, 72 1
61, 75, 81 1
62, 76, 82 1
45, 61, 68 1
40, 58, 65 1
43, 61, 68 1
48, 67, 74 1
52, 71, 79 1
53, 72, 80 1
52, 69, 78 1
57, 72, 81 1
56, 71, 80 1
53, 68, 77 1
54, 69, 78 1
63, 84, 92 1
54, 74, 85 1
53, 73, 84 1
55, 77, 89 1
56, 77, 92 1
59, 80, 95 1
54, 76, 94 1
61, 78, 99 1
59, 77, 100 1
61, 79, 102 1
64, 82, 105 1
63, 84, 106 1
65, 85, 110 1
68, 89, 116 1
74, 95, 122 1
90, 112, 140 1
98, 120, 148 1
102, 126, 156 1
104, 129, 163 1
94, 120, 156 1
80, 109, 136 1
84, 113, 140 1
39, 53, 52 1
38, 50, 50 1
37, 49, 49 1
39, 51, 53 1
41, 53, 55 1
36, 53, 56 1
39, 56, 59 1
42, 59, 62 1
46, 63, 66 1
48, 65, 68 1
49, 64, 67 1
48, 63, 66 1
51, 66, 69 1
50, 65, 68 1
52, 67, 70 1
58, 72, 78 1
44, 60, 67 1
38, 56, 63 1
39, 57, 64 1
44, 62, 69 1
49, 67, 74 1
54, 70, 77 1
48, 66, 73 1
55, 74, 81 1
61, 80, 87 1
67, 86, 94 1
70, 89, 97 1
63, 83, 94 1
66, 85, 98 1
60, 78, 95 1
53, 70, 91 1
52, 69, 90 1
51, 67, 90 1
55, 72, 98 1
96, 118, 146 1
102, 123, 154 1
103, 126, 158 1
85, 114, 141 1
87, 115, 145 1
93, 121, 151 1
