68, 43, 33 325
69, 44, 34 235
70, 42, 35 180
72, 46, 34 169
69, 45, 33 168
58, 40, 33 166
71, 45, 33 162
57, 39, 32 158
70, 46, 34 138
67, 42, 32 127
71, 43, 36 126
59, 41, 34 105
59, 40, 32 97
73, 47, 35 96
69, 41, 34 91
68, 44, 32 90
70, 45, 35 87
68, 42, 35 85
60, 41, 33 85
70, 44, 32 78
66, 44, 33 68
67, 45, 34 67
66, 43, 35 62
56, 38, 31 60
58, 39, 31 59
55, 39, 32 58
67, 44, 36 55
66, 44, 32 49
67, 45, 33 47
69, 46, 31 46
69, 43, 36 45
93, 118, 152 45
71, 46, 36 42
56, 40, 33 41
68, 46, 34 39
59, 40, 33 39
64, 43, 35 38
81, 109, 139 37
57, 40, 31 36
54, 38, 31 36
71, 42, 35 34
67, 46, 31 34
61, 42, 34 34
92, 117, 151 34
66, 41, 31 33
57, 38, 30 32
63, 42, 34 31
65, 43, 31 31
65, 46, 33 31
70, 44, 37 31
65, 43, 32 30
60, 42, 35 30
66, 45, 30 30
72, 44, 37 30
55, 37, 30 30
93, 117, 153 30
58, 41, 32 29
68, 46, 35 29
67, 43, 37 29
67, 41, 34 28
57, 38, 31 28
106, 131, 181 28
103, 129, 166 27
65, 42, 34 26
69, 43, 31 26
58, 39, 32 26
104, 129, 169 26
65, 44, 36 25
72, 46, 32 25
81, 110, 137 25
63, 43, 32 24
70, 43, 33 24
71, 47, 35 24
56, 39, 30 24
59, 42, 33 23
72, 43, 36 22
64, 44, 33 22
68, 45, 30 21
71, 44, 34 21
131, 160, 204 21
109, 134, 184 21
82, 110, 140 21
80, 110, 139 21
61, 40, 32 20
90, 116, 152 20
80, 108, 138 20
62, 41, 33 19
70, 47, 32 19
104, 130, 167 19
94, 119, 153 19
92, 116, 152 19
90, 118, 148 19
83, 111, 141 19
81, 111, 140 19
72, 45, 35 18
74, 48, 36 18
68, 45, 37 18
88, 114, 150 18
93, 118, 150 18
98, 124, 160 18
61, 43, 36 17
53, 37, 30 17
73, 47, 33 17
56, 37, 29 17
103, 128, 168 17
84, 112, 142 17
68, 40, 33 16
62, 43, 35 16
68, 47, 32 16
64, 41, 33 16
60, 41, 34 16
73, 45, 34 16
54, 39, 30 16
87, 115, 150 16
98, 124, 161 16
89, 117, 147 16
81, 106, 138 16
66, 40, 33 15
64, 45, 32 15
66, 42, 36 15
54, 36, 29 15
104, 128, 170 15
126, 160, 203 15
91, 116, 148 15
71, 45, 31 14
94, 118, 154 14
86, 114, 144 14
83, 109, 139 14
99, 125, 162 14
97, 123, 159 14
95, 123, 154 14
99, 125, 161 14
65, 45, 34 13
65, 40, 30 13
56, 41, 32 13
56, 35, 33 13
101, 127, 164 13
130, 159, 203 13
91, 115, 151 13
87, 113, 149 13
107, 132, 182 13
77, 103, 127 13
91, 116, 150 13
122, 149, 200 13
106, 132, 179 13
69, 47, 35 12
63, 40, 32 12
98, 123, 157 12
108, 133, 183 12
81, 108, 135 12
89, 115, 151 12
97, 123, 160 12
92, 117, 149 12
110, 137, 188 12
96, 122, 158 12
90, 115, 147 12
76, 101, 133 12
82, 111, 138 12
82, 112, 141 12
52, 36, 29 11
56, 35, 34 11
124, 151, 202 11
120, 146, 192 11
105, 130, 170 11
102, 128, 165 11
128, 157, 201 11
101, 127, 163 11
95, 122, 156 11
102, 126, 168 11
88, 116, 146 11
103, 127, 169 11
83, 112, 139 11
100, 126, 162 11
69, 42, 32 10
63, 44, 36 10
63, 41, 35 10
69, 43, 37 10
68, 39, 34 10
61, 39, 33 10
55, 36, 28 10
55, 38, 29 10
53, 35, 28 10
122, 148, 195 10
126, 152, 206 10
121, 147, 201 10
114, 140, 194 10
124, 146, 198 10
75, 96, 123 10
97, 122, 156 10
123, 154, 199 10
99, 124, 158 10
102, 128, 164 10
93, 121, 152 10
115, 143, 184 10
125, 153, 207 10
106, 133, 184 10
100, 126, 163 10
96, 121, 155 10
120, 146, 200 10
95, 121, 157 10
69, 46, 38 9
61, 42, 35 9
66, 47, 34 9
67, 48, 33 9
62, 40, 34 9
72, 48, 36 9
74, 46, 35 9
60, 38, 32 9
55, 36, 29 9
55, 40, 31 9
55, 36, 31 9
56, 36, 35 9
88, 116, 147 9
87, 106, 143 9
118, 145, 189 9
108, 128, 175 9
107, 127, 174 9
104, 127, 172 9
119, 146, 196 9
106, 129, 174 9
105, 129, 171 9
95, 120, 154 9
128, 160, 203 9
91, 117, 147 9
86, 112, 142 9
76, 103, 129 9
105, 130, 180 9
90, 116, 153 9
88, 114, 144 9
80, 104, 132 9
91, 117, 153 9
89, 115, 145 9
133, 160, 204 9
90, 116, 146 9
79, 104, 136 9
90, 117, 151 9
105, 132, 183 9
102, 127, 167 9
78, 104, 134 9
79, 105, 135 9
85, 113, 143 9
67, 48, 35 8
71, 45, 38 8
63, 44, 31 8
72, 47, 37 8
67, 43, 31 8
67, 42, 38 8
65, 43, 37 8
64, 42, 36 8
57, 41, 34 8
70, 44, 30 8
60, 43, 34 8
56, 37, 30 8
67, 46, 38 8
57, 36, 35 8
73, 45, 38 8
119, 145, 199 8
119, 145, 192 8
109, 135, 189 8
127, 152, 202 8
104, 125, 170 8
116, 143, 194 8
117, 147, 196 8
133, 162, 206 8
122, 153, 198 8
125, 157, 200 8
85, 111, 141 8
80, 107, 134 8
110, 135, 185 8
88, 115, 149 8
94, 122, 153 8
91, 119, 150 8
76, 102, 126 8
79, 106, 133 8
101, 126, 166 8
94, 120, 156 8
105, 128, 173 8
106, 133, 183 8
103, 126, 171 8
80, 106, 136 8
110, 136, 190 8
87, 113, 143 8
80, 109, 136 8
78, 107, 134 8
69, 47, 36 7
70, 48, 37 7
64, 42, 30 7
68, 44, 38 7
51, 35, 28 7
61, 44, 35 7
72, 43, 38 7
69, 40, 35 7
65, 39, 33 7
63, 39, 33 7
57, 37, 32 7
66, 45, 37 7
57, 42, 33 7
56, 37, 34 7
88, 112, 148 7
126, 149, 205 7
121, 147, 193 7
87, 111, 139 7
82, 107, 141 7
92, 115, 153 7
83, 108, 140 7
111, 137, 191 7
73, 94, 122 7
96, 115, 153 7
77, 102, 134 7
121, 150, 195 7
74, 95, 123 7
98, 120, 161 7
125, 156, 201 7
99, 124, 168 7
119, 149, 196 7
107, 131, 173 7
76, 97, 124 7
126, 155, 199 7
127, 161, 204 7
103, 129, 165 7
100, 127, 161 7
78, 105, 132 7
94, 119, 151 7
83, 110, 137 7
147, 172, 214 7
83, 107, 135 7
132, 161, 205 7
88, 114, 151 7
122, 148, 194 7
111, 138, 189 7
84, 109, 141 7
109, 136, 187 7
81, 107, 137 7
92, 121, 152 7
126, 151, 201 7
113, 139, 193 7
102, 130, 177 7
83, 113, 142 7
74, 42, 36 6
65, 39, 32 6
62, 39, 31 6
63, 44, 37 6
74, 43, 34 6
73, 46, 36 6
65, 46, 31 6
66, 47, 32 6
59, 41, 30 6
73, 49, 37 6
64, 40, 34 6
68, 42, 36 6
58, 42, 35 6
72, 44, 33 6
62, 45, 36 6
71, 42, 37 6
69, 43, 29 6
75, 47, 36 6
59, 37, 31 6
56, 36, 31 6
65, 43, 38 6
66, 44, 38 6
56, 37, 32 6
70, 44, 38 6
59, 36, 34 6
124, 150, 197 6
124, 148, 202 6
131, 151, 208 6
123, 145, 197 6
59, 79, 114 6
96, 114, 155 6
115, 141, 195 6
125, 151, 205 6
90, 112, 153 6
123, 149, 195 6
97, 119, 161 6
100, 122, 164 6
97, 119, 160 6
125, 147, 199 6
107, 130, 175 6
108, 132, 174 6
103, 128, 170 6
100, 125, 159 6
135, 162, 206 6
127, 156, 200 6
58, 77, 85 6
132, 160, 201 6
121, 144, 194 6
98, 126, 161 6
98, 125, 159 6
99, 126, 160 6
89, 116, 153 6
88, 116, 151 6
130, 158, 199 6
91, 117, 154 6
87, 113, 150 6
89, 115, 152 6
62, 83, 98 6
127, 147, 205 6
88, 112, 140 6
86, 110, 138 6
129, 149, 207 6
81, 106, 132 6
124, 153, 197 6
120, 149, 194 6
89, 119, 148 6
101, 123, 164 6
82, 107, 139 6
87, 115, 146 6
107, 134, 185 6
80, 105, 137 6
108, 137, 176 6
89, 114, 146 6
101, 128, 162 6
128, 153, 203 6
116, 142, 196 6
112, 138, 192 6
99, 124, 164 6
79, 107, 137 6
104, 132, 179 6
103, 131, 178 6
84, 108, 138 6
87, 115, 145 6
71, 92, 107 6
98, 126, 157 6
61, 43, 32 5
62, 43, 30 5
64, 42, 31 5
65, 44, 29 5
69, 48, 33 5
75, 49, 37 5
60, 39, 31 5
68, 42, 30 5
70, 48, 36 5
65, 41, 35 5
67, 39, 32 5
74, 48, 34 5
65, 38, 34 5
70, 41, 37 5
55, 41, 29 5
71, 45, 39 5
57, 36, 34 5
59, 35, 35 5
98, 118, 165 5
88, 109, 154 5
47, 33, 35 5
125, 149, 203 5
117, 142, 184 5
126, 148, 200 5
123, 143, 201 5
130, 156, 210 5
123, 149, 203 5
101, 121, 168 5
97, 118, 163 5
75, 95, 126 5
72, 93, 121 5
88, 116, 150 5
117, 143, 197 5
103, 123, 170 5
83, 102, 139 5
95, 113, 154 5
108, 130, 178 5
99, 121, 163 5
119, 145, 191 5
39, 54, 57 5
118, 144, 190 5
95, 114, 152 5
101, 122, 167 5
33, 48, 51 5
127, 156, 201 5
128, 157, 202 5
131, 160, 205 5
102, 126, 180 5
96, 121, 165 5
118, 148, 195 5
96, 124, 159 5
118, 140, 192 5
121, 143, 195 5
87, 114, 148 5
118, 148, 197 5
107, 132, 172 5
116, 143, 187 5
105, 131, 168 5
88, 109, 140 5
138, 165, 209 5
140, 167, 211 5
123, 155, 198 5
96, 116, 163 5
96, 124, 155 5
92, 118, 148 5
77, 104, 130 5
104, 129, 179 5
102, 122, 169 5
89, 117, 151 5
91, 114, 152 5
80, 105, 131 5
94, 117, 155 5
95, 118, 156 5
127, 154, 198 5
130, 150, 208 5
136, 164, 205 5
113, 142, 186 5
90, 120, 149 5
133, 161, 202 5
95, 119, 155 5
90, 115, 149 5
121, 148, 198 5
112, 139, 190 5
106, 130, 182 5
114, 142, 183 5
113, 141, 182 5
112, 140, 181 5
116, 144, 185 5
122, 149, 199 5
108, 135, 186 5
100, 125, 165 5
99, 127, 161 5
123, 150, 201 5
101, 125, 167 5
100, 124, 166 5
102, 125, 170 5
77, 103, 133 5
107, 131, 185 5
97, 126, 157 5
90, 118, 149 5
101, 130, 174 5
102, 129, 166 5
63, 80, 93 5
91, 120, 151 5
93, 122, 153 5
91, 119, 149 5
64, 82, 93 5
105, 131, 167 5
39, 52, 54 5
54, 73, 81 5
49, 68, 76 5
104, 131, 165 5
103, 130, 164 5
101, 129, 160 5
73, 41, 35 4
71, 48, 33 4
70, 41, 34 4
66, 46, 35 4
61, 38, 30 4
62, 43, 36 4
68, 49, 36 4
72, 43, 34 4
73, 42, 33 4
67, 44, 29 4
63, 44, 29 4
75, 44, 35 4
62, 44, 37 4
70, 41, 36 4
67, 38, 31 4
58, 38, 33 4
54, 41, 33 4
62, 44, 33 4
64, 44, 39 4
66, 44, 39 4
69, 45, 39 4
67, 45, 39 4
62, 43, 40 4
54, 38, 32 4
136, 156, 213 4
55, 35, 34 4
131, 151, 209 4
125, 150, 200 4
128, 152, 206 4
119, 141, 193 4
130, 150, 207 4
132, 152, 210 4
125, 145, 203 4
127, 149, 201 4
132, 153, 208 4
94, 116, 158 4
120, 146, 193 4
124, 145, 197 4
91, 118, 152 4
118, 144, 198 4
104, 130, 184 4
94, 112, 153 4
82, 102, 137 4
85, 112, 146 4
93, 114, 159 4
88, 109, 147 4
117, 144, 188 4
121, 149, 196 4
109, 133, 187 4
94, 118, 172 4
90, 112, 154 4
105, 125, 172 4
130, 159, 204 4
121, 145, 199 4
79, 100, 131 4
61, 80, 93 4
114, 141, 192 4
118, 144, 191 4
120, 148, 195 4
122, 146, 200 4
105, 129, 175 4
76, 97, 125 4
118, 145, 195 4
140, 169, 213 4
96, 122, 168 4
126, 157, 202 4
136, 165, 209 4
138, 167, 211 4
98, 124, 170 4
100, 125, 169 4
102, 127, 171 4
97, 120, 158 4
88, 107, 144 4
98, 122, 158 4
141, 168, 212 4
142, 169, 213 4
101, 130, 175 4
121, 151, 198 4
122, 139, 195 4
92, 114, 156 4
90, 110, 145 4
97, 129, 172 4
136, 160, 202 4
140, 162, 203 4
129, 158, 203 4
135, 156, 211 4
103, 128, 178 4
85, 115, 150 4
129, 158, 202 4
126, 158, 201 4
105, 126, 171 4
96, 123, 157 4
95, 121, 158 4
75, 102, 128 4
134, 155, 210 4
133, 154, 209 4
92, 114, 155 4
92, 120, 151 4
129, 156, 200 4
94, 120, 157 4
85, 109, 137 4
79, 104, 130 4
76, 103, 124 4
131, 156, 200 4
132, 152, 209 4
90, 114, 150 4
126, 153, 197 4
83, 108, 142 4
144, 172, 213 4
122, 156, 199 4
134, 163, 207 4
125, 154, 198 4
119, 146, 197 4
128, 148, 206 4
102, 123, 168 4
121, 155, 198 4
138, 166, 207 4
119, 153, 196 4
116, 144, 191 4
106, 127, 172 4
134, 162, 203 4
117, 151, 194 4
114, 142, 189 4
89, 116, 150 4
112, 142, 183 4
123, 153, 210 4
115, 144, 189 4
82, 108, 138 4
120, 147, 191 4
122, 151, 202 4
119, 148, 199 4
117, 146, 197 4
93, 119, 155 4
117, 146, 190 4
108, 131, 176 4
113, 140, 191 4
119, 146, 190 4
114, 144, 185 4
120, 147, 197 4
127, 153, 207 4
107, 136, 175 4
125, 149, 195 4
123, 149, 196 4
111, 140, 179 4
124, 147, 195 4
104, 131, 168 4
100, 128, 162 4
96, 124, 158 4
97, 125, 159 4
100, 129, 160 4
78, 103, 135 4
106, 132, 169 4
107, 134, 184 4
101, 124, 169 4
112, 141, 178 4
109, 138, 175 4
103, 130, 167 4
127, 150, 200 4
101, 129, 163 4
100, 128, 163 4
79, 108, 135 4
124, 147, 203 4
107, 131, 183 4
84, 110, 140 4
78, 106, 136 4
106, 130, 184 4
85, 114, 145 4
40, 54, 60 4
51, 67, 74 4
102, 132, 181 4
84, 113, 140 4
38, 53, 56 4
36, 51, 54 4
34, 49, 52 4
71, 90, 103 4
69, 86, 99 4
101, 128, 165 4
101, 129, 164 4
42, 55, 57 4
44, 59, 62 4
99, 128, 159 4
87, 117, 146 4
96, 125, 156 4
105, 132, 166 4
97, 125, 156 4
102, 130, 161 4
61, 42, 29 3
71, 42, 33 3
68, 49, 34 3
73, 44, 35 3
76, 43, 34 3
66, 41, 37 3
59, 38, 30 3
65, 40, 36 3
59, 43, 36 3
68, 42, 28 3
67, 38, 33 3
67, 41, 35 3
64, 38, 32 3
68, 39, 35 3
64, 38, 31 3
53, 36, 27 3
52, 34, 27 3
68, 45, 29 3
62, 40, 29 3
63, 41, 30 3
64, 39, 35 3
63, 38, 34 3
54, 35, 28 3
53, 38, 29 3
62, 45, 32 3
62, 39, 37 3
59, 38, 37 3
54, 37, 28 3
70, 47, 39 3
61, 40, 38 3
59, 38, 36 3
58, 37, 35 3
63, 42, 40 3
50, 34, 27 3
58, 39, 34 3
62, 42, 41 3
54, 33, 35 3
58, 38, 37 3
55, 38, 35 3
55, 39, 33 3
58, 40, 41 3
57, 36, 38 3
54, 35, 30 3
92, 111, 148 3
51, 37, 31 3
63, 46, 33 3
90, 110, 165 3
81, 107, 143 3
55, 34, 32 3
73, 43, 38 3
125, 145, 200 3
54, 37, 41 3
56, 34, 36 3
57, 35, 37 3
72, 42, 37 3
99, 120, 165 3
53, 36, 33 3
137, 157, 215 3
135, 155, 212 3
56, 35, 37 3
54, 42, 54 3
53, 35, 36 3
54, 36, 37 3
128, 155, 199 3
126, 150, 202 3
46, 29, 40 3
125, 152, 203 3
119, 140, 192 3
128, 151, 207 3
102, 122, 157 3
94, 115, 146 3
120, 142, 194 3
126, 150, 204 3
125, 148, 204 3
122, 145, 201 3
93, 116, 148 3
89, 113, 143 3
85, 109, 139 3
90, 114, 142 3
125, 146, 201 3
134, 154, 212 3
109, 128, 165 3
139, 160, 198 3
127, 151, 205 3
124, 144, 202 3
97, 99, 134 3
121, 137, 180 3
125, 149, 201 3
124, 150, 204 3
82, 100, 141 3
79, 98, 141 3
107, 130, 168 3
116, 141, 191 3
121, 145, 197 3
94, 122, 156 3
102, 131, 175 3
132, 158, 212 3
93, 111, 152 3
91, 107, 149 3
82, 102, 149 3
87, 108, 146 3
114, 139, 181 3
121, 146, 196 3
123, 148, 198 3
88, 118, 153 3
101, 132, 177 3
128, 154, 208 3
133, 159, 213 3
100, 121, 173 3
49, 63, 69 3
68, 85, 98 3
117, 142, 182 3
121, 147, 194 3
124, 149, 199 3
85, 114, 151 3
87, 109, 150 3
78, 99, 131 3
50, 65, 74 3
66, 83, 96 3
116, 141, 185 3
98, 115, 171 3
93, 115, 157 3
109, 130, 181 3
103, 124, 169 3
98, 120, 162 3
83, 103, 138 3
53, 69, 81 3
121, 146, 190 3
116, 142, 188 3
48, 69, 96 3
60, 79, 114 3
95, 112, 168 3
95, 117, 169 3
91, 115, 157 3
106, 129, 175 3
53, 70, 79 3
117, 143, 189 3
118, 147, 192 3
122, 151, 196 3
124, 153, 198 3
94, 113, 151 3
84, 105, 137 3
97, 122, 172 3
98, 123, 167 3
94, 117, 143 3
133, 162, 207 3
74, 95, 122 3
104, 128, 164 3
139, 168, 212 3
116, 138, 190 3
99, 127, 174 3
77, 98, 126 3
51, 72, 80 3
140, 164, 206 3
117, 138, 190 3
120, 150, 199 3
120, 150, 197 3
85, 104, 141 3
98, 127, 172 3
97, 123, 169 3
109, 133, 175 3
106, 131, 171 3
79, 101, 129 3
54, 74, 85 3
144, 166, 207 3
79, 98, 136 3
95, 124, 169 3
102, 133, 178 3
103, 127, 163 3
105, 129, 165 3
134, 151, 207 3
128, 145, 201 3
125, 142, 198 3
108, 125, 181 3
82, 101, 138 3
80, 103, 148 3
101, 127, 167 3
102, 128, 168 3
80, 102, 130 3
126, 159, 204 3
124, 155, 200 3
140, 161, 199 3
87, 102, 134 3
77, 96, 133 3
87, 111, 141 3
86, 108, 136 3
129, 161, 204 3
70, 95, 121 3
144, 168, 210 3
124, 156, 199 3
134, 164, 205 3
82, 97, 129 3
43, 56, 78 3
131, 152, 207 3
114, 139, 189 3
99, 124, 174 3
79, 103, 139 3
91, 121, 156 3
97, 124, 158 3
95, 120, 152 3
74, 101, 127 3
132, 161, 206 3
133, 163, 204 3
100, 120, 167 3
81, 103, 144 3
83, 107, 143 3
89, 119, 154 3
146, 170, 212 3
145, 167, 208 3
135, 165, 206 3
131, 159, 200 3
92, 113, 158 3
88, 115, 152 3
90, 118, 153 3
75, 103, 127 3
145, 170, 210 3
128, 162, 205 3
131, 161, 202 3
93, 120, 154 3
94, 121, 155 3
84, 108, 136 3
78, 103, 129 3
94, 115, 160 3
92, 119, 153 3
149, 174, 216 3
143, 168, 208 3
128, 153, 197 3
82, 99, 132 3
100, 123, 168 3
126, 146, 204 3
133, 153, 210 3
112, 137, 187 3
93, 115, 156 3
93, 116, 154 3
139, 164, 206 3
47, 64, 91 3
129, 149, 206 3
113, 138, 188 3
104, 124, 171 3
95, 117, 158 3
83, 108, 134 3
96, 118, 160 3
147, 173, 213 3
123, 157, 200 3
86, 105, 140 3
92, 118, 154 3
111, 131, 178 3
78, 104, 128 3
79, 106, 127 3
144, 171, 208 3
134, 161, 205 3
126, 152, 198 3
113, 139, 185 3
118, 145, 196 3
89, 116, 143 3
141, 169, 210 3
136, 157, 195 3
91, 112, 150 3
109, 129, 176 3
96, 119, 157 3
78, 106, 130 3
137, 165, 206 3
125, 151, 197 3
108, 138, 179 3
121, 150, 201 3
99, 121, 162 3
118, 152, 195 3
107, 136, 173 3
107, 128, 173 3
135, 163, 204 3
116, 150, 193 3
117, 148, 193 3
99, 127, 162 3
115, 147, 190 3
121, 152, 203 3
115, 145, 186 3
96, 120, 156 3
113, 135, 163 3
128, 158, 199 3
122, 149, 193 3
82, 109, 143 3
127, 157, 198 3
128, 152, 198 3
110, 136, 182 3
121, 148, 199 3
121, 148, 192 3
124, 153, 204 3
119, 147, 188 3
123, 153, 194 3
104, 129, 173 3
120, 150, 191 3
111, 139, 180 3
109, 138, 177 3
63, 89, 103 3
125, 148, 196 3
127, 150, 198 3
104, 130, 166 3
108, 138, 173 3
106, 137, 170 3
100, 128, 159 3
114, 141, 185 3
122, 148, 202 3
98, 126, 156 3
94, 122, 152 3
112, 136, 190 3
87, 116, 147 3
108, 134, 188 3
107, 133, 187 3
53, 76, 84 3
93, 121, 145 3
85, 111, 135 3
83, 112, 143 3
119, 144, 200 3
118, 143, 199 3
104, 128, 182 3
102, 131, 176 3
90, 119, 150 3
45, 59, 65 3
66, 92, 106 3
111, 135, 193 3
103, 130, 180 3
85, 114, 141 3
44, 58, 64 3
75, 90, 106 3
76, 99, 114 3
74, 97, 112 3
69, 92, 107 3
103, 129, 176 3
72, 95, 110 3
46, 60, 66 3
50, 66, 73 3
69, 88, 101 3
101, 130, 169 3
60, 77, 90 3
65, 82, 95 3
67, 84, 97 3
100, 129, 166 3
58, 76, 87 3
89, 118, 149 3
93, 121, 151 3
61, 79, 90 3
59, 77, 88 3
57, 75, 86 3
56, 74, 85 3
58, 80, 92 3
99, 129, 170 3
107, 133, 169 3
88, 117, 148 3
43, 56, 58 3
41, 55, 61 3
60, 78, 89 3
52, 70, 81 3
39, 53, 59 3
48, 64, 71 3
51, 70, 78 3
60, 79, 87 3
56, 78, 89 3
45, 61, 68 3
48, 66, 73 3
101, 129, 159 3
71, 49, 37 2
73, 44, 37 2
77, 44, 35 2
64, 45, 30 2
68, 43, 39 2
62, 40, 28 2
66, 42, 30 2
74, 50, 38 2
53, 39, 33 2
73, 47, 31 2
66, 40, 34 2
75, 49, 35 2
63, 43, 38 2
54, 44, 34 2
61, 37, 31 2
59, 35, 29 2
55, 35, 30 2
65, 48, 39 2
64, 39, 29 2
62, 38, 32 2
66, 39, 29 2
62, 37, 33 2
59, 42, 29 2
63, 41, 36 2
61, 45, 33 2
67, 38, 34 2
52, 37, 28 2
68, 47, 39 2
60, 39, 38 2
58, 36, 38 2
54, 40, 28 2
56, 42, 30 2
60, 44, 32 2
64, 45, 40 2
66, 37, 28 2
58, 40, 29 2
64, 47, 34 2
54, 32, 34 2
59, 40, 37 2
60, 41, 38 2
61, 39, 34 2
51, 31, 36 2
54, 33, 36 2
61, 39, 41 2
60, 39, 37 2
51, 35, 36 2
52, 37, 41 2
56, 39, 48 2
58, 36, 48 2
58, 37, 39 2
56, 40, 34 2
54, 35, 27 2
59, 39, 38 2
55, 38, 41 2
56, 35, 43 2
56, 39, 36 2
62, 40, 35 2
51, 34, 43 2
50, 36, 54 2
52, 34, 51 2
56, 35, 38 2
57, 38, 35 2
73, 44, 39 2
65, 44, 43 2
64, 42, 44 2
46, 36, 48 2
91, 99, 136 2
57, 38, 33 2
55, 36, 33 2
55, 42, 28 2
59, 37, 39 2
60, 37, 35 2
67, 47, 36 2
56, 36, 41 2
70, 64, 95 2
86, 108, 144 2
50, 36, 30 2
53, 39, 27 2
53, 37, 31 2
57, 37, 36 2
113, 134, 186 2
58, 39, 36 2
63, 40, 38 2
61, 40, 43 2
63, 45, 52 2
61, 42, 39 2
50, 36, 42 2
56, 38, 37 2
63, 42, 44 2
89, 111, 153 2
47, 76, 115 2
47, 63, 105 2
50, 33, 42 2
54, 37, 40 2
57, 39, 28 2
52, 35, 39 2
130, 151, 203 2
52, 38, 40 2
71, 60, 76 2
133, 154, 215 2
130, 153, 209 2
48, 34, 45 2
49, 35, 41 2
71, 40, 41 2
120, 122, 153 2
102, 105, 136 2
74, 86, 126 2
51, 31, 43 2
69, 47, 42 2
118, 127, 161 2
121, 142, 194 2
125, 150, 206 2
77, 86, 124 2
50, 31, 52 2
47, 30, 44 2
50, 33, 37 2
47, 33, 44 2
108, 124, 160 2
96, 113, 146 2
121, 142, 197 2
130, 152, 210 2
139, 158, 225 2
46, 62, 104 2
95, 83, 113 2
67, 45, 40 2
131, 140, 174 2
123, 136, 174 2
119, 132, 170 2
114, 130, 167 2
100, 106, 141 2
122, 143, 198 2
123, 147, 199 2
124, 139, 178 2
114, 132, 169 2
139, 161, 203 2
115, 138, 188 2
127, 148, 203 2
138, 158, 223 2
94, 90, 119 2
67, 55, 53 2
116, 126, 166 2
117, 135, 176 2
120, 138, 179 2
115, 134, 172 2
87, 108, 139 2
81, 102, 133 2
73, 99, 123 2
79, 105, 129 2
80, 106, 130 2
129, 152, 190 2
125, 148, 198 2
74, 90, 132 2
80, 88, 128 2
117, 139, 181 2
121, 141, 182 2
116, 135, 172 2
85, 106, 137 2
61, 85, 109 2
116, 141, 183 2
125, 151, 198 2
128, 152, 204 2
131, 155, 209 2
133, 155, 207 2
81, 97, 139 2
95, 103, 143 2
96, 104, 144 2
110, 126, 162 2
112, 128, 165 2
121, 138, 181 2
119, 143, 185 2
118, 142, 184 2
121, 143, 184 2
104, 126, 167 2
116, 142, 179 2
123, 146, 194 2
123, 144, 196 2
90, 102, 150 2
116, 136, 171 2
113, 132, 169 2
116, 140, 182 2
114, 136, 172 2
36, 60, 78 2
68, 97, 124 2
106, 129, 167 2
112, 138, 178 2
125, 154, 199 2
129, 157, 204 2
133, 161, 208 2
137, 163, 210 2
121, 145, 191 2
86, 102, 144 2
89, 101, 155 2
99, 115, 157 2
89, 105, 147 2
80, 97, 130 2
110, 134, 176 2
112, 138, 184 2
118, 143, 193 2
130, 146, 192 2
129, 145, 192 2
70, 93, 115 2
37, 58, 79 2
40, 61, 83 2
60, 81, 113 2
93, 122, 159 2
113, 143, 190 2
134, 160, 214 2
97, 123, 177 2
97, 115, 156 2
78, 92, 134 2
46, 57, 101 2
92, 105, 161 2
79, 101, 142 2
98, 119, 171 2
96, 116, 157 2
77, 98, 130 2
44, 60, 67 2
114, 139, 179 2
115, 141, 187 2
117, 143, 190 2
135, 151, 197 2
30, 52, 70 2
65, 88, 120 2
96, 126, 167 2
107, 137, 184 2
87, 107, 148 2
86, 108, 150 2
97, 117, 158 2
119, 144, 188 2
35, 56, 77 2
44, 65, 87 2
61, 81, 116 2
98, 129, 174 2
106, 132, 186 2
100, 117, 160 2
91, 108, 164 2
91, 113, 155 2
95, 116, 161 2
109, 130, 161 2
122, 146, 188 2
118, 143, 187 2
122, 150, 197 2
124, 152, 199 2
137, 156, 201 2
117, 133, 179 2
50, 69, 96 2
34, 55, 76 2
31, 51, 68 2
30, 50, 67 2
61, 79, 116 2
60, 80, 115 2
64, 87, 119 2
81, 111, 146 2
92, 122, 163 2
103, 134, 179 2
134, 158, 212 2
132, 156, 210 2
119, 143, 197 2
93, 117, 171 2
80, 104, 158 2
70, 94, 148 2
91, 112, 164 2
89, 112, 157 2
109, 131, 179 2
47, 63, 70 2
114, 140, 186 2
123, 151, 198 2
70, 87, 120 2
53, 76, 102 2
60, 78, 115 2
59, 82, 114 2
62, 87, 119 2
70, 98, 129 2
75, 104, 135 2
104, 134, 175 2
120, 144, 198 2
113, 137, 191 2
74, 98, 152 2
69, 93, 147 2
68, 92, 146 2
90, 114, 156 2
97, 120, 165 2
88, 108, 143 2
32, 46, 45 2
61, 80, 95 2
116, 139, 187 2
119, 148, 193 2
57, 73, 110 2
54, 73, 106 2
55, 79, 109 2
81, 110, 147 2
93, 111, 164 2
98, 116, 157 2
88, 104, 146 2
54, 65, 109 2
97, 119, 171 2
93, 117, 159 2
97, 118, 156 2
73, 93, 111 2
109, 134, 168 2
118, 146, 193 2
119, 147, 194 2
136, 165, 210 2
138, 167, 212 2
145, 166, 211 2
50, 71, 102 2
66, 92, 122 2
86, 116, 151 2
111, 135, 189 2
123, 147, 201 2
79, 103, 157 2
93, 114, 166 2
93, 118, 162 2
101, 126, 170 2
108, 131, 177 2
107, 130, 176 2
101, 123, 165 2
90, 112, 148 2
89, 109, 144 2
50, 68, 79 2
108, 134, 171 2
116, 143, 193 2
117, 144, 194 2
127, 158, 203 2
134, 151, 194 2
41, 56, 75 2
47, 69, 97 2
45, 67, 95 2
87, 109, 161 2
78, 100, 152 2
109, 133, 179 2
102, 124, 165 2
100, 123, 161 2
125, 155, 202 2
129, 160, 205 2
31, 48, 61 2
43, 63, 81 2
49, 70, 98 2
31, 43, 77 2
117, 139, 191 2
92, 111, 149 2
91, 110, 148 2
96, 123, 173 2
100, 126, 172 2
103, 128, 172 2
91, 113, 148 2
87, 108, 140 2
118, 147, 198 2
115, 145, 200 2
53, 74, 102 2
108, 129, 181 2
120, 141, 193 2
118, 139, 191 2
114, 135, 187 2
100, 119, 157 2
94, 117, 165 2
97, 119, 155 2
53, 74, 82 2
64, 85, 100 2
91, 113, 141 2
119, 149, 198 2
35, 51, 67 2
129, 150, 202 2
111, 132, 184 2
88, 109, 161 2
89, 108, 151 2
100, 119, 156 2
76, 92, 134 2
108, 133, 173 2
91, 114, 146 2
83, 104, 135 2
79, 102, 124 2
121, 152, 197 2
142, 167, 207 2
48, 69, 101 2
56, 78, 113 2
77, 97, 138 2
75, 96, 141 2
95, 114, 151 2
82, 101, 139 2
92, 115, 161 2
122, 152, 199 2
107, 123, 159 2
83, 98, 130 2
64, 79, 105 2
53, 75, 93 2
57, 76, 113 2
131, 151, 206 2
81, 103, 145 2
90, 109, 146 2
100, 131, 176 2
97, 126, 171 2
57, 76, 89 2
124, 157, 203 2
85, 100, 132 2
55, 79, 99 2
66, 90, 114 2
56, 75, 102 2
119, 136, 192 2
113, 130, 186 2
102, 119, 175 2
78, 97, 135 2
84, 104, 139 2
81, 100, 137 2
77, 93, 135 2
97, 122, 166 2
53, 72, 80 2
86, 107, 138 2
144, 169, 213 2
27, 42, 51 2
99, 116, 172 2
136, 153, 209 2
118, 135, 191 2
79, 92, 136 2
100, 126, 166 2
40, 56, 63 2
51, 66, 75 2
52, 69, 78 2
53, 72, 85 2
57, 79, 97 2
143, 167, 209 2
142, 164, 205 2
138, 162, 204 2
68, 88, 119 2
49, 68, 105 2
115, 135, 193 2
128, 150, 202 2
86, 107, 152 2
77, 99, 140 2
78, 101, 139 2
84, 113, 150 2
86, 115, 152 2
93, 123, 158 2
87, 118, 151 2
82, 109, 136 2
124, 148, 190 2
145, 169, 211 2
132, 156, 198 2
77, 92, 124 2
82, 105, 143 2
87, 117, 152 2
89, 120, 153 2
73, 101, 125 2
86, 110, 140 2
132, 162, 203 2
64, 85, 123 2
100, 125, 175 2
91, 112, 157 2
87, 110, 148 2
89, 117, 152 2
93, 121, 156 2
74, 102, 126 2
147, 171, 213 2
127, 159, 202 2
77, 95, 126 2
62, 76, 99 2
83, 103, 128 2
82, 103, 130 2
62, 84, 120 2
74, 95, 133 2
134, 154, 211 2
115, 140, 190 2
102, 127, 177 2
99, 119, 166 2
76, 104, 128 2
126, 151, 191 2
135, 160, 202 2
129, 159, 200 2
137, 160, 198 2
78, 97, 130 2
89, 106, 139 2
121, 141, 199 2
111, 136, 186 2
93, 119, 156 2
86, 112, 148 2
77, 102, 128 2
77, 106, 127 2
146, 171, 213 2
101, 120, 157 2
85, 104, 139 2
89, 108, 143 2
59, 74, 100 2
117, 140, 186 2
75, 96, 117 2
130, 156, 196 2
125, 159, 202 2
90, 112, 140 2
134, 156, 208 2
122, 145, 195 2
94, 116, 157 2
90, 113, 151 2
90, 114, 144 2
77, 104, 125 2
141, 167, 204 2
129, 154, 198 2
94, 113, 150 2
106, 126, 173 2
96, 118, 159 2
91, 115, 143 2
84, 109, 135 2
140, 168, 209 2
145, 173, 214 2
135, 164, 208 2
128, 154, 200 2
137, 161, 203 2
93, 117, 145 2
116, 142, 189 2
117, 144, 195 2
118, 141, 191 2
96, 120, 148 2
121, 147, 184 2
91, 111, 146 2
129, 150, 205 2
100, 124, 154 2
140, 167, 204 2
122, 154, 197 2
100, 127, 164 2
115, 143, 190 2
120, 148, 202 2
112, 132, 179 2
87, 115, 149 2
87, 114, 141 2
85, 110, 136 2
82, 107, 133 2
76, 97, 118 2
143, 172, 211 2
141, 168, 205 2
120, 154, 197 2
104, 133, 172 2
114, 143, 188 2
110, 130, 177 2
102, 124, 166 2
79, 100, 121 2
107, 131, 161 2
118, 144, 180 2
127, 153, 193 2
138, 157, 194 2
110, 139, 178 2
124, 154, 209 2
85, 112, 139 2
84, 111, 138 2
108, 131, 163 2
115, 148, 193 2
123, 154, 207 2
121, 141, 198 2
115, 137, 189 2
100, 122, 163 2
80, 101, 123 2
114, 147, 192 2
116, 147, 192 2
96, 120, 162 2
101, 130, 167 2
114, 143, 182 2
117, 138, 193 2
114, 136, 188 2
89, 114, 148 2
88, 118, 147 2
129, 157, 198 2
123, 152, 196 2
113, 146, 191 2
93, 115, 151 2
116, 137, 192 2
75, 102, 129 2
77, 107, 132 2
81, 100, 121 2
130, 160, 201 2
119, 148, 192 2
120, 152, 195 2
118, 146, 187 2
123, 148, 192 2
124, 152, 206 2
106, 130, 172 2
79, 103, 133 2
79, 103, 131 2
126, 156, 197 2
118, 150, 193 2
112, 141, 185 2
112, 135, 180 2
97, 119, 144 2
125, 155, 196 2
124, 151, 195 2
120, 149, 193 2
114, 143, 187 2
115, 142, 186 2
117, 145, 186 2
126, 150, 196 2
117, 140, 185 2
114, 137, 182 2
110, 133, 178 2
120, 149, 200 2
124, 154, 195 2
124, 148, 194 2
99, 123, 165 2
115, 141, 188 2
108, 137, 174 2
115, 142, 193 2
96, 122, 159 2
86, 114, 145 2
85, 110, 142 2
103, 132, 169 2
102, 131, 168 2
102, 132, 167 2
100, 130, 165 2
99, 129, 164 2
104, 134, 169 2
126, 149, 197 2
126, 153, 204 2
120, 147, 198 2
117, 147, 188 2
108, 134, 174 2
86, 111, 143 2
57, 83, 97 2
78, 104, 121 2
119, 150, 189 2
112, 143, 182 2
75, 101, 117 2
107, 137, 172 2
104, 132, 167 2
105, 133, 168 2
126, 149, 199 2
69, 95, 109 2
85, 111, 128 2
102, 129, 163 2
80, 110, 135 2
128, 151, 201 2
115, 139, 193 2
89, 116, 136 2
98, 126, 150 2
104, 132, 162 2
105, 135, 164 2
97, 125, 155 2
129, 152, 202 2
98, 125, 151 2
99, 129, 154 2
82, 106, 130 2
96, 125, 146 2
89, 120, 143 2
87, 113, 137 2
74, 98, 120 2
71, 98, 119 2
113, 142, 181 2
123, 146, 202 2
91, 119, 136 2
80, 104, 124 2
78, 102, 122 2
70, 95, 115 2
86, 115, 146 2
117, 142, 198 2
105, 129, 183 2
83, 107, 137 2
68, 91, 106 2
82, 108, 125 2
85, 111, 127 2
86, 113, 127 2
63, 93, 112 2
79, 109, 138 2
120, 143, 199 2
103, 127, 181 2
105, 129, 181 2
101, 129, 176 2
79, 105, 121 2
76, 106, 123 2
67, 91, 111 2
96, 127, 160 2
116, 141, 197 2
100, 124, 178 2
82, 108, 122 2
77, 103, 117 2
110, 136, 166 2
119, 144, 178 2
126, 149, 187 2
111, 135, 195 2
104, 131, 181 2
89, 117, 148 2
77, 105, 135 2
58, 74, 81 2
80, 103, 118 2
67, 90, 105 2
66, 89, 104 2
64, 87, 102 2
62, 85, 100 2
61, 84, 99 2
111, 136, 192 2
69, 84, 100 2
73, 96, 111 2
59, 82, 97 2
102, 128, 174 2
54, 70, 77 2
64, 78, 90 2
72, 93, 108 2
56, 76, 93 2
60, 82, 100 2
64, 88, 106 2
69, 94, 114 2
94, 118, 146 2
112, 144, 185 2
110, 138, 185 2
103, 129, 169 2
49, 65, 72 2
56, 70, 82 2
56, 69, 83 2
64, 80, 93 2
63, 82, 95 2
122, 153, 192 2
106, 137, 182 2
103, 132, 177 2
101, 129, 170 2
100, 128, 169 2
47, 60, 68 2
52, 68, 75 2
53, 68, 77 2
52, 66, 78 2
62, 79, 92 2
59, 76, 89 2
54, 73, 86 2
50, 71, 86 2
53, 76, 91 2
66, 92, 109 2
76, 101, 121 2
114, 146, 182 2
103, 135, 178 2
99, 128, 165 2
98, 127, 164 2
92, 120, 150 2
55, 81, 95 2
106, 137, 176 2
43, 57, 63 2
65, 83, 94 2
55, 73, 84 2
57, 77, 88 2
98, 128, 169 2
102, 130, 165 2
37, 50, 52 2
39, 55, 62 2
54, 72, 83 2
51, 69, 80 2
49, 67, 78 2
82, 113, 136 2
96, 125, 162 2
94, 124, 153 2
95, 123, 157 2
108, 134, 170 2
95, 124, 155 2
35, 49, 48 2
46, 62, 69 2
61, 80, 88 2
56, 78, 96 2
88, 117, 144 2
106, 133, 167 2
107, 134, 168 2
77, 106, 133 2
37, 51, 50 2
37, 51, 57 2
38, 52, 58 2
55, 74, 82 2
53, 75, 86 2
56, 80, 92 2
64, 93, 108 2
64, 92, 109 2
76, 106, 125 2
80, 109, 130 2
88, 118, 143 2
91, 120, 147 2
96, 124, 154 2
34, 48, 47 2
47, 64, 73 2
49, 66, 75 2
43, 62, 70 2
52, 79, 89 2
52, 80, 91 2
67, 94, 108 2
77, 107, 126 2
103, 131, 162 2
30, 42, 42 2
40, 54, 53 2
50, 68, 75 2
44, 62, 69 2
49, 66, 79 2
51, 77, 84 2
99, 127, 157 2
99, 127, 158 2
32, 47, 50 2
53, 77, 97 2
82, 109, 135 2
75, 43, 37 1
62, 42, 31 1
74, 45, 38 1
60, 41, 28 1
69, 50, 37 1
62, 43, 28 1
70, 51, 36 1
75, 48, 38 1
69, 50, 35 1
70, 41, 32 1
64, 40, 28 1
70, 51, 38 1
71, 52, 39 1
63, 41, 29 1
75, 51, 39 1
72, 50, 38 1
71, 49, 38 1
63, 42, 27 1
72, 49, 34 1
76, 50, 38 1
71, 46, 30 1
71, 43, 32 1
69, 43, 27 1
77, 51, 35 1
74, 47, 33 1
74, 45, 30 1
71, 45, 29 1
74, 48, 32 1
74, 46, 39 1
75, 46, 39 1
74, 49, 39 1
52, 42, 32 1
52, 40, 30 1
60, 36, 30 1
53, 34, 27 1
66, 38, 31 1
57, 45, 35 1
58, 46, 36 1
56, 44, 34 1
54, 42, 32 1
58, 34, 28 1
51, 40, 32 1
61, 41, 36 1
52, 41, 33 1
50, 41, 32 1
58, 43, 34 1
66, 46, 29 1
60, 43, 30 1
73, 48, 38 1
61, 38, 36 1
58, 42, 29 1
59, 43, 30 1
66, 37, 33 1
66, 39, 35 1
67, 40, 36 1
64, 45, 38 1
64, 43, 41 1
62, 41, 39 1
64, 37, 33 1
52, 35, 26 1
58, 42, 30 1
53, 37, 25 1
61, 40, 39 1
52, 29, 33 1
54, 31, 35 1
60, 40, 35 1
56, 39, 26 1
64, 46, 35 1
65, 46, 38 1
66, 47, 40 1
56, 34, 39 1
58, 35, 43 1
63, 40, 48 1
68, 41, 31 1
67, 38, 29 1
52, 34, 35 1
56, 35, 44 1
59, 36, 50 1
62, 39, 53 1
59, 38, 41 1
65, 42, 46 1
55, 33, 35 1
65, 38, 28 1
61, 45, 38 1
66, 47, 42 1
52, 35, 32 1
59, 42, 56 1
61, 43, 60 1
60, 41, 62 1
59, 42, 63 1
54, 34, 47 1
54, 32, 44 1
63, 39, 49 1
59, 37, 42 1
56, 33, 37 1
65, 47, 40 1
53, 34, 26 1
49, 31, 24 1
50, 34, 41 1
52, 37, 45 1
60, 45, 59 1
74, 62, 80 1
97, 85, 107 1
115, 102, 128 1
117, 105, 133 1
106, 96, 126 1
96, 85, 117 1
77, 62, 83 1
61, 44, 65 1
52, 33, 52 1
56, 35, 50 1
57, 36, 39 1
52, 37, 51 1
85, 72, 96 1
110, 101, 128 1
134, 128, 159 1
144, 138, 173 1
137, 132, 171 1
127, 123, 164 1
119, 117, 159 1
111, 109, 151 1
102, 95, 122 1
84, 75, 101 1
66, 53, 77 1
55, 40, 61 1
53, 33, 45 1
58, 40, 47 1
48, 31, 44 1
50, 34, 52 1
77, 62, 89 1
108, 97, 129 1
139, 131, 168 1
147, 141, 182 1
145, 142, 187 1
140, 140, 188 1
135, 136, 186 1
125, 129, 180 1
114, 121, 171 1
99, 106, 156 1
105, 107, 138 1
99, 99, 129 1
90, 85, 114 1
74, 63, 89 1
60, 45, 66 1
56, 39, 53 1
57, 38, 47 1
57, 35, 40 1
53, 34, 29 1
60, 41, 36 1
58, 40, 39 1
52, 35, 38 1
47, 30, 39 1
60, 44, 61 1
94, 80, 104 1
130, 117, 149 1
146, 137, 177 1
153, 146, 191 1
149, 146, 196 1
140, 141, 192 1
135, 138, 193 1
128, 135, 192 1
119, 128, 185 1
111, 122, 180 1
99, 110, 168 1
97, 106, 140 1
101, 106, 139 1
102, 102, 132 1
93, 86, 113 1
78, 66, 88 1
69, 51, 68 1
61, 41, 53 1
55, 33, 38 1
59, 40, 35 1
77, 51, 37 1
73, 51, 39 1
72, 54, 37 1
65, 48, 29 1
63, 46, 27 1
64, 46, 29 1
41, 31, 48 1
33, 24, 50 1
39, 32, 67 1
71, 64, 107 1
110, 107, 156 1
136, 137, 188 1
140, 146, 199 1
138, 148, 202 1
134, 147, 203 1
131, 145, 204 1
127, 142, 204 1
119, 136, 199 1
111, 129, 190 1
98, 118, 176 1
89, 109, 167 1
86, 102, 138 1
73, 74, 108 1
57, 52, 81 1
50, 38, 60 1
52, 35, 49 1
55, 37, 44 1
54, 40, 34 1
58, 37, 29 1
52, 33, 28 1
50, 37, 23 1
50, 36, 24 1
74, 44, 39 1
61, 42, 27 1
60, 42, 25 1
61, 45, 29 1
56, 37, 40 1
40, 34, 51 1
51, 43, 66 1
104, 96, 136 1
136, 133, 179 1
158, 157, 207 1
157, 159, 213 1
146, 154, 207 1
141, 153, 207 1
138, 151, 207 1
133, 150, 207 1
130, 146, 205 1
122, 140, 199 1
112, 130, 189 1
100, 120, 175 1
85, 101, 138 1
93, 102, 139 1
84, 86, 120 1
72, 66, 97 1
58, 45, 69 1
53, 38, 52 1
54, 36, 43 1
48, 34, 28 1
58, 36, 31 1
58, 37, 36 1
76, 44, 39 1
72, 47, 43 1
69, 44, 40 1
64, 42, 37 1
66, 45, 43 1
63, 43, 42 1
62, 47, 38 1
63, 45, 38 1
64, 46, 39 1
67, 49, 38 1
60, 44, 38 1
54, 40, 41 1
52, 38, 44 1
49, 35, 46 1
48, 34, 46 1
59, 56, 82 1
88, 86, 116 1
126, 123, 162 1
149, 147, 193 1
155, 156, 207 1
155, 158, 213 1
155, 162, 217 1
158, 168, 222 1
147, 161, 214 1
142, 157, 213 1
137, 154, 210 1
132, 151, 208 1
100, 121, 172 1
90, 112, 160 1
84, 111, 148 1
75, 98, 136 1
62, 81, 119 1
76, 87, 125 1
89, 93, 128 1
89, 84, 115 1
68, 57, 83 1
53, 32, 34 1
55, 34, 33 1
61, 39, 27 1
75, 42, 39 1
60, 38, 33 1
63, 42, 41 1
64, 43, 42 1
64, 44, 49 1
66, 46, 51 1
62, 45, 49 1
57, 47, 40 1
56, 44, 40 1
57, 42, 39 1
59, 42, 39 1
65, 42, 40 1
58, 42, 43 1
42, 31, 41 1
43, 33, 49 1
61, 55, 74 1
85, 80, 101 1
113, 117, 152 1
131, 133, 173 1
146, 149, 194 1
151, 155, 208 1
153, 157, 215 1
155, 163, 222 1
158, 169, 227 1
158, 171, 227 1
149, 165, 218 1
143, 161, 214 1
138, 159, 211 1
135, 156, 208 1
127, 148, 199 1
113, 135, 183 1
99, 122, 167 1
89, 113, 155 1
83, 112, 151 1
60, 86, 126 1
40, 60, 101 1
55, 67, 107 1
86, 92, 129 1
94, 93, 127 1
70, 63, 90 1
47, 35, 55 1
52, 35, 48 1
52, 31, 33 1
58, 34, 34 1
57, 41, 29 1
63, 47, 31 1
62, 46, 30 1
62, 42, 37 1
64, 44, 43 1
50, 32, 39 1
51, 32, 41 1
61, 44, 55 1
75, 57, 70 1
84, 67, 80 1
85, 68, 82 1
77, 62, 76 1
70, 55, 69 1
61, 46, 60 1
50, 44, 45 1
48, 40, 40 1
47, 37, 37 1
50, 38, 38 1
55, 39, 40 1
61, 41, 40 1
62, 41, 43 1
61, 39, 44 1
62, 44, 51 1
51, 37, 49 1
39, 29, 45 1
49, 42, 63 1
77, 74, 99 1
109, 110, 138 1
130, 132, 162 1
131, 143, 185 1
140, 151, 195 1
146, 157, 207 1
144, 155, 212 1
143, 154, 214 1
144, 158, 217 1
146, 162, 221 1
147, 164, 221 1
143, 163, 218 1
140, 160, 215 1
138, 158, 213 1
136, 157, 209 1
128, 149, 200 1
112, 135, 181 1
71, 102, 141 1
32, 54, 95 1
83, 92, 130 1
93, 93, 129 1
47, 37, 60 1
43, 30, 46 1
54, 37, 34 1
59, 41, 40 1
56, 38, 39 1
54, 37, 46 1
62, 46, 57 1
67, 52, 66 1
85, 72, 88 1
98, 86, 104 1
113, 101, 121 1
119, 107, 129 1
113, 101, 123 1
100, 88, 110 1
83, 71, 93 1
65, 53, 75 1
48, 46, 52 1
43, 39, 45 1
39, 33, 38 1
42, 33, 36 1
51, 37, 41 1
56, 41, 45 1
59, 42, 46 1
58, 39, 48 1
62, 44, 57 1
56, 40, 57 1
48, 36, 58 1
60, 53, 80 1
98, 97, 129 1
138, 142, 177 1
151, 159, 196 1
147, 156, 194 1
144, 163, 208 1
141, 159, 206 1
140, 156, 209 1
141, 158, 215 1
141, 159, 220 1
140, 158, 219 1
138, 158, 215 1
136, 157, 212 1
113, 134, 185 1
63, 93, 134 1
36, 64, 105 1
26, 50, 92 1
45, 63, 104 1
82, 92, 132 1
90, 93, 131 1
72, 69, 101 1
53, 44, 71 1
42, 30, 50 1
47, 33, 45 1
50, 35, 43 1
53, 37, 38 1
50, 35, 33 1
49, 33, 34 1
70, 40, 35 1
48, 35, 43 1
96, 86, 103 1
112, 103, 124 1
137, 129, 152 1
137, 131, 156 1
134, 129, 156 1
130, 125, 154 1
119, 114, 143 1
107, 102, 131 1
93, 88, 117 1
78, 73, 102 1
58, 58, 72 1
48, 48, 62 1
41, 37, 49 1
39, 34, 43 1
48, 39, 49 1
55, 44, 54 1
54, 43, 53 1
50, 37, 51 1
45, 33, 53 1
49, 38, 64 1
74, 68, 99 1
116, 116, 152 1
148, 153, 192 1
155, 164, 207 1
153, 166, 210 1
151, 166, 212 1
142, 165, 210 1
137, 160, 208 1
135, 157, 209 1
135, 157, 215 1
139, 162, 218 1
129, 151, 209 1
132, 154, 212 1
138, 158, 216 1
114, 134, 189 1
96, 117, 168 1
86, 108, 156 1
55, 86, 125 1
26, 54, 95 1
23, 48, 88 1
44, 62, 103 1
77, 89, 129 1
87, 92, 131 1
76, 77, 111 1
65, 60, 89 1
46, 38, 61 1
48, 36, 54 1
47, 34, 48 1
48, 34, 38 1
47, 33, 37 1
55, 34, 37 1
55, 36, 39 1
54, 35, 38 1
53, 34, 37 1
51, 32, 35 1
50, 31, 34 1
55, 37, 38 1
51, 36, 34 1
51, 36, 33 1
51, 38, 30 1
52, 37, 34 1
53, 38, 36 1
72, 45, 41 1
69, 40, 36 1
69, 39, 38 1
69, 40, 43 1
65, 38, 41 1
62, 38, 40 1
58, 35, 39 1
46, 35, 45 1
57, 47, 60 1
75, 68, 83 1
101, 95, 114 1
125, 119, 142 1
139, 136, 161 1
144, 142, 171 1
132, 132, 162 1
126, 128, 159 1
118, 119, 153 1
113, 115, 149 1
108, 111, 142 1
91, 94, 125 1
72, 73, 94 1
62, 60, 82 1
46, 46, 64 1
41, 40, 56 1
46, 43, 58 1
53, 48, 63 1
50, 44, 61 1
41, 36, 57 1
40, 36, 61 1
80, 78, 108 1
134, 136, 171 1
167, 171, 212 1
164, 173, 217 1
147, 161, 209 1
139, 156, 205 1
135, 155, 203 1
127, 153, 200 1
126, 150, 208 1
130, 154, 212 1
129, 153, 211 1
126, 151, 207 1
125, 149, 207 1
126, 147, 208 1
131, 152, 214 1
139, 157, 220 1
133, 151, 214 1
115, 134, 195 1
97, 116, 173 1
87, 107, 162 1
23, 49, 89 1
30, 52, 93 1
49, 67, 108 1
80, 87, 126 1
81, 83, 118 1
78, 75, 107 1
62, 57, 86 1
60, 52, 75 1
54, 45, 65 1
53, 43, 59 1
54, 44, 57 1
55, 45, 57 1
54, 44, 56 1
52, 42, 54 1
52, 32, 44 1
50, 30, 42 1
49, 29, 41 1
49, 32, 41 1
53, 35, 42 1
52, 34, 41 1
51, 33, 40 1
51, 34, 38 1
54, 35, 32 1
48, 34, 36 1
49, 35, 37 1
50, 36, 38 1
75, 47, 40 1
70, 45, 43 1
64, 38, 38 1
64, 37, 40 1
64, 37, 41 1
65, 36, 45 1
64, 37, 47 1
64, 38, 51 1
68, 44, 56 1
72, 49, 63 1
74, 54, 67 1
79, 75, 94 1
98, 94, 113 1
119, 117, 137 1
135, 132, 157 1
145, 144, 170 1
142, 145, 173 1
134, 137, 168 1
125, 130, 163 1
120, 126, 161 1
112, 122, 156 1
106, 116, 150 1
104, 114, 148 1
100, 111, 143 1
93, 104, 136 1
97, 97, 127 1
86, 87, 115 1
70, 71, 97 1
56, 57, 78 1
49, 50, 70 1
51, 52, 72 1
54, 57, 78 1
65, 66, 92 1
106, 110, 139 1
145, 151, 186 1
178, 186, 226 1
177, 188, 232 1
157, 171, 219 1
134, 151, 202 1
121, 139, 192 1
127, 152, 208 1
128, 152, 210 1
127, 151, 209 1
119, 143, 201 1
120, 141, 202 1
130, 150, 215 1
138, 157, 224 1
137, 154, 221 1
119, 137, 200 1
105, 124, 185 1
87, 107, 164 1
44, 69, 109 1
15, 40, 80 1
22, 42, 83 1
47, 65, 106 1
70, 82, 122 1
78, 84, 121 1
77, 77, 113 1
81, 78, 110 1
78, 74, 103 1
79, 75, 100 1
81, 75, 98 1
81, 74, 95 1
85, 79, 98 1
87, 81, 100 1
83, 77, 96 1
78, 59, 80 1
64, 45, 66 1
44, 27, 48 1
48, 31, 52 1
55, 38, 59 1
66, 49, 70 1
63, 46, 67 1
66, 50, 68 1
65, 49, 67 1
59, 43, 60 1
46, 29, 43 1
59, 39, 44 1
49, 34, 38 1
48, 33, 37 1
44, 30, 36 1
42, 27, 35 1
51, 37, 48 1
52, 38, 50 1
50, 36, 47 1
43, 30, 38 1
73, 47, 40 1
76, 50, 43 1
77, 51, 45 1
73, 47, 41 1
70, 48, 42 1
66, 46, 41 1
62, 39, 44 1
65, 41, 51 1
73, 49, 61 1
83, 60, 75 1
94, 72, 90 1
104, 85, 106 1
116, 98, 121 1
128, 112, 135 1
134, 120, 144 1
129, 130, 156 1
132, 135, 163 1
133, 135, 165 1
130, 134, 163 1
129, 134, 165 1
128, 134, 169 1
124, 134, 168 1
121, 133, 169 1
117, 129, 165 1
111, 124, 162 1
102, 119, 152 1
98, 115, 148 1
93, 111, 142 1
104, 106, 140 1
102, 104, 138 1
99, 102, 133 1
87, 91, 119 1
73, 80, 107 1
74, 81, 106 1
93, 102, 129 1
121, 132, 160 1
166, 177, 209 1
171, 184, 222 1
165, 179, 221 1
145, 161, 207 1
131, 148, 197 1
122, 141, 192 1
129, 152, 208 1
122, 144, 202 1
122, 143, 204 1
131, 151, 216 1
136, 155, 222 1
118, 138, 203 1
104, 125, 186 1
88, 108, 166 1
44, 66, 107 1
18, 38, 79 1
23, 41, 82 1
67, 82, 121 1
75, 85, 125 1
77, 84, 123 1
73, 76, 114 1
77, 79, 114 1
75, 77, 108 1
79, 79, 109 1
84, 82, 111 1
86, 82, 111 1
90, 87, 113 1
94, 91, 117 1
91, 88, 114 1
90, 72, 101 1
76, 58, 87 1
57, 41, 72 1
56, 40, 71 1
59, 44, 75 1
73, 58, 89 1
85, 70, 101 1
93, 81, 109 1
90, 76, 104 1
80, 67, 93 1
68, 54, 78 1
55, 41, 65 1
46, 33, 55 1
41, 28, 50 1
49, 32, 45 1
49, 33, 44 1
48, 32, 43 1
44, 31, 39 1
45, 32, 40 1
48, 37, 47 1
58, 48, 61 1
77, 65, 83 1
82, 70, 90 1
86, 73, 95 1
85, 73, 93 1
80, 68, 86 1
60, 50, 63 1
71, 47, 41 1
69, 47, 41 1
59, 37, 32 1
58, 41, 45 1
63, 46, 55 1
74, 56, 69 1
80, 62, 79 1
87, 71, 89 1
100, 84, 107 1
109, 96, 122 1
114, 105, 132 1
123, 115, 145 1
132, 126, 157 1
138, 133, 164 1
128, 137, 170 1
128, 137, 174 1
126, 138, 174 1
110, 128, 165 1
104, 122, 159 1
101, 121, 156 1
97, 118, 150 1
100, 107, 140 1
93, 102, 135 1
87, 98, 128 1
92, 103, 133 1
111, 124, 156 1
136, 151, 184 1
165, 184, 219 1
165, 184, 222 1
152, 171, 214 1
136, 156, 203 1
129, 149, 197 1
123, 144, 195 1
131, 153, 211 1
123, 144, 205 1
132, 152, 217 1
137, 157, 222 1
121, 142, 204 1
106, 128, 186 1
88, 111, 167 1
43, 63, 104 1
17, 35, 76 1
21, 39, 80 1
44, 60, 102 1
66, 81, 120 1
70, 77, 116 1
70, 76, 113 1
70, 74, 109 1
75, 77, 112 1
80, 82, 116 1
83, 84, 118 1
87, 89, 120 1
88, 90, 121 1
86, 88, 119 1
79, 65, 99 1
67, 53, 87 1
50, 39, 72 1
51, 39, 75 1
59, 49, 85 1
77, 67, 103 1
85, 78, 113 1
93, 86, 121 1
96, 89, 124 1
92, 85, 118 1
87, 80, 113 1
83, 75, 106 1
76, 68, 98 1
70, 61, 88 1
61, 52, 79 1
55, 46, 72 1
50, 39, 59 1
49, 38, 58 1
46, 36, 53 1
44, 34, 50 1
46, 39, 54 1
56, 49, 64 1
67, 61, 80 1
77, 70, 91 1
94, 85, 111 1
98, 89, 116 1
100, 90, 120 1
96, 87, 114 1
89, 80, 106 1
78, 71, 92 1
66, 60, 79 1
65, 46, 41 1
72, 53, 48 1
69, 50, 45 1
67, 48, 43 1
61, 44, 41 1
55, 37, 36 1
63, 45, 44 1
64, 46, 45 1
60, 42, 43 1
63, 45, 46 1
60, 39, 42 1
52, 33, 36 1
59, 43, 50 1
67, 52, 60 1
77, 65, 77 1
94, 83, 99 1
111, 100, 120 1
121, 113, 136 1
123, 117, 142 1
127, 122, 151 1
127, 124, 156 1
123, 124, 158 1
123, 125, 160 1
123, 126, 164 1
122, 128, 165 1
114, 127, 165 1
123, 138, 177 1
120, 137, 176 1
108, 127, 164 1
98, 118, 153 1
89, 114, 140 1
99, 109, 143 1
101, 111, 145 1
103, 115, 149 1
108, 120, 154 1
120, 135, 168 1
139, 155, 191 1
150, 169, 204 1
156, 176, 211 1
156, 178, 214 1
151, 174, 212 1
124, 147, 192 1
118, 140, 188 1
123, 143, 200 1
134, 152, 215 1
123, 144, 206 1
110, 132, 190 1
92, 115, 171 1
46, 62, 108 1
17, 34, 77 1
22, 38, 81 1
68, 82, 124 1
73, 88, 127 1
76, 88, 128 1
73, 83, 123 1
75, 84, 122 1
73, 80, 119 1
75, 82, 121 1
82, 87, 126 1
88, 91, 129 1
87, 90, 128 1
83, 86, 124 1
79, 82, 120 1
73, 65, 102 1
63, 55, 92 1
50, 43, 80 1
56, 52, 88 1
69, 64, 103 1
82, 79, 118 1
85, 82, 121 1
87, 86, 125 1
90, 89, 128 1
84, 84, 120 1
81, 80, 114 1
82, 81, 113 1
89, 87, 117 1
93, 89, 118 1
90, 85, 112 1
87, 82, 109 1
84, 80, 105 1
85, 81, 106 1
91, 89, 111 1
100, 97, 122 1
106, 103, 129 1
109, 107, 136 1
111, 108, 140 1
111, 107, 142 1
110, 106, 141 1
106, 103, 135 1
103, 99, 128 1
96, 93, 119 1
90, 88, 110 1
71, 58, 56 1
64, 51, 49 1
73, 61, 59 1
72, 60, 58 1
57, 45, 43 1
59, 47, 47 1
64, 53, 55 1
60, 49, 51 1
55, 44, 47 1
54, 43, 46 1
49, 38, 41 1
54, 40, 52 1
65, 55, 68 1
87, 77, 93 1
111, 105, 122 1
126, 122, 141 1
125, 123, 145 1
123, 122, 148 1
122, 123, 151 1
119, 124, 157 1
119, 125, 162 1
118, 125, 164 1
115, 127, 167 1
115, 127, 169 1
119, 137, 178 1
120, 139, 177 1
118, 137, 175 1
93, 114, 146 1
74, 98, 126 1
71, 96, 122 1
84, 102, 133 1
89, 107, 138 1
99, 118, 153 1
134, 153, 190 1
137, 158, 196 1
133, 156, 194 1
120, 145, 185 1
122, 146, 192 1
133, 156, 212 1
137, 157, 214 1
132, 150, 213 1
137, 155, 220 1
139, 157, 222 1
125, 146, 208 1
113, 135, 193 1
97, 120, 176 1
51, 67, 114 1
21, 37, 84 1
26, 42, 88 1
52, 67, 113 1
71, 87, 130 1
78, 93, 132 1
77, 92, 131 1
81, 93, 133 1
79, 89, 129 1
86, 94, 134 1
92, 98, 139 1
87, 93, 134 1
77, 81, 122 1
70, 74, 115 1
67, 64, 103 1
55, 52, 91 1
47, 46, 86 1
61, 61, 101 1
74, 74, 114 1
83, 85, 126 1
83, 87, 128 1
87, 91, 132 1
86, 91, 130 1
78, 83, 122 1
71, 77, 114 1
75, 79, 114 1
83, 85, 119 1
88, 91, 122 1
92, 94, 124 1
94, 96, 126 1
97, 98, 132 1
97, 99, 130 1
99, 101, 132 1
106, 109, 140 1
107, 109, 143 1
105, 107, 141 1
104, 106, 141 1
96, 98, 132 1
94, 97, 128 1
92, 95, 123 1
89, 93, 118 1
66, 60, 61 1
64, 59, 58 1
68, 63, 62 1
65, 60, 59 1
56, 52, 51 1
53, 49, 48 1
57, 52, 53 1
64, 59, 61 1
60, 57, 59 1
56, 52, 57 1
60, 56, 62 1
59, 55, 61 1
48, 43, 52 1
65, 60, 81 1
87, 84, 106 1
114, 112, 134 1
121, 123, 147 1
123, 127, 152 1
121, 128, 155 1
119, 127, 156 1
121, 131, 161 1
115, 124, 157 1
113, 122, 159 1
112, 123, 161 1
118, 130, 172 1
121, 135, 177 1
119, 140, 178 1
108, 128, 163 1
100, 121, 153 1
73, 95, 123 1
64, 87, 113 1
57, 81, 105 1
55, 82, 103 1
62, 89, 110 1
69, 96, 117 1
68, 93, 119 1
71, 95, 123 1
80, 103, 135 1
88, 110, 145 1
101, 122, 160 1
118, 138, 179 1
127, 147, 188 1
127, 149, 190 1
123, 149, 186 1
117, 143, 180 1
122, 147, 191 1
135, 159, 213 1
137, 161, 215 1
138, 159, 214 1
120, 143, 193 1
129, 147, 210 1
133, 150, 217 1
136, 153, 220 1
126, 144, 209 1
116, 135, 196 1
101, 121, 179 1
62, 76, 128 1
33, 47, 99 1
37, 52, 101 1
60, 76, 123 1
75, 91, 137 1
76, 93, 136 1
80, 96, 138 1
82, 96, 138 1
81, 93, 135 1
80, 92, 134 1
89, 98, 141 1
96, 103, 146 1
87, 93, 136 1
71, 77, 120 1
62, 68, 111 1
59, 61, 102 1
48, 50, 91 1
51, 52, 96 1
71, 74, 118 1
79, 84, 129 1
83, 89, 134 1
81, 90, 134 1
83, 92, 136 1
79, 88, 132 1
73, 82, 125 1
70, 78, 118 1
72, 81, 119 1
76, 84, 121 1
79, 85, 120 1
81, 88, 121 1
87, 92, 125 1
95, 103, 140 1
98, 105, 144 1
99, 105, 146 1
97, 105, 145 1
88, 97, 135 1
87, 96, 133 1
87, 96, 130 1
87, 96, 129 1
86, 96, 126 1
86, 94, 123 1
86, 95, 122 1
55, 54, 56 1
59, 58, 60 1
60, 60, 60 1
52, 52, 52 1
50, 52, 52 1
42, 44, 44 1
47, 49, 50 1
49, 52, 56 1
50, 53, 58 1
43, 45, 53 1
35, 36, 46 1
50, 51, 61 1
80, 80, 92 1
107, 111, 140 1
117, 123, 152 1
121, 129, 158 1
116, 126, 156 1
114, 128, 157 1
113, 128, 160 1
108, 125, 158 1
113, 128, 167 1
113, 129, 171 1
115, 131, 173 1
119, 135, 178 1
120, 137, 180 1
122, 143, 181 1
119, 141, 177 1
115, 135, 170 1
106, 127, 159 1
98, 118, 149 1
78, 99, 127 1
63, 84, 111 1
53, 75, 100 1
49, 72, 94 1
43, 67, 87 1
42, 67, 87 1
50, 75, 95 1
58, 84, 101 1
64, 95, 118 1
63, 93, 118 1
73, 99, 129 1
112, 131, 174 1
116, 136, 177 1
108, 131, 169 1
113, 136, 174 1
121, 147, 187 1
125, 150, 194 1
126, 154, 201 1
129, 156, 206 1
135, 160, 210 1
138, 162, 214 1
137, 162, 212 1
132, 155, 203 1
117, 140, 188 1
125, 143, 202 1
129, 145, 211 1
129, 145, 214 1
131, 147, 216 1
123, 140, 207 1
114, 132, 197 1
100, 119, 180 1
74, 87, 143 1
48, 62, 115 1
53, 67, 119 1
69, 84, 133 1
79, 95, 141 1
79, 96, 139 1
85, 101, 143 1
87, 101, 143 1
90, 102, 144 1
98, 107, 151 1
103, 109, 154 1
89, 95, 140 1
72, 77, 122 1
65, 70, 115 1
54, 56, 104 1
47, 51, 99 1
63, 67, 116 1
90, 95, 144 1
92, 99, 149 1
89, 98, 148 1
84, 95, 145 1
80, 91, 141 1
76, 87, 137 1
73, 85, 133 1
75, 85, 132 1
77, 88, 132 1
79, 88, 131 1
85, 94, 132 1
92, 100, 137 1
92, 104, 144 1
94, 106, 148 1
95, 106, 150 1
94, 104, 151 1
93, 103, 151 1
94, 105, 149 1
88, 100, 142 1
84, 97, 135 1
80, 95, 128 1
80, 93, 125 1
77, 91, 120 1
75, 89, 117 1
79, 91, 119 1
47, 48, 52 1
52, 54, 55 1
57, 61, 62 1
55, 59, 60 1
54, 58, 59 1
47, 52, 53 1
42, 47, 50 1
42, 46, 51 1
45, 51, 58 1
51, 56, 65 1
63, 67, 78 1
87, 91, 102 1
110, 113, 127 1
112, 123, 155 1
118, 129, 161 1
117, 129, 163 1
110, 127, 160 1
113, 132, 165 1
112, 132, 167 1
114, 133, 171 1
124, 141, 184 1
127, 144, 187 1
129, 145, 191 1
119, 141, 182 1
118, 141, 179 1
109, 129, 164 1
99, 119, 150 1
88, 109, 137 1
74, 93, 120 1
62, 82, 107 1
50, 71, 93 1
39, 63, 83 1
33, 57, 77 1
44, 68, 86 1
49, 75, 92 1
55, 88, 108 1
57, 89, 112 1
77, 104, 138 1
85, 108, 146 1
103, 122, 165 1
107, 127, 168 1
102, 125, 163 1
109, 135, 172 1
132, 156, 202 1
115, 138, 186 1
127, 145, 204 1
128, 144, 210 1
128, 143, 212 1
130, 144, 216 1
120, 136, 205 1
112, 129, 196 1
98, 116, 179 1
82, 94, 152 1
58, 73, 129 1
61, 77, 130 1
72, 89, 138 1
78, 96, 143 1
84, 102, 143 1
83, 99, 141 1
91, 105, 147 1
99, 110, 154 1
100, 109, 153 1
85, 91, 136 1
68, 73, 118 1
63, 68, 113 1
48, 51, 102 1
48, 52, 103 1
71, 75, 128 1
100, 106, 159 1
99, 106, 161 1
96, 106, 160 1
81, 93, 147 1
79, 91, 145 1
77, 90, 142 1
79, 90, 140 1
79, 91, 139 1
78, 88, 135 1
78, 87, 131 1
84, 93, 136 1
99, 115, 158 1
98, 113, 159 1
100, 114, 163 1
103, 116, 168 1
102, 115, 167 1
97, 111, 160 1
93, 108, 154 1
86, 102, 139 1
77, 95, 124 1
75, 91, 120 1
72, 88, 117 1
75, 89, 118 1
51, 53, 54 1
52, 57, 58 1
52, 60, 60 1
49, 58, 61 1
45, 57, 61 1
30, 44, 50 1
33, 50, 59 1
42, 59, 72 1
52, 69, 88 1
63, 81, 104 1
77, 96, 123 1
91, 112, 140 1
101, 121, 152 1
109, 132, 170 1
110, 135, 175 1
111, 136, 176 1
109, 134, 176 1
110, 135, 179 1
113, 137, 183 1
114, 140, 187 1
120, 145, 195 1
128, 144, 190 1
122, 140, 187 1
116, 135, 180 1
105, 126, 164 1
51, 75, 93 1
46, 69, 85 1
39, 61, 79 1
41, 64, 86 1
46, 69, 91 1
50, 74, 96 1
64, 85, 117 1
69, 92, 124 1
76, 99, 131 1
95, 126, 165 1
108, 139, 184 1
114, 146, 195 1
114, 145, 196 1
85, 111, 165 1
69, 85, 144 1
72, 88, 147 1
78, 92, 150 1
83, 99, 152 1
87, 101, 153 1
87, 102, 151 1
85, 101, 147 1
84, 101, 144 1
61, 73, 115 1
41, 49, 96 1
60, 67, 116 1
81, 92, 142 1
93, 108, 164 1
85, 103, 156 1
83, 102, 153 1
80, 102, 144 1
82, 103, 141 1
83, 103, 144 1
84, 103, 146 1
85, 106, 151 1
96, 117, 169 1
101, 122, 173 1
103, 124, 175 1
105, 125, 173 1
46, 50, 51 1
50, 55, 56 1
51, 59, 59 1
48, 60, 62 1
48, 60, 64 1
50, 66, 78 1
59, 78, 93 1
70, 89, 110 1
80, 100, 125 1
92, 113, 141 1
105, 125, 156 1
113, 134, 166 1
114, 137, 175 1
112, 138, 175 1
113, 138, 178 1
115, 140, 180 1
115, 140, 184 1
131, 147, 194 1
123, 139, 186 1
112, 128, 174 1
74, 95, 126 1
57, 80, 102 1
34, 57, 73 1
32, 53, 74 1
37, 58, 80 1
40, 62, 87 1
46, 68, 93 1
51, 75, 97 1
62, 82, 117 1
71, 94, 126 1
81, 109, 140 1
90, 121, 160 1
110, 140, 189 1
110, 142, 191 1
88, 114, 168 1
76, 102, 156 1
65, 81, 140 1
69, 86, 143 1
77, 91, 149 1
84, 100, 153 1
91, 105, 157 1
93, 109, 156 1
92, 108, 154 1
92, 109, 152 1
60, 72, 114 1
44, 52, 99 1
68, 78, 126 1
92, 103, 155 1
94, 106, 160 1
88, 105, 161 1
86, 104, 157 1
88, 107, 158 1
86, 106, 153 1
84, 106, 148 1
83, 105, 146 1
86, 107, 145 1
89, 110, 155 1
102, 123, 175 1
104, 125, 176 1
106, 128, 176 1
106, 126, 174 1
98, 119, 164 1
41, 46, 47 1
44, 52, 52 1
47, 56, 59 1
49, 60, 64 1
61, 76, 85 1
80, 97, 116 1
90, 111, 133 1
99, 120, 147 1
107, 128, 159 1
122, 141, 178 1
119, 144, 184 1
118, 143, 183 1
117, 141, 183 1
130, 155, 205 1
131, 156, 206 1
143, 159, 205 1
139, 155, 201 1
132, 148, 195 1
120, 136, 183 1
104, 121, 164 1
59, 80, 108 1
43, 64, 85 1
33, 56, 72 1
30, 53, 69 1
48, 70, 95 1
54, 78, 102 1
60, 84, 108 1
63, 84, 116 1
68, 93, 125 1
74, 99, 131 1
75, 103, 134 1
79, 107, 141 1
80, 110, 145 1
89, 120, 159 1
94, 123, 167 1
103, 133, 180 1
105, 131, 185 1
100, 126, 180 1
103, 129, 183 1
92, 118, 172 1
77, 103, 157 1
65, 91, 145 1
64, 80, 139 1
68, 85, 142 1
78, 93, 149 1
87, 103, 156 1
95, 109, 161 1
99, 115, 162 1
100, 116, 162 1
77, 91, 133 1
59, 70, 114 1
45, 56, 100 1
51, 58, 107 1
80, 90, 138 1
101, 112, 164 1
96, 110, 163 1
92, 107, 163 1
86, 107, 159 1
89, 110, 161 1
89, 112, 158 1
89, 111, 152 1
106, 127, 179 1
107, 128, 179 1
108, 129, 180 1
98, 118, 159 1
36, 44, 44 1
38, 47, 50 1
42, 53, 57 1
47, 61, 67 1
76, 94, 111 1
89, 110, 132 1
101, 122, 149 1
112, 134, 169 1
117, 138, 176 1
118, 140, 181 1
120, 144, 186 1
128, 156, 203 1
131, 158, 208 1
133, 160, 210 1
142, 161, 206 1
130, 146, 193 1
74, 93, 128 1
29, 50, 65 1
49, 71, 96 1
55, 79, 103 1
60, 83, 115 1
66, 91, 123 1
66, 94, 125 1
74, 102, 133 1
77, 105, 139 1
87, 118, 157 1
98, 130, 173 1
133, 157, 211 1
136, 160, 214 1
88, 112, 166 1
63, 87, 141 1
70, 87, 144 1
74, 91, 148 1
83, 98, 154 1
91, 107, 160 1
99, 114, 163 1
102, 118, 165 1
103, 119, 165 1
102, 119, 162 1
90, 106, 148 1
76, 90, 132 1
58, 69, 113 1
43, 54, 98 1
57, 67, 115 1
86, 97, 147 1
99, 112, 164 1
94, 108, 161 1
96, 111, 167 1
90, 111, 162 1
91, 114, 160 1
91, 113, 154 1
34, 44, 44 1
35, 47, 49 1
73, 92, 107 1
83, 102, 123 1
96, 117, 144 1
114, 136, 177 1
114, 138, 180 1
115, 138, 183 1
120, 145, 189 1
125, 153, 200 1
132, 160, 207 1
134, 162, 209 1
143, 162, 207 1
136, 155, 200 1
97, 114, 153 1
46, 63, 89 1
31, 51, 69 1
30, 49, 64 1
27, 48, 63 1
28, 48, 65 1
43, 63, 88 1
59, 82, 108 1
61, 78, 117 1
62, 85, 117 1
80, 108, 142 1
82, 111, 148 1
86, 117, 156 1
92, 116, 170 1
87, 111, 165 1
67, 91, 145 1
81, 98, 155 1
84, 101, 157 1
92, 108, 161 1
97, 114, 165 1
102, 117, 166 1
103, 119, 166 1
101, 118, 161 1
100, 118, 159 1
75, 89, 131 1
56, 67, 111 1
41, 52, 96 1
58, 70, 118 1
88, 99, 149 1
97, 110, 162 1
90, 106, 159 1
99, 119, 174 1
91, 114, 164 1
91, 114, 162 1
88, 112, 154 1
93, 116, 161 1
100, 123, 169 1
89, 110, 148 1
83, 104, 136 1
41, 57, 63 1
84, 103, 124 1
91, 113, 138 1
106, 127, 158 1
114, 138, 174 1
118, 141, 186 1
135, 164, 209 1
143, 164, 209 1
100, 115, 154 1
69, 84, 116 1
42, 58, 81 1
29, 47, 64 1
29, 48, 61 1
29, 48, 63 1
47, 67, 92 1
50, 71, 98 1
58, 81, 107 1
58, 73, 112 1
54, 73, 108 1
55, 76, 108 1
56, 80, 110 1
68, 94, 124 1
71, 99, 129 1
76, 104, 138 1
75, 105, 140 1
91, 123, 159 1
101, 132, 171 1
117, 141, 195 1
130, 154, 208 1
116, 140, 194 1
99, 123, 177 1
86, 110, 164 1
75, 99, 153 1
66, 90, 144 1
99, 115, 168 1
102, 119, 170 1
105, 121, 168 1
104, 120, 166 1
74, 88, 130 1
39, 50, 94 1
53, 67, 115 1
86, 100, 149 1
97, 111, 163 1
90, 108, 161 1
92, 112, 167 1
96, 117, 172 1
97, 120, 170 1
93, 116, 164 1
90, 115, 159 1
90, 113, 158 1
95, 118, 163 1
98, 121, 166 1
102, 125, 171 1
104, 127, 173 1
89, 111, 147 1
76, 96, 127 1
31, 46, 48 1
34, 51, 54 1
45, 62, 71 1
91, 114, 136 1
99, 121, 149 1
117, 141, 193 1
117, 145, 192 1
126, 155, 200 1
134, 163, 208 1
138, 157, 202 1
133, 149, 195 1
124, 140, 182 1
102, 118, 155 1
69, 83, 112 1
39, 56, 77 1
28, 44, 60 1
27, 44, 57 1
27, 46, 59 1
39, 60, 82 1
46, 67, 94 1
48, 70, 98 1
50, 73, 99 1
51, 63, 103 1
50, 63, 101 1
47, 63, 100 1
47, 63, 99 1
46, 65, 98 1
48, 68, 99 1
49, 73, 101 1
61, 88, 115 1
69, 97, 127 1
68, 97, 128 1
68, 96, 130 1
73, 104, 137 1
98, 128, 163 1
98, 122, 176 1
90, 114, 168 1
71, 95, 149 1
73, 97, 151 1
95, 113, 166 1
97, 115, 168 1
103, 120, 171 1
106, 123, 172 1
109, 125, 172 1
107, 123, 169 1
103, 121, 162 1
101, 119, 160 1
73, 87, 129 1
53, 64, 108 1
38, 49, 93 1
52, 66, 114 1
83, 98, 147 1
96, 113, 164 1
97, 121, 173 1
95, 121, 168 1
94, 118, 164 1
94, 119, 163 1
99, 120, 158 1
29, 47, 48 1
35, 54, 59 1
67, 88, 103 1
82, 103, 124 1
100, 123, 155 1
111, 138, 194 1
114, 141, 191 1
117, 147, 194 1
123, 153, 200 1
141, 170, 214 1
136, 157, 202 1
126, 142, 184 1
105, 119, 155 1
69, 83, 111 1
28, 45, 58 1
30, 47, 60 1
31, 50, 65 1
37, 57, 75 1
46, 67, 89 1
51, 72, 99 1
51, 72, 100 1
45, 58, 96 1
43, 57, 93 1
42, 56, 92 1
42, 57, 90 1
41, 59, 90 1
42, 62, 93 1
45, 66, 94 1
57, 81, 109 1
60, 87, 114 1
65, 92, 119 1
63, 91, 121 1
62, 90, 121 1
69, 97, 131 1
84, 112, 146 1
108, 130, 182 1
104, 126, 178 1
103, 125, 177 1
74, 96, 148 1
82, 104, 156 1
95, 114, 165 1
98, 117, 168 1
104, 121, 170 1
108, 126, 173 1
111, 127, 173 1
110, 127, 170 1
107, 125, 166 1
105, 124, 162 1
87, 103, 145 1
72, 85, 129 1
52, 63, 107 1
37, 48, 92 1
53, 68, 117 1
80, 97, 146 1
92, 111, 162 1
93, 114, 165 1
95, 119, 171 1
96, 123, 174 1
93, 120, 170 1
98, 124, 171 1
105, 130, 174 1
104, 126, 168 1
101, 123, 159 1
40, 59, 62 1
51, 70, 77 1
59, 78, 91 1
70, 92, 110 1
81, 103, 128 1
98, 122, 152 1
113, 138, 180 1
116, 144, 198 1
116, 143, 199 1
114, 144, 199 1
131, 162, 207 1
141, 164, 209 1
136, 158, 200 1
100, 115, 148 1
70, 83, 109 1
35, 54, 69 1
51, 71, 96 1
46, 67, 95 1
39, 61, 89 1
36, 48, 82 1
35, 50, 82 1
39, 55, 84 1
38, 57, 84 1
43, 62, 89 1
62, 85, 111 1
62, 87, 113 1
64, 88, 116 1
64, 90, 120 1
64, 92, 123 1
79, 106, 140 1
101, 123, 175 1
110, 132, 184 1
112, 134, 186 1
105, 127, 179 1
96, 118, 170 1
79, 101, 153 1
72, 94, 146 1
68, 90, 142 1
82, 102, 150 1
89, 109, 157 1
101, 119, 166 1
108, 127, 172 1
111, 128, 171 1
106, 124, 165 1
93, 112, 150 1
74, 87, 131 1
57, 68, 112 1
44, 55, 99 1
62, 79, 128 1
81, 98, 147 1
95, 115, 163 1
97, 118, 169 1
94, 119, 169 1
98, 125, 175 1
97, 124, 174 1
105, 127, 168 1
96, 118, 154 1
78, 99, 130 1
41, 62, 64 1
60, 81, 96 1
74, 95, 116 1
85, 108, 134 1
99, 122, 154 1
117, 145, 199 1
136, 154, 195 1
120, 135, 174 1
96, 108, 142 1
69, 82, 108 1
43, 58, 77 1
32, 49, 62 1
35, 54, 67 1
41, 61, 78 1
50, 71, 92 1
58, 79, 106 1
52, 73, 104 1
44, 65, 96 1
36, 58, 86 1
32, 43, 75 1
25, 36, 66 1
21, 32, 62 1
23, 37, 65 1
29, 43, 71 1
33, 50, 76 1
42, 62, 87 1
53, 73, 98 1
55, 77, 102 1
57, 80, 106 1
58, 82, 110 1
61, 85, 115 1
68, 93, 127 1
74, 101, 135 1
125, 146, 198 1
128, 149, 201 1
126, 147, 199 1
83, 104, 156 1
76, 97, 149 1
73, 94, 146 1
76, 96, 144 1
93, 111, 158 1
100, 119, 164 1
105, 122, 165 1
104, 122, 163 1
88, 107, 145 1
87, 106, 144 1
69, 82, 126 1
41, 51, 98 1
63, 81, 128 1
79, 99, 147 1
92, 114, 162 1
93, 118, 168 1
100, 127, 177 1
100, 128, 175 1
97, 124, 168 1
107, 129, 170 1
103, 126, 164 1
82, 103, 134 1
43, 63, 68 1
77, 100, 122 1
113, 140, 184 1
117, 148, 201 1
116, 147, 200 1
115, 146, 201 1
142, 164, 206 1
137, 155, 196 1
89, 102, 134 1
67, 80, 106 1
45, 60, 79 1
40, 59, 74 1
46, 68, 86 1
56, 79, 101 1
64, 85, 113 1
56, 77, 108 1
39, 59, 90 1
29, 50, 78 1
24, 35, 62 1
17, 28, 55 1
14, 27, 53 1
20, 34, 57 1
24, 40, 63 1
31, 47, 70 1
40, 58, 81 1
49, 70, 92 1
44, 66, 91 1
49, 70, 97 1
53, 75, 103 1
63, 88, 122 1
71, 95, 131 1
77, 100, 138 1
94, 115, 167 1
104, 125, 177 1
127, 148, 200 1
103, 124, 176 1
95, 116, 168 1
82, 103, 155 1
78, 99, 151 1
72, 92, 139 1
75, 95, 142 1
83, 102, 147 1
98, 117, 155 1
84, 103, 141 1
81, 100, 138 1
65, 78, 122 1
51, 62, 106 1
40, 50, 97 1
66, 84, 131 1
79, 99, 146 1
91, 113, 161 1
94, 120, 167 1
98, 126, 173 1
100, 130, 177 1
101, 131, 178 1
104, 127, 165 1
97, 119, 154 1
88, 109, 141 1
44, 64, 69 1
65, 85, 102 1
93, 115, 143 1
122, 152, 201 1
120, 151, 202 1
119, 150, 201 1
118, 150, 203 1
135, 154, 192 1
109, 125, 162 1
85, 98, 130 1
66, 79, 105 1
47, 62, 81 1
37, 55, 72 1
45, 65, 82 1
54, 75, 96 1
63, 85, 110 1
67, 88, 119 1
58, 79, 111 1
33, 53, 84 1
23, 44, 72 1
16, 29, 51 1
14, 27, 49 1
18, 32, 51 1
26, 41, 60 1
31, 46, 65 1
30, 47, 66 1
33, 50, 71 1
37, 56, 77 1
45, 66, 93 1
56, 77, 109 1
61, 83, 119 1
70, 91, 129 1
90, 111, 163 1
101, 122, 174 1
107, 128, 180 1
85, 106, 158 1
78, 97, 140 1
80, 100, 141 1
86, 104, 145 1
90, 109, 147 1
97, 116, 153 1
66, 79, 123 1
55, 66, 110 1
46, 56, 103 1
67, 87, 134 1
81, 101, 148 1
96, 120, 166 1
99, 128, 173 1
102, 127, 169 1
95, 117, 152 1
90, 113, 145 1
45, 64, 71 1
55, 74, 87 1
65, 85, 103 1
78, 100, 125 1
91, 112, 143 1
109, 134, 174 1
122, 154, 203 1
121, 153, 202 1
120, 153, 202 1
146, 168, 209 1
144, 164, 205 1
131, 150, 188 1
46, 63, 84 1
39, 59, 76 1
62, 85, 107 1
68, 91, 117 1
69, 93, 123 1
32, 52, 83 1
26, 44, 73 1
18, 31, 47 1
17, 30, 46 1
18, 33, 49 1
26, 41, 57 1
27, 43, 59 1
25, 41, 58 1
24, 42, 59 1
26, 46, 64 1
43, 61, 84 1
56, 77, 105 1
59, 78, 111 1
61, 79, 120 1
70, 89, 132 1
80, 99, 142 1
101, 121, 176 1
111, 131, 186 1
118, 138, 193 1
124, 144, 199 1
121, 141, 196 1
116, 136, 191 1
110, 130, 185 1
103, 123, 178 1
97, 117, 172 1
93, 113, 168 1
84, 105, 150 1
71, 84, 128 1
63, 73, 120 1
57, 67, 114 1
70, 90, 137 1
95, 122, 166 1
97, 126, 170 1
99, 130, 175 1
96, 123, 167 1
100, 125, 167 1
101, 126, 168 1
100, 124, 160 1
88, 111, 143 1
84, 105, 136 1
48, 67, 74 1
66, 86, 104 1
76, 98, 123 1
112, 137, 177 1
122, 147, 189 1
123, 157, 203 1
124, 154, 201 1
146, 169, 207 1
141, 162, 200 1
128, 147, 185 1
47, 64, 85 1
68, 92, 120 1
67, 90, 122 1
46, 67, 99 1
33, 51, 82 1
28, 46, 75 1
25, 39, 51 1
20, 34, 46 1
19, 33, 45 1
20, 36, 49 1
21, 37, 50 1
20, 36, 52 1
24, 40, 57 1
29, 46, 65 1
50, 68, 91 1
62, 80, 111 1
59, 78, 113 1
55, 74, 112 1
59, 76, 119 1
73, 89, 135 1
86, 102, 148 1
105, 122, 178 1
116, 133, 189 1
129, 146, 202 1
135, 152, 208 1
123, 140, 196 1
88, 110, 152 1
84, 104, 145 1
78, 98, 139 1
79, 98, 135 1
86, 105, 142 1
76, 89, 133 1
73, 83, 130 1
68, 78, 125 1
73, 94, 139 1
88, 113, 157 1
93, 120, 164 1
95, 124, 168 1
99, 131, 174 1
96, 125, 170 1
99, 124, 166 1
87, 110, 142 1
85, 107, 135 1
63, 82, 97 1
69, 88, 109 1
79, 98, 125 1
109, 131, 167 1
124, 149, 191 1
128, 159, 204 1
142, 165, 203 1
129, 148, 185 1
109, 125, 161 1
64, 78, 106 1
46, 65, 86 1
45, 66, 87 1
56, 81, 101 1
66, 92, 116 1
64, 89, 123 1
55, 77, 112 1
47, 66, 99 1
34, 52, 83 1
30, 48, 77 1
32, 44, 54 1
32, 47, 56 1
32, 48, 60 1
32, 48, 61 1
40, 58, 75 1
59, 78, 99 1
64, 81, 108 1
64, 82, 113 1
57, 76, 111 1
51, 67, 109 1
56, 73, 116 1
73, 89, 136 1
89, 105, 152 1
109, 126, 182 1
130, 147, 203 1
114, 131, 187 1
103, 120, 176 1
97, 114, 170 1
81, 102, 140 1
80, 99, 137 1
80, 99, 136 1
81, 101, 136 1
86, 106, 141 1
75, 94, 132 1
79, 89, 136 1
76, 86, 133 1
77, 98, 143 1
85, 110, 154 1
89, 116, 160 1
94, 126, 169 1
95, 121, 167 1
98, 123, 165 1
92, 115, 147 1
67, 86, 101 1
72, 91, 112 1
80, 99, 126 1
110, 132, 168 1
115, 141, 178 1
125, 150, 192 1
143, 168, 212 1
138, 161, 199 1
131, 150, 187 1
62, 79, 106 1
47, 65, 88 1
47, 68, 89 1
59, 83, 105 1
70, 96, 126 1
67, 92, 126 1
59, 81, 116 1
51, 70, 103 1
38, 56, 87 1
37, 53, 82 1
33, 46, 54 1
35, 48, 56 1
49, 65, 77 1
48, 64, 80 1
49, 67, 84 1
64, 83, 104 1
66, 83, 110 1
63, 81, 112 1
53, 71, 108 1
53, 69, 115 1
72, 88, 135 1
89, 104, 153 1
112, 129, 185 1
126, 143, 199 1
132, 149, 205 1
124, 141, 197 1
104, 121, 177 1
100, 117, 173 1
88, 108, 149 1
84, 105, 143 1
73, 92, 129 1
72, 91, 129 1
75, 91, 133 1
81, 91, 138 1
80, 90, 137 1
79, 100, 145 1
83, 108, 152 1
85, 113, 154 1
89, 119, 160 1
93, 125, 166 1
96, 128, 171 1
94, 120, 166 1
95, 120, 164 1
97, 122, 164 1
99, 125, 165 1
101, 126, 160 1
89, 110, 141 1
66, 88, 113 1
78, 102, 132 1
88, 113, 147 1
131, 166, 206 1
136, 168, 209 1
138, 168, 209 1
131, 156, 196 1
106, 127, 165 1
54, 71, 104 1
59, 74, 106 1
76, 91, 123 1
79, 97, 128 1
68, 85, 118 1
53, 72, 107 1
44, 63, 98 1
39, 59, 94 1
33, 46, 68 1
42, 55, 77 1
70, 83, 105 1
81, 95, 117 1
67, 84, 105 1
58, 75, 96 1
60, 78, 101 1
63, 83, 108 1
69, 90, 118 1
54, 74, 109 1
60, 80, 121 1
109, 129, 187 1
94, 114, 161 1
91, 111, 158 1
85, 107, 149 1
77, 99, 141 1
95, 125, 160 1
90, 121, 154 1
91, 122, 155 1
92, 123, 156 1
71, 99, 123 1
69, 100, 123 1
48, 67, 80 1
55, 77, 95 1
67, 89, 114 1
81, 105, 135 1
111, 137, 174 1
137, 162, 204 1
141, 163, 204 1
130, 165, 205 1
135, 167, 208 1
137, 167, 208 1
126, 148, 189 1
111, 132, 170 1
63, 82, 117 1
58, 75, 108 1
64, 79, 111 1
86, 101, 133 1
55, 74, 109 1
45, 64, 99 1
40, 60, 95 1
48, 61, 83 1
37, 50, 72 1
67, 81, 103 1
80, 94, 116 1
68, 85, 106 1
62, 79, 100 1
65, 83, 106 1
70, 90, 115 1
57, 77, 112 1
54, 75, 113 1
69, 89, 130 1
88, 107, 150 1
97, 116, 159 1
110, 130, 188 1
116, 136, 194 1
129, 151, 203 1
93, 113, 160 1
90, 111, 156 1
87, 109, 151 1
83, 112, 149 1
87, 116, 153 1
90, 120, 155 1
88, 119, 152 1
72, 100, 124 1
43, 62, 75 1
70, 92, 117 1
128, 152, 194 1
140, 165, 207 1
143, 165, 206 1
129, 164, 204 1
133, 165, 206 1
134, 158, 200 1
135, 159, 201 1
134, 156, 197 1
121, 142, 180 1
70, 89, 124 1
65, 82, 115 1
70, 88, 119 1
83, 100, 133 1
72, 91, 124 1
48, 68, 103 1
42, 61, 98 1
55, 67, 91 1
45, 58, 80 1
64, 78, 100 1
78, 92, 114 1
71, 88, 109 1
67, 85, 108 1
75, 93, 116 1
78, 97, 124 1
66, 87, 119 1
82, 102, 143 1
112, 132, 190 1
117, 137, 195 1
130, 152, 204 1
90, 117, 154 1
91, 118, 155 1
86, 114, 149 1
97, 122, 154 1
44, 63, 76 1
75, 97, 122 1
91, 115, 145 1
102, 126, 162 1
121, 146, 186 1
131, 156, 198 1
143, 168, 210 1
131, 163, 204 1
131, 152, 190 1
105, 124, 161 1
79, 98, 133 1
72, 89, 122 1
78, 93, 125 1
86, 104, 135 1
86, 103, 136 1
77, 96, 129 1
65, 84, 119 1
52, 72, 107 1
44, 63, 100 1
61, 73, 97 1
47, 61, 84 1
46, 60, 83 1
74, 91, 112 1
76, 92, 115 1
77, 95, 118 1
65, 86, 118 1
112, 133, 178 1
119, 139, 197 1
131, 153, 205 1
93, 121, 155 1
96, 121, 153 1
50, 69, 82 1
64, 86, 104 1
81, 104, 130 1
96, 120, 150 1
145, 170, 212 1
148, 173, 215 1
148, 172, 214 1
131, 163, 206 1
129, 154, 196 1
115, 137, 173 1
81, 98, 131 1
81, 99, 130 1
87, 104, 137 1
83, 102, 137 1
71, 91, 126 1
47, 66, 103 1
51, 65, 88 1
48, 62, 85 1
59, 75, 98 1
74, 90, 113 1
79, 97, 120 1
90, 110, 135 1
83, 104, 132 1
73, 94, 125 1
64, 86, 121 1
69, 91, 127 1
114, 137, 183 1
118, 138, 196 1
132, 154, 206 1
86, 112, 149 1
58, 77, 92 1
71, 92, 113 1
86, 109, 135 1
101, 124, 156 1
110, 134, 170 1
129, 154, 194 1
138, 163, 205 1
147, 172, 212 1
133, 158, 200 1
141, 165, 207 1
126, 147, 185 1
77, 94, 127 1
88, 105, 138 1
91, 110, 143 1
61, 80, 117 1
50, 65, 91 1
48, 63, 89 1
73, 90, 116 1
81, 101, 126 1
88, 108, 133 1
91, 112, 139 1
83, 105, 133 1
74, 97, 129 1
72, 94, 129 1
79, 102, 140 1
110, 133, 179 1
97, 117, 164 1
76, 105, 126 1
89, 112, 138 1
105, 128, 160 1
115, 141, 177 1
146, 171, 211 1
144, 169, 209 1
142, 168, 205 1
139, 163, 205 1
134, 155, 193 1
111, 130, 167 1
78, 95, 128 1
93, 112, 147 1
92, 112, 147 1
49, 70, 108 1
56, 70, 98 1
50, 64, 92 1
57, 74, 100 1
72, 92, 117 1
83, 102, 129 1
87, 108, 135 1
79, 102, 134 1
81, 105, 141 1
92, 117, 157 1
111, 134, 182 1
120, 143, 191 1
95, 117, 159 1
89, 113, 149 1
64, 84, 101 1
76, 97, 119 1
106, 131, 163 1
120, 146, 183 1
131, 157, 197 1
145, 171, 211 1
132, 159, 203 1
77, 96, 131 1
76, 95, 128 1
80, 99, 132 1
87, 106, 141 1
94, 113, 148 1
50, 71, 109 1
52, 68, 97 1
72, 91, 118 1
88, 110, 138 1
86, 109, 141 1
109, 134, 178 1
112, 138, 185 1
117, 142, 192 1
100, 121, 166 1
84, 110, 146 1
85, 111, 147 1
75, 102, 123 1
67, 87, 104 1
96, 118, 146 1
119, 145, 182 1
137, 163, 203 1
144, 170, 207 1
140, 166, 203 1
124, 158, 201 1
132, 157, 201 1
137, 159, 200 1
123, 144, 182 1
80, 99, 134 1
62, 83, 121 1
48, 66, 95 1
40, 58, 87 1
38, 56, 85 1
105, 130, 172 1
111, 137, 183 1
130, 151, 206 1
87, 112, 138 1
69, 89, 107 1
82, 104, 129 1
111, 136, 170 1
138, 164, 204 1
139, 161, 202 1
129, 150, 188 1
88, 107, 142 1
85, 105, 140 1
89, 108, 145 1
92, 114, 150 1
74, 97, 135 1
64, 86, 127 1
53, 73, 104 1
44, 64, 95 1
40, 60, 91 1
51, 71, 102 1
72, 93, 124 1
88, 112, 142 1
95, 119, 149 1
94, 121, 158 1
106, 133, 177 1
122, 144, 196 1
89, 113, 141 1
86, 108, 133 1
115, 140, 174 1
124, 150, 187 1
145, 174, 213 1
136, 161, 203 1
140, 165, 205 1
120, 142, 178 1
87, 107, 142 1
90, 111, 149 1
70, 92, 133 1
63, 82, 115 1
45, 66, 98 1
51, 72, 103 1
67, 91, 121 1
104, 132, 173 1
109, 138, 183 1
117, 140, 190 1
90, 118, 152 1
90, 112, 137 1
104, 128, 158 1
118, 143, 177 1
126, 153, 190 1
143, 170, 214 1
143, 171, 212 1
146, 172, 212 1
120, 151, 196 1
135, 160, 204 1
133, 154, 192 1
127, 146, 183 1
98, 117, 154 1
84, 106, 147 1
78, 100, 141 1
71, 92, 124 1
61, 82, 114 1
52, 73, 105 1
51, 74, 106 1
103, 131, 166 1
123, 151, 205 1
121, 151, 206 1
128, 148, 205 1
126, 147, 202 1
113, 133, 180 1
86, 113, 140 1
93, 114, 141 1
141, 170, 209 1
143, 170, 207 1
140, 168, 203 1
117, 150, 195 1
119, 150, 195 1
110, 129, 166 1
92, 113, 151 1
84, 109, 149 1
77, 97, 132 1
67, 89, 124 1
57, 79, 114 1
54, 76, 111 1
59, 84, 118 1
74, 99, 133 1
116, 146, 193 1
121, 151, 200 1
121, 152, 205 1
123, 153, 208 1
126, 146, 203 1
125, 145, 202 1
123, 144, 199 1
114, 137, 187 1
80, 101, 122 1
95, 116, 143 1
119, 145, 181 1
139, 166, 210 1
139, 168, 207 1
140, 169, 206 1
139, 167, 202 1
126, 151, 195 1
131, 155, 197 1
136, 158, 199 1
140, 162, 198 1
125, 144, 181 1
93, 118, 158 1
80, 102, 137 1
75, 97, 132 1
68, 90, 125 1
60, 85, 119 1
62, 87, 121 1
71, 98, 132 1
111, 140, 177 1
124, 144, 201 1
120, 141, 196 1
119, 140, 195 1
113, 136, 186 1
98, 121, 159 1
126, 152, 192 1
136, 163, 207 1
136, 165, 204 1
138, 167, 204 1
137, 165, 200 1
115, 149, 192 1
130, 152, 193 1
123, 142, 179 1
104, 126, 162 1
94, 115, 153 1
95, 119, 161 1
87, 109, 145 1
85, 107, 143 1
78, 103, 137 1
72, 97, 131 1
68, 95, 129 1
76, 103, 137 1
123, 154, 209 1
136, 156, 214 1
122, 142, 199 1
118, 138, 195 1
112, 135, 185 1
99, 122, 160 1
78, 105, 131 1
107, 130, 162 1
117, 143, 179 1
125, 151, 191 1
135, 164, 203 1
137, 166, 203 1
138, 165, 202 1
136, 164, 199 1
114, 148, 191 1
115, 145, 192 1
125, 147, 188 1
130, 153, 191 1
143, 165, 201 1
130, 149, 186 1
108, 129, 167 1
98, 122, 164 1
97, 121, 163 1
81, 106, 140 1
75, 102, 136 1
94, 122, 157 1
105, 134, 171 1
115, 144, 183 1
116, 146, 187 1
118, 149, 194 1
119, 151, 200 1
122, 153, 208 1
133, 153, 211 1
117, 137, 194 1
113, 135, 187 1
111, 134, 184 1
76, 103, 130 1
98, 118, 143 1
127, 149, 184 1
132, 158, 194 1
134, 160, 200 1
136, 166, 207 1
113, 142, 187 1
109, 132, 177 1
106, 128, 170 1
102, 122, 163 1
84, 108, 150 1
86, 109, 154 1
97, 121, 167 1
107, 133, 179 1
125, 152, 208 1
123, 153, 202 1
96, 118, 143 1
125, 148, 180 1
130, 156, 192 1
132, 158, 198 1
122, 151, 195 1
118, 147, 191 1
111, 143, 186 1
112, 144, 187 1
127, 152, 196 1
111, 135, 177 1
103, 125, 166 1
102, 126, 172 1
124, 154, 203 1
122, 147, 179 1
127, 153, 189 1
116, 145, 189 1
115, 144, 188 1
112, 139, 183 1
124, 150, 196 1
124, 149, 193 1
113, 136, 181 1
106, 130, 176 1
111, 137, 184 1
123, 152, 203 1
80, 104, 134 1
79, 101, 119 1
111, 135, 163 1
121, 146, 178 1
125, 151, 187 1
129, 155, 195 1
122, 150, 191 1
111, 141, 182 1
127, 151, 197 1
119, 142, 187 1
107, 131, 177 1
84, 111, 145 1
84, 109, 143 1
81, 105, 133 1
77, 99, 117 1
95, 119, 141 1
110, 134, 162 1
120, 145, 177 1
122, 150, 185 1
126, 155, 192 1
122, 152, 193 1
124, 152, 193 1
123, 151, 192 1
112, 141, 180 1
106, 135, 174 1
106, 135, 172 1
124, 147, 193 1
120, 143, 189 1
115, 138, 184 1
106, 131, 175 1
111, 136, 180 1
70, 95, 111 1
90, 114, 136 1
107, 132, 158 1
117, 143, 173 1
120, 148, 182 1
123, 152, 189 1
126, 155, 194 1
121, 151, 192 1
121, 149, 190 1
101, 131, 166 1
122, 145, 191 1
121, 144, 190 1
119, 142, 188 1
113, 138, 182 1
108, 133, 177 1
110, 134, 180 1
92, 118, 155 1
87, 112, 144 1
83, 108, 128 1
101, 127, 151 1
111, 139, 169 1
116, 144, 178 1
119, 149, 184 1
122, 151, 190 1
119, 145, 185 1
117, 143, 183 1
107, 134, 171 1
98, 126, 160 1
105, 134, 173 1
110, 138, 179 1
124, 146, 194 1
122, 144, 192 1
119, 143, 189 1
115, 139, 185 1
97, 121, 157 1
97, 124, 145 1
109, 136, 163 1
114, 143, 174 1
118, 146, 181 1
119, 148, 185 1
117, 148, 187 1
114, 145, 184 1
116, 143, 180 1
114, 141, 178 1
108, 135, 172 1
92, 122, 151 1
122, 145, 193 1
59, 83, 95 1
91, 118, 138 1
102, 129, 155 1
107, 135, 165 1
107, 136, 167 1
111, 141, 176 1
113, 142, 179 1
87, 116, 143 1
83, 113, 140 1
87, 117, 144 1
95, 122, 159 1
108, 135, 185 1
55, 80, 90 1
98, 124, 148 1
102, 131, 158 1
105, 133, 163 1
106, 135, 166 1
110, 138, 172 1
109, 140, 173 1
108, 139, 172 1
106, 134, 168 1
105, 133, 167 1
94, 118, 148 1
92, 116, 146 1
86, 113, 139 1
84, 114, 139 1
81, 111, 136 1
83, 114, 139 1
52, 75, 83 1
63, 87, 99 1
100, 129, 156 1
102, 130, 160 1
103, 133, 162 1
101, 131, 160 1
101, 130, 157 1
80, 108, 132 1
83, 111, 135 1
77, 108, 131 1
75, 106, 129 1
80, 111, 134 1
83, 111, 145 1
92, 120, 154 1
88, 113, 145 1
48, 72, 78 1
56, 81, 91 1
68, 94, 108 1
96, 123, 144 1
97, 125, 149 1
98, 128, 153 1
100, 130, 155 1
98, 129, 152 1
93, 123, 148 1
92, 122, 147 1
92, 119, 145 1
88, 115, 141 1
88, 113, 139 1
86, 111, 137 1
87, 110, 136 1
86, 110, 134 1
79, 107, 131 1
71, 102, 123 1
77, 108, 129 1
78, 107, 138 1
105, 132, 182 1
75, 100, 132 1
46, 68, 73 1
66, 90, 102 1
81, 106, 122 1
93, 118, 138 1
93, 120, 141 1
94, 121, 142 1
95, 124, 145 1
95, 125, 144 1
96, 123, 143 1
87, 118, 141 1
87, 115, 139 1
85, 109, 131 1
83, 107, 129 1
84, 107, 129 1
80, 103, 125 1
79, 103, 125 1
73, 102, 123 1
68, 99, 120 1
72, 103, 124 1
73, 103, 132 1
110, 134, 186 1
45, 65, 70 1
64, 86, 97 1
77, 100, 115 1
85, 109, 127 1
89, 114, 134 1
87, 114, 134 1
88, 115, 135 1
90, 118, 135 1
91, 120, 135 1
84, 116, 135 1
84, 114, 133 1
83, 113, 132 1
84, 111, 131 1
84, 109, 129 1
81, 106, 126 1
77, 101, 121 1
69, 93, 115 1
69, 98, 119 1
67, 96, 117 1
66, 97, 118 1
68, 98, 127 1
77, 107, 136 1
127, 151, 203 1
127, 147, 204 1
121, 146, 202 1
108, 132, 186 1
108, 132, 184 1
42, 63, 65 1
50, 72, 78 1
59, 81, 92 1
72, 97, 113 1
83, 109, 126 1
84, 110, 127 1
80, 113, 129 1
80, 110, 127 1
79, 109, 126 1
81, 109, 126 1
81, 107, 124 1
75, 99, 119 1
78, 99, 120 1
77, 98, 119 1
73, 97, 117 1
68, 92, 112 1
66, 91, 111 1
66, 93, 113 1
65, 95, 114 1
60, 92, 111 1
63, 93, 120 1
71, 101, 128 1
101, 132, 165 1
127, 149, 207 1
120, 145, 201 1
41, 60, 63 1
50, 69, 76 1
55, 77, 88 1
61, 85, 97 1
79, 104, 120 1
78, 104, 120 1
80, 107, 121 1
81, 108, 122 1
81, 109, 120 1
76, 109, 125 1
79, 107, 124 1
79, 105, 122 1
75, 99, 117 1
72, 96, 114 1
70, 94, 114 1
65, 90, 110 1
64, 91, 111 1
61, 91, 110 1
55, 87, 106 1
58, 88, 115 1
66, 96, 123 1
74, 104, 133 1
105, 135, 170 1
128, 150, 208 1
126, 148, 206 1
100, 129, 174 1
61, 77, 84 1
67, 82, 91 1
79, 93, 105 1
81, 95, 107 1
81, 97, 110 1
82, 98, 111 1
82, 97, 113 1
83, 98, 114 1
86, 100, 118 1
89, 103, 121 1
74, 100, 114 1
76, 102, 116 1
83, 109, 123 1
65, 91, 105 1
62, 88, 102 1
60, 86, 100 1
59, 85, 99 1
66, 84, 107 1
67, 88, 110 1
73, 96, 118 1
83, 107, 131 1
93, 116, 142 1
101, 125, 153 1
125, 149, 185 1
125, 149, 191 1
128, 151, 196 1
115, 140, 196 1
115, 139, 197 1
113, 137, 195 1
110, 134, 194 1
108, 132, 192 1
103, 130, 181 1
102, 129, 180 1
104, 128, 180 1
105, 128, 178 1
105, 128, 176 1
75, 103, 133 1
49, 65, 71 1
64, 79, 88 1
73, 88, 97 1
74, 88, 100 1
74, 90, 103 1
75, 91, 104 1
78, 93, 109 1
81, 95, 113 1
79, 102, 117 1
70, 93, 108 1
60, 83, 98 1
62, 81, 102 1
63, 84, 105 1
70, 91, 113 1
77, 99, 124 1
85, 109, 133 1
116, 141, 173 1
125, 150, 184 1
129, 153, 195 1
123, 152, 197 1
114, 139, 195 1
112, 137, 193 1
109, 133, 191 1
108, 132, 190 1
102, 129, 179 1
104, 128, 174 1
76, 104, 134 1
42, 56, 62 1
55, 71, 78 1
60, 75, 84 1
68, 83, 92 1
69, 83, 95 1
71, 84, 98 1
69, 85, 98 1
68, 83, 99 1
72, 87, 103 1
57, 77, 95 1
60, 80, 98 1
65, 86, 107 1
75, 99, 121 1
106, 132, 162 1
117, 142, 174 1
125, 150, 190 1
127, 152, 194 1
126, 154, 195 1
121, 153, 196 1
63, 78, 87 1
65, 79, 91 1
63, 79, 92 1
62, 78, 91 1
63, 78, 94 1
66, 81, 97 1
66, 87, 102 1
65, 86, 101 1
54, 74, 91 1
74, 101, 122 1
113, 138, 170 1
117, 144, 178 1
122, 148, 184 1
125, 152, 189 1
125, 154, 193 1
124, 155, 194 1
123, 156, 195 1
120, 152, 193 1
119, 151, 194 1
117, 146, 191 1
112, 140, 187 1
109, 136, 186 1
103, 129, 175 1
102, 129, 173 1
101, 128, 172 1
56, 71, 80 1
57, 72, 81 1
57, 71, 83 1
56, 72, 85 1
61, 77, 90 1
72, 91, 104 1
62, 81, 94 1
65, 84, 97 1
66, 85, 98 1
57, 76, 91 1
54, 75, 90 1
59, 82, 98 1
65, 89, 107 1
71, 96, 116 1
78, 105, 126 1
103, 130, 157 1
108, 136, 166 1
114, 142, 173 1
117, 145, 179 1
118, 148, 183 1
119, 151, 186 1
119, 154, 188 1
125, 156, 195 1
121, 152, 191 1
120, 151, 190 1
118, 148, 189 1
116, 148, 189 1
113, 145, 188 1
110, 142, 185 1
108, 140, 183 1
105, 136, 181 1
104, 135, 180 1
100, 129, 173 1
62, 75, 89 1
70, 87, 100 1
72, 89, 102 1
59, 84, 100 1
80, 107, 128 1
91, 118, 144 1
99, 126, 153 1
107, 137, 166 1
109, 140, 171 1
111, 145, 175 1
114, 147, 180 1
117, 149, 185 1
116, 148, 184 1
115, 147, 183 1
111, 142, 181 1
108, 139, 178 1
107, 138, 177 1
110, 140, 181 1
104, 136, 179 1
102, 130, 171 1
100, 129, 168 1
85, 113, 144 1
35, 48, 50 1
43, 58, 61 1
52, 65, 73 1
49, 64, 73 1
50, 64, 76 1
55, 69, 81 1
62, 76, 88 1
66, 80, 92 1
64, 81, 94 1
58, 75, 88 1
57, 74, 87 1
61, 78, 91 1
51, 73, 85 1
52, 76, 88 1
61, 86, 102 1
72, 97, 117 1
86, 113, 134 1
100, 127, 153 1
103, 132, 159 1
105, 135, 162 1
108, 140, 169 1
110, 144, 173 1
114, 146, 181 1
113, 145, 181 1
110, 142, 178 1
108, 140, 176 1
106, 138, 174 1
105, 135, 176 1
101, 131, 172 1
99, 128, 172 1
103, 131, 172 1
102, 131, 170 1
97, 127, 162 1
107, 133, 170 1
36, 49, 51 1
43, 58, 67 1
45, 60, 69 1
58, 73, 82 1
68, 86, 97 1
57, 80, 95 1
58, 83, 99 1
60, 86, 103 1
84, 111, 132 1
89, 117, 141 1
95, 125, 150 1
99, 130, 155 1
101, 135, 159 1
105, 136, 169 1
104, 135, 168 1
103, 133, 168 1
100, 131, 170 1
98, 129, 168 1
98, 127, 158 1
101, 130, 161 1
31, 44, 46 1
40, 53, 61 1
41, 57, 64 1
44, 59, 68 1
48, 63, 72 1
53, 71, 82 1
56, 78, 90 1
57, 81, 93 1
54, 77, 92 1
50, 76, 90 1
53, 78, 94 1
59, 83, 101 1
61, 85, 103 1
67, 92, 112 1
77, 105, 129 1
86, 114, 148 1
85, 113, 147 1
94, 123, 160 1
91, 121, 150 1
96, 126, 155 1
41, 56, 59 1
40, 55, 58 1
42, 58, 65 1
47, 66, 74 1
48, 67, 75 1
53, 73, 84 1
55, 79, 91 1
55, 78, 93 1
53, 76, 92 1
60, 84, 102 1
71, 98, 118 1
73, 100, 121 1
74, 103, 124 1
81, 109, 133 1
73, 104, 127 1
74, 105, 128 1
79, 109, 134 1
93, 123, 152 1
85, 115, 144 1
84, 114, 143 1
43, 59, 66 1
46, 65, 73 1
50, 69, 77 1
59, 78, 86 1
57, 76, 84 1
44, 63, 71 1
45, 64, 72 1
47, 65, 76 1
46, 64, 75 1
49, 69, 80 1
57, 79, 91 1
58, 79, 94 1
52, 72, 89 1
55, 75, 92 1
62, 86, 104 1
62, 88, 105 1
67, 95, 112 1
72, 100, 117 1
81, 111, 130 1
79, 110, 133 1
85, 116, 139 1
89, 119, 144 1
77, 104, 131 1
72, 99, 125 1
71, 98, 125 1
76, 105, 132 1
30, 44, 43 1
31, 45, 44 1
47, 60, 62 1
35, 50, 53 1
36, 50, 56 1
41, 58, 67 1
50, 67, 76 1
48, 65, 74 1
56, 73, 82 1
55, 72, 81 1
57, 74, 83 1
59, 76, 85 1
54, 71, 80 1
46, 63, 72 1
40, 59, 67 1
42, 63, 71 1
50, 70, 81 1
52, 74, 85 1
59, 81, 93 1
55, 74, 89 1
53, 72, 87 1
50, 69, 84 1
52, 70, 87 1
57, 77, 94 1
62, 82, 99 1
61, 84, 100 1
54, 81, 91 1
54, 80, 92 1
57, 84, 98 1
73, 102, 116 1
71, 100, 115 1
70, 99, 114 1
70, 98, 115 1
70, 100, 117 1
73, 103, 122 1
72, 97, 123 1
67, 92, 118 1
66, 93, 119 1
70, 97, 124 1
93, 120, 147 1
46, 59, 61 1
39, 57, 64 1
46, 64, 71 1
47, 65, 72 1
51, 69, 76 1
52, 70, 77 1
53, 71, 78 1
56, 74, 81 1
58, 76, 83 1
54, 72, 79 1
36, 57, 65 1
38, 59, 67 1
45, 66, 74 1
49, 72, 80 1
56, 76, 87 1
56, 73, 86 1
55, 71, 84 1
56, 72, 88 1
64, 83, 98 1
62, 88, 95 1
58, 84, 91 1
54, 80, 87 1
56, 83, 93 1
58, 84, 96 1
62, 88, 100 1
65, 92, 106 1
65, 91, 107 1
60, 86, 102 1
55, 84, 99 1
59, 88, 103 1
63, 91, 108 1
68, 92, 114 1
65, 89, 111 1
64, 88, 110 1
65, 89, 113 1
64, 88, 112 1
63, 88, 114 1
78, 102, 130 1
88, 115, 142 1
95, 122, 149 1
99, 125, 155 1
102, 128, 158 1
81, 108, 134 1
32, 45, 43 1
32, 44, 44 1
38, 51, 53 1
33, 48, 50 1
56, 72, 79 1
46, 65, 72 1
38, 60, 66 1
36, 58, 64 1
41, 63, 69 1
45, 69, 75 1
54, 68, 80 1
53, 67, 79 1
57, 73, 85 1
60, 76, 88 1
63, 87, 93 1
61, 85, 91 1
58, 82, 88 1
55, 78, 86 1
52, 77, 87 1
53, 78, 88 1
56, 82, 94 1
54, 80, 94 1
50, 75, 91 1
46, 72, 88 1
48, 74, 90 1
50, 76, 92 1
54, 78, 100 1
58, 82, 106 1
78, 101, 127 1
101, 127, 157 1
103, 129, 159 1
105, 131, 161 1
90, 119, 146 1
86, 115, 142 1
