69, 45, 33 263
68, 44, 32 255
70, 46, 34 154
67, 43, 31 150
57, 39, 32 141
58, 40, 33 108
56, 38, 31 107
70, 44, 32 92
66, 44, 32 92
65, 43, 31 82
71, 47, 35 78
67, 45, 33 78
72, 46, 34 72
71, 45, 33 70
69, 41, 34 70
59, 41, 34 70
69, 44, 34 66
68, 43, 33 65
70, 42, 35 63
66, 42, 30 62
66, 44, 33 59
58, 39, 31 54
70, 43, 33 53
69, 43, 31 51
58, 39, 32 50
67, 41, 34 49
71, 43, 36 48
73, 45, 34 47
67, 42, 32 47
57, 40, 31 44
72, 44, 33 43
54, 38, 31 43
59, 40, 33 42
59, 40, 32 42
71, 43, 32 39
70, 45, 35 39
55, 37, 30 39
55, 39, 32 39
71, 42, 35 37
67, 45, 34 37
57, 38, 30 36
72, 45, 35 35
65, 43, 32 35
71, 44, 34 33
68, 46, 35 33
68, 45, 30 32
68, 42, 35 32
57, 38, 31 32
70, 44, 30 32
60, 41, 33 32
73, 47, 35 31
68, 46, 34 31
60, 41, 34 31
65, 41, 29 29
66, 43, 35 28
71, 45, 31 27
69, 43, 36 27
63, 40, 32 27
61, 40, 32 27
62, 39, 31 26
74, 46, 35 26
69, 42, 32 25
60, 39, 31 24
60, 38, 32 24
88, 113, 145 24
62, 41, 33 23
73, 44, 37 23
70, 41, 34 23
72, 48, 36 23
64, 44, 33 23
89, 115, 145 23
67, 41, 29 22
66, 41, 31 22
67, 44, 36 22
71, 46, 36 22
88, 114, 144 22
81, 109, 139 22
72, 46, 32 21
64, 41, 33 21
61, 39, 33 21
72, 43, 36 21
64, 42, 30 21
60, 42, 35 21
68, 42, 30 20
74, 45, 36 20
73, 46, 36 20
65, 46, 33 20
101, 125, 167 20
89, 114, 146 20
74, 44, 33 19
64, 45, 32 19
100, 124, 166 19
69, 46, 31 18
62, 40, 29 18
67, 39, 32 18
66, 40, 33 18
56, 40, 33 18
65, 45, 34 18
61, 42, 34 18
86, 112, 142 18
65, 42, 34 17
63, 42, 34 17
68, 40, 33 17
65, 40, 30 17
56, 37, 30 17
69, 40, 33 17
56, 37, 29 17
63, 43, 32 17
52, 39, 31 17
102, 128, 165 17
72, 43, 34 16
70, 42, 31 16
60, 40, 29 16
64, 42, 31 16
103, 129, 165 16
86, 114, 145 16
69, 43, 29 15
68, 41, 31 15
63, 41, 30 15
59, 41, 30 15
73, 43, 32 15
64, 43, 35 15
61, 38, 30 15
56, 39, 30 15
62, 44, 33 15
53, 40, 32 15
100, 124, 160 15
67, 44, 29 14
62, 43, 35 14
63, 39, 33 14
74, 48, 36 14
65, 46, 31 14
102, 126, 168 14
102, 128, 164 14
87, 112, 146 14
87, 113, 143 14
87, 115, 146 14
104, 130, 167 14
70, 44, 37 13
68, 45, 37 13
67, 46, 31 13
53, 41, 31 13
53, 37, 30 13
100, 126, 162 13
80, 105, 131 13
85, 109, 137 13
104, 128, 170 13
87, 115, 145 13
73, 46, 32 12
72, 45, 31 12
61, 41, 30 12
63, 44, 31 12
89, 113, 149 12
131, 156, 198 12
87, 111, 139 12
90, 115, 149 12
86, 112, 148 12
91, 116, 150 12
85, 111, 141 12
80, 104, 132 12
71, 42, 33 11
72, 44, 37 11
72, 42, 37 11
62, 42, 31 11
61, 42, 35 11
61, 43, 36 11
57, 41, 34 11
66, 47, 32 11
65, 39, 32 11
58, 41, 32 11
55, 38, 29 11
54, 36, 29 11
65, 44, 36 11
122, 146, 198 11
104, 128, 164 11
83, 107, 135 11
115, 144, 189 11
101, 127, 163 11
102, 127, 167 11
82, 106, 134 11
85, 109, 145 11
92, 116, 144 11
88, 112, 140 11
83, 109, 145 11
84, 111, 145 11
94, 116, 152 11
97, 122, 154 11
103, 129, 166 11
83, 111, 141 11
69, 41, 30 10
59, 38, 30 10
64, 38, 31 10
71, 42, 37 10
63, 38, 34 10
64, 39, 29 10
62, 40, 34 10
58, 38, 33 10
64, 40, 34 10
64, 40, 28 10
69, 47, 35 10
56, 37, 32 10
58, 42, 35 10
62, 40, 28 10
57, 38, 33 10
69, 47, 36 10
55, 39, 33 10
85, 110, 144 10
85, 112, 139 10
104, 126, 168 10
103, 127, 169 10
127, 152, 196 10
92, 115, 147 10
89, 114, 148 10
90, 115, 147 10
84, 108, 136 10
84, 110, 140 10
105, 127, 169 10
86, 113, 147 10
82, 106, 136 10
92, 119, 145 10
91, 118, 144 10
103, 128, 168 10
83, 110, 137 10
80, 108, 138 10
104, 130, 166 10
66, 42, 36 9
65, 41, 35 9
75, 47, 36 9
63, 44, 36 9
55, 36, 28 9
75, 46, 37 9
73, 49, 37 9
55, 36, 31 9
54, 37, 28 9
59, 39, 28 9
66, 46, 35 9
63, 41, 29 9
66, 45, 30 9
54, 38, 32 9
99, 123, 159 9
116, 141, 185 9
92, 118, 148 9
81, 105, 133 9
79, 104, 130 9
88, 113, 147 9
121, 148, 192 9
124, 149, 193 9
86, 110, 146 9
86, 111, 145 9
83, 106, 132 9
88, 115, 149 9
84, 113, 140 9
88, 116, 146 9
105, 130, 170 9
122, 147, 189 9
87, 112, 144 9
89, 116, 150 9
87, 114, 148 9
43, 59, 65 9
68, 42, 28 8
73, 44, 35 8
66, 40, 28 8
55, 36, 29 8
68, 39, 32 8
57, 39, 28 8
60, 42, 31 8
75, 45, 34 8
76, 48, 37 8
68, 47, 32 8
61, 43, 32 8
62, 45, 32 8
54, 39, 30 8
106, 131, 175 8
106, 128, 170 8
97, 122, 162 8
86, 111, 143 8
86, 110, 138 8
100, 125, 165 8
96, 124, 155 8
101, 126, 166 8
122, 149, 193 8
129, 154, 196 8
84, 110, 146 8
126, 154, 195 8
114, 138, 192 8
81, 105, 129 8
83, 107, 137 8
93, 118, 152 8
98, 122, 164 8
86, 115, 142 8
88, 117, 144 8
97, 121, 157 8
88, 116, 147 8
90, 117, 144 8
86, 111, 137 8
82, 109, 136 8
82, 110, 140 8
63, 38, 28 7
71, 41, 36 7
70, 48, 36 7
75, 46, 32 7
72, 47, 37 7
58, 40, 29 7
71, 48, 33 7
65, 44, 29 7
60, 43, 34 7
62, 44, 37 7
60, 41, 36 7
76, 46, 35 7
62, 43, 30 7
66, 45, 37 7
58, 38, 27 7
66, 47, 34 7
50, 39, 31 7
51, 38, 30 7
107, 130, 180 7
99, 124, 158 7
78, 102, 130 7
101, 127, 164 7
78, 103, 129 7
96, 121, 161 7
117, 140, 196 7
84, 107, 133 7
124, 152, 193 7
90, 114, 150 7
91, 115, 143 7
126, 151, 193 7
92, 117, 151 7
85, 109, 139 7
77, 101, 129 7
105, 129, 171 7
83, 110, 144 7
104, 128, 174 7
98, 123, 163 7
86, 114, 144 7
108, 133, 183 7
110, 136, 183 7
90, 117, 143 7
79, 106, 133 7
102, 126, 162 7
85, 108, 134 7
93, 117, 145 7
99, 127, 158 7
79, 109, 138 7
61, 39, 28 6
74, 42, 37 6
70, 47, 32 6
57, 37, 26 6
71, 44, 30 6
63, 42, 27 6
66, 43, 28 6
72, 42, 31 6
67, 48, 33 6
54, 35, 30 6
58, 37, 29 6
59, 42, 33 6
56, 38, 27 6
63, 43, 38 6
55, 40, 31 6
52, 41, 33 6
54, 41, 33 6
74, 46, 39 6
108, 130, 182 6
113, 137, 191 6
99, 125, 162 6
123, 147, 189 6
126, 149, 194 6
123, 148, 198 6
98, 122, 158 6
114, 139, 183 6
95, 119, 161 6
99, 123, 165 6
99, 125, 161 6
81, 106, 132 6
85, 110, 142 6
114, 143, 188 6
117, 145, 192 6
116, 144, 191 6
118, 146, 193 6
123, 143, 200 6
98, 123, 155 6
94, 119, 151 6
90, 116, 146 6
118, 141, 197 6
99, 122, 160 6
95, 120, 152 6
92, 117, 149 6
81, 104, 130 6
123, 148, 192 6
90, 116, 152 6
87, 111, 147 6
123, 148, 190 6
125, 153, 194 6
129, 153, 195 6
87, 109, 144 6
91, 114, 146 6
121, 146, 190 6
120, 145, 189 6
82, 105, 131 6
124, 153, 192 6
134, 159, 201 6
84, 108, 138 6
128, 153, 195 6
130, 155, 199 6
104, 127, 172 6
89, 117, 147 6
105, 131, 178 6
85, 114, 141 6
82, 108, 138 6
128, 152, 204 6
124, 149, 189 6
125, 148, 196 6
106, 132, 179 6
101, 125, 161 6
101, 124, 162 6
101, 129, 160 6
109, 135, 182 6
107, 133, 180 6
100, 122, 157 6
81, 108, 135 6
80, 109, 136 6
101, 129, 164 6
83, 112, 139 6
103, 128, 160 6
61, 39, 34 5
63, 41, 35 5
75, 49, 37 5
74, 45, 38 5
67, 40, 36 5
62, 38, 32 5
56, 36, 31 5
68, 42, 36 5
73, 41, 35 5
67, 40, 30 5
61, 41, 36 5
74, 45, 31 5
76, 47, 33 5
71, 39, 33 5
74, 47, 33 5
73, 47, 33 5
63, 45, 34 5
70, 48, 37 5
62, 43, 36 5
61, 42, 29 5
59, 40, 35 5
55, 38, 35 5
61, 44, 31 5
53, 37, 31 5
57, 42, 33 5
56, 38, 39 5
129, 146, 203 5
125, 146, 191 5
121, 145, 199 5
127, 150, 195 5
124, 148, 190 5
107, 131, 183 5
111, 141, 182 5
96, 121, 155 5
125, 147, 199 5
112, 140, 181 5
119, 144, 194 5
116, 141, 191 5
106, 124, 171 5
112, 137, 187 5
105, 125, 173 5
115, 140, 184 5
115, 140, 190 5
112, 141, 186 5
117, 146, 190 5
95, 122, 156 5
75, 97, 122 5
115, 144, 188 5
96, 123, 157 5
120, 149, 193 5
135, 160, 202 5
84, 109, 143 5
116, 145, 190 5
135, 160, 204 5
130, 155, 197 5
121, 141, 198 5
82, 107, 133 5
96, 121, 153 5
88, 112, 148 5
95, 120, 154 5
130, 156, 202 5
87, 108, 146 5
101, 126, 160 5
117, 143, 183 5
91, 115, 151 5
125, 154, 193 5
116, 140, 194 5
93, 113, 154 5
91, 116, 148 5
125, 143, 202 5
124, 144, 202 5
107, 128, 179 5
93, 114, 152 5
123, 152, 191 5
122, 145, 190 5
124, 142, 201 5
94, 114, 155 5
76, 100, 128 5
137, 166, 205 5
121, 145, 191 5
123, 146, 191 5
104, 130, 177 5
107, 129, 171 5
87, 116, 143 5
112, 134, 186 5
106, 129, 174 5
123, 150, 201 5
126, 151, 201 5
105, 128, 173 5
120, 146, 186 5
103, 129, 176 5
81, 106, 138 5
81, 105, 135 5
107, 132, 182 5
118, 145, 195 5
82, 107, 139 5
98, 123, 165 5
122, 145, 193 5
104, 131, 165 5
89, 115, 151 5
119, 143, 197 5
100, 123, 161 5
98, 123, 157 5
84, 111, 137 5
89, 118, 145 5
104, 129, 173 5
91, 118, 145 5
114, 139, 195 5
94, 118, 146 5
106, 128, 180 5
84, 111, 138 5
83, 110, 136 5
95, 123, 154 5
47, 61, 67 5
86, 113, 140 5
100, 128, 159 5
104, 129, 161 5
81, 111, 140 5
80, 110, 139 5
77, 105, 135 5
42, 58, 64 5
44, 60, 67 5
64, 39, 35 4
70, 41, 36 4
65, 39, 33 4
65, 39, 27 4
68, 39, 34 4
59, 37, 31 4
75, 46, 39 4
74, 48, 34 4
70, 44, 38 4
67, 38, 31 4
72, 49, 34 4
61, 44, 35 4
62, 37, 27 4
68, 40, 29 4
53, 36, 27 4
65, 42, 27 4
74, 47, 37 4
77, 47, 36 4
57, 41, 29 4
58, 39, 34 4
52, 36, 30 4
49, 40, 31 4
64, 43, 28 4
54, 34, 33 4
55, 43, 33 4
67, 46, 38 4
56, 41, 32 4
64, 42, 36 4
126, 147, 198 4
112, 136, 178 4
106, 131, 171 4
108, 133, 175 4
52, 74, 99 4
92, 116, 152 4
117, 142, 182 4
128, 150, 202 4
110, 140, 181 4
112, 142, 183 4
119, 141, 193 4
79, 98, 135 4
114, 142, 183 4
111, 136, 178 4
120, 144, 190 4
91, 110, 148 4
116, 137, 182 4
116, 139, 184 4
91, 117, 154 4
112, 141, 185 4
127, 152, 194 4
75, 95, 120 4
76, 99, 125 4
73, 98, 124 4
93, 120, 157 4
71, 94, 132 4
102, 130, 171 4
122, 151, 195 4
120, 140, 197 4
93, 119, 149 4
114, 142, 189 4
92, 111, 156 4
100, 125, 167 4
115, 142, 186 4
97, 119, 161 4
99, 124, 164 4
120, 148, 195 4
74, 95, 122 4
97, 124, 158 4
94, 121, 155 4
74, 97, 123 4
131, 155, 197 4
126, 146, 203 4
109, 133, 187 4
96, 122, 159 4
95, 119, 155 4
95, 121, 158 4
84, 109, 135 4
115, 139, 193 4
80, 103, 129 4
127, 155, 196 4
132, 156, 198 4
125, 150, 194 4
88, 109, 147 4
122, 147, 191 4
127, 145, 204 4
112, 136, 190 4
87, 113, 149 4
106, 131, 165 4
122, 148, 188 4
128, 152, 194 4
111, 135, 189 4
105, 126, 177 4
94, 115, 153 4
86, 108, 143 4
85, 112, 146 4
110, 136, 172 4
136, 161, 205 4
126, 151, 195 4
84, 109, 141 4
100, 125, 159 4
136, 161, 203 4
108, 132, 174 4
80, 105, 137 4
122, 146, 192 4
125, 147, 189 4
118, 139, 191 4
104, 130, 176 4
96, 121, 163 4
125, 147, 188 4
94, 118, 154 4
132, 157, 199 4
121, 145, 197 4
102, 128, 174 4
119, 144, 186 4
124, 149, 191 4
121, 146, 186 4
125, 149, 191 4
119, 142, 187 4
85, 113, 144 4
118, 143, 183 4
113, 140, 184 4
127, 152, 202 4
98, 124, 161 4
94, 116, 151 4
121, 146, 188 4
128, 153, 203 4
106, 129, 179 4
123, 148, 188 4
92, 114, 149 4
79, 103, 131 4
115, 141, 178 4
111, 137, 174 4
127, 151, 203 4
108, 131, 181 4
123, 146, 194 4
111, 136, 186 4
110, 133, 181 4
108, 131, 179 4
109, 135, 171 4
100, 122, 158 4
79, 105, 129 4
96, 122, 152 4
124, 147, 195 4
121, 146, 196 4
123, 147, 199 4
95, 123, 153 4
98, 126, 157 4
105, 130, 162 4
105, 131, 167 4
122, 146, 200 4
89, 116, 142 4
94, 121, 148 4
119, 145, 192 4
86, 109, 135 4
104, 129, 169 4
121, 148, 198 4
100, 123, 155 4
99, 122, 154 4
60, 82, 93 4
75, 93, 110 4
63, 82, 97 4
103, 131, 178 4
98, 124, 160 4
89, 116, 143 4
96, 125, 152 4
94, 122, 152 4
48, 64, 71 4
52, 74, 86 4
82, 108, 132 4
90, 120, 149 4
97, 125, 160 4
97, 125, 156 4
78, 106, 136 4
98, 131, 157 4
64, 45, 37 3
63, 39, 27 3
66, 39, 35 3
57, 37, 32 3
74, 42, 36 3
67, 37, 32 3
67, 43, 37 3
66, 40, 34 3
69, 46, 38 3
75, 48, 34 3
74, 43, 34 3
66, 38, 31 3
68, 49, 34 3
77, 45, 34 3
64, 45, 30 3
53, 35, 28 3
62, 43, 38 3
52, 35, 26 3
75, 43, 37 3
67, 47, 36 3
66, 39, 29 3
70, 41, 32 3
75, 48, 38 3
62, 46, 34 3
60, 44, 32 3
59, 43, 31 3
55, 39, 27 3
54, 40, 28 3
51, 39, 29 3
51, 37, 31 3
74, 50, 38 3
54, 42, 32 3
54, 37, 34 3
48, 39, 29 3
56, 36, 35 3
50, 40, 30 3
56, 39, 36 3
61, 40, 42 3
54, 36, 37 3
61, 39, 41 3
52, 35, 39 3
55, 38, 42 3
127, 144, 200 3
131, 154, 200 3
126, 147, 199 3
128, 147, 204 3
125, 148, 193 3
135, 158, 203 3
136, 156, 203 3
45, 30, 38 3
137, 159, 207 3
137, 157, 205 3
91, 109, 140 3
118, 142, 184 3
98, 118, 159 3
75, 94, 132 3
79, 98, 136 3
88, 108, 149 3
123, 145, 197 3
87, 96, 139 3
86, 95, 138 3
93, 105, 145 3
94, 112, 149 3
107, 132, 172 3
130, 153, 198 3
115, 137, 189 3
109, 134, 184 3
100, 124, 178 3
93, 109, 145 3
91, 107, 144 3
109, 138, 177 3
124, 145, 190 3
127, 151, 193 3
131, 153, 205 3
110, 138, 179 3
126, 152, 199 3
91, 117, 147 3
92, 108, 144 3
108, 136, 177 3
109, 137, 178 3
125, 151, 198 3
89, 108, 143 3
86, 105, 143 3
113, 138, 180 3
116, 141, 183 3
127, 153, 200 3
125, 144, 187 3
89, 111, 146 3
122, 147, 197 3
59, 75, 92 3
110, 135, 179 3
73, 94, 125 3
110, 132, 180 3
96, 116, 163 3
118, 141, 186 3
82, 107, 141 3
110, 130, 178 3
87, 114, 151 3
113, 142, 187 3
111, 140, 185 3
114, 143, 187 3
132, 157, 201 3
77, 101, 137 3
99, 120, 165 3
112, 133, 184 3
118, 138, 195 3
78, 96, 125 3
97, 121, 163 3
101, 127, 167 3
93, 121, 152 3
76, 101, 127 3
101, 129, 170 3
113, 141, 188 3
118, 147, 191 3
121, 150, 194 3
129, 158, 195 3
95, 116, 161 3
106, 126, 174 3
119, 139, 196 3
80, 99, 132 3
91, 111, 158 3
100, 123, 169 3
94, 118, 160 3
102, 128, 168 3
115, 143, 190 3
133, 158, 202 3
63, 85, 110 3
104, 124, 172 3
83, 104, 149 3
98, 118, 165 3
71, 95, 123 3
131, 157, 197 3
122, 142, 199 3
114, 137, 193 3
108, 126, 173 3
96, 114, 161 3
82, 101, 136 3
103, 126, 171 3
100, 125, 157 3
94, 120, 150 3
133, 159, 199 3
55, 75, 100 3
75, 98, 124 3
116, 143, 187 3
119, 147, 194 3
130, 154, 196 3
77, 96, 133 3
98, 120, 161 3
95, 120, 160 3
100, 126, 163 3
122, 150, 197 3
118, 147, 192 3
129, 154, 198 3
104, 124, 171 3
75, 99, 135 3
98, 121, 159 3
97, 123, 160 3
110, 136, 176 3
118, 143, 185 3
121, 149, 196 3
99, 119, 166 3
111, 131, 179 3
93, 119, 156 3
122, 148, 194 3
123, 150, 194 3
127, 154, 198 3
128, 153, 197 3
86, 105, 142 3
88, 111, 149 3
77, 100, 126 3
124, 151, 195 3
128, 154, 200 3
117, 134, 190 3
123, 151, 192 3
91, 112, 150 3
90, 111, 149 3
88, 110, 145 3
133, 160, 204 3
89, 107, 138 3
92, 113, 151 3
134, 161, 205 3
119, 144, 188 3
105, 127, 175 3
96, 116, 157 3
95, 115, 156 3
74, 98, 126 3
121, 147, 187 3
122, 151, 190 3
109, 130, 182 3
102, 123, 168 3
98, 119, 164 3
97, 119, 160 3
87, 109, 145 3
120, 149, 186 3
122, 151, 188 3
86, 107, 134 3
106, 127, 178 3
88, 110, 146 3
84, 106, 141 3
80, 104, 128 3
118, 144, 180 3
81, 106, 140 3
131, 156, 200 3
125, 149, 195 3
127, 147, 188 3
105, 129, 175 3
121, 143, 195 3
103, 129, 175 3
122, 146, 188 3
120, 143, 188 3
118, 143, 187 3
114, 138, 180 3
96, 120, 156 3
135, 161, 201 3
125, 149, 201 3
114, 138, 190 3
113, 137, 189 3
106, 130, 172 3
136, 162, 202 3
120, 146, 183 3
114, 139, 189 3
110, 135, 185 3
109, 132, 182 3
132, 159, 196 3
117, 143, 180 3
115, 141, 181 3
117, 144, 188 3
125, 152, 203 3
111, 138, 188 3
109, 136, 186 3
90, 118, 148 3
112, 141, 180 3
122, 147, 187 3
119, 143, 189 3
124, 149, 199 3
110, 137, 187 3
107, 134, 184 3
81, 107, 137 3
75, 105, 130 3
77, 105, 129 3
112, 138, 175 3
113, 141, 175 3
120, 148, 189 3
125, 150, 200 3
134, 161, 198 3
126, 150, 202 3
109, 131, 179 3
93, 117, 147 3
106, 132, 168 3
110, 133, 178 3
97, 124, 151 3
122, 144, 192 3
121, 143, 191 3
83, 108, 140 3
77, 104, 130 3
98, 126, 156 3
123, 145, 193 3
102, 125, 163 3
102, 124, 160 3
96, 123, 150 3
92, 119, 146 3
124, 150, 197 3
94, 119, 153 3
84, 107, 139 3
106, 131, 163 3
87, 115, 139 3
86, 114, 138 3
101, 128, 162 3
125, 146, 197 3
123, 147, 201 3
108, 135, 185 3
78, 105, 132 3
104, 130, 184 3
104, 134, 183 3
94, 118, 140 3
72, 98, 115 3
70, 96, 113 3
117, 141, 195 3
111, 135, 193 3
78, 106, 130 3
105, 130, 174 3
64, 88, 106 3
63, 90, 111 3
109, 133, 185 3
102, 127, 171 3
78, 99, 120 3
82, 110, 134 3
119, 146, 196 3
122, 149, 199 3
107, 129, 181 3
94, 119, 145 3
79, 99, 117 3
68, 88, 105 3
122, 149, 200 3
99, 121, 156 3
80, 100, 117 3
78, 98, 115 3
59, 83, 101 3
117, 144, 194 3
118, 144, 198 3
98, 122, 152 3
65, 84, 99 3
66, 85, 100 3
64, 83, 98 3
117, 144, 195 3
108, 134, 181 3
73, 92, 107 3
105, 133, 180 3
79, 106, 132 3
56, 78, 90 3
63, 85, 97 3
62, 84, 96 3
61, 83, 95 3
53, 74, 89 3
102, 131, 176 3
101, 126, 158 3
98, 124, 154 3
76, 103, 130 3
52, 68, 75 3
101, 130, 169 3
101, 130, 167 3
105, 131, 168 3
84, 112, 142 3
82, 110, 141 3
46, 60, 66 3
50, 72, 84 3
59, 84, 100 3
100, 129, 174 3
92, 120, 151 3
77, 106, 133 3
44, 58, 64 3
54, 76, 88 3
53, 76, 91 3
91, 116, 142 3
103, 131, 166 3
99, 126, 170 3
100, 128, 163 3
99, 127, 162 3
92, 121, 148 3
44, 56, 60 3
50, 70, 81 3
94, 124, 153 3
98, 126, 161 3
99, 124, 156 3
97, 123, 153 3
31, 50, 47 3
34, 50, 56 3
35, 51, 57 3
46, 62, 69 3
51, 66, 75 3
56, 71, 80 3
50, 65, 74 3
72, 43, 38 2
63, 44, 37 2
60, 38, 33 2
69, 40, 35 2
75, 43, 38 2
69, 40, 36 2
60, 40, 35 2
65, 37, 30 2
70, 43, 29 2
72, 41, 32 2
55, 37, 26 2
78, 49, 35 2
69, 40, 31 2
75, 43, 32 2
63, 45, 38 2
59, 43, 36 2
76, 50, 38 2
71, 45, 38 2
70, 47, 39 2
72, 46, 39 2
65, 47, 36 2
72, 40, 34 2
71, 41, 30 2
76, 47, 38 2
73, 42, 33 2
76, 45, 36 2
59, 36, 28 2
65, 43, 37 2
64, 45, 38 2
61, 45, 33 2
60, 38, 27 2
71, 49, 37 2
58, 44, 32 2
51, 35, 29 2
64, 47, 34 2
60, 37, 29 2
53, 39, 33 2
58, 39, 26 2
69, 48, 33 2
60, 43, 30 2
56, 40, 27 2
67, 45, 39 2
52, 40, 30 2
65, 41, 41 2
70, 39, 36 2
50, 34, 41 2
51, 32, 41 2
102, 93, 120 2
60, 37, 35 2
52, 36, 29 2
53, 36, 47 2
64, 46, 35 2
75, 74, 108 2
51, 34, 37 2
106, 121, 177 2
134, 153, 204 2
121, 141, 196 2
118, 135, 191 2
51, 39, 51 2
66, 44, 39 2
68, 44, 38 2
91, 108, 159 2
59, 44, 42 2
62, 38, 38 2
129, 149, 204 2
115, 135, 190 2
58, 37, 40 2
55, 40, 37 2
126, 145, 202 2
114, 134, 191 2
72, 92, 140 2
84, 90, 133 2
63, 47, 30 2
128, 144, 203 2
132, 153, 205 2
77, 48, 33 2
126, 145, 190 2
131, 154, 199 2
145, 168, 214 2
149, 164, 213 2
133, 149, 195 2
140, 157, 206 2
54, 71, 110 2
70, 81, 125 2
52, 35, 32 2
55, 35, 30 2
71, 45, 39 2
62, 37, 33 2
144, 158, 206 2
135, 158, 204 2
136, 159, 205 2
64, 44, 39 2
134, 154, 201 2
136, 156, 204 2
72, 75, 119 2
75, 77, 112 2
52, 41, 61 2
59, 42, 39 2
65, 86, 108 2
55, 76, 97 2
64, 84, 101 2
119, 133, 162 2
135, 155, 202 2
136, 158, 206 2
61, 49, 47 2
116, 129, 167 2
41, 61, 78 2
59, 80, 101 2
119, 143, 185 2
128, 147, 192 2
141, 161, 208 2
127, 148, 199 2
131, 152, 203 2
91, 98, 141 2
58, 72, 91 2
43, 62, 83 2
87, 106, 143 2
110, 130, 171 2
114, 136, 178 2
118, 139, 184 2
127, 148, 193 2
137, 157, 204 2
133, 154, 205 2
134, 155, 206 2
125, 148, 198 2
82, 91, 134 2
92, 85, 112 2
51, 43, 50 2
122, 138, 175 2
63, 84, 115 2
74, 93, 130 2
80, 99, 137 2
89, 109, 150 2
100, 122, 164 2
135, 155, 203 2
135, 156, 207 2
90, 105, 144 2
86, 94, 134 2
110, 129, 167 2
128, 145, 188 2
41, 53, 57 2
54, 75, 103 2
124, 148, 200 2
89, 101, 141 2
78, 90, 130 2
109, 131, 167 2
109, 134, 176 2
132, 151, 196 2
119, 138, 181 2
57, 80, 112 2
80, 102, 138 2
92, 107, 146 2
70, 86, 123 2
93, 103, 150 2
82, 96, 138 2
82, 98, 135 2
108, 135, 172 2
108, 137, 176 2
116, 140, 182 2
124, 147, 192 2
127, 150, 196 2
27, 42, 58 2
64, 86, 121 2
106, 129, 167 2
112, 135, 173 2
126, 148, 200 2
104, 126, 178 2
105, 128, 178 2
109, 131, 183 2
91, 102, 152 2
92, 103, 153 2
83, 100, 139 2
101, 112, 162 2
105, 116, 168 2
108, 118, 172 2
82, 101, 139 2
83, 97, 126 2
77, 92, 118 2
128, 151, 199 2
120, 143, 189 2
80, 104, 134 2
83, 109, 139 2
130, 153, 203 2
75, 95, 150 2
90, 108, 145 2
90, 102, 156 2
85, 102, 141 2
96, 112, 158 2
67, 85, 102 2
104, 122, 163 2
108, 133, 173 2
111, 139, 180 2
113, 141, 182 2
109, 148, 193 2
56, 77, 108 2
59, 80, 111 2
75, 99, 129 2
79, 105, 135 2
88, 115, 142 2
95, 117, 152 2
98, 120, 155 2
118, 143, 193 2
117, 140, 190 2
110, 133, 183 2
34, 49, 95 2
111, 126, 175 2
89, 107, 148 2
83, 102, 139 2
115, 139, 181 2
115, 140, 182 2
117, 141, 183 2
28, 39, 59 2
48, 70, 95 2
45, 67, 95 2
46, 67, 95 2
100, 120, 168 2
91, 112, 157 2
106, 119, 165 2
108, 117, 161 2
103, 113, 153 2
97, 110, 148 2
89, 108, 141 2
40, 56, 98 2
94, 109, 165 2
80, 99, 136 2
83, 94, 126 2
77, 94, 121 2
113, 134, 179 2
113, 136, 181 2
42, 60, 89 2
112, 139, 183 2
69, 90, 135 2
93, 112, 155 2
67, 85, 122 2
104, 124, 165 2
102, 121, 159 2
100, 117, 156 2
97, 115, 152 2
109, 129, 176 2
111, 134, 180 2
123, 149, 195 2
58, 76, 93 2
50, 67, 93 2
68, 89, 117 2
101, 126, 168 2
105, 132, 176 2
113, 139, 186 2
117, 142, 192 2
103, 121, 168 2
90, 108, 139 2
85, 106, 134 2
78, 97, 132 2
104, 114, 162 2
102, 123, 161 2
79, 104, 136 2
96, 124, 165 2
103, 133, 180 2
110, 140, 187 2
129, 158, 197 2
51, 72, 93 2
61, 83, 111 2
34, 55, 76 2
39, 59, 70 2
109, 129, 177 2
115, 135, 192 2
110, 133, 189 2
106, 129, 185 2
91, 110, 155 2
74, 91, 134 2
84, 103, 138 2
35, 56, 94 2
93, 113, 161 2
99, 126, 163 2
108, 137, 181 2
113, 143, 190 2
133, 156, 201 2
131, 153, 195 2
68, 87, 114 2
38, 58, 76 2
111, 132, 183 2
120, 140, 195 2
116, 136, 193 2
107, 130, 186 2
87, 106, 151 2
78, 97, 142 2
85, 104, 139 2
81, 100, 133 2
95, 123, 164 2
72, 96, 124 2
136, 159, 204 2
95, 116, 148 2
49, 70, 91 2
17, 35, 46 2
118, 138, 193 2
117, 137, 194 2
112, 135, 191 2
93, 112, 157 2
93, 117, 159 2
99, 126, 160 2
128, 157, 194 2
116, 137, 175 2
112, 133, 185 2
97, 118, 163 2
100, 127, 161 2
73, 97, 125 2
133, 158, 200 2
137, 162, 206 2
73, 94, 122 2
113, 134, 186 2
89, 108, 153 2
84, 101, 144 2
93, 115, 157 2
96, 122, 162 2
90, 119, 158 2
98, 125, 159 2
75, 96, 123 2
74, 96, 121 2
123, 152, 196 2
125, 145, 202 2
106, 126, 173 2
79, 102, 140 2
102, 124, 165 2
112, 137, 179 2
123, 151, 198 2
125, 154, 198 2
132, 158, 198 2
124, 143, 200 2
127, 146, 203 2
97, 117, 164 2
96, 115, 160 2
91, 114, 152 2
94, 117, 155 2
93, 118, 158 2
124, 152, 199 2
119, 148, 193 2
134, 156, 197 2
111, 130, 181 2
117, 135, 188 2
90, 109, 152 2
94, 113, 156 2
92, 112, 153 2
89, 108, 146 2
85, 104, 142 2
76, 95, 132 2
77, 96, 134 2
95, 118, 156 2
92, 115, 153 2
128, 154, 201 2
129, 155, 201 2
124, 150, 196 2
120, 147, 191 2
129, 156, 200 2
135, 157, 198 2
112, 131, 182 2
119, 137, 190 2
128, 146, 205 2
87, 106, 144 2
87, 110, 148 2
87, 113, 150 2
69, 93, 121 2
80, 102, 130 2
106, 132, 169 2
114, 140, 180 2
120, 145, 187 2
72, 89, 128 2
121, 140, 197 2
127, 147, 205 2
91, 110, 153 2
88, 107, 144 2
90, 109, 147 2
91, 117, 153 2
86, 110, 140 2
110, 136, 173 2
81, 99, 130 2
88, 106, 137 2
91, 111, 142 2
112, 130, 183 2
91, 118, 152 2
114, 140, 177 2
130, 157, 201 2
84, 104, 145 2
101, 119, 166 2
126, 144, 203 2
109, 130, 181 2
89, 113, 143 2
107, 133, 169 2
125, 145, 203 2
110, 134, 188 2
111, 132, 184 2
104, 126, 174 2
94, 116, 157 2
89, 110, 148 2
121, 150, 189 2
82, 99, 132 2
83, 107, 149 2
117, 134, 183 2
125, 143, 196 2
86, 108, 144 2
114, 140, 176 2
123, 149, 189 2
127, 156, 195 2
123, 152, 189 2
94, 112, 143 2
108, 129, 181 2
83, 108, 142 2
74, 100, 130 2
105, 130, 164 2
121, 150, 187 2
128, 151, 196 2
133, 155, 197 2
63, 87, 123 2
103, 126, 172 2
56, 80, 116 2
94, 120, 157 2
111, 135, 177 2
125, 146, 198 2
128, 146, 199 2
130, 148, 201 2
116, 132, 185 2
110, 138, 172 2
117, 142, 186 2
99, 118, 156 2
65, 89, 125 2
85, 111, 148 2
114, 135, 187 2
115, 136, 188 2
93, 117, 153 2
76, 100, 124 2
80, 102, 127 2
139, 168, 207 2
138, 163, 205 2
96, 117, 155 2
89, 112, 150 2
128, 149, 201 2
103, 127, 173 2
103, 125, 167 2
113, 141, 176 2
139, 167, 208 2
137, 162, 204 2
96, 119, 157 2
109, 133, 175 2
117, 140, 185 2
127, 149, 201 2
120, 142, 194 2
101, 127, 174 2
97, 119, 155 2
137, 165, 206 2
125, 150, 192 2
118, 145, 189 2
104, 125, 163 2
103, 125, 166 2
92, 117, 157 2
121, 148, 199 2
129, 152, 202 2
93, 115, 151 2
73, 101, 125 2
81, 105, 127 2
123, 149, 185 2
134, 162, 203 2
118, 144, 184 2
106, 131, 181 2
102, 125, 170 2
93, 115, 150 2
76, 104, 128 2
119, 145, 185 2
115, 141, 177 2
114, 142, 177 2
113, 142, 186 2
119, 144, 184 2
113, 135, 177 2
109, 131, 173 2
126, 149, 197 2
115, 142, 192 2
113, 140, 190 2
102, 126, 172 2
101, 124, 169 2
99, 124, 166 2
92, 114, 150 2
91, 115, 145 2
79, 106, 127 2
120, 145, 185 2
112, 139, 173 2
113, 140, 174 2
107, 131, 173 2
120, 145, 195 2
120, 147, 197 2
102, 128, 175 2
101, 125, 171 2
91, 113, 148 2
90, 113, 145 2
118, 144, 181 2
106, 134, 165 2
107, 135, 169 2
117, 145, 186 2
130, 152, 204 2
98, 120, 156 2
95, 117, 153 2
90, 112, 147 2
74, 104, 129 2
108, 134, 170 2
101, 129, 159 2
104, 132, 163 2
107, 136, 173 2
116, 139, 185 2
111, 136, 180 2
129, 151, 203 2
97, 125, 155 2
85, 108, 140 2
108, 136, 167 2
117, 145, 179 2
107, 134, 168 2
123, 147, 193 2
123, 149, 196 2
117, 139, 191 2
109, 132, 180 2
93, 118, 150 2
75, 104, 131 2
114, 143, 174 2
111, 136, 170 2
110, 135, 167 2
108, 133, 165 2
100, 126, 156 2
99, 125, 155 2
89, 113, 141 2
124, 145, 196 2
118, 142, 196 2
103, 125, 161 2
107, 132, 164 2
106, 132, 162 2
104, 130, 160 2
101, 127, 157 2
93, 120, 147 2
90, 118, 142 2
83, 112, 133 2
123, 144, 189 2
107, 131, 185 2
115, 139, 191 2
106, 138, 167 2
103, 129, 159 2
98, 125, 152 2
85, 113, 137 2
78, 108, 127 2
88, 112, 142 2
128, 149, 200 2
122, 148, 195 2
106, 136, 185 2
105, 135, 184 2
108, 136, 183 2
94, 126, 155 2
96, 128, 157 2
99, 126, 153 2
88, 115, 141 2
84, 112, 136 2
103, 127, 163 2
106, 131, 187 2
104, 133, 184 2
95, 119, 141 2
96, 120, 142 2
83, 108, 128 2
78, 105, 131 2
107, 135, 166 2
111, 138, 175 2
108, 132, 192 2
110, 134, 194 2
103, 128, 172 2
92, 116, 138 2
72, 97, 117 2
71, 96, 116 2
67, 93, 110 2
94, 123, 150 2
119, 142, 198 2
108, 132, 190 2
107, 131, 189 2
108, 132, 184 2
82, 106, 126 2
68, 92, 110 2
67, 91, 109 2
120, 146, 192 2
108, 132, 186 2
90, 114, 142 2
83, 110, 131 2
70, 92, 103 2
81, 102, 123 2
70, 92, 110 2
69, 91, 109 2
64, 89, 109 2
107, 136, 167 2
126, 153, 204 2
116, 142, 196 2
115, 140, 196 2
114, 138, 196 2
103, 127, 179 2
106, 130, 182 2
100, 124, 154 2
93, 118, 144 2
85, 109, 133 2
74, 100, 112 2
83, 103, 121 2
73, 93, 111 2
54, 78, 98 2
77, 104, 125 2
106, 134, 164 2
101, 123, 159 2
77, 102, 128 2
70, 94, 106 2
67, 87, 104 2
112, 136, 194 2
99, 123, 153 2
66, 84, 101 2
74, 92, 109 2
69, 88, 103 2
60, 80, 98 2
56, 76, 93 2
104, 133, 160 2
108, 135, 191 2
107, 130, 178 2
101, 123, 158 2
87, 111, 141 2
83, 108, 134 2
61, 80, 95 2
60, 83, 99 2
65, 89, 107 2
106, 134, 188 2
58, 76, 83 2
51, 73, 85 2
67, 89, 101 2
54, 75, 90 2
65, 81, 98 2
74, 99, 119 2
107, 135, 182 2
103, 132, 177 2
104, 133, 172 2
100, 129, 168 2
102, 127, 161 2
80, 107, 134 2
49, 65, 72 2
52, 74, 85 2
53, 75, 87 2
58, 81, 97 2
76, 103, 124 2
107, 136, 181 2
102, 131, 175 2
102, 131, 168 2
102, 132, 167 2
101, 131, 166 2
79, 108, 135 2
45, 61, 68 2
48, 71, 79 2
58, 80, 91 2
54, 76, 87 2
57, 79, 90 2
57, 79, 91 2
52, 75, 90 2
71, 98, 119 2
105, 132, 166 2
98, 127, 171 2
97, 126, 165 2
98, 127, 164 2
101, 132, 165 2
100, 131, 164 2
80, 108, 139 2
78, 106, 137 2
81, 110, 137 2
85, 114, 145 2
87, 117, 146 2
52, 75, 83 2
57, 80, 88 2
61, 85, 103 2
99, 127, 168 2
96, 125, 164 2
101, 130, 161 2
96, 124, 154 2
92, 122, 151 2
43, 55, 59 2
49, 72, 80 2
56, 79, 87 2
53, 70, 83 2
57, 77, 88 2
53, 78, 88 2
51, 75, 87 2
95, 124, 155 2
95, 123, 158 2
107, 131, 167 2
42, 54, 58 2
44, 66, 72 2
51, 72, 80 2
48, 69, 77 2
52, 72, 83 2
56, 75, 88 2
53, 72, 85 2
49, 68, 81 2
47, 65, 76 2
62, 85, 93 2
83, 107, 129 2
89, 117, 152 2
107, 132, 166 2
39, 51, 55 2
35, 57, 63 2
57, 76, 89 2
58, 80, 86 2
55, 78, 93 2
68, 93, 113 2
87, 114, 141 2
30, 52, 58 2
42, 63, 71 2
45, 65, 76 2
57, 81, 99 2
54, 79, 99 2
73, 98, 132 2
76, 101, 135 2
108, 133, 167 2
101, 124, 156 2
103, 126, 158 2
35, 48, 46 2
44, 60, 66 2
45, 61, 67 2
62, 74, 80 2
42, 56, 62 2
51, 65, 71 2
62, 78, 85 2
57, 73, 80 2
53, 68, 77 2
55, 70, 79 2
104, 127, 159 2
102, 125, 157 2
76, 104, 135 2
76, 104, 134 2
88, 118, 147 2
93, 123, 152 2
97, 130, 156 2
37, 53, 59 2
55, 71, 78 2
58, 73, 82 2
83, 113, 142 2
43, 59, 66 2
52, 77, 93 2
105, 129, 159 2
67, 38, 33 1
64, 35, 30 1
66, 36, 31 1
68, 38, 33 1
67, 41, 35 1
70, 40, 35 1
77, 48, 41 1
76, 44, 39 1
77, 45, 40 1
71, 39, 34 1
65, 38, 34 1
78, 46, 40 1
79, 50, 36 1
73, 50, 35 1
69, 42, 28 1
73, 44, 30 1
75, 44, 35 1
78, 46, 35 1
76, 44, 33 1
67, 39, 28 1
66, 37, 30 1
64, 46, 39 1
76, 49, 39 1
60, 44, 37 1
51, 34, 25 1
65, 46, 38 1
54, 35, 27 1
69, 49, 38 1
68, 39, 30 1
54, 35, 28 1
62, 45, 36 1
70, 40, 29 1
64, 47, 38 1
77, 48, 39 1
78, 49, 40 1
71, 49, 38 1
58, 42, 36 1
57, 43, 31 1
58, 36, 30 1
68, 49, 36 1
55, 42, 28 1
54, 41, 27 1
57, 41, 28 1
57, 35, 29 1
59, 39, 34 1
52, 34, 27 1
57, 44, 30 1
56, 43, 29 1
58, 42, 30 1
65, 48, 35 1
47, 31, 24 1
50, 37, 29 1
52, 37, 28 1
51, 36, 27 1
54, 40, 34 1
55, 41, 35 1
52, 38, 32 1
63, 46, 33 1
49, 37, 31 1
51, 39, 33 1
48, 37, 29 1
51, 40, 32 1
75, 51, 39 1
50, 41, 32 1
51, 42, 33 1
50, 41, 31 1
49, 39, 29 1
64, 41, 26 1
60, 41, 28 1
51, 35, 28 1
53, 35, 34 1
51, 42, 32 1
52, 43, 33 1
69, 50, 35 1
62, 43, 28 1
59, 42, 29 1
61, 45, 38 1
62, 46, 39 1
55, 37, 36 1
63, 45, 28 1
61, 44, 25 1
60, 45, 26 1
60, 44, 28 1
48, 38, 28 1
51, 41, 31 1
50, 38, 28 1
67, 48, 35 1
59, 35, 29 1
61, 37, 31 1
58, 40, 41 1
61, 40, 39 1
63, 41, 36 1
64, 44, 27 1
62, 42, 24 1
59, 42, 23 1
59, 41, 24 1
59, 40, 25 1
58, 43, 34 1
63, 37, 30 1
64, 38, 32 1
64, 41, 39 1
61, 40, 38 1
57, 40, 37 1
53, 34, 37 1
56, 34, 39 1
63, 38, 36 1
67, 45, 27 1
65, 43, 25 1
64, 41, 25 1
55, 42, 34 1
64, 38, 26 1
65, 34, 25 1
70, 38, 32 1
69, 41, 40 1
58, 34, 34 1
57, 33, 43 1
54, 31, 39 1
51, 31, 36 1
52, 37, 41 1
56, 35, 44 1
62, 38, 46 1
63, 39, 41 1
68, 43, 27 1
73, 41, 36 1
59, 43, 37 1
56, 43, 35 1
73, 40, 31 1
75, 42, 39 1
67, 36, 39 1
57, 30, 39 1
50, 25, 35 1
50, 31, 52 1
56, 37, 56 1
59, 43, 60 1
62, 46, 63 1
59, 46, 62 1
55, 39, 56 1
48, 32, 50 1
47, 28, 45 1
61, 38, 52 1
63, 40, 48 1
65, 41, 43 1
61, 42, 27 1
69, 43, 37 1
66, 33, 30 1
67, 35, 40 1
56, 28, 41 1
60, 38, 57 1
79, 59, 82 1
99, 85, 119 1
115, 104, 137 1
128, 117, 149 1
126, 116, 146 1
116, 107, 134 1
83, 71, 99 1
68, 53, 80 1
54, 36, 59 1
56, 37, 54 1
58, 37, 46 1
60, 37, 41 1
74, 45, 40 1
71, 41, 40 1
59, 28, 35 1
56, 29, 45 1
54, 32, 57 1
71, 54, 87 1
92, 80, 116 1
105, 102, 148 1
119, 116, 161 1
127, 125, 167 1
123, 122, 162 1
114, 113, 153 1
104, 101, 140 1
85, 81, 117 1
68, 61, 96 1
54, 44, 74 1
52, 38, 62 1
50, 34, 52 1
59, 39, 44 1
57, 34, 32 1
66, 40, 26 1
65, 39, 25 1
62, 41, 26 1
67, 42, 38 1
63, 39, 39 1
59, 34, 38 1
57, 31, 44 1
53, 30, 52 1
71, 51, 80 1
102, 89, 127 1
134, 127, 170 1
144, 141, 187 1
138, 141, 196 1
134, 137, 192 1
124, 128, 181 1
115, 119, 170 1
111, 115, 164 1
106, 109, 154 1
97, 98, 142 1
91, 90, 130 1
67, 63, 99 1
55, 47, 78 1
44, 34, 57 1
47, 33, 51 1
53, 37, 48 1
63, 44, 29 1
68, 50, 39 1
71, 40, 31 1
73, 42, 39 1
66, 40, 40 1
55, 32, 37 1
51, 28, 42 1
54, 34, 53 1
63, 44, 71 1
91, 74, 111 1
126, 116, 158 1
146, 142, 191 1
143, 146, 197 1
133, 139, 192 1
126, 136, 196 1
120, 130, 190 1
119, 130, 188 1
115, 124, 181 1
106, 117, 169 1
94, 103, 153 1
88, 94, 141 1
97, 103, 146 1
86, 87, 125 1
60, 55, 84 1
51, 42, 63 1
47, 34, 50 1
47, 32, 40 1
71, 40, 39 1
69, 39, 44 1
53, 29, 41 1
47, 28, 47 1
62, 47, 75 1
80, 68, 104 1
119, 110, 153 1
155, 149, 198 1
152, 150, 202 1
133, 137, 190 1
127, 137, 191 1
128, 139, 196 1
121, 136, 198 1
120, 134, 193 1
117, 131, 190 1
110, 122, 180 1
99, 113, 166 1
91, 105, 154 1
88, 98, 145 1
94, 101, 144 1
94, 99, 138 1
91, 93, 127 1
77, 75, 105 1
58, 52, 75 1
47, 37, 54 1
45, 31, 42 1
47, 32, 36 1
50, 34, 35 1
73, 45, 38 1
65, 35, 34 1
65, 34, 41 1
52, 26, 42 1
58, 39, 64 1
74, 63, 96 1
108, 101, 144 1
136, 135, 185 1
142, 143, 199 1
140, 142, 200 1
148, 155, 212 1
141, 152, 209 1
130, 144, 197 1
128, 144, 197 1
119, 137, 196 1
123, 139, 198 1
117, 134, 191 1
95, 109, 162 1
90, 104, 152 1
88, 101, 145 1
82, 92, 132 1
78, 86, 123 1
90, 95, 128 1
87, 87, 117 1
68, 62, 87 1
51, 41, 58 1
48, 34, 45 1
50, 36, 38 1
50, 35, 33 1
55, 29, 29 1
56, 32, 40 1
59, 35, 53 1
79, 62, 89 1
103, 95, 132 1
133, 131, 177 1
138, 142, 195 1
133, 139, 198 1
134, 142, 202 1
141, 151, 211 1
144, 156, 214 1
141, 156, 212 1
122, 141, 192 1
93, 107, 159 1
88, 102, 150 1
83, 97, 139 1
63, 76, 114 1
50, 59, 96 1
77, 84, 117 1
89, 91, 122 1
73, 68, 95 1
55, 46, 66 1
54, 39, 43 1
52, 37, 35 1
71, 46, 42 1
61, 42, 37 1
64, 45, 42 1
61, 42, 39 1
66, 47, 40 1
68, 46, 40 1
66, 41, 37 1
66, 41, 39 1
64, 39, 37 1
57, 38, 41 1
49, 31, 38 1
57, 37, 50 1
72, 53, 74 1
106, 91, 122 1
128, 120, 160 1
139, 139, 187 1
124, 131, 186 1
127, 139, 197 1
129, 142, 204 1
133, 146, 208 1
145, 159, 218 1
154, 169, 225 1
145, 163, 216 1
135, 157, 205 1
128, 148, 203 1
105, 121, 174 1
84, 100, 146 1
72, 88, 130 1
47, 63, 100 1
35, 47, 83 1
69, 78, 112 1
90, 92, 126 1
78, 73, 104 1
57, 49, 72 1
55, 42, 56 1
57, 43, 49 1
57, 41, 42 1
74, 47, 43 1
70, 45, 43 1
66, 42, 42 1
64, 44, 43 1
49, 33, 34 1
54, 38, 39 1
59, 45, 46 1
58, 44, 45 1
62, 45, 42 1
62, 46, 40 1
68, 45, 43 1
55, 33, 35 1
46, 35, 51 1
65, 53, 73 1
99, 86, 112 1
140, 131, 164 1
149, 145, 187 1
146, 147, 197 1
133, 140, 195 1
123, 135, 193 1
126, 142, 201 1
137, 151, 209 1
150, 166, 219 1
159, 176, 227 1
153, 173, 221 1
144, 168, 214 1
135, 161, 207 1
134, 155, 210 1
102, 119, 175 1
79, 97, 144 1
61, 78, 121 1
38, 55, 94 1
33, 49, 86 1
68, 77, 115 1
86, 92, 129 1
56, 48, 78 1
49, 38, 58 1
51, 37, 48 1
53, 39, 43 1
60, 44, 27 1
61, 45, 28 1
66, 38, 37 1
62, 36, 36 1
57, 35, 37 1
53, 38, 42 1
63, 49, 53 1
73, 62, 65 1
72, 61, 63 1
69, 58, 60 1
65, 53, 53 1
59, 47, 45 1
55, 42, 40 1
64, 47, 44 1
59, 39, 38 1
60, 39, 42 1
59, 38, 41 1
62, 40, 45 1
66, 61, 90 1
120, 113, 146 1
155, 150, 189 1
150, 147, 192 1
137, 140, 191 1
124, 134, 188 1
127, 141, 199 1
137, 155, 208 1
146, 160, 212 1
152, 167, 216 1
155, 171, 218 1
151, 171, 218 1
144, 170, 216 1
135, 164, 209 1
140, 164, 218 1
129, 149, 206 1
100, 119, 176 1
90, 108, 161 1
49, 68, 113 1
34, 52, 93 1
38, 54, 96 1
65, 77, 119 1
76, 76, 116 1
57, 52, 84 1
43, 35, 58 1
42, 31, 47 1
46, 32, 43 1
64, 46, 29 1
68, 38, 37 1
63, 35, 35 1
64, 37, 40 1
63, 40, 44 1
65, 45, 50 1
80, 64, 71 1
101, 87, 93 1
110, 95, 103 1
114, 107, 110 1
109, 102, 105 1
101, 92, 95 1
85, 77, 78 1
71, 61, 61 1
59, 47, 47 1
51, 39, 37 1
49, 36, 34 1
48, 33, 31 1
54, 39, 37 1
58, 42, 43 1
55, 36, 39 1
54, 34, 39 1
67, 47, 52 1
102, 82, 87 1
135, 133, 169 1
163, 162, 202 1
154, 152, 198 1
133, 136, 187 1
133, 140, 197 1
134, 146, 204 1
147, 164, 213 1
150, 165, 211 1
152, 167, 213 1
155, 171, 217 1
144, 167, 212 1
137, 163, 209 1
136, 166, 213 1
144, 167, 223 1
127, 150, 206 1
114, 134, 192 1
100, 120, 178 1
89, 109, 164 1
69, 88, 139 1
39, 59, 106 1
30, 49, 92 1
35, 52, 95 1
59, 72, 116 1
81, 87, 132 1
80, 82, 123 1
65, 61, 97 1
50, 43, 70 1
48, 38, 55 1
58, 46, 36 1
75, 41, 35 1
77, 48, 34 1
74, 48, 32 1
71, 45, 29 1
70, 45, 29 1
71, 46, 30 1
69, 49, 32 1
65, 45, 28 1
68, 45, 29 1
60, 37, 21 1
69, 42, 38 1
63, 36, 39 1
59, 35, 43 1
60, 37, 51 1
60, 41, 56 1
80, 64, 81 1
98, 85, 101 1
115, 105, 121 1
120, 110, 126 1
107, 114, 139 1
102, 110, 133 1
89, 96, 116 1
75, 79, 98 1
64, 64, 82 1
50, 47, 63 1
43, 33, 49 1
44, 31, 45 1
46, 31, 45 1
54, 37, 51 1
55, 36, 53 1
53, 34, 53 1
49, 32, 53 1
49, 33, 56 1
75, 62, 84 1
119, 105, 129 1
141, 151, 199 1
148, 160, 208 1
143, 156, 202 1
129, 144, 190 1
138, 161, 206 1
150, 170, 217 1
148, 166, 213 1
147, 163, 210 1
152, 166, 215 1
148, 163, 219 1
133, 147, 205 1
124, 135, 195 1
116, 127, 187 1
100, 113, 169 1
68, 83, 132 1
36, 54, 95 1
26, 46, 81 1
38, 58, 93 1
58, 75, 114 1
74, 85, 129 1
76, 80, 128 1
69, 68, 110 1
56, 52, 87 1
42, 39, 61 1
35, 32, 48 1
46, 39, 46 1
45, 38, 43 1
42, 32, 38 1
47, 33, 37 1
52, 35, 38 1
52, 31, 33 1
50, 29, 28 1
59, 34, 32 1
57, 32, 28 1
49, 40, 30 1
49, 41, 28 1
51, 42, 28 1
54, 43, 29 1
58, 43, 27 1
60, 42, 25 1
62, 42, 25 1
77, 45, 39 1
77, 53, 41 1
60, 39, 37 1
57, 36, 39 1
56, 35, 43 1
67, 49, 62 1
93, 77, 94 1
117, 105, 123 1
135, 126, 146 1
134, 130, 149 1
132, 130, 149 1
129, 129, 145 1
109, 120, 142 1
107, 118, 140 1
101, 110, 130 1
93, 100, 119 1
87, 91, 109 1
75, 75, 91 1
58, 55, 70 1
50, 43, 58 1
49, 38, 54 1
46, 34, 52 1
42, 28, 46 1
41, 29, 49 1
57, 45, 67 1
89, 79, 102 1
136, 127, 153 1
176, 170, 195 1
158, 170, 218 1
143, 155, 203 1
135, 149, 197 1
129, 150, 195 1
138, 159, 204 1
140, 163, 208 1
142, 165, 211 1
147, 167, 214 1
144, 162, 209 1
145, 160, 209 1
151, 166, 215 1
152, 168, 221 1
138, 152, 210 1
123, 137, 196 1
116, 127, 189 1
101, 113, 171 1
66, 81, 130 1
30, 48, 89 1
21, 41, 76 1
36, 56, 91 1
73, 79, 126 1
70, 72, 113 1
63, 62, 96 1
53, 49, 74 1
47, 43, 62 1
38, 34, 46 1
37, 31, 42 1
37, 29, 40 1
43, 32, 42 1
49, 34, 42 1
47, 29, 36 1
50, 28, 33 1
58, 35, 39 1
63, 38, 42 1
62, 38, 40 1
60, 36, 36 1
57, 36, 35 1
55, 36, 33 1
52, 37, 34 1
56, 40, 34 1
48, 39, 30 1
51, 39, 27 1
61, 36, 32 1
59, 37, 32 1
65, 43, 38 1
65, 44, 46 1
64, 43, 45 1
53, 36, 39 1
54, 37, 41 1
64, 49, 57 1
78, 64, 76 1
113, 101, 119 1
127, 118, 139 1
136, 130, 153 1
135, 135, 159 1
127, 129, 153 1
122, 129, 149 1
112, 121, 141 1
104, 115, 135 1
97, 111, 133 1
101, 115, 134 1
99, 113, 132 1
98, 110, 128 1
99, 109, 127 1
96, 103, 120 1
85, 89, 107 1
78, 78, 96 1
63, 61, 80 1
56, 51, 72 1
56, 50, 73 1
72, 68, 93 1
108, 105, 131 1
151, 149, 178 1
176, 176, 206 1
177, 179, 209 1
147, 159, 207 1
141, 155, 203 1
136, 152, 199 1
134, 152, 199 1
139, 159, 206 1
140, 163, 209 1
144, 167, 213 1
145, 165, 212 1
142, 162, 210 1
142, 159, 208 1
153, 171, 224 1
143, 160, 217 1
126, 139, 201 1
115, 126, 188 1
103, 114, 174 1
64, 78, 130 1
23, 40, 83 1
15, 34, 71 1
38, 56, 93 1
73, 79, 124 1
75, 77, 118 1
72, 72, 108 1
70, 67, 93 1
66, 64, 84 1
68, 65, 87 1
65, 63, 83 1
69, 62, 83 1
73, 64, 84 1
69, 57, 77 1
58, 42, 60 1
53, 34, 51 1
56, 35, 50 1
62, 39, 53 1
55, 32, 46 1
49, 29, 41 1
50, 30, 42 1
47, 30, 39 1
42, 29, 37 1
50, 38, 38 1
51, 37, 38 1
56, 40, 41 1
51, 33, 32 1
50, 38, 34 1
49, 38, 34 1
48, 39, 35 1
49, 40, 36 1
50, 41, 37 1
52, 41, 37 1
53, 38, 35 1
53, 36, 33 1
53, 34, 31 1
53, 32, 34 1
65, 45, 40 1
62, 42, 37 1
74, 49, 39 1
74, 48, 41 1
61, 36, 34 1
63, 41, 43 1
63, 42, 45 1
62, 41, 44 1
58, 38, 43 1
45, 31, 43 1
48, 34, 46 1
57, 43, 55 1
60, 47, 61 1
77, 67, 80 1
90, 82, 99 1
118, 112, 131 1
134, 131, 153 1
136, 135, 161 1
132, 135, 163 1
121, 127, 156 1
115, 123, 152 1
99, 112, 138 1
93, 109, 132 1
84, 102, 125 1
84, 103, 124 1
81, 98, 117 1
85, 102, 121 1
86, 104, 121 1
87, 103, 120 1
88, 104, 121 1
90, 104, 122 1
93, 104, 124 1
96, 105, 125 1
97, 103, 126 1
110, 115, 140 1
131, 135, 163 1
146, 152, 181 1
159, 167, 197 1
170, 179, 212 1
164, 174, 208 1
143, 155, 189 1
132, 146, 194 1
140, 156, 203 1
133, 149, 196 1
136, 154, 201 1
137, 160, 206 1
139, 161, 209 1
143, 160, 209 1
151, 168, 217 1
153, 174, 226 1
148, 165, 222 1
128, 143, 205 1
115, 127, 191 1
107, 118, 180 1
66, 79, 135 1
20, 36, 83 1
14, 31, 70 1
39, 57, 94 1
57, 72, 111 1
70, 82, 124 1
72, 78, 123 1
77, 77, 107 1
78, 78, 102 1
79, 78, 110 1
80, 79, 111 1
87, 84, 116 1
92, 86, 117 1
86, 78, 108 1
71, 59, 89 1
55, 40, 68 1
47, 30, 57 1
43, 26, 53 1
43, 24, 49 1
44, 28, 51 1
50, 34, 57 1
51, 38, 60 1
45, 36, 56 1
47, 36, 46 1
44, 30, 41 1
46, 30, 37 1
49, 32, 36 1
48, 34, 36 1
47, 35, 35 1
45, 35, 35 1
42, 34, 34 1
39, 33, 34 1
38, 31, 34 1
41, 32, 35 1
46, 32, 38 1
48, 32, 39 1
46, 29, 38 1
44, 28, 35 1
45, 31, 33 1
70, 55, 52 1
67, 52, 49 1
61, 46, 43 1
58, 41, 38 1
60, 43, 40 1
71, 51, 40 1
64, 43, 41 1
62, 41, 40 1
61, 41, 46 1
58, 40, 47 1
52, 35, 48 1
54, 39, 53 1
61, 48, 62 1
70, 57, 73 1
78, 65, 81 1
77, 72, 93 1
87, 82, 103 1
109, 106, 128 1
122, 120, 142 1
134, 134, 158 1
132, 133, 161 1
132, 136, 165 1
125, 130, 163 1
124, 130, 165 1
117, 126, 160 1
106, 116, 150 1
103, 116, 148 1
91, 107, 136 1
83, 103, 128 1
61, 79, 96 1
62, 80, 97 1
69, 89, 107 1
72, 92, 110 1
74, 93, 114 1
83, 99, 122 1
90, 105, 131 1
103, 117, 145 1
136, 149, 181 1
140, 155, 188 1
140, 156, 192 1
141, 159, 196 1
137, 156, 194 1
129, 148, 186 1
131, 147, 193 1
128, 144, 190 1
128, 146, 193 1
135, 153, 200 1
139, 157, 204 1
134, 156, 204 1
132, 154, 202 1
126, 148, 196 1
141, 160, 211 1
146, 165, 216 1
151, 173, 225 1
148, 167, 224 1
132, 147, 209 1
117, 132, 195 1
109, 121, 185 1
72, 84, 142 1
27, 42, 91 1
20, 36, 79 1
47, 64, 103 1
63, 78, 117 1
73, 85, 127 1
75, 81, 126 1
75, 81, 124 1
79, 82, 120 1
81, 83, 114 1
81, 84, 112 1
78, 83, 122 1
81, 83, 123 1
82, 82, 122 1
80, 79, 119 1
80, 75, 114 1
72, 64, 104 1
60, 49, 87 1
50, 37, 75 1
39, 27, 63 1
49, 37, 73 1
63, 52, 85 1
73, 64, 97 1
80, 72, 103 1
84, 78, 109 1
82, 76, 107 1
73, 68, 99 1
58, 49, 69 1
57, 47, 64 1
51, 40, 56 1
53, 40, 54 1
49, 35, 47 1
47, 33, 44 1
44, 31, 39 1
44, 33, 41 1
39, 31, 38 1
39, 32, 39 1
40, 35, 44 1
44, 38, 49 1
50, 41, 54 1
55, 44, 60 1
59, 45, 63 1
60, 46, 64 1
62, 49, 65 1
56, 43, 57 1
50, 39, 49 1
70, 63, 60 1
70, 61, 58 1
64, 55, 52 1
63, 51, 49 1
64, 45, 40 1
63, 44, 39 1
53, 38, 46 1
56, 42, 54 1
65, 52, 66 1
78, 68, 85 1
92, 83, 103 1
105, 97, 120 1
113, 107, 130 1
119, 113, 138 1
120, 116, 141 1
121, 125, 153 1
124, 128, 156 1
128, 134, 163 1
123, 131, 160 1
118, 127, 160 1
117, 127, 161 1
123, 135, 171 1
123, 134, 172 1
119, 132, 170 1
111, 125, 161 1
98, 113, 145 1
83, 100, 127 1
75, 91, 114 1
59, 76, 95 1
45, 63, 80 1
42, 61, 76 1
39, 57, 74 1
52, 72, 90 1
71, 91, 116 1
77, 95, 124 1
104, 121, 154 1
116, 134, 171 1
122, 141, 179 1
124, 144, 185 1
122, 144, 185 1
118, 137, 182 1
119, 138, 183 1
138, 158, 205 1
129, 151, 199 1
133, 155, 203 1
132, 153, 204 1
119, 140, 191 1
120, 141, 192 1
140, 161, 212 1
141, 162, 213 1
146, 168, 220 1
144, 164, 221 1
131, 149, 210 1
119, 133, 199 1
110, 122, 188 1
79, 90, 150 1
42, 54, 108 1
33, 48, 94 1
61, 75, 117 1
72, 84, 124 1
78, 90, 132 1
82, 89, 132 1
86, 91, 130 1
85, 89, 124 1
83, 88, 121 1
83, 89, 132 1
69, 70, 114 1
66, 63, 108 1
56, 52, 94 1
49, 42, 85 1
50, 43, 86 1
66, 60, 101 1
80, 74, 115 1
85, 82, 121 1
91, 88, 127 1
91, 91, 127 1
85, 85, 121 1
75, 70, 97 1
80, 76, 101 1
79, 70, 96 1
76, 66, 89 1
61, 49, 71 1
57, 46, 66 1
50, 40, 57 1
49, 41, 58 1
55, 49, 66 1
60, 57, 73 1
72, 68, 87 1
82, 80, 100 1
93, 87, 110 1
98, 92, 117 1
101, 91, 121 1
101, 94, 115 1
92, 86, 105 1
81, 74, 89 1
62, 63, 61 1
64, 62, 61 1
61, 57, 56 1
58, 53, 52 1
59, 53, 54 1
65, 57, 58 1
67, 53, 54 1
66, 52, 53 1
59, 46, 48 1
51, 37, 41 1
48, 36, 42 1
56, 45, 55 1
73, 63, 75 1
89, 82, 97 1
105, 99, 118 1
112, 107, 128 1
118, 115, 140 1
122, 120, 149 1
122, 122, 152 1
119, 121, 152 1
115, 118, 149 1
114, 116, 150 1
113, 124, 154 1
116, 127, 157 1
117, 130, 162 1
121, 133, 167 1
118, 132, 168 1
119, 134, 173 1
116, 133, 172 1
117, 133, 175 1
113, 130, 169 1
110, 126, 163 1
104, 119, 152 1
90, 104, 133 1
75, 89, 112 1
54, 67, 83 1
54, 67, 81 1
40, 56, 72 1
36, 52, 69 1
36, 53, 72 1
50, 71, 93 1
57, 79, 104 1
64, 85, 113 1
68, 88, 119 1
79, 99, 134 1
100, 119, 157 1
109, 132, 177 1
105, 126, 171 1
131, 151, 198 1
140, 160, 208 1
122, 143, 194 1
110, 131, 182 1
141, 164, 214 1
142, 165, 215 1
133, 157, 209 1
133, 154, 209 1
125, 144, 205 1
113, 129, 195 1
106, 118, 184 1
85, 96, 158 1
59, 70, 127 1
51, 63, 111 1
66, 79, 123 1
75, 87, 129 1
80, 89, 132 1
86, 93, 136 1
87, 93, 134 1
84, 92, 129 1
84, 93, 127 1
86, 98, 140 1
91, 103, 145 1
82, 91, 135 1
68, 74, 119 1
61, 66, 111 1
54, 57, 102 1
45, 45, 91 1
43, 43, 89 1
73, 72, 116 1
84, 83, 127 1
88, 87, 131 1
85, 87, 128 1
87, 89, 130 1
82, 87, 126 1
73, 78, 117 1
65, 72, 111 1
76, 78, 109 1
84, 83, 115 1
89, 87, 117 1
91, 86, 117 1
89, 84, 113 1
91, 86, 113 1
101, 98, 124 1
100, 99, 125 1
101, 99, 128 1
100, 100, 130 1
99, 98, 130 1
99, 95, 130 1
96, 92, 127 1
93, 89, 124 1
101, 100, 126 1
98, 98, 122 1
96, 95, 115 1
55, 62, 59 1
55, 60, 59 1
50, 52, 52 1
46, 45, 47 1
47, 46, 48 1
52, 49, 51 1
51, 43, 53 1
58, 52, 63 1
76, 72, 84 1
96, 93, 108 1
114, 112, 131 1
126, 127, 148 1
126, 128, 152 1
126, 130, 158 1
124, 130, 159 1
117, 126, 159 1
113, 123, 157 1
111, 123, 159 1
114, 125, 163 1
122, 135, 167 1
120, 135, 168 1
116, 130, 166 1
120, 137, 176 1
124, 140, 182 1
118, 136, 177 1
123, 141, 182 1
115, 132, 171 1
104, 123, 158 1
91, 106, 138 1
66, 81, 107 1
47, 60, 74 1
46, 58, 68 1
38, 51, 59 1
42, 56, 74 1
41, 57, 74 1
42, 59, 78 1
45, 64, 85 1
48, 68, 93 1
55, 76, 103 1
68, 89, 121 1
99, 121, 163 1
110, 132, 174 1
130, 151, 196 1
124, 145, 197 1
103, 125, 177 1
122, 144, 196 1
138, 160, 212 1
133, 158, 208 1
118, 137, 198 1
108, 124, 190 1
99, 113, 179 1
88, 99, 161 1
69, 80, 137 1
62, 73, 123 1
71, 82, 126 1
77, 89, 131 1
83, 92, 135 1
85, 94, 137 1
85, 95, 135 1
88, 96, 136 1
92, 101, 139 1
93, 108, 147 1
76, 90, 132 1
57, 69, 111 1
51, 60, 104 1
48, 54, 99 1
49, 55, 100 1
62, 67, 112 1
89, 94, 139 1
94, 99, 144 1
90, 96, 139 1
85, 91, 134 1
83, 91, 131 1
73, 83, 123 1
73, 84, 122 1
77, 83, 118 1
74, 78, 113 1
77, 81, 116 1
82, 82, 118 1
95, 93, 129 1
97, 95, 131 1
104, 102, 138 1
105, 103, 139 1
99, 99, 135 1
98, 100, 135 1
97, 98, 136 1
94, 97, 135 1
92, 95, 133 1
90, 92, 132 1
88, 90, 130 1
86, 88, 128 1
85, 89, 118 1
84, 88, 116 1
88, 92, 116 1
50, 61, 59 1
55, 65, 65 1
52, 60, 60 1
42, 47, 50 1
36, 40, 45 1
39, 42, 47 1
48, 45, 60 1
59, 58, 74 1
76, 75, 91 1
98, 98, 116 1
113, 114, 134 1
117, 122, 143 1
123, 128, 153 1
123, 132, 159 1
118, 129, 157 1
114, 127, 159 1
112, 127, 160 1
109, 128, 163 1
109, 128, 165 1
109, 129, 170 1
121, 136, 169 1
126, 140, 176 1
125, 142, 181 1
129, 145, 187 1
120, 138, 179 1
90, 109, 142 1
68, 85, 112 1
46, 63, 84 1
37, 52, 68 1
35, 50, 59 1
35, 49, 55 1
40, 55, 74 1
43, 58, 77 1
47, 64, 85 1
53, 71, 94 1
55, 74, 101 1
57, 78, 109 1
63, 83, 118 1
68, 87, 124 1
81, 101, 142 1
90, 112, 153 1
92, 114, 155 1
99, 121, 162 1
132, 155, 201 1
134, 157, 203 1
137, 158, 209 1
130, 151, 203 1
114, 136, 188 1
102, 124, 176 1
132, 157, 207 1
107, 127, 185 1
96, 113, 176 1
84, 99, 162 1
74, 87, 149 1
68, 79, 136 1
71, 82, 132 1
79, 89, 136 1
82, 94, 136 1
73, 88, 127 1
59, 74, 113 1
48, 60, 102 1
31, 40, 84 1
44, 53, 97 1
69, 77, 124 1
89, 97, 144 1
91, 99, 146 1
91, 100, 144 1
89, 98, 142 1
81, 93, 135 1
81, 93, 129 1
81, 90, 128 1
80, 89, 127 1
84, 90, 131 1
93, 97, 138 1
102, 103, 147 1
106, 107, 151 1
108, 108, 154 1
107, 110, 155 1
103, 108, 153 1
102, 108, 151 1
99, 106, 149 1
96, 103, 146 1
92, 100, 140 1
82, 90, 130 1
78, 88, 118 1
82, 90, 119 1
83, 90, 115 1
45, 59, 58 1
52, 65, 67 1
51, 62, 66 1
45, 55, 62 1
48, 58, 65 1
60, 67, 76 1
72, 76, 100 1
87, 91, 115 1
101, 106, 131 1
113, 120, 145 1
120, 129, 156 1
121, 132, 160 1
114, 129, 161 1
112, 131, 164 1
110, 130, 165 1
108, 131, 169 1
107, 133, 173 1
119, 137, 174 1
124, 141, 180 1
125, 143, 184 1
130, 147, 190 1
101, 120, 157 1
76, 95, 128 1
54, 71, 98 1
37, 54, 73 1
31, 47, 60 1
31, 46, 55 1
34, 48, 54 1
39, 54, 57 1
40, 57, 78 1
50, 68, 91 1
54, 77, 103 1
55, 77, 105 1
62, 84, 119 1
66, 88, 123 1
69, 91, 127 1
76, 98, 134 1
81, 103, 139 1
85, 107, 143 1
136, 157, 208 1
100, 122, 174 1
99, 121, 173 1
113, 138, 188 1
95, 115, 172 1
83, 101, 162 1
71, 86, 148 1
63, 77, 136 1
62, 73, 130 1
69, 80, 130 1
82, 92, 139 1
89, 98, 141 1
89, 99, 139 1
88, 100, 140 1
55, 70, 109 1
42, 56, 98 1
34, 45, 89 1
55, 65, 112 1
81, 91, 139 1
90, 100, 148 1
92, 102, 150 1
92, 102, 149 1
87, 100, 144 1
84, 97, 141 1
81, 96, 135 1
82, 94, 134 1
88, 97, 140 1
95, 103, 150 1
103, 108, 157 1
107, 112, 161 1
109, 113, 164 1
110, 117, 167 1
107, 114, 164 1
101, 111, 159 1
97, 107, 154 1
94, 105, 149 1
89, 103, 145 1
85, 100, 139 1
83, 98, 137 1
82, 93, 123 1
82, 94, 122 1
80, 92, 116 1
43, 58, 60 1
44, 61, 64 1
42, 55, 63 1
39, 51, 61 1
48, 60, 72 1
63, 75, 87 1
74, 84, 114 1
92, 102, 132 1
105, 116, 146 1
113, 126, 158 1
116, 131, 163 1
117, 134, 167 1
115, 134, 169 1
107, 129, 164 1
110, 134, 170 1
108, 134, 171 1
108, 138, 179 1
109, 139, 180 1
112, 137, 177 1
100, 119, 156 1
69, 87, 118 1
44, 61, 87 1
34, 49, 68 1
30, 42, 54 1
35, 46, 54 1
40, 51, 59 1
38, 59, 80 1
44, 65, 87 1
50, 73, 95 1
55, 79, 103 1
55, 80, 106 1
55, 79, 107 1
56, 82, 112 1
60, 85, 117 1
67, 89, 124 1
73, 95, 130 1
77, 99, 134 1
78, 100, 135 1
81, 103, 138 1
138, 161, 207 1
141, 163, 211 1
137, 160, 210 1
136, 159, 209 1
118, 140, 192 1
98, 121, 171 1
104, 127, 177 1
102, 123, 178 1
93, 113, 170 1
79, 98, 155 1
65, 82, 139 1
59, 74, 130 1
61, 75, 128 1
72, 83, 133 1
86, 96, 143 1
90, 99, 143 1
92, 101, 144 1
93, 103, 143 1
91, 103, 143 1
91, 108, 147 1
88, 104, 141 1
68, 83, 122 1
51, 65, 107 1
38, 51, 95 1
38, 51, 97 1
65, 77, 125 1
90, 101, 151 1
91, 103, 151 1
86, 101, 147 1
83, 98, 144 1
83, 99, 142 1
84, 100, 142 1
89, 102, 148 1
95, 107, 155 1
96, 110, 158 1
92, 108, 151 1
88, 104, 146 1
78, 97, 135 1
80, 94, 122 1
30, 47, 50 1
37, 55, 62 1
43, 60, 69 1
51, 67, 80 1
67, 83, 99 1
84, 100, 117 1
94, 108, 144 1
108, 121, 159 1
115, 131, 168 1
118, 136, 173 1
119, 138, 175 1
117, 139, 175 1
114, 137, 175 1
107, 133, 170 1
109, 135, 175 1
107, 136, 175 1
103, 137, 180 1
108, 141, 186 1
120, 151, 196 1
121, 151, 198 1
120, 139, 182 1
102, 120, 157 1
66, 81, 113 1
41, 54, 80 1
30, 43, 65 1
28, 38, 56 1
29, 38, 52 1
35, 43, 56 1
41, 49, 62 1
38, 61, 83 1
44, 66, 91 1
51, 75, 99 1
53, 78, 104 1
52, 79, 105 1
52, 79, 106 1
54, 80, 110 1
57, 83, 113 1
64, 87, 119 1
65, 88, 120 1
68, 91, 123 1
75, 98, 130 1
138, 162, 208 1
135, 158, 206 1
97, 120, 170 1
95, 118, 168 1
90, 113, 163 1
89, 110, 162 1
81, 102, 154 1
67, 87, 142 1
63, 81, 134 1
65, 81, 134 1
72, 86, 138 1
84, 96, 144 1
96, 105, 149 1
97, 106, 149 1
96, 106, 146 1
92, 108, 145 1
84, 100, 137 1
67, 82, 121 1
48, 62, 104 1
36, 49, 95 1
46, 58, 106 1
75, 86, 138 1
94, 107, 159 1
88, 100, 154 1
91, 104, 156 1
90, 103, 155 1
88, 102, 151 1
86, 100, 148 1
84, 100, 147 1
87, 103, 145 1
89, 105, 148 1
91, 107, 153 1
97, 113, 160 1
102, 117, 166 1
106, 119, 171 1
109, 121, 175 1
108, 120, 174 1
105, 118, 170 1
101, 115, 164 1
92, 109, 152 1
87, 105, 146 1
81, 95, 123 1
34, 50, 57 1
43, 59, 71 1
55, 72, 85 1
84, 101, 120 1
96, 115, 136 1
112, 130, 171 1
115, 133, 174 1
116, 136, 177 1
113, 135, 176 1
104, 130, 170 1
103, 142, 186 1
120, 156, 202 1
122, 154, 203 1
124, 151, 201 1
122, 143, 188 1
124, 142, 183 1
105, 121, 157 1
67, 81, 110 1
39, 50, 77 1
30, 41, 63 1
29, 36, 55 1
33, 40, 57 1
41, 48, 65 1
51, 56, 71 1
42, 64, 89 1
45, 69, 93 1
49, 73, 97 1
49, 74, 100 1
50, 75, 101 1
47, 74, 101 1
50, 74, 102 1
52, 76, 106 1
49, 73, 103 1
67, 91, 121 1
96, 119, 151 1
128, 152, 198 1
101, 122, 173 1
90, 112, 160 1
78, 100, 148 1
68, 89, 141 1
65, 86, 138 1
66, 87, 138 1
80, 97, 146 1
86, 102, 149 1
93, 107, 155 1
102, 112, 159 1
104, 113, 157 1
103, 112, 155 1
100, 110, 150 1
95, 108, 146 1
81, 97, 134 1
65, 80, 119 1
44, 57, 101 1
54, 68, 117 1
81, 93, 147 1
95, 108, 164 1
90, 103, 159 1
91, 103, 161 1
92, 105, 161 1
93, 106, 162 1
93, 107, 160 1
91, 105, 157 1
88, 102, 154 1
87, 102, 151 1
91, 107, 149 1
93, 109, 152 1
95, 111, 154 1
98, 114, 160 1
103, 119, 166 1
107, 122, 171 1
107, 124, 173 1
106, 121, 170 1
100, 116, 163 1
94, 111, 154 1
79, 101, 137 1
83, 96, 128 1
81, 95, 124 1
77, 94, 120 1
37, 52, 61 1
50, 66, 79 1
85, 104, 125 1
99, 119, 144 1
107, 129, 154 1
110, 129, 172 1
114, 133, 176 1
117, 139, 181 1
116, 152, 198 1
124, 158, 204 1
126, 156, 203 1
123, 140, 179 1
106, 121, 154 1
71, 83, 111 1
40, 52, 76 1
29, 39, 57 1
38, 45, 64 1
49, 56, 75 1
58, 65, 84 1
47, 69, 94 1
47, 70, 96 1
45, 68, 94 1
41, 64, 90 1
42, 64, 92 1
47, 68, 96 1
48, 68, 99 1
53, 73, 104 1
68, 92, 122 1
88, 109, 140 1
87, 108, 140 1
109, 134, 174 1
120, 146, 193 1
118, 141, 191 1
116, 137, 188 1
108, 130, 178 1
87, 107, 155 1
83, 100, 156 1
74, 92, 145 1
72, 91, 142 1
74, 97, 143 1
84, 105, 150 1
100, 115, 161 1
110, 118, 165 1
95, 111, 147 1
66, 81, 120 1
59, 74, 123 1
82, 96, 149 1
90, 105, 161 1
90, 104, 162 1
92, 106, 164 1
93, 107, 165 1
92, 108, 161 1
89, 106, 157 1
88, 105, 156 1
95, 108, 154 1
97, 110, 156 1
97, 112, 158 1
100, 116, 162 1
105, 121, 168 1
107, 126, 171 1
105, 121, 167 1
100, 117, 160 1
95, 113, 154 1
79, 93, 122 1
48, 62, 74 1
75, 92, 113 1
91, 111, 136 1
104, 125, 152 1
110, 132, 160 1
115, 136, 181 1
114, 137, 182 1
108, 133, 177 1
109, 134, 178 1
113, 138, 182 1
120, 142, 184 1
122, 144, 186 1
116, 149, 195 1
122, 152, 199 1
126, 154, 201 1
132, 155, 203 1
128, 142, 184 1
119, 133, 169 1
97, 108, 140 1
68, 79, 106 1
40, 53, 75 1
30, 42, 60 1
39, 53, 71 1
51, 65, 83 1
60, 74, 93 1
57, 74, 100 1
52, 72, 97 1
49, 69, 94 1
45, 65, 90 1
37, 58, 85 1
30, 51, 78 1
31, 52, 79 1
38, 56, 85 1
45, 63, 92 1
50, 68, 97 1
54, 74, 105 1
74, 95, 126 1
77, 98, 129 1
81, 104, 136 1
114, 140, 186 1
115, 141, 188 1
112, 135, 185 1
107, 129, 177 1
84, 99, 155 1
72, 90, 143 1
68, 88, 136 1
78, 100, 142 1
87, 109, 151 1
102, 117, 163 1
107, 120, 166 1
111, 119, 166 1
89, 109, 140 1
87, 107, 138 1
94, 111, 144 1
83, 99, 135 1
34, 50, 96 1
61, 76, 125 1
79, 95, 148 1
86, 101, 157 1
89, 106, 163 1
91, 108, 165 1
93, 110, 167 1
94, 111, 168 1
94, 111, 167 1
92, 110, 163 1
90, 109, 160 1
89, 108, 159 1
99, 109, 157 1
98, 111, 157 1
98, 113, 159 1
101, 117, 163 1
106, 122, 168 1
106, 125, 170 1
104, 123, 166 1
103, 122, 165 1
91, 109, 146 1
84, 103, 140 1
77, 91, 120 1
76, 93, 120 1
68, 79, 93 1
72, 88, 105 1
81, 99, 122 1
95, 114, 141 1
105, 127, 155 1
109, 130, 161 1
114, 134, 181 1
121, 143, 185 1
126, 145, 188 1
129, 146, 189 1
127, 153, 199 1
127, 150, 198 1
141, 157, 204 1
137, 150, 194 1
128, 140, 180 1
116, 126, 160 1
83, 94, 124 1
63, 75, 99 1
40, 54, 73 1
29, 43, 61 1
34, 50, 67 1
49, 65, 82 1
68, 85, 104 1
63, 78, 104 1
56, 73, 99 1
43, 60, 86 1
32, 51, 78 1
24, 43, 70 1
27, 44, 71 1
34, 51, 78 1
36, 52, 81 1
41, 57, 86 1
42, 58, 87 1
46, 62, 91 1
54, 72, 103 1
59, 79, 110 1
64, 85, 116 1
77, 100, 132 1
107, 133, 179 1
113, 136, 186 1
108, 128, 175 1
100, 115, 171 1
87, 103, 156 1
74, 94, 142 1
71, 93, 134 1
78, 100, 141 1
87, 107, 148 1
98, 114, 157 1
108, 116, 163 1
105, 114, 158 1
102, 111, 154 1
99, 110, 148 1
95, 110, 143 1
87, 104, 137 1
39, 57, 98 1
36, 52, 98 1
62, 79, 128 1
80, 96, 149 1
84, 101, 157 1
90, 107, 164 1
92, 109, 166 1
95, 112, 169 1
94, 113, 170 1
95, 115, 170 1
95, 113, 166 1
93, 112, 163 1
92, 111, 162 1
104, 116, 164 1
106, 121, 167 1
110, 126, 172 1
109, 128, 171 1
106, 126, 167 1
99, 118, 155 1
93, 111, 148 1
88, 106, 143 1
83, 101, 138 1
80, 98, 135 1
86, 96, 130 1
79, 90, 122 1
57, 78, 99 1
68, 93, 119 1
103, 132, 176 1
106, 136, 183 1
108, 138, 185 1
119, 148, 192 1
127, 156, 193 1
135, 157, 199 1
120, 142, 178 1
98, 118, 149 1
33, 53, 70 1
30, 50, 67 1
39, 60, 81 1
62, 84, 112 1
65, 86, 117 1
51, 74, 100 1
40, 62, 87 1
26, 49, 65 1
20, 41, 56 1
20, 40, 51 1
23, 43, 54 1
44, 64, 75 1
43, 64, 79 1
46, 69, 85 1
58, 79, 100 1
66, 88, 113 1
65, 88, 114 1
63, 85, 113 1
58, 82, 112 1
62, 85, 117 1
69, 91, 126 1
88, 110, 151 1
116, 137, 189 1
119, 139, 194 1
113, 133, 190 1
101, 124, 180 1
104, 123, 168 1
81, 100, 145 1
76, 95, 140 1
71, 90, 135 1
69, 85, 131 1
81, 98, 141 1
99, 117, 158 1
100, 118, 159 1
95, 113, 150 1
82, 101, 134 1
83, 102, 135 1
75, 93, 122 1
63, 83, 114 1
37, 57, 92 1
63, 82, 125 1
80, 100, 147 1
89, 109, 157 1
96, 115, 166 1
97, 119, 167 1
98, 121, 167 1
96, 121, 165 1
92, 120, 161 1
90, 120, 161 1
91, 122, 161 1
103, 128, 170 1
103, 129, 169 1
63, 84, 105 1
109, 139, 186 1
111, 141, 188 1
112, 142, 189 1
112, 140, 187 1
119, 140, 178 1
97, 116, 149 1
36, 56, 74 1
45, 66, 87 1
60, 82, 107 1
66, 88, 116 1
62, 83, 114 1
48, 71, 97 1
34, 56, 81 1
27, 48, 69 1
22, 42, 59 1
16, 37, 52 1
16, 36, 47 1
18, 38, 49 1
33, 53, 64 1
39, 60, 75 1
47, 68, 89 1
53, 76, 102 1
53, 75, 103 1
55, 78, 110 1
58, 81, 113 1
82, 104, 145 1
117, 137, 192 1
111, 134, 190 1
102, 125, 181 1
103, 122, 167 1
94, 113, 158 1
84, 103, 148 1
73, 89, 135 1
72, 88, 134 1
84, 102, 143 1
94, 111, 150 1
91, 110, 145 1
72, 90, 119 1
56, 75, 108 1
32, 52, 87 1
65, 84, 127 1
81, 102, 147 1
97, 117, 165 1
99, 121, 169 1
98, 123, 167 1
92, 122, 163 1
92, 123, 162 1
60, 84, 104 1
114, 144, 191 1
116, 146, 193 1
128, 157, 196 1
127, 149, 191 1
118, 139, 177 1
73, 92, 119 1
43, 65, 83 1
67, 89, 117 1
66, 87, 118 1
62, 83, 111 1
47, 68, 95 1
31, 53, 78 1
24, 45, 66 1
21, 41, 59 1
18, 37, 52 1
14, 33, 46 1
23, 41, 52 1
29, 48, 61 1
33, 52, 67 1
31, 51, 69 1
39, 61, 86 1
45, 66, 93 1
48, 69, 97 1
53, 76, 108 1
54, 77, 109 1
59, 81, 116 1
65, 88, 126 1
77, 99, 140 1
109, 132, 188 1
104, 127, 183 1
104, 122, 169 1
98, 116, 163 1
94, 112, 159 1
74, 90, 136 1
72, 89, 132 1
71, 89, 130 1
77, 95, 136 1
84, 103, 141 1
90, 109, 144 1
86, 105, 140 1
79, 98, 131 1
75, 93, 124 1
70, 88, 119 1
53, 72, 105 1
33, 53, 88 1
42, 63, 101 1
70, 90, 131 1
95, 115, 162 1
102, 125, 171 1
100, 125, 169 1
91, 121, 162 1
89, 120, 159 1
59, 82, 104 1
110, 137, 181 1
128, 150, 192 1
78, 99, 126 1
51, 72, 94 1
37, 58, 79 1
47, 69, 87 1
70, 91, 122 1
61, 82, 110 1
33, 52, 79 1
28, 46, 69 1
25, 42, 61 1
19, 38, 53 1
17, 34, 47 1
16, 34, 45 1
26, 43, 56 1
29, 48, 63 1
30, 47, 66 1
34, 52, 75 1
42, 61, 88 1
49, 70, 98 1
51, 74, 106 1
52, 74, 109 1
56, 78, 114 1
62, 85, 123 1
75, 97, 139 1
123, 142, 199 1
99, 117, 164 1
85, 104, 149 1
81, 97, 143 1
78, 95, 138 1
69, 87, 128 1
72, 90, 131 1
76, 95, 133 1
82, 100, 137 1
86, 104, 141 1
74, 92, 123 1
69, 88, 121 1
55, 74, 109 1
40, 59, 96 1
51, 72, 110 1
72, 94, 135 1
83, 105, 147 1
93, 114, 159 1
100, 121, 166 1
104, 125, 170 1
94, 122, 163 1
89, 118, 157 1
85, 116, 155 1
76, 96, 121 1
63, 86, 108 1
98, 125, 162 1
107, 135, 176 1
130, 156, 196 1
130, 152, 194 1
96, 116, 151 1
74, 95, 123 1
43, 64, 85 1
59, 80, 102 1
69, 91, 116 1
67, 88, 119 1
60, 78, 109 1
46, 64, 93 1
35, 52, 79 1
30, 48, 71 1
27, 44, 65 1
21, 37, 54 1
20, 35, 51 1
23, 39, 52 1
22, 38, 51 1
28, 43, 59 1
32, 48, 65 1
32, 49, 70 1
38, 56, 79 1
49, 66, 93 1
56, 74, 103 1
59, 77, 108 1
48, 70, 105 1
50, 72, 107 1
55, 77, 113 1
63, 85, 126 1
77, 99, 141 1
93, 113, 160 1
107, 126, 177 1
122, 142, 197 1
125, 144, 201 1
115, 138, 194 1
110, 128, 175 1
100, 118, 165 1
86, 105, 150 1
76, 94, 135 1
74, 92, 133 1
72, 91, 129 1
80, 99, 134 1
76, 93, 126 1
72, 91, 126 1
58, 78, 113 1
48, 67, 104 1
56, 77, 115 1
83, 105, 146 1
86, 117, 156 1
74, 98, 128 1
116, 145, 189 1
134, 160, 200 1
129, 152, 197 1
117, 140, 178 1
101, 121, 156 1
72, 92, 123 1
48, 69, 91 1
58, 79, 101 1
67, 87, 112 1
76, 97, 125 1
68, 89, 120 1
62, 79, 112 1
50, 65, 97 1
38, 54, 83 1
36, 51, 77 1
33, 47, 69 1
25, 40, 59 1
36, 51, 67 1
41, 56, 72 1
42, 57, 73 1
42, 57, 76 1
44, 58, 80 1
50, 65, 91 1
58, 74, 103 1
60, 75, 107 1
55, 72, 105 1
44, 66, 102 1
48, 70, 106 1
57, 78, 116 1
68, 90, 131 1
109, 128, 179 1
123, 143, 198 1
113, 136, 192 1
108, 131, 187 1
102, 120, 167 1
92, 110, 157 1
84, 103, 146 1
80, 98, 139 1
74, 93, 131 1
78, 97, 134 1
76, 96, 131 1
75, 94, 129 1
74, 93, 128 1
74, 92, 129 1
65, 84, 121 1
58, 80, 116 1
64, 85, 123 1
87, 109, 150 1
95, 117, 158 1
97, 123, 163 1
92, 121, 160 1
91, 120, 159 1
65, 87, 112 1
77, 101, 131 1
117, 146, 191 1
126, 148, 189 1
80, 101, 132 1
59, 80, 107 1
65, 85, 110 1
73, 93, 118 1
76, 97, 124 1
79, 100, 128 1
76, 96, 127 1
68, 85, 118 1
54, 69, 102 1
44, 60, 89 1
44, 58, 86 1
40, 54, 77 1
32, 46, 65 1
37, 51, 69 1
52, 65, 81 1
68, 81, 97 1
64, 78, 96 1
61, 75, 94 1
61, 75, 98 1
66, 80, 108 1
70, 86, 115 1
66, 81, 114 1
54, 71, 104 1
42, 64, 100 1
49, 70, 108 1
62, 82, 123 1
76, 98, 140 1
92, 113, 158 1
113, 132, 183 1
95, 113, 160 1
86, 105, 148 1
89, 108, 151 1
88, 106, 147 1
83, 102, 140 1
75, 95, 130 1
73, 93, 128 1
75, 93, 130 1
75, 94, 131 1
73, 92, 129 1
71, 93, 129 1
72, 96, 132 1
81, 104, 142 1
93, 119, 159 1
92, 118, 158 1
94, 119, 159 1
72, 93, 120 1
86, 109, 141 1
120, 149, 194 1
121, 150, 195 1
127, 156, 200 1
118, 140, 176 1
90, 111, 143 1
64, 83, 110 1
63, 82, 109 1
81, 102, 129 1
87, 108, 136 1
79, 99, 130 1
70, 86, 122 1
57, 72, 105 1
47, 62, 94 1
50, 64, 93 1
46, 59, 85 1
37, 50, 72 1
42, 56, 75 1
59, 71, 89 1
80, 92, 110 1
74, 88, 107 1
70, 83, 105 1
70, 83, 109 1
75, 89, 118 1
77, 92, 124 1
68, 83, 116 1
52, 68, 104 1
43, 64, 102 1
52, 72, 113 1
67, 86, 129 1
107, 127, 175 1
100, 120, 167 1
99, 118, 163 1
97, 116, 161 1
82, 101, 138 1
77, 98, 136 1
79, 103, 139 1
82, 106, 142 1
81, 105, 141 1
86, 113, 150 1
92, 118, 155 1
72, 97, 123 1
73, 95, 123 1
113, 139, 179 1
130, 156, 203 1
125, 151, 197 1
128, 149, 187 1
100, 120, 155 1
81, 101, 132 1
70, 91, 119 1
69, 88, 115 1
75, 94, 121 1
85, 103, 132 1
84, 104, 135 1
69, 85, 122 1
56, 72, 108 1
52, 67, 100 1
53, 67, 96 1
52, 65, 91 1
47, 61, 84 1
49, 62, 84 1
59, 73, 92 1
69, 83, 102 1
73, 86, 108 1
73, 87, 110 1
74, 87, 113 1
74, 88, 117 1
72, 87, 120 1
66, 82, 118 1
63, 79, 116 1
54, 74, 115 1
69, 89, 130 1
87, 106, 149 1
124, 144, 199 1
128, 148, 206 1
127, 147, 204 1
114, 134, 182 1
86, 106, 147 1
84, 105, 143 1
86, 107, 145 1
84, 110, 147 1
83, 110, 147 1
82, 109, 146 1
84, 107, 145 1
92, 118, 154 1
93, 119, 155 1
92, 116, 146 1
72, 95, 121 1
128, 151, 189 1
108, 130, 166 1
89, 110, 142 1
78, 98, 129 1
76, 94, 123 1
84, 102, 131 1
86, 107, 135 1
88, 108, 139 1
62, 78, 115 1
55, 71, 107 1
52, 67, 99 1
52, 66, 94 1
51, 64, 90 1
51, 65, 87 1
58, 71, 93 1
69, 82, 104 1
74, 88, 110 1
79, 92, 118 1
78, 92, 120 1
76, 91, 123 1
72, 88, 124 1
67, 84, 123 1
64, 83, 126 1
78, 97, 140 1
95, 114, 159 1
108, 128, 176 1
111, 129, 182 1
114, 133, 184 1
110, 129, 180 1
101, 121, 169 1
88, 107, 145 1
84, 112, 147 1
92, 119, 153 1
72, 94, 122 1
73, 96, 122 1
132, 158, 204 1
131, 153, 194 1
123, 144, 182 1
97, 117, 152 1
77, 95, 126 1
76, 94, 125 1
80, 97, 136 1
69, 86, 125 1
59, 78, 113 1
52, 69, 102 1
52, 68, 97 1
53, 68, 94 1
51, 67, 90 1
58, 72, 94 1
69, 83, 105 1
77, 93, 116 1
86, 101, 127 1
86, 102, 131 1
81, 98, 131 1
73, 92, 127 1
75, 92, 131 1
79, 98, 143 1
119, 138, 195 1
102, 122, 170 1
101, 121, 168 1
96, 117, 162 1
91, 111, 152 1
90, 110, 151 1
85, 111, 147 1
78, 102, 126 1
70, 94, 122 1
134, 160, 206 1
132, 159, 203 1
128, 155, 199 1
135, 156, 194 1
104, 123, 160 1
77, 96, 129 1
78, 96, 127 1
82, 100, 131 1
92, 110, 141 1
62, 81, 118 1
52, 71, 104 1
49, 67, 98 1
50, 67, 94 1
59, 75, 98 1
72, 88, 111 1
81, 98, 124 1
91, 108, 135 1
84, 103, 136 1
80, 100, 141 1
113, 131, 178 1
117, 137, 185 1
119, 136, 193 1
126, 146, 204 1
102, 122, 169 1
91, 113, 155 1
85, 108, 146 1
79, 103, 127 1
75, 97, 125 1
117, 144, 181 1
131, 158, 202 1
125, 152, 196 1
121, 149, 190 1
143, 163, 204 1
116, 135, 173 1
92, 110, 147 1
84, 101, 134 1
85, 103, 134 1
86, 108, 150 1
76, 96, 137 1
62, 83, 121 1
52, 72, 107 1
46, 66, 97 1
44, 63, 90 1
46, 66, 91 1
59, 76, 102 1
76, 93, 119 1
84, 104, 129 1
92, 111, 138 1
87, 107, 142 1
81, 102, 140 1
89, 111, 153 1
116, 133, 182 1
119, 138, 189 1
121, 139, 192 1
123, 140, 196 1
125, 142, 199 1
101, 122, 167 1
95, 117, 159 1
86, 109, 147 1
71, 98, 125 1
77, 99, 127 1
130, 158, 199 1
129, 157, 198 1
122, 150, 191 1
142, 164, 205 1
128, 147, 185 1
104, 122, 159 1
88, 107, 142 1
93, 111, 142 1
76, 98, 139 1
64, 87, 125 1
53, 75, 110 1
47, 68, 100 1
41, 62, 90 1
42, 63, 90 1
57, 77, 102 1
78, 98, 123 1
85, 106, 133 1
92, 113, 141 1
91, 112, 144 1
112, 129, 178 1
121, 140, 191 1
85, 107, 142 1
82, 106, 130 1
72, 99, 126 1
75, 99, 127 1
78, 100, 128 1
131, 159, 200 1
137, 159, 201 1
136, 156, 197 1
115, 134, 172 1
93, 112, 147 1
79, 96, 129 1
82, 106, 148 1
79, 103, 145 1
57, 81, 117 1
50, 73, 105 1
44, 65, 92 1
54, 76, 101 1
72, 94, 119 1
94, 116, 144 1
93, 116, 148 1
114, 131, 180 1
120, 137, 188 1
123, 141, 194 1
104, 127, 173 1
98, 120, 162 1
97, 117, 158 1
79, 101, 129 1
125, 151, 191 1
132, 160, 201 1
135, 162, 206 1
126, 155, 194 1
142, 162, 203 1
127, 146, 184 1
103, 121, 158 1
91, 107, 143 1
85, 102, 135 1
81, 106, 148 1
76, 102, 139 1
56, 79, 111 1
51, 73, 101 1
46, 69, 95 1
67, 89, 114 1
98, 120, 148 1
98, 121, 153 1
118, 135, 184 1
120, 137, 186 1
123, 140, 191 1
128, 145, 201 1
123, 143, 201 1
107, 128, 180 1
104, 125, 176 1
109, 137, 171 1
122, 150, 185 1
130, 159, 196 1
134, 163, 202 1
135, 164, 203 1
134, 159, 203 1
126, 148, 190 1
135, 156, 201 1
134, 156, 198 1
121, 140, 183 1
86, 103, 142 1
68, 92, 128 1
48, 73, 107 1
47, 72, 106 1
76, 102, 138 1
123, 144, 196 1
132, 150, 203 1
129, 147, 200 1
126, 144, 197 1
119, 135, 188 1
117, 131, 184 1
90, 116, 153 1
89, 115, 152 1
83, 105, 130 1
123, 151, 186 1
132, 161, 198 1
112, 132, 173 1
87, 104, 143 1
76, 100, 136 1
57, 82, 116 1
53, 78, 112 1
58, 82, 118 1
72, 98, 134 1
110, 134, 176 1
131, 149, 202 1
122, 143, 195 1
116, 134, 187 1
115, 133, 186 1
115, 131, 184 1
111, 139, 173 1
123, 150, 187 1
133, 162, 199 1
138, 166, 207 1
121, 145, 187 1
129, 149, 190 1
114, 135, 173 1
83, 107, 143 1
59, 83, 119 1
70, 96, 132 1
127, 148, 200 1
121, 142, 194 1
113, 131, 184 1
113, 129, 182 1
71, 96, 122 1
124, 151, 188 1
138, 167, 206 1
125, 148, 186 1
124, 146, 187 1
117, 142, 184 1
126, 146, 187 1
106, 127, 165 1
95, 116, 154 1
99, 119, 160 1
102, 122, 163 1
69, 93, 129 1
59, 85, 121 1
73, 99, 136 1
88, 114, 151 1
112, 136, 188 1
110, 132, 184 1
110, 128, 181 1
109, 127, 180 1
101, 127, 173 1
107, 130, 175 1
95, 120, 162 1
74, 100, 124 1
77, 103, 127 1
119, 145, 181 1
127, 154, 191 1
121, 147, 184 1
119, 145, 182 1
131, 156, 196 1
129, 151, 192 1
115, 136, 174 1
105, 127, 168 1
83, 106, 144 1
69, 95, 132 1
79, 105, 142 1
100, 126, 173 1
78, 104, 128 1
137, 163, 203 1
116, 143, 180 1
126, 151, 191 1
120, 142, 183 1
112, 134, 175 1
111, 133, 175 1
112, 134, 176 1
109, 131, 172 1
100, 122, 163 1
82, 108, 145 1
81, 107, 144 1
88, 113, 153 1
124, 148, 194 1
112, 139, 189 1
106, 133, 183 1
97, 122, 164 1
75, 103, 127 1
124, 150, 186 1
133, 161, 202 1
115, 142, 176 1
115, 142, 179 1
119, 147, 188 1
101, 123, 164 1
89, 114, 154 1
126, 150, 196 1
124, 151, 202 1
96, 118, 154 1
129, 156, 193 1
126, 150, 192 1
112, 141, 178 1
118, 146, 187 1
117, 141, 187 1
114, 141, 191 1
91, 113, 149 1
94, 117, 149 1
76, 106, 131 1
121, 147, 183 1
111, 139, 174 1
110, 140, 175 1
109, 138, 175 1
108, 139, 178 1
123, 143, 190 1
121, 142, 187 1
111, 134, 179 1
110, 135, 177 1
118, 142, 188 1
126, 149, 199 1
127, 150, 200 1
116, 143, 193 1
79, 103, 133 1
78, 105, 126 1
118, 145, 179 1
128, 156, 191 1
130, 157, 194 1
114, 139, 179 1
113, 139, 175 1
111, 137, 173 1
102, 130, 160 1
109, 137, 172 1
115, 143, 184 1
124, 144, 191 1
124, 147, 197 1
130, 154, 206 1
122, 150, 184 1
124, 152, 187 1
129, 157, 192 1
126, 155, 192 1
116, 142, 179 1
112, 138, 174 1
108, 135, 169 1
103, 130, 164 1
103, 131, 162 1
106, 134, 168 1
107, 135, 170 1
110, 139, 178 1
118, 141, 187 1
113, 136, 182 1
128, 152, 206 1
124, 146, 198 1
122, 145, 195 1
111, 133, 181 1
115, 143, 177 1
121, 152, 185 1
123, 153, 188 1
121, 151, 186 1
123, 149, 186 1
117, 143, 179 1
109, 136, 170 1
105, 133, 164 1
105, 133, 168 1
121, 144, 189 1
119, 142, 188 1
117, 140, 186 1
115, 138, 184 1
114, 138, 184 1
116, 140, 186 1
124, 148, 202 1
125, 149, 203 1
124, 145, 200 1
116, 140, 192 1
111, 134, 182 1
112, 134, 182 1
104, 134, 163 1
112, 141, 172 1
118, 149, 182 1
120, 151, 184 1
119, 150, 183 1
120, 144, 180 1
116, 141, 175 1
113, 138, 172 1
107, 134, 171 1
111, 137, 177 1
118, 139, 194 1
116, 138, 190 1
112, 135, 183 1
100, 130, 157 1
108, 138, 167 1
107, 138, 169 1
114, 145, 176 1
116, 147, 178 1
115, 146, 177 1
114, 139, 171 1
115, 138, 183 1
124, 146, 194 1
112, 138, 192 1
105, 129, 183 1
108, 135, 186 1
114, 137, 185 1
105, 128, 174 1
108, 130, 172 1
83, 106, 138 1
94, 124, 151 1
101, 131, 160 1
99, 131, 160 1
104, 136, 165 1
102, 128, 158 1
100, 127, 154 1
94, 121, 147 1
88, 116, 140 1
85, 114, 135 1
81, 111, 130 1
79, 109, 128 1
78, 100, 125 1
81, 103, 131 1
126, 147, 192 1
130, 149, 194 1
113, 139, 193 1
111, 135, 187 1
110, 137, 188 1
107, 134, 185 1
88, 118, 145 1
95, 125, 152 1
90, 122, 151 1
79, 108, 129 1
77, 106, 127 1
76, 106, 125 1
74, 104, 123 1
73, 103, 122 1
72, 102, 119 1
78, 101, 127 1
129, 148, 193 1
131, 150, 195 1
129, 150, 202 1
129, 150, 201 1
121, 144, 192 1
108, 133, 189 1
106, 132, 186 1
111, 138, 189 1
113, 140, 191 1
114, 140, 187 1
97, 122, 156 1
88, 112, 124 1
96, 122, 134 1
95, 122, 136 1
90, 119, 133 1
89, 118, 133 1
92, 121, 136 1
91, 115, 137 1
86, 110, 132 1
82, 107, 127 1
81, 106, 126 1
78, 103, 123 1
76, 102, 119 1
75, 101, 118 1
71, 99, 123 1
67, 95, 119 1
70, 98, 122 1
99, 128, 155 1
112, 138, 184 1
119, 143, 195 1
117, 141, 193 1
121, 144, 200 1
109, 133, 193 1
109, 133, 191 1
105, 130, 186 1
105, 131, 185 1
109, 133, 179 1
107, 131, 177 1
103, 128, 162 1
79, 110, 131 1
77, 108, 129 1
76, 107, 128 1
81, 105, 117 1
88, 114, 126 1
89, 116, 130 1
86, 113, 127 1
82, 111, 125 1
82, 111, 126 1
90, 114, 136 1
88, 112, 134 1
85, 110, 130 1
68, 94, 111 1
64, 90, 107 1
61, 87, 104 1
63, 89, 106 1
70, 96, 120 1
64, 92, 116 1
66, 94, 118 1
85, 112, 138 1
104, 132, 162 1
110, 138, 173 1
116, 139, 195 1
106, 130, 188 1
104, 129, 185 1
102, 127, 183 1
101, 127, 181 1
106, 130, 176 1
85, 110, 136 1
82, 111, 132 1
80, 109, 130 1
79, 107, 131 1
74, 98, 110 1
80, 106, 118 1
83, 109, 123 1
81, 108, 122 1
78, 105, 119 1
77, 104, 118 1
85, 108, 130 1
88, 111, 133 1
91, 114, 136 1
91, 115, 135 1
87, 111, 131 1
84, 108, 128 1
72, 96, 116 1
70, 94, 112 1
69, 93, 111 1
66, 90, 108 1
63, 87, 105 1
68, 95, 116 1
69, 96, 117 1
72, 100, 124 1
100, 129, 156 1
108, 136, 170 1
121, 147, 194 1
123, 150, 200 1
125, 152, 202 1
116, 138, 196 1
115, 137, 195 1
111, 136, 192 1
109, 134, 190 1
103, 128, 184 1
101, 126, 182 1
102, 126, 180 1
84, 111, 132 1
81, 109, 133 1
75, 99, 111 1
78, 104, 116 1
79, 105, 119 1
77, 103, 117 1
75, 102, 116 1
85, 106, 127 1
84, 105, 126 1
79, 101, 119 1
75, 97, 115 1
72, 94, 112 1
67, 89, 107 1
66, 88, 106 1
68, 91, 107 1
65, 90, 110 1
60, 85, 105 1
59, 84, 104 1
67, 94, 115 1
72, 99, 120 1
95, 122, 148 1
102, 131, 158 1
117, 146, 185 1
124, 150, 204 1
115, 139, 197 1
114, 136, 194 1
112, 134, 192 1
104, 128, 182 1
101, 125, 179 1
99, 123, 177 1
100, 124, 176 1
105, 129, 181 1
103, 124, 162 1
101, 122, 160 1
98, 122, 150 1
86, 110, 134 1
84, 110, 134 1
64, 86, 97 1
73, 97, 109 1
76, 100, 112 1
76, 96, 114 1
81, 101, 119 1
78, 98, 116 1
80, 100, 118 1
69, 89, 106 1
70, 90, 107 1
65, 85, 102 1
57, 81, 101 1
57, 82, 102 1
62, 87, 107 1
66, 93, 113 1
96, 126, 151 1
120, 148, 183 1
120, 149, 188 1
121, 147, 201 1
115, 141, 195 1
113, 137, 195 1
110, 134, 186 1
102, 126, 178 1
104, 128, 180 1
104, 129, 171 1
106, 131, 173 1
99, 123, 151 1
86, 108, 133 1
63, 84, 92 1
68, 88, 99 1
68, 90, 101 1
71, 93, 105 1
76, 96, 113 1
79, 99, 116 1
72, 92, 109 1
66, 86, 103 1
63, 83, 100 1
62, 82, 99 1
56, 78, 96 1
55, 77, 95 1
53, 75, 93 1
53, 77, 95 1
65, 91, 108 1
75, 100, 120 1
100, 130, 155 1
111, 141, 170 1
117, 147, 182 1
118, 147, 184 1
119, 148, 187 1
120, 150, 191 1
118, 145, 196 1
117, 143, 197 1
116, 141, 197 1
113, 138, 194 1
110, 134, 192 1
105, 126, 164 1
64, 83, 91 1
64, 85, 93 1
64, 84, 95 1
65, 85, 96 1
62, 84, 95 1
69, 87, 104 1
73, 91, 108 1
52, 75, 91 1
57, 79, 97 1
62, 86, 104 1
77, 104, 124 1
82, 109, 130 1
93, 121, 145 1
109, 139, 168 1
114, 144, 179 1
117, 146, 183 1
119, 146, 197 1
111, 138, 194 1
109, 136, 192 1
108, 135, 192 1
106, 129, 177 1
97, 123, 159 1
106, 128, 164 1
95, 119, 149 1
86, 108, 136 1
87, 109, 137 1
63, 81, 88 1
63, 82, 90 1
61, 80, 88 1
59, 78, 86 1
57, 76, 84 1
51, 71, 82 1
72, 91, 106 1
74, 93, 108 1
67, 86, 101 1
65, 83, 100 1
51, 71, 88 1
55, 75, 92 1
74, 101, 121 1
97, 127, 152 1
112, 140, 174 1
116, 146, 181 1
122, 152, 187 1
119, 145, 191 1
121, 147, 193 1
109, 137, 184 1
116, 143, 194 1
111, 139, 193 1
108, 136, 190 1
105, 132, 188 1
104, 132, 179 1
105, 131, 177 1
103, 130, 174 1
95, 121, 151 1
81, 108, 134 1
88, 110, 138 1
55, 73, 80 1
56, 73, 82 1
52, 69, 78 1
54, 71, 80 1
66, 88, 100 1
65, 87, 99 1
66, 87, 102 1
69, 90, 105 1
62, 83, 98 1
56, 77, 92 1
61, 82, 97 1
57, 75, 92 1
49, 67, 84 1
48, 68, 85 1
62, 85, 101 1
98, 128, 153 1
110, 139, 170 1
116, 144, 178 1
123, 151, 185 1
116, 142, 188 1
113, 139, 185 1
115, 141, 187 1
111, 141, 190 1
106, 135, 186 1
103, 132, 183 1
106, 134, 181 1
104, 133, 178 1
101, 128, 172 1
102, 129, 173 1
100, 128, 169 1
82, 109, 135 1
87, 114, 140 1
50, 66, 72 1
52, 68, 74 1
48, 70, 81 1
63, 85, 96 1
59, 81, 92 1
58, 80, 92 1
64, 86, 98 1
52, 73, 88 1
59, 80, 95 1
60, 76, 93 1
63, 79, 96 1
50, 68, 85 1
51, 70, 85 1
55, 76, 91 1
58, 83, 99 1
116, 142, 182 1
106, 135, 180 1
101, 131, 178 1
102, 130, 177 1
104, 134, 175 1
95, 124, 151 1
79, 107, 137 1
46, 62, 68 1
51, 74, 82 1
61, 83, 94 1
60, 82, 94 1
46, 68, 80 1
55, 69, 87 1
58, 74, 90 1
54, 70, 86 1
52, 71, 86 1
55, 74, 89 1
66, 92, 109 1
69, 94, 114 1
109, 136, 173 1
106, 133, 170 1
104, 131, 168 1
99, 128, 167 1
103, 133, 174 1
102, 132, 173 1
100, 130, 171 1
99, 128, 172 1
97, 126, 170 1
95, 125, 166 1
99, 129, 164 1
99, 130, 163 1
91, 119, 150 1
44, 59, 62 1
43, 58, 61 1
45, 59, 65 1
55, 78, 86 1
58, 81, 89 1
51, 73, 84 1
50, 72, 83 1
56, 78, 89 1
49, 71, 83 1
42, 64, 76 1
47, 69, 81 1
49, 64, 80 1
55, 70, 86 1
56, 72, 88 1
54, 71, 84 1
54, 73, 86 1
55, 74, 87 1
57, 82, 98 1
66, 91, 111 1
76, 100, 122 1
81, 107, 131 1
86, 112, 136 1
96, 124, 158 1
95, 124, 161 1
90, 122, 158 1
98, 130, 166 1
98, 127, 166 1
96, 125, 162 1
97, 127, 162 1
102, 130, 164 1
101, 129, 163 1
100, 129, 160 1
106, 130, 166 1
83, 111, 142 1
79, 107, 138 1
82, 111, 138 1
88, 117, 148 1
46, 58, 62 1
45, 57, 63 1
42, 66, 72 1
48, 72, 78 1
46, 69, 77 1
55, 77, 88 1
46, 68, 79 1
55, 77, 89 1
44, 66, 78 1
45, 67, 79 1
45, 61, 74 1
50, 67, 80 1
57, 75, 86 1
58, 78, 89 1
52, 78, 92 1
60, 85, 101 1
78, 102, 124 1
79, 103, 125 1
95, 125, 154 1
96, 127, 158 1
93, 124, 157 1
92, 123, 156 1
94, 123, 162 1
98, 124, 164 1
97, 124, 161 1
95, 122, 159 1
98, 126, 160 1
99, 127, 161 1
100, 128, 162 1
102, 130, 161 1
102, 130, 165 1
85, 113, 143 1
81, 109, 140 1
90, 118, 149 1
48, 61, 63 1
45, 57, 61 1
37, 59, 65 1
43, 65, 71 1
48, 70, 76 1
55, 76, 84 1
54, 74, 85 1
61, 80, 93 1
60, 79, 92 1
43, 60, 73 1
48, 66, 77 1
49, 67, 78 1
55, 74, 82 1
60, 81, 89 1
61, 82, 90 1
52, 77, 87 1
57, 80, 95 1
67, 91, 111 1
74, 98, 120 1
80, 104, 126 1
81, 111, 138 1
85, 115, 142 1
89, 119, 148 1
96, 123, 160 1
90, 118, 153 1
88, 114, 150 1
93, 120, 154 1
102, 127, 159 1
96, 124, 159 1
95, 122, 149 1
89, 117, 148 1
47, 60, 62 1
43, 56, 58 1
40, 51, 55 1
44, 55, 59 1
32, 54, 60 1
39, 61, 67 1
49, 71, 77 1
47, 68, 76 1
49, 69, 80 1
58, 77, 90 1
50, 69, 82 1
45, 63, 74 1
46, 64, 75 1
44, 63, 71 1
43, 62, 70 1
50, 69, 77 1
61, 83, 89 1
60, 82, 88 1
59, 83, 89 1
53, 77, 89 1
71, 95, 115 1
78, 109, 132 1
79, 109, 134 1
75, 106, 131 1
79, 110, 135 1
89, 120, 145 1
93, 123, 150 1
104, 129, 163 1
90, 119, 146 1
44, 57, 59 1
38, 51, 53 1
35, 47, 49 1
36, 47, 51 1
37, 48, 52 1
41, 52, 56 1
41, 63, 69 1
42, 64, 70 1
43, 64, 72 1
48, 67, 80 1
51, 70, 83 1
52, 71, 84 1
46, 65, 73 1
41, 60, 68 1
38, 57, 64 1
45, 64, 71 1
54, 76, 82 1
58, 80, 85 1
53, 77, 83 1
60, 84, 90 1
54, 79, 89 1
50, 74, 86 1
51, 74, 89 1
58, 81, 96 1
64, 87, 103 1
55, 79, 97 1
53, 79, 96 1
58, 85, 105 1
62, 89, 109 1
64, 93, 114 1
71, 100, 121 1
76, 107, 130 1
75, 106, 129 1
67, 98, 121 1
62, 93, 118 1
69, 100, 125 1
78, 109, 134 1
77, 102, 134 1
74, 99, 133 1
106, 133, 167 1
35, 56, 53 1
32, 53, 50 1
31, 48, 45 1
32, 46, 44 1
38, 54, 60 1
60, 75, 84 1
53, 65, 71 1
43, 57, 63 1
56, 72, 79 1
64, 79, 88 1
62, 77, 86 1
52, 67, 76 1
61, 89, 90 1
67, 95, 96 1
63, 91, 92 1
55, 82, 86 1
53, 79, 85 1
50, 76, 82 1
47, 73, 80 1
49, 74, 84 1
57, 81, 93 1
60, 83, 98 1
65, 88, 104 1
71, 93, 111 1
73, 94, 115 1
75, 96, 117 1
74, 98, 118 1
73, 102, 117 1
75, 104, 119 1
78, 106, 123 1
77, 105, 122 1
79, 106, 126 1
73, 100, 120 1
65, 91, 115 1
65, 90, 116 1
66, 90, 118 1
97, 120, 152 1
106, 129, 161 1
94, 122, 153 1
75, 103, 134 1
84, 114, 143 1
91, 121, 150 1
94, 127, 153 1
99, 132, 158 1
33, 54, 51 1
30, 51, 48 1
33, 50, 47 1
34, 48, 46 1
40, 56, 62 1
47, 63, 70 1
57, 69, 75 1
49, 63, 69 1
48, 62, 68 1
50, 66, 73 1
57, 72, 81 1
47, 62, 71 1
52, 77, 79 1
55, 80, 84 1
60, 85, 89 1
65, 90, 94 1
64, 88, 94 1
51, 75, 81 1
41, 64, 72 1
42, 64, 75 1
50, 73, 88 1
64, 86, 104 1
65, 87, 105 1
54, 78, 96 1
49, 75, 91 1
52, 78, 94 1
54, 80, 96 1
54, 80, 97 1
60, 86, 103 1
60, 87, 108 1
66, 92, 116 1
63, 89, 113 1
70, 95, 121 1
90, 114, 144 1
96, 126, 155 1
98, 128, 157 1
95, 128, 154 1
33, 52, 49 1
34, 51, 48 1
35, 52, 49 1
35, 49, 47 1
36, 49, 47 1
36, 52, 58 1
39, 55, 61 1
54, 66, 72 1
56, 68, 74 1
53, 69, 76 1
54, 69, 78 1
49, 64, 73 1
48, 68, 73 1
53, 73, 78 1
60, 80, 85 1
66, 88, 94 1
71, 93, 99 1
71, 92, 100 1
66, 87, 95 1
60, 80, 91 1
56, 79, 95 1
49, 74, 90 1
48, 73, 89 1
53, 78, 94 1
49, 73, 91 1
52, 78, 95 1
55, 80, 100 1
58, 82, 104 1
71, 95, 119 1
92, 117, 143 1
95, 119, 147 1
107, 131, 161 1
86, 116, 145 1
97, 127, 156 1
99, 129, 158 1
