72, 44, 37 311
71, 43, 36 296
72, 45, 35 181
69, 43, 36 169
70, 44, 37 151
73, 45, 38 151
70, 45, 35 134
71, 44, 34 124
66, 43, 35 109
73, 44, 37 107
69, 44, 34 105
70, 42, 35 105
62, 40, 34 99
66, 42, 36 99
67, 44, 36 94
70, 46, 34 93
62, 43, 35 92
68, 42, 35 91
61, 42, 34 89
71, 45, 33 86
67, 43, 37 85
60, 41, 34 83
72, 46, 34 80
72, 43, 36 79
73, 46, 36 77
74, 45, 38 76
71, 45, 38 71
69, 45, 33 71
71, 46, 36 69
63, 41, 35 68
60, 41, 33 67
69, 43, 37 66
61, 39, 33 61
64, 42, 36 60
59, 40, 33 59
65, 42, 34 57
65, 43, 37 56
70, 44, 32 53
61, 42, 35 52
59, 40, 32 50
58, 40, 33 49
57, 39, 32 48
65, 41, 35 48
63, 44, 36 48
108, 132, 168 47
68, 45, 37 46
64, 43, 35 45
73, 47, 35 43
63, 42, 34 43
68, 43, 33 43
64, 40, 34 41
62, 41, 33 40
67, 45, 34 40
71, 42, 35 40
62, 43, 36 39
59, 41, 34 38
68, 42, 36 38
70, 43, 33 37
73, 45, 34 37
61, 40, 32 36
71, 47, 35 36
74, 46, 35 34
71, 42, 37 32
63, 44, 37 30
72, 43, 38 30
103, 129, 165 29
76, 44, 38 29
66, 44, 33 29
107, 131, 167 28
109, 133, 169 28
58, 39, 32 28
65, 44, 36 28
72, 44, 33 27
68, 46, 35 26
74, 46, 39 26
69, 41, 34 26
74, 42, 36 25
70, 44, 38 25
68, 44, 38 24
70, 41, 36 24
84, 110, 140 23
106, 131, 165 23
60, 42, 35 23
60, 39, 31 23
64, 41, 33 23
63, 39, 33 23
102, 128, 164 22
69, 46, 38 22
71, 43, 32 22
72, 43, 34 21
107, 130, 168 20
75, 43, 37 20
83, 109, 139 19
56, 38, 31 19
74, 48, 36 19
75, 46, 39 19
68, 44, 32 19
103, 128, 168 18
66, 45, 37 18
64, 44, 33 18
65, 45, 34 18
67, 41, 35 18
69, 43, 31 18
67, 42, 32 18
106, 130, 166 17
99, 123, 159 17
72, 47, 37 17
77, 45, 39 17
61, 44, 35 17
67, 41, 34 17
110, 134, 170 16
105, 130, 164 16
59, 42, 33 16
58, 39, 31 16
76, 45, 36 16
68, 46, 34 16
71, 45, 39 16
72, 46, 39 16
63, 43, 32 16
70, 41, 34 16
85, 111, 141 15
66, 46, 35 15
76, 46, 35 15
61, 43, 36 15
100, 125, 159 14
86, 112, 142 14
56, 40, 34 14
67, 45, 33 14
74, 47, 37 14
66, 40, 34 14
99, 124, 158 13
87, 113, 143 13
106, 129, 167 13
104, 130, 167 13
130, 151, 196 13
58, 41, 32 13
54, 40, 34 13
56, 40, 33 13
55, 39, 32 13
64, 45, 38 13
69, 47, 36 13
66, 44, 38 13
79, 45, 39 13
102, 127, 161 12
103, 128, 162 12
105, 129, 165 12
108, 131, 169 12
88, 112, 142 12
107, 130, 176 12
107, 129, 165 12
129, 152, 197 12
95, 122, 156 12
57, 40, 31 12
74, 44, 39 12
60, 43, 34 12
65, 43, 32 12
63, 40, 32 12
97, 122, 156 11
101, 126, 160 11
92, 114, 149 11
86, 110, 138 11
100, 124, 160 11
107, 131, 173 11
103, 127, 163 11
105, 128, 166 11
114, 139, 189 11
112, 137, 187 11
101, 123, 158 11
93, 119, 149 11
105, 130, 170 11
126, 149, 194 11
97, 122, 154 11
95, 121, 157 11
102, 127, 167 11
55, 39, 33 11
57, 38, 33 11
75, 44, 35 11
75, 45, 34 11
73, 44, 35 11
62, 42, 31 11
73, 43, 38 11
75, 45, 40 11
70, 42, 31 11
104, 129, 163 10
88, 114, 144 10
90, 116, 146 10
95, 117, 152 10
100, 122, 157 10
101, 125, 161 10
98, 122, 158 10
86, 114, 144 10
108, 134, 181 10
119, 144, 194 10
108, 131, 177 10
129, 150, 195 10
128, 149, 194 10
96, 122, 158 10
101, 126, 166 10
62, 44, 33 10
73, 41, 35 10
64, 45, 37 10
66, 44, 32 10
61, 41, 30 10
60, 40, 29 10
72, 48, 36 10
60, 44, 32 10
74, 44, 33 10
50, 63, 71 9
104, 128, 164 9
82, 108, 138 9
91, 113, 148 9
91, 115, 145 9
85, 109, 137 9
85, 109, 139 9
109, 135, 182 9
135, 159, 205 9
104, 130, 166 9
109, 131, 179 9
127, 148, 193 9
104, 129, 169 9
103, 129, 166 9
76, 103, 129 9
102, 128, 165 9
58, 39, 34 9
61, 45, 33 9
69, 47, 35 9
75, 46, 37 9
60, 38, 32 9
69, 42, 32 9
98, 123, 157 8
89, 115, 145 8
110, 132, 173 8
108, 132, 174 8
87, 111, 141 8
130, 152, 194 8
86, 110, 140 8
117, 139, 191 8
114, 136, 188 8
104, 126, 161 8
107, 131, 177 8
108, 131, 176 8
105, 131, 168 8
109, 131, 167 8
82, 109, 135 8
127, 149, 191 8
128, 151, 196 8
99, 124, 156 8
125, 148, 193 8
123, 148, 198 8
124, 147, 192 8
103, 126, 164 8
102, 123, 168 8
101, 127, 164 8
57, 38, 30 8
59, 44, 35 8
56, 37, 32 8
64, 42, 37 8
60, 40, 35 8
72, 42, 37 8
61, 43, 32 8
74, 45, 36 8
71, 42, 33 8
102, 126, 162 7
84, 108, 138 7
116, 138, 190 7
104, 130, 176 7
102, 124, 159 7
92, 116, 144 7
132, 156, 198 7
131, 154, 199 7
127, 150, 195 7
85, 106, 137 7
126, 151, 201 7
104, 129, 171 7
126, 150, 192 7
124, 148, 190 7
83, 105, 133 7
103, 127, 169 7
111, 131, 178 7
132, 156, 202 7
132, 161, 206 7
98, 120, 155 7
100, 125, 165 7
138, 163, 207 7
121, 145, 203 7
62, 45, 36 7
56, 44, 34 7
60, 38, 33 7
67, 46, 38 7
58, 42, 30 7
73, 44, 39 7
65, 46, 33 7
62, 44, 37 7
67, 46, 31 7
68, 41, 31 7
75, 47, 36 7
53, 39, 33 7
72, 40, 34 7
49, 64, 73 6
91, 116, 148 6
90, 113, 145 6
100, 122, 158 6
108, 130, 166 6
108, 133, 167 6
46, 60, 66 6
91, 117, 147 6
108, 130, 171 6
109, 131, 173 6
108, 133, 173 6
109, 132, 170 6
93, 115, 150 6
115, 132, 181 6
110, 130, 177 6
109, 132, 178 6
97, 121, 157 6
92, 114, 150 6
89, 113, 143 6
110, 131, 183 6
104, 129, 173 6
98, 120, 156 6
75, 105, 134 6
129, 151, 193 6
108, 132, 178 6
85, 113, 143 6
130, 153, 201 6
107, 133, 180 6
105, 131, 167 6
108, 127, 164 6
107, 128, 166 6
131, 154, 202 6
128, 151, 201 6
115, 137, 189 6
105, 126, 164 6
113, 138, 188 6
100, 121, 152 6
130, 153, 198 6
136, 160, 206 6
101, 124, 156 6
133, 156, 201 6
104, 130, 170 6
100, 123, 155 6
92, 118, 148 6
86, 107, 138 6
128, 150, 192 6
131, 154, 200 6
95, 121, 151 6
125, 150, 200 6
125, 149, 191 6
104, 127, 172 6
96, 123, 157 6
94, 122, 153 6
85, 107, 135 6
97, 123, 159 6
98, 124, 161 6
126, 144, 197 6
127, 151, 205 6
130, 151, 206 6
134, 160, 206 6
128, 152, 206 6
61, 82, 109 6
141, 163, 215 6
118, 142, 200 6
57, 38, 31 6
55, 50, 51 6
63, 45, 38 6
59, 39, 34 6
62, 38, 32 6
58, 42, 35 6
58, 43, 34 6
60, 42, 31 6
64, 45, 30 6
66, 41, 37 6
76, 47, 40 6
68, 40, 33 6
73, 43, 32 6
65, 39, 33 6
64, 38, 32 6
77, 43, 37 6
105, 127, 162 5
86, 111, 143 5
42, 54, 58 5
96, 121, 155 5
89, 112, 144 5
89, 117, 151 5
108, 129, 167 5
111, 134, 172 5
107, 132, 166 5
88, 115, 149 5
88, 106, 135 5
112, 131, 182 5
107, 130, 175 5
105, 130, 174 5
94, 116, 152 5
93, 115, 151 5
87, 111, 139 5
108, 130, 178 5
110, 134, 180 5
107, 129, 170 5
92, 116, 146 5
88, 112, 140 5
108, 131, 179 5
109, 132, 180 5
106, 131, 175 5
97, 119, 155 5
95, 117, 153 5
105, 128, 173 5
109, 131, 172 5
101, 123, 159 5
99, 121, 157 5
121, 146, 196 5
120, 145, 195 5
108, 130, 165 5
99, 120, 152 5
90, 115, 141 5
133, 156, 204 5
122, 147, 197 5
110, 135, 185 5
106, 132, 179 5
104, 127, 165 5
129, 153, 195 5
134, 157, 205 5
93, 117, 145 5
130, 154, 196 5
114, 138, 190 5
116, 141, 191 5
106, 132, 168 5
108, 129, 181 5
98, 123, 155 5
122, 145, 190 5
127, 153, 200 5
128, 154, 201 5
128, 153, 203 5
134, 157, 207 5
122, 146, 188 5
114, 138, 180 5
105, 129, 171 5
98, 122, 164 5
100, 126, 163 5
95, 119, 155 5
94, 118, 154 5
107, 126, 171 5
99, 122, 160 5
145, 171, 208 5
129, 153, 205 5
105, 126, 171 5
78, 105, 131 5
139, 164, 206 5
137, 162, 206 5
141, 169, 210 5
102, 130, 165 5
143, 171, 212 5
101, 126, 170 5
103, 129, 175 5
98, 120, 161 5
125, 155, 202 5
100, 129, 174 5
129, 158, 209 5
137, 161, 213 5
54, 41, 33 5
60, 44, 38 5
65, 47, 40 5
59, 37, 31 5
74, 43, 34 5
61, 39, 34 5
59, 41, 30 5
66, 47, 34 5
69, 45, 39 5
70, 47, 39 5
62, 43, 38 5
57, 37, 32 5
72, 46, 40 5
75, 48, 38 5
66, 41, 31 5
73, 49, 37 5
66, 40, 33 5
75, 49, 37 5
64, 45, 32 5
65, 43, 31 5
39, 51, 57 4
43, 56, 64 4
50, 67, 76 4
59, 75, 92 4
105, 126, 158 4
96, 121, 153 4
88, 111, 143 4
87, 110, 142 4
89, 114, 146 4
88, 113, 145 4
98, 126, 160 4
91, 114, 146 4
46, 59, 67 4
53, 66, 74 4
49, 65, 72 4
109, 134, 168 4
47, 60, 68 4
49, 55, 66 4
48, 54, 65 4
110, 133, 171 4
104, 126, 167 4
110, 132, 174 4
110, 133, 178 4
49, 61, 71 4
84, 108, 136 4
87, 115, 146 4
83, 111, 141 4
77, 107, 136 4
109, 130, 181 4
82, 106, 134 4
81, 109, 139 4
101, 127, 163 4
118, 138, 193 4
122, 147, 187 4
109, 130, 182 4
109, 132, 182 4
109, 133, 179 4
106, 130, 172 4
106, 130, 176 4
104, 131, 165 4
82, 113, 138 4
113, 135, 187 4
103, 125, 160 4
84, 109, 135 4
128, 152, 194 4
115, 140, 190 4
114, 137, 187 4
110, 136, 183 4
82, 111, 138 4
81, 112, 137 4
131, 155, 197 4
110, 132, 168 4
77, 104, 131 4
136, 159, 207 4
133, 156, 202 4
107, 128, 179 4
100, 124, 154 4
82, 112, 137 4
132, 155, 201 4
118, 143, 193 4
111, 136, 186 4
107, 129, 181 4
84, 111, 138 4
96, 116, 147 4
124, 149, 199 4
80, 97, 123 4
134, 157, 202 4
105, 129, 183 4
106, 127, 182 4
87, 107, 138 4
92, 111, 138 4
123, 146, 191 4
102, 127, 169 4
99, 122, 154 4
86, 106, 137 4
127, 151, 193 4
132, 155, 205 4
102, 129, 166 4
95, 123, 154 4
126, 147, 192 4
123, 147, 189 4
121, 145, 187 4
111, 132, 184 4
99, 126, 163 4
119, 143, 185 4
137, 160, 208 4
105, 127, 168 4
122, 143, 195 4
88, 116, 146 4
129, 151, 203 4
137, 162, 204 4
106, 125, 170 4
101, 124, 162 4
98, 121, 159 4
84, 108, 144 4
117, 143, 183 4
76, 103, 130 4
143, 169, 209 4
112, 132, 180 4
97, 119, 154 4
94, 116, 151 4
144, 170, 210 4
135, 160, 204 4
126, 150, 202 4
136, 161, 205 4
135, 158, 203 4
111, 133, 181 4
77, 101, 129 4
139, 164, 208 4
128, 152, 204 4
101, 125, 167 4
100, 124, 166 4
111, 132, 170 4
99, 123, 165 4
98, 117, 152 4
88, 109, 140 4
123, 149, 203 4
121, 147, 201 4
103, 128, 172 4
155, 185, 220 4
87, 108, 139 4
85, 106, 134 4
136, 162, 209 4
138, 161, 206 4
93, 118, 158 4
85, 102, 129 4
148, 180, 216 4
118, 145, 201 4
103, 128, 178 4
124, 154, 203 4
94, 116, 164 4
126, 155, 206 4
130, 157, 208 4
100, 119, 164 4
121, 153, 202 4
118, 143, 187 4
126, 142, 208 4
52, 40, 34 4
55, 41, 35 4
57, 41, 34 4
60, 41, 36 4
63, 46, 37 4
59, 40, 35 4
65, 46, 39 4
77, 46, 37 4
58, 40, 29 4
77, 44, 35 4
70, 48, 37 4
60, 39, 37 4
67, 45, 39 4
58, 38, 33 4
60, 39, 38 4
57, 42, 33 4
59, 43, 31 4
60, 44, 37 4
59, 39, 28 4
53, 43, 33 4
73, 47, 40 4
50, 38, 32 4
65, 39, 32 4
69, 40, 35 4
78, 44, 38 4
40, 52, 58 3
40, 54, 60 3
41, 55, 61 3
47, 54, 63 3
49, 59, 66 3
52, 69, 78 3
59, 75, 88 3
70, 85, 104 3
107, 130, 162 3
93, 118, 150 3
90, 115, 147 3
42, 54, 60 3
43, 57, 63 3
107, 127, 162 3
92, 120, 155 3
44, 50, 61 3
75, 91, 114 3
88, 104, 133 3
78, 92, 128 3
105, 127, 163 3
93, 118, 152 3
84, 109, 141 3
41, 53, 63 3
47, 53, 64 3
67, 83, 100 3
90, 109, 147 3
111, 135, 171 3
94, 119, 153 3
91, 116, 150 3
89, 115, 151 3
85, 113, 147 3
102, 122, 163 3
106, 128, 169 3
90, 112, 147 3
83, 112, 143 3
32, 44, 44 3
37, 49, 49 3
38, 53, 56 3
46, 54, 67 3
90, 107, 134 3
107, 129, 171 3
109, 134, 174 3
81, 110, 141 3
55, 67, 77 3
59, 74, 83 3
97, 115, 146 3
110, 131, 176 3
58, 71, 85 3
111, 130, 181 3
111, 134, 180 3
96, 118, 154 3
93, 117, 147 3
70, 83, 97 3
50, 65, 74 3
111, 135, 181 3
107, 132, 176 3
83, 107, 135 3
84, 112, 142 3
72, 85, 101 3
53, 70, 79 3
126, 148, 189 3
108, 129, 180 3
81, 105, 133 3
94, 118, 148 3
118, 143, 183 3
121, 146, 186 3
125, 150, 190 3
130, 155, 199 3
131, 156, 200 3
126, 149, 199 3
111, 133, 185 3
105, 131, 178 3
108, 134, 171 3
106, 134, 169 3
104, 124, 159 3
101, 122, 154 3
82, 110, 140 3
82, 112, 139 3
84, 111, 137 3
85, 110, 136 3
85, 101, 118 3
129, 154, 196 3
133, 157, 203 3
100, 121, 153 3
95, 119, 147 3
84, 99, 118 3
76, 91, 107 3
124, 147, 197 3
111, 137, 184 3
105, 132, 169 3
94, 118, 146 3
90, 114, 144 3
83, 110, 136 3
90, 105, 124 3
132, 157, 201 3
135, 158, 206 3
125, 148, 198 3
101, 122, 153 3
81, 107, 137 3
81, 110, 137 3
81, 111, 138 3
81, 111, 136 3
81, 108, 134 3
87, 102, 121 3
107, 132, 182 3
93, 109, 132 3
97, 117, 148 3
135, 158, 204 3
116, 140, 192 3
99, 120, 151 3
93, 107, 129 3
98, 115, 142 3
101, 118, 145 3
90, 110, 141 3
113, 133, 168 3
134, 157, 203 3
128, 151, 197 3
105, 130, 172 3
99, 123, 153 3
96, 122, 152 3
79, 100, 122 3
109, 130, 168 3
93, 111, 140 3
87, 107, 132 3
106, 129, 174 3
81, 108, 135 3
87, 109, 137 3
98, 116, 147 3
121, 143, 195 3
92, 120, 151 3
88, 109, 136 3
87, 108, 136 3
122, 144, 186 3
120, 144, 186 3
102, 125, 163 3
101, 128, 165 3
96, 124, 155 3
87, 115, 145 3
90, 111, 138 3
107, 125, 162 3
136, 159, 209 3
93, 121, 151 3
89, 117, 147 3
86, 107, 134 3
136, 155, 198 3
110, 128, 165 3
115, 139, 181 3
84, 106, 134 3
128, 147, 190 3
113, 137, 191 3
138, 163, 203 3
125, 150, 194 3
124, 148, 194 3
134, 163, 208 3
133, 161, 208 3
130, 152, 204 3
125, 141, 194 3
107, 127, 174 3
100, 123, 161 3
96, 120, 156 3
89, 110, 138 3
90, 114, 150 3
132, 160, 207 3
104, 126, 162 3
75, 102, 128 3
140, 165, 207 3
134, 158, 200 3
93, 117, 153 3
125, 146, 198 3
103, 124, 169 3
138, 163, 205 3
134, 159, 203 3
138, 162, 204 3
95, 118, 156 3
130, 158, 205 3
100, 121, 166 3
137, 160, 205 3
125, 146, 201 3
76, 100, 128 3
136, 159, 204 3
87, 108, 146 3
127, 148, 203 3
127, 147, 202 3
104, 125, 170 3
74, 98, 126 3
98, 121, 153 3
110, 136, 172 3
129, 153, 207 3
140, 168, 209 3
139, 166, 210 3
138, 165, 209 3
80, 102, 138 3
118, 144, 191 3
103, 126, 171 3
100, 123, 168 3
100, 128, 163 3
99, 125, 162 3
148, 177, 216 3
134, 158, 204 3
131, 155, 201 3
77, 99, 134 3
126, 150, 204 3
81, 102, 129 3
135, 161, 207 3
139, 162, 207 3
98, 123, 163 3
96, 123, 160 3
81, 107, 131 3
90, 111, 142 3
91, 117, 154 3
95, 120, 162 3
118, 144, 198 3
107, 134, 184 3
98, 120, 162 3
96, 122, 159 3
97, 126, 163 3
154, 183, 220 3
104, 132, 179 3
92, 118, 155 3
101, 120, 157 3
158, 189, 222 3
154, 184, 219 3
140, 170, 211 3
138, 167, 211 3
86, 108, 133 3
97, 119, 160 3
102, 126, 168 3
84, 105, 133 3
84, 110, 147 3
135, 163, 210 3
80, 100, 125 3
112, 140, 194 3
125, 153, 207 3
103, 133, 182 3
101, 127, 173 3
117, 145, 199 3
96, 121, 165 3
122, 147, 203 3
128, 158, 207 3
130, 160, 209 3
138, 162, 214 3
144, 165, 216 3
58, 80, 105 3
121, 146, 202 3
101, 124, 172 3
94, 119, 163 3
102, 126, 172 3
120, 145, 201 3
93, 112, 150 3
25, 43, 66 3
100, 126, 173 3
118, 145, 202 3
101, 128, 172 3
109, 134, 178 3
118, 143, 199 3
143, 164, 215 3
60, 77, 104 3
38, 55, 82 3
112, 137, 193 3
89, 112, 160 3
121, 150, 201 3
142, 163, 214 3
49, 73, 93 3
119, 143, 203 3
95, 112, 155 3
92, 109, 152 3
101, 122, 174 3
98, 128, 169 3
117, 144, 200 3
120, 144, 202 3
65, 86, 117 3
117, 148, 199 3
136, 160, 214 3
112, 145, 194 3
133, 159, 213 3
134, 155, 210 3
99, 117, 164 3
111, 145, 191 3
44, 65, 87 3
75, 91, 134 3
49, 37, 37 3
50, 38, 36 3
51, 39, 37 3
51, 39, 35 3
55, 42, 34 3
56, 39, 30 3
46, 49, 47 3
52, 37, 34 3
56, 39, 36 3
73, 48, 38 3
45, 43, 42 3
61, 40, 39 3
70, 47, 32 3
67, 47, 36 3
66, 47, 39 3
64, 45, 40 3
49, 44, 41 3
63, 39, 39 3
63, 38, 34 3
64, 39, 35 3
71, 45, 31 3
60, 45, 36 3
59, 43, 36 3
66, 44, 39 3
61, 45, 38 3
61, 41, 36 3
61, 45, 39 3
58, 44, 38 3
70, 46, 40 3
68, 46, 40 3
65, 42, 40 3
65, 41, 41 3
77, 47, 36 3
60, 44, 31 3
52, 42, 32 3
64, 42, 31 3
63, 44, 31 3
62, 40, 35 3
57, 42, 39 3
57, 40, 37 3
77, 48, 41 3
63, 46, 33 3
74, 45, 40 3
60, 46, 34 3
50, 40, 30 3
56, 44, 32 3
75, 47, 40 3
54, 38, 31 3
67, 40, 30 3
74, 50, 38 3
67, 39, 32 3
80, 46, 40 3
68, 43, 39 3
68, 39, 34 3
69, 40, 36 3
63, 36, 32 3
67, 40, 36 3
71, 41, 36 3
38, 52, 51 2
38, 50, 56 2
48, 61, 69 2
47, 62, 71 2
39, 52, 60 2
38, 49, 57 2
37, 48, 56 2
45, 52, 61 2
44, 51, 60 2
47, 57, 64 2
74, 88, 110 2
69, 81, 109 2
65, 81, 110 2
104, 125, 157 2
105, 128, 160 2
94, 119, 151 2
95, 123, 157 2
101, 129, 163 2
96, 124, 158 2
92, 123, 156 2
90, 121, 154 2
42, 56, 62 2
45, 58, 66 2
56, 69, 77 2
58, 70, 80 2
53, 68, 77 2
37, 50, 58 2
56, 72, 84 2
59, 75, 87 2
69, 85, 101 2
70, 86, 103 2
68, 83, 102 2
81, 97, 120 2
84, 100, 123 2
82, 97, 123 2
76, 89, 121 2
74, 87, 119 2
82, 101, 134 2
92, 112, 147 2
106, 128, 163 2
87, 112, 144 2
95, 123, 158 2
93, 121, 155 2
91, 119, 153 2
61, 74, 82 2
54, 70, 77 2
45, 61, 68 2
42, 51, 61 2
52, 61, 71 2
57, 73, 86 2
73, 89, 106 2
86, 101, 127 2
83, 102, 137 2
103, 125, 161 2
92, 115, 147 2
89, 117, 152 2
64, 77, 85 2
46, 58, 68 2
38, 50, 60 2
46, 55, 65 2
78, 93, 112 2
90, 104, 132 2
83, 98, 137 2
85, 102, 141 2
100, 119, 157 2
101, 122, 160 2
102, 123, 161 2
88, 116, 150 2
46, 62, 69 2
45, 53, 66 2
48, 56, 69 2
63, 72, 85 2
106, 119, 157 2
93, 109, 152 2
95, 113, 154 2
92, 117, 151 2
82, 111, 142 2
63, 78, 87 2
47, 57, 67 2
47, 55, 68 2
63, 74, 88 2
60, 71, 85 2
66, 81, 107 2
83, 98, 124 2
100, 115, 147 2
104, 123, 168 2
89, 116, 150 2
38, 50, 50 2
40, 55, 58 2
49, 58, 72 2
54, 65, 79 2
64, 77, 91 2
65, 78, 92 2
102, 119, 152 2
109, 129, 176 2
112, 133, 178 2
109, 133, 175 2
111, 133, 174 2
88, 116, 147 2
86, 114, 145 2
85, 113, 144 2
79, 108, 139 2
51, 64, 72 2
63, 75, 87 2
64, 78, 90 2
65, 79, 91 2
48, 63, 72 2
77, 92, 108 2
84, 104, 135 2
90, 109, 142 2
97, 116, 149 2
119, 136, 175 2
116, 135, 186 2
111, 131, 179 2
113, 133, 181 2
114, 134, 182 2
112, 135, 180 2
109, 132, 177 2
110, 135, 169 2
89, 113, 141 2
67, 80, 94 2
72, 85, 99 2
57, 72, 81 2
51, 66, 75 2
49, 61, 73 2
91, 107, 123 2
106, 128, 164 2
126, 146, 187 2
124, 137, 193 2
112, 133, 185 2
110, 132, 180 2
81, 105, 135 2
76, 106, 135 2
69, 82, 96 2
76, 89, 105 2
74, 87, 101 2
68, 81, 95 2
54, 70, 82 2
52, 64, 76 2
54, 66, 78 2
53, 66, 80 2
67, 82, 98 2
70, 86, 102 2
82, 98, 114 2
130, 143, 199 2
117, 137, 192 2
83, 107, 137 2
43, 55, 55 2
66, 80, 92 2
80, 93, 109 2
71, 86, 102 2
126, 151, 191 2
131, 153, 195 2
132, 153, 198 2
131, 151, 198 2
133, 150, 201 2
128, 140, 198 2
115, 135, 190 2
108, 131, 181 2
110, 133, 181 2
78, 107, 134 2
76, 105, 132 2
77, 93, 110 2
76, 92, 108 2
53, 71, 82 2
49, 66, 79 2
80, 104, 124 2
130, 155, 197 2
130, 154, 200 2
118, 142, 194 2
108, 133, 183 2
103, 129, 176 2
109, 130, 175 2
107, 126, 163 2
106, 127, 165 2
103, 124, 156 2
99, 124, 150 2
97, 122, 148 2
94, 119, 145 2
83, 113, 140 2
83, 113, 138 2
83, 108, 134 2
78, 102, 130 2
47, 58, 66 2
79, 95, 112 2
83, 99, 116 2
66, 88, 106 2
128, 153, 193 2
112, 134, 186 2
109, 134, 184 2
104, 127, 159 2
95, 120, 146 2
90, 114, 142 2
72, 99, 126 2
71, 100, 127 2
52, 68, 81 2
128, 153, 197 2
102, 123, 155 2
91, 115, 143 2
69, 99, 126 2
83, 97, 115 2
81, 98, 117 2
94, 111, 130 2
80, 95, 111 2
67, 86, 107 2
122, 145, 195 2
117, 140, 190 2
112, 138, 185 2
96, 121, 147 2
81, 106, 132 2
58, 72, 84 2
80, 99, 126 2
103, 124, 155 2
132, 155, 200 2
136, 159, 205 2
120, 143, 193 2
106, 131, 171 2
99, 123, 151 2
80, 107, 133 2
79, 106, 133 2
97, 113, 136 2
96, 112, 135 2
128, 151, 199 2
106, 131, 181 2
94, 121, 148 2
90, 117, 144 2
100, 117, 143 2
86, 100, 122 2
124, 146, 182 2
126, 149, 197 2
105, 131, 171 2
82, 109, 136 2
113, 130, 157 2
112, 130, 159 2
79, 97, 120 2
78, 95, 122 2
85, 103, 132 2
125, 148, 186 2
117, 142, 192 2
83, 110, 137 2
80, 107, 134 2
116, 132, 161 2
105, 123, 154 2
83, 100, 126 2
102, 121, 154 2
109, 135, 171 2
127, 146, 179 2
99, 117, 146 2
89, 109, 134 2
92, 109, 135 2
108, 134, 170 2
101, 128, 162 2
132, 151, 186 2
95, 115, 146 2
93, 112, 139 2
109, 129, 164 2
123, 145, 186 2
129, 154, 204 2
129, 152, 202 2
106, 130, 184 2
107, 128, 183 2
107, 133, 170 2
89, 107, 138 2
87, 110, 136 2
116, 137, 159 2
120, 139, 177 2
105, 124, 159 2
99, 118, 151 2
111, 130, 167 2
116, 137, 175 2
129, 155, 202 2
131, 154, 204 2
110, 132, 184 2
108, 129, 184 2
113, 132, 183 2
86, 109, 135 2
135, 155, 190 2
137, 156, 193 2
138, 157, 195 2
118, 137, 175 2
114, 133, 170 2
100, 119, 154 2
104, 123, 158 2
113, 134, 172 2
119, 139, 180 2
132, 155, 203 2
130, 153, 203 2
125, 147, 199 2
108, 132, 186 2
89, 106, 139 2
88, 109, 137 2
122, 140, 181 2
119, 141, 183 2
131, 152, 197 2
117, 141, 183 2
122, 144, 196 2
119, 141, 193 2
111, 132, 187 2
102, 128, 168 2
100, 127, 164 2
98, 124, 160 2
130, 153, 179 2
138, 158, 199 2
133, 152, 195 2
134, 153, 196 2
130, 149, 192 2
120, 141, 179 2
115, 133, 174 2
110, 127, 166 2
120, 138, 179 2
120, 142, 184 2
126, 149, 195 2
112, 136, 178 2
127, 150, 198 2
137, 160, 210 2
135, 158, 208 2
128, 150, 202 2
124, 146, 198 2
113, 134, 189 2
84, 105, 132 2
87, 105, 134 2
114, 138, 162 2
144, 164, 205 2
140, 159, 202 2
124, 142, 183 2
120, 137, 176 2
118, 135, 174 2
125, 146, 191 2
118, 142, 184 2
115, 140, 180 2
127, 148, 200 2
124, 145, 197 2
121, 142, 194 2
114, 135, 190 2
88, 108, 139 2
83, 104, 132 2
85, 104, 131 2
90, 109, 136 2
134, 158, 194 2
144, 170, 207 2
123, 147, 193 2
118, 140, 182 2
114, 137, 182 2
116, 139, 184 2
133, 152, 197 2
125, 147, 189 2
112, 136, 172 2
123, 152, 191 2
129, 157, 198 2
131, 159, 200 2
133, 157, 209 2
131, 155, 207 2
120, 137, 188 2
119, 136, 185 2
118, 135, 184 2
113, 130, 179 2
112, 129, 178 2
102, 124, 160 2
86, 108, 136 2
77, 104, 130 2
73, 103, 128 2
79, 106, 132 2
140, 166, 206 2
127, 152, 196 2
129, 153, 199 2
119, 142, 187 2
135, 154, 199 2
113, 135, 176 2
86, 110, 146 2
126, 154, 195 2
133, 162, 207 2
128, 146, 199 2
126, 142, 195 2
124, 141, 192 2
122, 139, 190 2
80, 104, 132 2
72, 102, 127 2
110, 134, 162 2
148, 174, 210 2
135, 160, 202 2
133, 157, 199 2
134, 153, 198 2
137, 156, 201 2
113, 135, 177 2
102, 124, 165 2
112, 139, 176 2
119, 145, 185 2
131, 158, 202 2
127, 151, 203 2
127, 143, 196 2
96, 118, 153 2
74, 101, 127 2
136, 160, 202 2
96, 118, 159 2
81, 105, 141 2
109, 136, 173 2
125, 143, 196 2
126, 143, 194 2
106, 126, 173 2
104, 128, 170 2
99, 121, 156 2
93, 113, 144 2
78, 105, 132 2
75, 102, 129 2
138, 164, 200 2
150, 176, 212 2
154, 180, 216 2
89, 112, 150 2
106, 132, 169 2
114, 141, 178 2
121, 146, 188 2
112, 134, 182 2
146, 173, 210 2
145, 171, 211 2
135, 155, 196 2
128, 148, 203 2
139, 165, 201 2
150, 177, 214 2
140, 165, 209 2
86, 108, 144 2
64, 87, 119 2
123, 149, 196 2
129, 150, 205 2
93, 114, 146 2
152, 179, 216 2
145, 174, 213 2
137, 165, 206 2
140, 163, 208 2
111, 136, 176 2
115, 140, 184 2
120, 142, 194 2
101, 129, 164 2
77, 99, 127 2
79, 102, 128 2
155, 183, 218 2
144, 173, 212 2
142, 170, 211 2
139, 167, 208 2
141, 168, 212 2
136, 162, 208 2
144, 167, 212 2
50, 74, 104 2
120, 147, 197 2
124, 148, 202 2
102, 125, 170 2
96, 119, 164 2
97, 121, 163 2
97, 124, 161 2
107, 129, 164 2
81, 103, 131 2
76, 99, 125 2
136, 162, 198 2
157, 185, 220 2
149, 178, 217 2
140, 167, 211 2
133, 159, 205 2
108, 134, 180 2
119, 146, 197 2
126, 151, 207 2
125, 150, 206 2
124, 150, 204 2
105, 129, 175 2
99, 121, 163 2
98, 126, 161 2
98, 125, 162 2
82, 103, 131 2
78, 99, 126 2
150, 179, 218 2
109, 136, 186 2
114, 141, 192 2
130, 154, 208 2
126, 153, 209 2
124, 151, 207 2
123, 150, 206 2
95, 120, 160 2
95, 122, 159 2
98, 117, 154 2
136, 163, 207 2
131, 160, 205 2
81, 102, 130 2
67, 88, 115 2
90, 115, 159 2
98, 124, 170 2
127, 153, 207 2
130, 156, 210 2
131, 157, 211 2
127, 154, 211 2
124, 151, 208 2
122, 149, 205 2
118, 146, 200 2
99, 124, 168 2
94, 119, 159 2
94, 120, 157 2
89, 116, 153 2
87, 114, 151 2
100, 129, 168 2
84, 103, 130 2
146, 177, 216 2
143, 173, 214 2
139, 168, 212 2
127, 157, 204 2
92, 112, 143 2
67, 88, 116 2
77, 99, 124 2
87, 109, 134 2
73, 97, 133 2
115, 141, 195 2
132, 158, 212 2
123, 152, 209 2
120, 150, 205 2
119, 147, 201 2
114, 143, 194 2
109, 138, 189 2
95, 117, 158 2
88, 114, 151 2
83, 110, 147 2
79, 106, 143 2
104, 133, 172 2
106, 135, 174 2
78, 102, 124 2
156, 187, 220 2
137, 166, 210 2
133, 162, 206 2
64, 85, 112 2
85, 105, 130 2
68, 92, 128 2
116, 144, 198 2
117, 148, 201 2
97, 122, 164 2
94, 116, 157 2
89, 115, 152 2
76, 103, 140 2
103, 124, 162 2
84, 101, 127 2
76, 98, 123 2
129, 158, 203 2
123, 153, 200 2
82, 104, 129 2
66, 88, 113 2
48, 68, 93 2
34, 54, 79 2
126, 156, 215 2
125, 155, 214 2
122, 152, 209 2
102, 130, 177 2
98, 125, 169 2
97, 122, 166 2
94, 119, 161 2
80, 106, 143 2
72, 99, 136 2
91, 120, 159 2
111, 141, 182 2
142, 173, 212 2
138, 168, 209 2
122, 152, 199 2
124, 154, 201 2
143, 166, 212 2
34, 55, 77 2
78, 99, 121 2
78, 99, 127 2
127, 155, 209 2
114, 144, 199 2
105, 134, 185 2
97, 124, 168 2
93, 118, 160 2
66, 93, 130 2
112, 142, 183 2
117, 141, 187 2
133, 166, 211 2
125, 155, 204 2
133, 160, 211 2
68, 89, 116 2
60, 83, 105 2
125, 152, 209 2
124, 148, 206 2
97, 121, 167 2
95, 120, 164 2
95, 121, 161 2
92, 118, 158 2
81, 100, 143 2
102, 125, 175 2
116, 140, 194 2
106, 131, 187 2
102, 128, 175 2
110, 133, 179 2
126, 156, 205 2
59, 80, 118 2
115, 142, 198 2
123, 150, 207 2
91, 115, 161 2
95, 117, 165 2
98, 121, 171 2
141, 173, 214 2
132, 162, 209 2
119, 148, 199 2
122, 152, 201 2
127, 156, 207 2
132, 159, 210 2
63, 87, 105 2
76, 96, 121 2
115, 139, 197 2
116, 143, 200 2
94, 118, 172 2
102, 124, 176 2
110, 131, 186 2
99, 128, 172 2
100, 130, 171 2
120, 153, 199 2
117, 150, 196 2
118, 147, 198 2
123, 153, 202 2
138, 158, 205 2
129, 148, 191 2
33, 48, 74 2
49, 68, 95 2
60, 80, 111 2
123, 147, 205 2
122, 146, 204 2
106, 136, 177 2
106, 135, 179 2
83, 107, 131 2
62, 79, 106 2
117, 139, 197 2
120, 141, 202 2
91, 114, 164 2
95, 118, 168 2
108, 128, 175 2
96, 113, 156 2
98, 117, 168 2
95, 125, 166 2
107, 136, 181 2
119, 150, 201 2
123, 154, 205 2
130, 149, 194 2
42, 63, 85 2
98, 114, 160 2
76, 93, 136 2
110, 130, 185 2
107, 135, 182 2
117, 149, 198 2
116, 148, 197 2
140, 162, 214 2
47, 64, 97 2
72, 93, 121 2
101, 124, 180 2
96, 118, 170 2
106, 127, 179 2
101, 116, 165 2
103, 119, 165 2
35, 54, 57 2
115, 148, 198 2
124, 156, 205 2
137, 159, 211 2
50, 67, 93 2
32, 51, 72 2
126, 146, 203 2
105, 126, 178 2
97, 113, 159 2
92, 108, 161 2
98, 115, 171 2
134, 160, 214 2
137, 161, 215 2
130, 150, 207 2
101, 117, 170 2
98, 115, 166 2
101, 120, 165 2
98, 117, 162 2
87, 112, 154 2
84, 110, 150 2
87, 113, 153 2
97, 115, 162 2
117, 153, 201 2
110, 144, 190 2
136, 156, 203 2
58, 74, 116 2
86, 105, 138 2
95, 118, 174 2
88, 107, 144 2
118, 149, 194 2
119, 152, 198 2
30, 46, 69 2
93, 113, 148 2
76, 95, 152 2
85, 103, 156 2
51, 65, 117 2
99, 135, 159 2
117, 146, 191 2
135, 159, 213 2
136, 158, 210 2
32, 50, 73 2
88, 104, 157 2
103, 123, 158 2
88, 123, 143 2
114, 146, 189 2
116, 143, 187 2
114, 143, 187 2
129, 154, 210 2
89, 110, 148 2
145, 170, 220 2
123, 143, 201 2
112, 129, 192 2
77, 94, 133 2
26, 40, 39 2
116, 141, 183 2
73, 85, 119 2
84, 106, 147 2
126, 146, 204 2
77, 87, 121 2
52, 58, 69 2
35, 44, 48 2
37, 42, 45 2
125, 151, 205 2
146, 175, 219 2
128, 144, 210 2
124, 140, 206 2
85, 101, 160 2
31, 38, 47 2
108, 137, 176 2
118, 145, 196 2
127, 146, 207 2
129, 145, 211 2
78, 95, 134 2
33, 35, 35 2
52, 45, 42 2
37, 39, 39 2
49, 37, 35 2
53, 41, 37 2
53, 41, 35 2
56, 42, 36 2
47, 51, 52 2
131, 149, 212 2
51, 38, 36 2
52, 40, 36 2
54, 49, 50 2
122, 139, 202 2
131, 148, 211 2
38, 43, 52 2
39, 37, 43 2
50, 37, 35 2
52, 39, 37 2
54, 39, 36 2
59, 50, 53 2
50, 45, 42 2
49, 46, 42 2
105, 133, 157 2
128, 144, 211 2
53, 42, 38 2
53, 38, 35 2
64, 56, 56 2
55, 43, 37 2
57, 45, 39 2
59, 50, 41 2
58, 51, 42 2
113, 134, 162 2
129, 153, 211 2
127, 143, 209 2
53, 44, 35 2
55, 38, 35 2
61, 49, 47 2
65, 49, 37 2
54, 46, 39 2
135, 153, 214 2
54, 43, 35 2
62, 39, 31 2
66, 48, 41 2
66, 47, 40 2
60, 46, 40 2
54, 43, 39 2
50, 41, 37 2
98, 113, 129 2
132, 150, 211 2
76, 47, 38 2
73, 42, 33 2
52, 40, 38 2
54, 43, 45 2
60, 37, 35 2
57, 35, 29 2
65, 46, 38 2
56, 46, 39 2
62, 39, 43 2
64, 39, 37 2
59, 38, 36 2
64, 47, 38 2
56, 45, 41 2
88, 107, 150 2
66, 41, 39 2
58, 37, 35 2
58, 37, 36 2
73, 46, 32 2
65, 46, 31 2
59, 45, 39 2
50, 42, 42 2
58, 39, 36 2
77, 48, 34 2
65, 43, 38 2
68, 47, 39 2
65, 45, 28 2
66, 46, 29 2
71, 50, 35 2
65, 40, 38 2
63, 41, 36 2
55, 48, 39 2
40, 39, 35 2
59, 38, 37 2
62, 41, 39 2
61, 40, 38 2
46, 39, 36 2
49, 40, 37 2
62, 42, 37 2
61, 42, 37 2
59, 37, 32 2
62, 46, 34 2
57, 45, 35 2
60, 48, 36 2
51, 41, 31 2
55, 43, 31 2
58, 46, 34 2
59, 45, 33 2
67, 38, 31 2
66, 38, 31 2
52, 38, 32 2
72, 50, 39 2
56, 37, 29 2
67, 43, 31 2
79, 48, 39 2
72, 42, 31 2
76, 48, 37 2
69, 44, 40 2
78, 48, 37 2
67, 38, 33 2
63, 37, 30 2
77, 51, 39 2
76, 42, 36 2
63, 45, 34 2
61, 45, 32 2
61, 42, 29 2
61, 44, 31 2
62, 43, 30 2
74, 42, 37 2
76, 44, 39 2
43, 57, 56 1
41, 53, 59 1
37, 49, 55 1
39, 53, 59 1
40, 58, 65 1
42, 58, 65 1
40, 56, 63 1
39, 48, 57 1
49, 56, 65 1
43, 51, 58 1
52, 62, 69 1
56, 74, 81 1
55, 73, 80 1
52, 70, 77 1
55, 71, 83 1
58, 74, 87 1
55, 71, 87 1
56, 72, 89 1
64, 79, 98 1
75, 89, 111 1
68, 80, 108 1
67, 79, 107 1
63, 77, 105 1
63, 77, 106 1
63, 79, 108 1
65, 83, 114 1
66, 84, 115 1
71, 91, 122 1
85, 104, 137 1
98, 119, 151 1
106, 130, 160 1
108, 131, 163 1
92, 117, 149 1
94, 122, 156 1
94, 125, 158 1
39, 53, 52 1
42, 56, 55 1
58, 71, 79 1
44, 60, 67 1
41, 57, 64 1
40, 51, 59 1
41, 50, 59 1
43, 50, 59 1
48, 55, 64 1
51, 58, 67 1
42, 51, 60 1
46, 55, 64 1
65, 74, 83 1
61, 78, 87 1
59, 76, 85 1
65, 81, 94 1
69, 85, 98 1
72, 86, 108 1
75, 92, 113 1
84, 99, 125 1
79, 94, 120 1
77, 90, 122 1
75, 88, 120 1
73, 88, 120 1
75, 90, 123 1
74, 91, 124 1
76, 93, 126 1
76, 95, 128 1
101, 121, 156 1
103, 128, 160 1
105, 130, 162 1
104, 129, 161 1
95, 120, 152 1
88, 119, 152 1
87, 118, 151 1
37, 51, 50 1
40, 52, 56 1
43, 55, 61 1
60, 73, 81 1
62, 75, 83 1
42, 55, 63 1
41, 50, 60 1
49, 53, 64 1
50, 54, 65 1
43, 49, 60 1
50, 56, 67 1
48, 57, 67 1
67, 76, 86 1
61, 77, 90 1
68, 83, 99 1
73, 89, 105 1
71, 86, 105 1
70, 84, 106 1
80, 95, 121 1
91, 105, 133 1
90, 106, 135 1
85, 100, 132 1
83, 98, 130 1
79, 91, 127 1
79, 93, 129 1
80, 96, 132 1
83, 99, 135 1
82, 101, 136 1
88, 106, 143 1
93, 112, 149 1
99, 118, 155 1
88, 116, 151 1
85, 116, 149 1
84, 115, 148 1
33, 47, 46 1
34, 48, 47 1
43, 55, 59 1
60, 76, 83 1
40, 50, 60 1
44, 53, 63 1
54, 63, 73 1
62, 70, 83 1
67, 76, 89 1
59, 73, 91 1
63, 77, 95 1
73, 88, 107 1
79, 93, 115 1
81, 95, 118 1
94, 108, 137 1
97, 112, 144 1
99, 114, 146 1
99, 114, 147 1
99, 113, 149 1
98, 112, 148 1
97, 111, 147 1
91, 106, 145 1
89, 104, 143 1
85, 100, 139 1
83, 100, 139 1
87, 104, 143 1
94, 113, 151 1
104, 125, 163 1
90, 116, 152 1
90, 118, 153 1
90, 118, 152 1
86, 114, 148 1
81, 112, 145 1
32, 46, 45 1
36, 48, 48 1
44, 56, 60 1
44, 59, 62 1
47, 61, 67 1
54, 67, 75 1
59, 72, 80 1
63, 79, 86 1
59, 75, 82 1
52, 68, 75 1
43, 55, 65 1
40, 52, 62 1
42, 52, 62 1
44, 54, 64 1
45, 54, 64 1
49, 55, 68 1
51, 57, 70 1
58, 67, 80 1
62, 76, 98 1
68, 82, 104 1
76, 90, 112 1
82, 96, 119 1
95, 109, 138 1
103, 116, 148 1
103, 118, 151 1
105, 119, 155 1
107, 119, 159 1
106, 121, 160 1
107, 122, 161 1
105, 121, 164 1
101, 117, 160 1
97, 113, 156 1
93, 111, 152 1
96, 114, 155 1
95, 115, 156 1
98, 118, 159 1
105, 125, 166 1
90, 117, 151 1
87, 115, 149 1
42, 57, 60 1
37, 52, 55 1
49, 63, 69 1
59, 71, 81 1
57, 69, 79 1
60, 72, 82 1
61, 76, 85 1
61, 77, 84 1
56, 72, 79 1
39, 54, 63 1
46, 56, 66 1
47, 56, 66 1
46, 52, 65 1
50, 58, 71 1
51, 60, 74 1
63, 72, 86 1
74, 89, 115 1
89, 103, 131 1
93, 109, 138 1
107, 122, 155 1
112, 126, 162 1
112, 125, 163 1
112, 124, 164 1
109, 123, 165 1
110, 124, 166 1
112, 125, 169 1
115, 128, 172 1
116, 129, 175 1
114, 130, 177 1
113, 129, 175 1
111, 127, 173 1
109, 125, 171 1
108, 124, 170 1
107, 123, 169 1
104, 123, 166 1
104, 126, 168 1
86, 115, 146 1
85, 114, 145 1
63, 75, 85 1
65, 77, 87 1
64, 79, 88 1
65, 80, 89 1
53, 69, 76 1
48, 64, 71 1
42, 57, 66 1
43, 58, 67 1
44, 59, 68 1
47, 59, 69 1
49, 59, 69 1
50, 59, 73 1
72, 90, 119 1
80, 98, 127 1
93, 111, 142 1
109, 125, 161 1
115, 131, 168 1
118, 133, 172 1
118, 132, 174 1
118, 131, 175 1
118, 131, 177 1
119, 132, 178 1
120, 132, 180 1
121, 133, 181 1
122, 133, 183 1
114, 131, 180 1
113, 131, 178 1
108, 129, 174 1
95, 120, 154 1
87, 114, 148 1
80, 109, 140 1
78, 107, 138 1
43, 58, 61 1
67, 81, 93 1
69, 83, 95 1
68, 82, 94 1
47, 63, 70 1
45, 62, 71 1
47, 56, 69 1
46, 55, 68 1
48, 57, 70 1
45, 54, 68 1
47, 58, 72 1
61, 74, 88 1
65, 80, 96 1
103, 122, 157 1
109, 128, 163 1
115, 133, 170 1
121, 137, 179 1
123, 139, 182 1
124, 139, 185 1
127, 141, 189 1
129, 143, 191 1
130, 144, 193 1
129, 142, 194 1
126, 139, 191 1
124, 137, 189 1
117, 136, 187 1
114, 133, 184 1
106, 131, 173 1
80, 108, 138 1
78, 108, 137 1
33, 45, 45 1
38, 52, 58 1
66, 79, 93 1
73, 86, 100 1
70, 84, 96 1
52, 67, 76 1
49, 66, 75 1
50, 62, 74 1
45, 56, 70 1
49, 60, 74 1
57, 70, 84 1
62, 78, 91 1
63, 78, 94 1
72, 87, 103 1
113, 135, 171 1
121, 142, 180 1
125, 146, 184 1
126, 143, 186 1
126, 142, 188 1
128, 144, 191 1
131, 146, 195 1
134, 148, 200 1
135, 149, 201 1
131, 145, 198 1
127, 141, 194 1
121, 139, 192 1
119, 137, 190 1
117, 135, 188 1
110, 131, 182 1
79, 107, 137 1
35, 47, 47 1
40, 52, 52 1
61, 73, 85 1
74, 87, 103 1
77, 90, 106 1
51, 70, 77 1
48, 61, 75 1
60, 76, 89 1
103, 119, 135 1
115, 138, 176 1
120, 143, 181 1
129, 148, 193 1
128, 146, 193 1
129, 146, 195 1
130, 147, 198 1
134, 148, 201 1
133, 147, 200 1
126, 139, 195 1
115, 136, 188 1
80, 104, 134 1
78, 106, 136 1
62, 74, 84 1
79, 92, 108 1
78, 91, 107 1
62, 78, 90 1
58, 74, 86 1
54, 73, 80 1
54, 73, 81 1
54, 71, 80 1
51, 68, 77 1
52, 66, 78 1
57, 69, 81 1
54, 67, 81 1
60, 73, 87 1
63, 79, 92 1
78, 94, 110 1
108, 127, 142 1
111, 137, 174 1
116, 142, 179 1
120, 146, 183 1
132, 152, 200 1
132, 148, 201 1
130, 145, 201 1
113, 133, 188 1
108, 130, 182 1
79, 103, 131 1
75, 105, 132 1
74, 104, 131 1
44, 55, 63 1
50, 61, 75 1
63, 76, 92 1
69, 85, 102 1
72, 88, 105 1
78, 94, 111 1
80, 96, 113 1
73, 88, 104 1
65, 77, 89 1
60, 78, 89 1
59, 77, 88 1
57, 76, 84 1
48, 65, 74 1
56, 73, 82 1
54, 73, 88 1
57, 77, 94 1
62, 84, 102 1
71, 92, 113 1
94, 118, 140 1
110, 134, 158 1
127, 153, 193 1
129, 152, 200 1
120, 144, 196 1
109, 131, 183 1
110, 133, 183 1
91, 116, 142 1
74, 103, 130 1
72, 102, 129 1
42, 53, 61 1
75, 90, 106 1
74, 90, 107 1
78, 93, 109 1
72, 88, 101 1
71, 84, 98 1
72, 86, 98 1
71, 83, 95 1
63, 81, 92 1
62, 80, 91 1
57, 75, 86 1
50, 66, 78 1
48, 64, 76 1
57, 73, 85 1
52, 69, 82 1
56, 75, 90 1
61, 81, 98 1
73, 97, 117 1
84, 107, 129 1
98, 122, 146 1
113, 137, 161 1
128, 153, 195 1
129, 154, 198 1
117, 141, 193 1
112, 135, 185 1
105, 131, 177 1
98, 123, 149 1
71, 101, 128 1
44, 57, 65 1
65, 78, 94 1
80, 94, 112 1
89, 104, 123 1
90, 106, 123 1
86, 102, 119 1
82, 97, 113 1
75, 88, 102 1
67, 84, 97 1
66, 83, 96 1
57, 74, 87 1
53, 70, 83 1
56, 72, 88 1
59, 77, 94 1
64, 84, 102 1
70, 91, 112 1
78, 101, 123 1
88, 110, 135 1
102, 125, 151 1
116, 139, 165 1
103, 126, 158 1
93, 118, 144 1
87, 112, 138 1
88, 113, 139 1
82, 107, 133 1
70, 99, 126 1
45, 57, 67 1
50, 62, 72 1
62, 75, 91 1
69, 82, 98 1
75, 89, 107 1
82, 97, 116 1
88, 105, 124 1
79, 92, 106 1
76, 89, 103 1
71, 90, 105 1
59, 75, 91 1
54, 70, 86 1
60, 76, 92 1
65, 81, 97 1
62, 78, 94 1
62, 78, 95 1
63, 80, 99 1
74, 95, 117 1
84, 106, 131 1
94, 117, 143 1
108, 130, 158 1
120, 142, 170 1
120, 145, 185 1
124, 149, 189 1
129, 154, 194 1
107, 132, 172 1
92, 117, 143 1
51, 65, 77 1
67, 81, 99 1
74, 88, 106 1
82, 96, 114 1
86, 103, 124 1
88, 105, 126 1
95, 112, 133 1
102, 119, 140 1
99, 116, 137 1
93, 110, 131 1
83, 98, 114 1
76, 94, 111 1
68, 86, 103 1
58, 76, 93 1
67, 82, 101 1
68, 85, 104 1
69, 86, 107 1
72, 89, 115 1
92, 113, 141 1
115, 136, 167 1
121, 144, 176 1
127, 152, 192 1
131, 156, 196 1
113, 137, 189 1
96, 120, 148 1
73, 102, 129 1
73, 103, 130 1
61, 75, 87 1
77, 92, 111 1
90, 104, 126 1
96, 110, 132 1
98, 114, 137 1
102, 120, 143 1
101, 119, 142 1
100, 116, 139 1
90, 107, 128 1
89, 103, 125 1
77, 94, 113 1
66, 83, 102 1
57, 74, 93 1
60, 77, 96 1
71, 88, 109 1
72, 88, 111 1
70, 87, 113 1
74, 93, 120 1
86, 104, 133 1
109, 130, 162 1
117, 139, 174 1
122, 144, 179 1
129, 151, 192 1
123, 146, 194 1
115, 139, 191 1
107, 130, 180 1
107, 129, 177 1
91, 118, 145 1
92, 119, 146 1
93, 120, 147 1
89, 116, 143 1
83, 112, 139 1
75, 104, 131 1
66, 82, 95 1
87, 101, 123 1
99, 115, 138 1
101, 116, 142 1
98, 115, 141 1
104, 121, 148 1
94, 111, 137 1
94, 110, 133 1
91, 108, 129 1
92, 106, 128 1
76, 95, 116 1
64, 81, 102 1
66, 83, 104 1
70, 87, 108 1
72, 89, 110 1
73, 90, 111 1
73, 90, 116 1
79, 97, 126 1
120, 142, 178 1
105, 129, 181 1
106, 129, 179 1
109, 129, 177 1
101, 125, 155 1
88, 104, 121 1
95, 111, 134 1
103, 119, 142 1
108, 123, 149 1
109, 126, 152 1
114, 131, 158 1
113, 131, 160 1
109, 127, 156 1
105, 123, 152 1
100, 117, 144 1
100, 115, 141 1
90, 106, 129 1
73, 91, 114 1
72, 91, 112 1
74, 93, 114 1
77, 94, 115 1
79, 96, 117 1
79, 95, 118 1
76, 93, 119 1
116, 138, 173 1
106, 130, 182 1
107, 128, 180 1
110, 130, 178 1
110, 131, 169 1
103, 130, 164 1
94, 120, 150 1
86, 113, 140 1
86, 104, 121 1
98, 115, 134 1
103, 120, 146 1
109, 126, 153 1
118, 136, 165 1
121, 139, 170 1
120, 138, 169 1
117, 135, 166 1
114, 132, 163 1
109, 127, 158 1
103, 121, 150 1
102, 118, 147 1
92, 109, 136 1
76, 97, 119 1
81, 99, 122 1
83, 101, 124 1
84, 102, 125 1
81, 98, 125 1
84, 102, 131 1
118, 140, 176 1
121, 144, 182 1
106, 128, 180 1
112, 134, 170 1
102, 129, 163 1
102, 127, 159 1
100, 125, 157 1
80, 110, 135 1
92, 112, 130 1
105, 124, 145 1
117, 135, 164 1
121, 139, 168 1
124, 142, 173 1
127, 145, 176 1
125, 144, 177 1
121, 140, 175 1
117, 136, 171 1
114, 133, 166 1
111, 130, 163 1
111, 128, 161 1
107, 125, 156 1
90, 110, 135 1
91, 108, 134 1
92, 110, 139 1
105, 125, 160 1
114, 136, 172 1
121, 143, 179 1
123, 146, 184 1
127, 150, 188 1
107, 133, 169 1
100, 119, 140 1
112, 133, 155 1
119, 139, 170 1
124, 144, 175 1
127, 147, 178 1
128, 147, 180 1
131, 150, 185 1
128, 146, 183 1
124, 142, 179 1
121, 139, 176 1
119, 137, 174 1
118, 137, 172 1
116, 135, 170 1
112, 131, 164 1
108, 127, 160 1
102, 122, 153 1
93, 114, 142 1
91, 112, 140 1
94, 112, 141 1
115, 137, 173 1
119, 142, 180 1
102, 123, 144 1
130, 149, 182 1
131, 150, 183 1
133, 152, 189 1
134, 153, 190 1
130, 149, 187 1
125, 144, 182 1
122, 141, 179 1
119, 138, 175 1
117, 136, 173 1
114, 133, 168 1
110, 129, 164 1
100, 119, 152 1
99, 119, 150 1
95, 113, 144 1
95, 113, 142 1
120, 142, 183 1
130, 156, 203 1
131, 157, 204 1
107, 131, 185 1
101, 126, 168 1
103, 130, 167 1
100, 127, 161 1
91, 119, 150 1
90, 118, 148 1
88, 106, 137 1
89, 111, 139 1
105, 128, 150 1
119, 141, 166 1
133, 153, 188 1
135, 154, 191 1
134, 152, 193 1
130, 148, 189 1
126, 144, 185 1
123, 141, 182 1
102, 122, 157 1
101, 120, 155 1
99, 116, 149 1
101, 118, 151 1
109, 128, 165 1
109, 130, 185 1
99, 125, 161 1
91, 119, 149 1
87, 108, 135 1
90, 108, 137 1
112, 135, 157 1
126, 148, 173 1
134, 154, 189 1
138, 157, 194 1
137, 156, 194 1
139, 157, 198 1
136, 154, 195 1
133, 150, 193 1
132, 149, 192 1
128, 146, 187 1
125, 143, 184 1
116, 135, 173 1
112, 131, 168 1
110, 129, 166 1
108, 124, 160 1
107, 126, 161 1
111, 129, 166 1
114, 133, 171 1
116, 136, 177 1
116, 140, 182 1
126, 148, 200 1
110, 134, 188 1
103, 128, 170 1
103, 129, 169 1
99, 125, 165 1
88, 107, 134 1
86, 107, 135 1
115, 138, 160 1
132, 154, 190 1
137, 159, 195 1
139, 161, 197 1
138, 159, 197 1
127, 146, 189 1
125, 145, 186 1
122, 142, 183 1
119, 140, 178 1
112, 131, 169 1
111, 130, 168 1
112, 129, 168 1
114, 131, 170 1
117, 136, 174 1
119, 138, 181 1
120, 143, 188 1
123, 146, 192 1
111, 135, 177 1
120, 141, 193 1
119, 140, 192 1
118, 139, 191 1
112, 136, 190 1
113, 134, 186 1
100, 126, 166 1
90, 107, 140 1
86, 105, 132 1
91, 110, 137 1
135, 157, 193 1
141, 163, 199 1
145, 166, 204 1
144, 165, 203 1
143, 163, 204 1
137, 156, 199 1
124, 144, 185 1
123, 144, 182 1
121, 139, 180 1
119, 137, 178 1
117, 134, 173 1
123, 142, 185 1
122, 143, 188 1
125, 148, 194 1
124, 145, 190 1
97, 122, 162 1
133, 156, 206 1
114, 135, 187 1
112, 133, 184 1
101, 127, 167 1
94, 120, 156 1
91, 108, 141 1
87, 104, 131 1
87, 103, 132 1
86, 102, 131 1
117, 139, 167 1
134, 155, 186 1
140, 164, 200 1
144, 168, 204 1
144, 170, 206 1
141, 167, 204 1
139, 164, 204 1
123, 145, 187 1
121, 143, 185 1
132, 151, 196 1
131, 150, 195 1
122, 144, 185 1
118, 140, 181 1
117, 139, 180 1
113, 136, 174 1
127, 156, 195 1
134, 161, 205 1
132, 159, 209 1
128, 149, 201 1
124, 142, 195 1
125, 139, 191 1
123, 137, 189 1
74, 104, 129 1
114, 136, 164 1
130, 151, 182 1
142, 166, 202 1
146, 170, 206 1
145, 171, 207 1
142, 168, 205 1
140, 165, 205 1
131, 156, 198 1
126, 150, 196 1
127, 151, 197 1
126, 148, 190 1
124, 146, 188 1
121, 144, 189 1
118, 141, 186 1
136, 155, 200 1
92, 116, 152 1
121, 150, 189 1
133, 160, 204 1
131, 158, 208 1
129, 150, 202 1
121, 138, 189 1
126, 150, 180 1
136, 160, 196 1
145, 169, 205 1
146, 172, 208 1
143, 168, 208 1
78, 102, 138 1
77, 101, 137 1
130, 157, 207 1
125, 142, 193 1
123, 140, 191 1
105, 124, 169 1
91, 111, 142 1
111, 136, 162 1
127, 151, 181 1
138, 162, 198 1
149, 173, 209 1
152, 178, 214 1
148, 174, 211 1
146, 172, 209 1
142, 167, 209 1
137, 161, 207 1
137, 161, 203 1
135, 159, 201 1
139, 158, 201 1
138, 157, 200 1
120, 139, 182 1
76, 100, 136 1
69, 93, 129 1
71, 95, 131 1
122, 148, 188 1
122, 150, 191 1
127, 154, 198 1
131, 157, 203 1
129, 156, 206 1
123, 144, 196 1
123, 142, 193 1
121, 140, 191 1
118, 137, 188 1
115, 135, 183 1
112, 132, 179 1
89, 110, 141 1
110, 137, 163 1
126, 153, 180 1
150, 176, 213 1
147, 173, 210 1
140, 164, 206 1
139, 163, 205 1
126, 145, 188 1
110, 130, 171 1
96, 116, 157 1
92, 115, 153 1
94, 117, 155 1
87, 111, 147 1
70, 94, 130 1
60, 84, 120 1
63, 88, 122 1
77, 102, 136 1
123, 150, 194 1
128, 154, 200 1
122, 143, 198 1
122, 142, 197 1
127, 145, 198 1
125, 144, 195 1
122, 141, 192 1
119, 138, 189 1
113, 133, 180 1
91, 112, 143 1
111, 138, 164 1
126, 155, 182 1
140, 166, 202 1
155, 181, 217 1
151, 177, 214 1
149, 175, 212 1
121, 141, 182 1
86, 111, 145 1
80, 105, 139 1
67, 92, 126 1
56, 81, 115 1
61, 86, 120 1
76, 101, 135 1
112, 138, 175 1
126, 152, 198 1
130, 147, 203 1
128, 145, 201 1
119, 140, 191 1
116, 137, 188 1
113, 134, 185 1
106, 129, 175 1
95, 114, 147 1
91, 112, 144 1
80, 106, 136 1
74, 101, 128 1
110, 141, 164 1
128, 158, 183 1
149, 175, 211 1
153, 179, 216 1
148, 175, 212 1
146, 172, 212 1
142, 168, 208 1
148, 168, 209 1
132, 153, 191 1
92, 113, 151 1
82, 103, 141 1
82, 104, 139 1
74, 96, 131 1
61, 83, 118 1
55, 77, 112 1
82, 105, 137 1
115, 141, 178 1
120, 145, 187 1
121, 147, 193 1
127, 152, 202 1
131, 151, 206 1
130, 150, 205 1
113, 136, 186 1
111, 134, 182 1
96, 115, 148 1
76, 98, 126 1
108, 139, 162 1
126, 157, 182 1
153, 179, 215 1
153, 180, 217 1
147, 174, 211 1
147, 173, 213 1
143, 172, 211 1
136, 164, 205 1
137, 158, 196 1
117, 138, 176 1
72, 95, 127 1
59, 82, 114 1
48, 71, 103 1
49, 72, 104 1
65, 88, 120 1
84, 107, 139 1
109, 135, 172 1
113, 138, 180 1
129, 149, 204 1
123, 145, 197 1
118, 140, 192 1
111, 134, 184 1
95, 115, 150 1
78, 103, 129 1
98, 129, 150 1
119, 151, 174 1
151, 177, 213 1
156, 184, 219 1
155, 182, 219 1
151, 178, 215 1
147, 176, 215 1
138, 166, 207 1
132, 158, 204 1
134, 156, 192 1
85, 107, 143 1
85, 107, 142 1
94, 117, 149 1
83, 106, 138 1
45, 69, 99 1
66, 90, 120 1
82, 106, 136 1
111, 136, 180 1
114, 140, 186 1
120, 146, 193 1
124, 151, 202 1
127, 150, 206 1
125, 149, 203 1
121, 145, 197 1
99, 122, 167 1
103, 131, 166 1
96, 116, 151 1
77, 102, 128 1
79, 107, 131 1
92, 123, 144 1
114, 146, 169 1
149, 177, 212 1
154, 181, 218 1
150, 179, 216 1
149, 178, 215 1
146, 175, 214 1
137, 166, 211 1
137, 163, 209 1
129, 152, 198 1
128, 148, 183 1
94, 114, 149 1
77, 97, 132 1
78, 99, 131 1
88, 109, 141 1
94, 115, 147 1
79, 100, 131 1
61, 82, 113 1
49, 70, 101 1
47, 68, 99 1
54, 76, 104 1
69, 91, 119 1
93, 115, 143 1
115, 141, 188 1
116, 143, 193 1
127, 152, 208 1
116, 143, 194 1
111, 138, 189 1
97, 120, 165 1
100, 122, 164 1
100, 118, 155 1
97, 117, 152 1
80, 101, 128 1
84, 116, 135 1
107, 140, 160 1
131, 159, 193 1
147, 175, 209 1
156, 184, 218 1
159, 187, 222 1
160, 188, 223 1
153, 182, 219 1
152, 181, 218 1
136, 165, 210 1
130, 153, 199 1
143, 164, 209 1
116, 137, 169 1
81, 102, 134 1
70, 91, 123 1
76, 97, 129 1
71, 93, 121 1
55, 77, 105 1
48, 70, 98 1
50, 72, 100 1
60, 82, 110 1
73, 95, 123 1
90, 112, 140 1
128, 155, 212 1
121, 149, 203 1
113, 140, 191 1
110, 137, 187 1
96, 121, 161 1
94, 121, 158 1
100, 119, 156 1
82, 103, 130 1
82, 101, 128 1
79, 103, 127 1
80, 106, 130 1
78, 108, 127 1
102, 133, 154 1
123, 151, 185 1
142, 170, 204 1
154, 182, 216 1
159, 187, 221 1
159, 189, 224 1
155, 184, 221 1
145, 173, 214 1
142, 169, 213 1
136, 157, 202 1
73, 94, 125 1
68, 89, 120 1
74, 95, 126 1
88, 110, 138 1
52, 73, 100 1
49, 70, 97 1
57, 78, 105 1
70, 91, 118 1
82, 105, 143 1
83, 108, 148 1
103, 130, 180 1
108, 135, 186 1
129, 156, 213 1
113, 142, 193 1
110, 137, 188 1
91, 120, 157 1
95, 124, 161 1
98, 127, 164 1
102, 131, 170 1
83, 102, 129 1
79, 101, 126 1
80, 104, 128 1
71, 101, 118 1
95, 127, 146 1
115, 144, 175 1
136, 165, 196 1
152, 180, 214 1
158, 186, 220 1
128, 159, 204 1
127, 158, 203 1
131, 159, 206 1
134, 162, 209 1
138, 159, 204 1
69, 90, 118 1
70, 91, 119 1
76, 97, 125 1
83, 104, 131 1
79, 100, 127 1
47, 68, 95 1
48, 70, 95 1
62, 84, 109 1
97, 118, 149 1
92, 113, 145 1
81, 103, 138 1
72, 97, 137 1
80, 105, 149 1
89, 115, 161 1
96, 124, 171 1
102, 129, 179 1
109, 136, 187 1
127, 156, 213 1
125, 154, 211 1
121, 151, 206 1
98, 123, 167 1
96, 121, 163 1
80, 107, 144 1
83, 112, 149 1
90, 119, 156 1
95, 124, 163 1
79, 99, 124 1
66, 94, 111 1
90, 120, 139 1
111, 140, 171 1
133, 162, 193 1
150, 179, 210 1
136, 165, 209 1
126, 156, 203 1
137, 163, 210 1
135, 161, 208 1
138, 161, 207 1
134, 155, 200 1
114, 135, 180 1
63, 84, 112 1
62, 83, 111 1
74, 95, 122 1
73, 95, 120 1
54, 76, 101 1
40, 62, 87 1
43, 65, 90 1
63, 83, 108 1
81, 101, 126 1
86, 106, 131 1
64, 89, 129 1
71, 96, 138 1
80, 106, 152 1
89, 117, 164 1
95, 122, 172 1
102, 131, 182 1
109, 137, 191 1
129, 155, 209 1
127, 157, 216 1
126, 155, 212 1
122, 151, 208 1
114, 142, 196 1
104, 134, 183 1
103, 131, 178 1
101, 130, 175 1
100, 127, 171 1
91, 116, 156 1
75, 102, 139 1
82, 111, 148 1
92, 121, 160 1
98, 127, 166 1
109, 138, 177 1
112, 141, 180 1
100, 121, 159 1
59, 87, 104 1
82, 112, 131 1
105, 134, 165 1
127, 156, 187 1
145, 174, 205 1
153, 184, 215 1
152, 184, 220 1
144, 175, 214 1
139, 169, 210 1
135, 164, 208 1
129, 157, 204 1
134, 160, 207 1
138, 162, 208 1
141, 164, 210 1
142, 165, 211 1
77, 98, 126 1
60, 81, 108 1
77, 98, 125 1
38, 58, 83 1
60, 80, 105 1
83, 103, 128 1
76, 99, 131 1
66, 90, 126 1
61, 87, 124 1
65, 90, 132 1
72, 98, 144 1
82, 110, 157 1
90, 117, 167 1
98, 127, 178 1
105, 133, 187 1
128, 156, 210 1
120, 150, 207 1
119, 149, 204 1
116, 146, 201 1
110, 141, 194 1
107, 136, 187 1
90, 116, 153 1
87, 113, 150 1
79, 108, 145 1
99, 128, 167 1
107, 136, 175 1
113, 143, 184 1
114, 138, 184 1
79, 102, 124 1
54, 82, 99 1
76, 106, 125 1
97, 127, 156 1
119, 149, 178 1
137, 166, 197 1
147, 178, 209 1
155, 186, 219 1
154, 185, 218 1
153, 183, 218 1
150, 182, 218 1
125, 154, 199 1
128, 156, 203 1
139, 163, 209 1
99, 120, 165 1
75, 96, 123 1
78, 100, 125 1
65, 85, 110 1
43, 63, 88 1
29, 50, 72 1
57, 78, 100 1
86, 107, 129 1
81, 102, 124 1
77, 100, 132 1
60, 86, 123 1
62, 87, 129 1
68, 94, 140 1
77, 105, 152 1
86, 113, 163 1
95, 124, 175 1
103, 131, 185 1
110, 138, 192 1
124, 152, 206 1
119, 149, 206 1
116, 147, 202 1
108, 139, 192 1
101, 129, 176 1
98, 126, 173 1
99, 125, 171 1
81, 107, 144 1
77, 103, 140 1
74, 101, 138 1
73, 102, 139 1
87, 116, 155 1
97, 126, 165 1
113, 137, 183 1
114, 134, 175 1
80, 103, 125 1
52, 76, 82 1
78, 102, 108 1
114, 143, 170 1
132, 162, 191 1
144, 175, 206 1
150, 183, 216 1
148, 182, 218 1
148, 181, 220 1
144, 179, 219 1
143, 177, 220 1
138, 171, 216 1
132, 165, 210 1
128, 163, 207 1
123, 158, 202 1
119, 154, 198 1
123, 146, 202 1
125, 152, 203 1
131, 160, 211 1
144, 164, 211 1
138, 157, 202 1
97, 116, 154 1
68, 92, 112 1
85, 106, 128 1
66, 83, 110 1
42, 59, 86 1
31, 49, 72 1
38, 55, 74 1
60, 78, 95 1
85, 101, 117 1
95, 111, 128 1
91, 106, 125 1
73, 97, 115 1
75, 99, 119 1
80, 102, 130 1
73, 94, 126 1
63, 85, 121 1
62, 83, 121 1
68, 90, 131 1
74, 98, 140 1
83, 108, 152 1
95, 119, 165 1
122, 149, 206 1
114, 139, 195 1
106, 132, 186 1
102, 126, 178 1
104, 129, 179 1
93, 122, 161 1
87, 111, 153 1
83, 107, 149 1
82, 104, 146 1
79, 98, 141 1
73, 92, 135 1
61, 83, 125 1
67, 88, 133 1
84, 107, 153 1
98, 121, 169 1
104, 128, 180 1
112, 136, 194 1
110, 135, 191 1
103, 129, 183 1
101, 128, 179 1
100, 127, 177 1
104, 128, 174 1
107, 125, 166 1
103, 120, 159 1
100, 115, 154 1
101, 113, 149 1
98, 108, 142 1
96, 107, 137 1
94, 106, 134 1
87, 105, 128 1
82, 103, 124 1
80, 104, 122 1
81, 106, 122 1
43, 67, 73 1
67, 91, 97 1
87, 114, 141 1
110, 137, 164 1
128, 156, 186 1
142, 171, 202 1
148, 178, 213 1
146, 178, 219 1
145, 177, 220 1
142, 173, 218 1
137, 168, 213 1
133, 164, 209 1
131, 164, 209 1
130, 163, 208 1
127, 160, 205 1
121, 156, 200 1
117, 152, 196 1
123, 150, 201 1
143, 163, 210 1
118, 136, 177 1
59, 83, 103 1
66, 90, 110 1
81, 102, 123 1
84, 105, 127 1
78, 98, 123 1
63, 80, 107 1
37, 54, 81 1
29, 46, 67 1
45, 63, 80 1
65, 83, 100 1
81, 96, 115 1
82, 96, 118 1
67, 91, 111 1
69, 92, 114 1
72, 93, 125 1
65, 84, 121 1
63, 85, 126 1
71, 96, 136 1
80, 104, 146 1
92, 117, 161 1
106, 133, 183 1
112, 138, 192 1
121, 148, 205 1
115, 140, 196 1
107, 132, 188 1
98, 124, 178 1
97, 121, 175 1
101, 125, 177 1
100, 123, 171 1
93, 117, 163 1
97, 123, 163 1
96, 122, 162 1
88, 112, 154 1
87, 109, 151 1
85, 107, 149 1
84, 103, 146 1
69, 88, 131 1
56, 75, 118 1
59, 80, 125 1
79, 102, 148 1
100, 124, 176 1
111, 135, 189 1
108, 136, 190 1
107, 135, 189 1
106, 133, 184 1
103, 130, 181 1
101, 128, 178 1
100, 128, 175 1
104, 131, 175 1
108, 133, 177 1
110, 135, 179 1
106, 126, 167 1
103, 122, 160 1
102, 118, 155 1
100, 114, 150 1
98, 110, 144 1
97, 108, 138 1
93, 107, 135 1
87, 108, 130 1
82, 106, 126 1
82, 108, 125 1
84, 110, 126 1
39, 61, 67 1
60, 82, 88 1
104, 128, 156 1
123, 149, 179 1
136, 164, 198 1
142, 172, 207 1
141, 173, 216 1
139, 170, 215 1
134, 164, 211 1
131, 161, 208 1
126, 159, 205 1
121, 154, 199 1
118, 151, 196 1
119, 145, 199 1
141, 161, 208 1
132, 151, 194 1
114, 132, 173 1
55, 77, 102 1
56, 80, 100 1
78, 99, 120 1
83, 104, 126 1
22, 39, 65 1
19, 36, 57 1
26, 43, 62 1
36, 53, 72 1
46, 63, 82 1
53, 67, 89 1
58, 72, 95 1
53, 74, 96 1
53, 76, 98 1
66, 87, 115 1
66, 87, 119 1
63, 83, 118 1
59, 81, 117 1
63, 84, 122 1
71, 93, 134 1
79, 104, 144 1
111, 137, 191 1
120, 147, 204 1
119, 143, 201 1
103, 128, 184 1
95, 121, 175 1
99, 123, 175 1
100, 125, 175 1
98, 123, 173 1
94, 117, 165 1
98, 122, 168 1
94, 118, 160 1
91, 113, 155 1
89, 111, 153 1
90, 109, 152 1
87, 106, 149 1
83, 102, 145 1
67, 86, 129 1
49, 68, 111 1
53, 74, 119 1
79, 99, 146 1
105, 135, 184 1
100, 130, 177 1
99, 128, 173 1
99, 129, 170 1
104, 132, 173 1
106, 134, 175 1
107, 135, 176 1
109, 137, 178 1
109, 136, 180 1
108, 135, 179 1
107, 134, 178 1
101, 119, 156 1
100, 116, 152 1
98, 113, 145 1
95, 111, 140 1
85, 108, 130 1
79, 106, 126 1
79, 109, 126 1
83, 111, 128 1
41, 60, 67 1
59, 78, 85 1
77, 100, 126 1
119, 145, 175 1
132, 159, 193 1
139, 166, 203 1
139, 168, 207 1
140, 169, 214 1
136, 166, 213 1
135, 162, 212 1
129, 159, 208 1
131, 158, 209 1
112, 130, 171 1
88, 107, 145 1
61, 83, 108 1
49, 72, 94 1
58, 80, 98 1
74, 96, 114 1
80, 101, 122 1
36, 53, 80 1
19, 36, 62 1
13, 29, 52 1
14, 31, 52 1
20, 37, 58 1
27, 43, 66 1
40, 54, 82 1
39, 59, 84 1
41, 61, 86 1
54, 75, 103 1
61, 82, 114 1
61, 81, 116 1
65, 87, 123 1
91, 115, 157 1
100, 124, 170 1
116, 140, 198 1
102, 126, 180 1
99, 123, 177 1
97, 121, 173 1
94, 119, 169 1
92, 115, 165 1
96, 119, 167 1
103, 126, 174 1
96, 118, 160 1
94, 113, 156 1
92, 111, 154 1
86, 104, 145 1
70, 87, 130 1
46, 65, 108 1
53, 72, 117 1
80, 100, 147 1
97, 117, 165 1
103, 124, 179 1
105, 132, 182 1
97, 127, 168 1
102, 132, 173 1
104, 134, 175 1
107, 136, 180 1
105, 134, 178 1
96, 113, 146 1
75, 104, 125 1
75, 107, 126 1
80, 110, 127 1
41, 61, 66 1
55, 75, 80 1
71, 92, 119 1
94, 116, 144 1
114, 138, 168 1
126, 153, 187 1
134, 161, 198 1
134, 162, 203 1
136, 163, 213 1
128, 155, 206 1
120, 150, 197 1
118, 148, 195 1
117, 144, 201 1
125, 154, 205 1
111, 129, 170 1
88, 105, 144 1
45, 66, 88 1
42, 63, 84 1
50, 72, 90 1
76, 97, 118 1
74, 94, 119 1
21, 38, 64 1
12, 30, 53 1
15, 32, 53 1
20, 36, 59 1
26, 41, 67 1
32, 46, 74 1
39, 53, 82 1
38, 57, 84 1
40, 58, 87 1
48, 66, 95 1
55, 73, 104 1
57, 77, 108 1
62, 83, 115 1
67, 90, 122 1
113, 138, 194 1
109, 134, 190 1
101, 125, 179 1
94, 118, 170 1
91, 115, 167 1
106, 129, 177 1
107, 130, 178 1
103, 123, 170 1
96, 115, 160 1
98, 115, 158 1
88, 106, 147 1
72, 89, 132 1
48, 65, 108 1
52, 71, 116 1
81, 99, 146 1
104, 124, 179 1
111, 131, 186 1
105, 130, 180 1
97, 126, 170 1
100, 129, 173 1
103, 132, 176 1
106, 135, 180 1
94, 113, 146 1
76, 105, 126 1
74, 106, 125 1
80, 110, 129 1
38, 57, 62 1
50, 69, 74 1
84, 107, 133 1
105, 129, 159 1
120, 145, 179 1
129, 156, 193 1
132, 161, 212 1
130, 158, 212 1
123, 152, 203 1
121, 151, 200 1
120, 150, 199 1
116, 149, 195 1
136, 160, 212 1
139, 159, 206 1
113, 131, 172 1
91, 108, 147 1
62, 82, 107 1
35, 56, 77 1
40, 62, 80 1
56, 78, 96 1
67, 88, 109 1
70, 91, 113 1
43, 60, 87 1
26, 43, 70 1
18, 35, 61 1
19, 37, 60 1
24, 41, 67 1
28, 45, 72 1
31, 46, 78 1
36, 51, 84 1
39, 57, 88 1
42, 60, 91 1
52, 70, 101 1
59, 77, 108 1
63, 81, 112 1
63, 83, 114 1
72, 93, 124 1
80, 103, 135 1
87, 112, 146 1
97, 120, 158 1
115, 136, 191 1
109, 132, 188 1
103, 127, 181 1
96, 120, 174 1
92, 116, 168 1
95, 117, 169 1
97, 119, 171 1
101, 124, 174 1
104, 127, 177 1
107, 124, 173 1
102, 120, 167 1
100, 116, 163 1
101, 118, 161 1
100, 117, 160 1
51, 67, 113 1
51, 69, 116 1
78, 95, 144 1
97, 116, 167 1
103, 121, 174 1
105, 122, 178 1
105, 128, 178 1
99, 122, 172 1
99, 122, 170 1
95, 122, 166 1
94, 121, 165 1
100, 126, 172 1
106, 134, 181 1
98, 116, 153 1
94, 113, 148 1
78, 107, 128 1
84, 111, 131 1
33, 52, 55 1
42, 61, 66 1
53, 75, 100 1
97, 121, 149 1
113, 141, 172 1
124, 153, 190 1
128, 158, 199 1
130, 161, 206 1
128, 160, 209 1
128, 159, 212 1
126, 157, 210 1
124, 155, 208 1
122, 153, 206 1
120, 151, 202 1
118, 149, 200 1
116, 147, 200 1
140, 160, 208 1
100, 117, 156 1
69, 88, 115 1
45, 65, 90 1
31, 52, 73 1
32, 54, 72 1
46, 68, 86 1
55, 76, 97 1
62, 83, 105 1
60, 77, 103 1
44, 61, 88 1
30, 47, 74 1
26, 43, 69 1
30, 47, 73 1
35, 52, 79 1
38, 53, 85 1
39, 54, 87 1
42, 55, 93 1
42, 59, 92 1
57, 74, 107 1
64, 82, 113 1
68, 86, 117 1
68, 89, 117 1
78, 100, 128 1
116, 138, 186 1
119, 140, 195 1
122, 142, 200 1
124, 143, 204 1
108, 131, 187 1
87, 111, 165 1
88, 110, 162 1
91, 113, 165 1
112, 128, 181 1
107, 123, 176 1
103, 120, 171 1
99, 115, 161 1
103, 120, 163 1
80, 96, 142 1
54, 70, 116 1
48, 66, 113 1
72, 89, 140 1
97, 113, 166 1
102, 120, 173 1
102, 119, 175 1
109, 126, 182 1
102, 123, 174 1
99, 120, 171 1
96, 117, 168 1
97, 119, 167 1
99, 121, 169 1
100, 123, 169 1
93, 118, 162 1
97, 123, 169 1
101, 120, 163 1
99, 116, 159 1
97, 113, 155 1
93, 110, 149 1
90, 109, 144 1
88, 107, 140 1
85, 108, 134 1
88, 111, 133 1
29, 48, 51 1
43, 66, 88 1
66, 90, 114 1
85, 112, 138 1
104, 132, 162 1
117, 147, 182 1
121, 153, 194 1
122, 155, 200 1
121, 154, 203 1
122, 155, 205 1
121, 153, 206 1
120, 152, 205 1
120, 151, 204 1
114, 147, 196 1
115, 146, 199 1
119, 151, 200 1
139, 160, 211 1
139, 159, 207 1
127, 144, 187 1
109, 127, 168 1
30, 50, 68 1
40, 60, 78 1
49, 68, 89 1
59, 77, 100 1
57, 74, 100 1
50, 67, 94 1
41, 60, 87 1
46, 64, 93 1
45, 61, 98 1
46, 61, 100 1
51, 67, 104 1
54, 70, 106 1
63, 79, 115 1
68, 85, 118 1
71, 89, 120 1
75, 96, 124 1
82, 104, 132 1
117, 140, 185 1
122, 144, 192 1
124, 145, 200 1
128, 148, 206 1
110, 133, 189 1
99, 122, 178 1
91, 114, 170 1
86, 110, 164 1
81, 102, 157 1
80, 101, 156 1
82, 103, 158 1
87, 109, 161 1
95, 116, 168 1
111, 126, 182 1
107, 122, 178 1
103, 119, 172 1
99, 115, 162 1
104, 120, 166 1
81, 97, 143 1
52, 70, 117 1
43, 60, 109 1
66, 83, 134 1
104, 121, 177 1
101, 120, 171 1
95, 118, 164 1
95, 118, 163 1
92, 117, 159 1
90, 115, 157 1
100, 125, 169 1
102, 129, 173 1
105, 123, 170 1
96, 112, 155 1
92, 108, 150 1
90, 108, 145 1
88, 107, 142 1
85, 105, 136 1
90, 108, 131 1
32, 51, 54 1
39, 65, 82 1
53, 80, 100 1
70, 98, 122 1
87, 117, 144 1
106, 139, 172 1
115, 151, 187 1
117, 152, 195 1
116, 152, 198 1
118, 154, 202 1
117, 152, 202 1
117, 151, 204 1
118, 150, 203 1
114, 147, 197 1
113, 146, 195 1
110, 143, 192 1
112, 139, 195 1
118, 150, 199 1
122, 154, 203 1
125, 157, 206 1
130, 159, 210 1
141, 162, 214 1
141, 161, 209 1
138, 156, 203 1
94, 110, 139 1
36, 54, 77 1
31, 50, 71 1
34, 54, 72 1
43, 62, 83 1
49, 67, 90 1
53, 70, 96 1
48, 67, 94 1
51, 70, 97 1
55, 73, 102 1
54, 71, 104 1
51, 66, 105 1
50, 64, 106 1
55, 70, 109 1
59, 75, 112 1
64, 80, 116 1
71, 88, 121 1
77, 97, 128 1
118, 141, 179 1
128, 150, 198 1
123, 148, 204 1
122, 145, 201 1
116, 139, 195 1
105, 128, 184 1
92, 115, 171 1
87, 110, 166 1
86, 109, 165 1
84, 104, 161 1
81, 101, 158 1
73, 94, 149 1
70, 90, 145 1
75, 95, 150 1
85, 105, 160 1
95, 115, 170 1
100, 121, 173 1
98, 119, 171 1
101, 115, 173 1
102, 116, 174 1
98, 115, 164 1
100, 118, 165 1
80, 98, 145 1
57, 74, 123 1
44, 61, 112 1
54, 70, 123 1
80, 96, 149 1
98, 114, 167 1
100, 116, 169 1
93, 115, 163 1
91, 114, 160 1
90, 113, 158 1
89, 112, 157 1
85, 111, 151 1
99, 127, 168 1
102, 130, 171 1
99, 126, 170 1
101, 119, 166 1
95, 111, 157 1
89, 105, 147 1
88, 105, 131 1
32, 52, 53 1
37, 57, 58 1
36, 61, 77 1
47, 73, 90 1
60, 90, 109 1
77, 108, 133 1
96, 130, 159 1
109, 146, 180 1
115, 152, 190 1
117, 155, 197 1
118, 154, 200 1
115, 150, 200 1
111, 147, 195 1
115, 144, 195 1
116, 146, 195 1
117, 147, 196 1
123, 155, 204 1
128, 157, 208 1
139, 161, 213 1
138, 159, 210 1
116, 135, 178 1
38, 55, 81 1
28, 47, 68 1
28, 48, 66 1
37, 56, 77 1
44, 62, 85 1
54, 74, 99 1
55, 75, 100 1
57, 77, 102 1
60, 79, 106 1
62, 80, 109 1
58, 77, 112 1
54, 71, 110 1
53, 69, 111 1
62, 79, 118 1
68, 86, 123 1
77, 96, 131 1
96, 117, 148 1
132, 154, 202 1
133, 155, 207 1
104, 127, 183 1
99, 119, 176 1
95, 115, 172 1
88, 108, 165 1
77, 97, 154 1
68, 87, 144 1
66, 86, 141 1
72, 92, 147 1
83, 103, 158 1
91, 112, 164 1
92, 113, 165 1
95, 109, 168 1
96, 110, 168 1
97, 112, 168 1
95, 112, 163 1
95, 112, 161 1
83, 100, 149 1
61, 78, 127 1
45, 62, 113 1
48, 64, 117 1
70, 86, 139 1
93, 109, 162 1
96, 113, 164 1
93, 116, 166 1
90, 113, 161 1
87, 111, 157 1
86, 111, 155 1
87, 112, 156 1
84, 111, 148 1
85, 112, 149 1
89, 115, 155 1
96, 125, 164 1
94, 123, 162 1
95, 114, 157 1
92, 111, 149 1
87, 106, 139 1
94, 105, 125 1
31, 49, 50 1
35, 55, 56 1
33, 59, 71 1
41, 68, 82 1
56, 84, 101 1
73, 104, 125 1
88, 124, 148 1
104, 140, 170 1
111, 149, 183 1
112, 151, 189 1
113, 151, 193 1
114, 151, 195 1
114, 150, 196 1
113, 149, 195 1
114, 141, 191 1
117, 144, 194 1
118, 146, 193 1
116, 146, 193 1
122, 155, 201 1
135, 157, 205 1
119, 140, 185 1
108, 120, 156 1
44, 58, 86 1
25, 44, 65 1
39, 57, 80 1
52, 72, 97 1
56, 76, 101 1
61, 81, 106 1
64, 86, 111 1
65, 86, 114 1
63, 82, 117 1
60, 77, 116 1
60, 76, 119 1
65, 81, 123 1
69, 86, 125 1
75, 93, 130 1
84, 103, 138 1
111, 133, 169 1
119, 141, 182 1
138, 161, 211 1
115, 139, 193 1
108, 128, 185 1
112, 132, 190 1
109, 129, 187 1
101, 121, 179 1
89, 107, 166 1
66, 85, 142 1
65, 85, 140 1
74, 94, 149 1
88, 106, 159 1
90, 104, 162 1
92, 107, 163 1
91, 108, 159 1
93, 111, 158 1
82, 99, 148 1
64, 81, 132 1
46, 60, 112 1
60, 74, 126 1
86, 101, 150 1
98, 113, 162 1
98, 114, 161 1
94, 116, 168 1
88, 111, 161 1
82, 105, 153 1
80, 104, 150 1
82, 107, 151 1
85, 110, 152 1
86, 112, 152 1
80, 106, 146 1
81, 108, 145 1
93, 119, 156 1
91, 110, 148 1
89, 108, 145 1
87, 107, 142 1
92, 110, 133 1
92, 107, 126 1
86, 96, 113 1
26, 44, 43 1
30, 48, 47 1
34, 56, 67 1
38, 62, 74 1
51, 78, 92 1
68, 98, 115 1
84, 117, 137 1
109, 147, 177 1
113, 151, 185 1
116, 153, 191 1
117, 153, 193 1
118, 153, 196 1
115, 150, 194 1
113, 146, 191 1
112, 145, 190 1
110, 143, 188 1
109, 142, 187 1
116, 142, 189 1
116, 148, 191 1
129, 157, 211 1
130, 152, 200 1
120, 143, 189 1
110, 121, 159 1
78, 90, 126 1
50, 64, 93 1
26, 42, 65 1
26, 45, 66 1
36, 57, 79 1
49, 70, 92 1
56, 79, 101 1
63, 85, 110 1
67, 86, 119 1
66, 85, 123 1
67, 85, 126 1
72, 90, 131 1
76, 94, 135 1
81, 100, 138 1
95, 114, 151 1
114, 136, 177 1
140, 163, 211 1
142, 165, 213 1
142, 167, 217 1
143, 168, 218 1
144, 169, 219 1
138, 164, 211 1
112, 132, 189 1
118, 138, 196 1
121, 141, 199 1
119, 138, 199 1
112, 130, 191 1
103, 121, 182 1
90, 108, 167 1
69, 86, 142 1
71, 88, 144 1
79, 97, 150 1
83, 101, 154 1
88, 103, 159 1
88, 105, 156 1
87, 104, 153 1
88, 107, 152 1
93, 112, 157 1
97, 116, 161 1
98, 116, 163 1
84, 99, 148 1
69, 84, 133 1
56, 70, 122 1
48, 62, 111 1
51, 65, 114 1
69, 84, 130 1
89, 102, 146 1
98, 111, 155 1
86, 106, 161 1
88, 109, 161 1
87, 108, 159 1
82, 104, 152 1
78, 101, 147 1
75, 98, 143 1
74, 96, 138 1
70, 92, 133 1
72, 95, 133 1
77, 99, 135 1
83, 105, 140 1
86, 108, 143 1
99, 119, 154 1
96, 114, 145 1
97, 115, 144 1
96, 115, 142 1
96, 116, 141 1
93, 114, 136 1
92, 111, 132 1
91, 107, 124 1
80, 93, 107 1
65, 73, 86 1
25, 41, 40 1
26, 42, 41 1
31, 50, 57 1
35, 56, 64 1
47, 72, 82 1
64, 91, 105 1
75, 108, 124 1
101, 137, 161 1
106, 143, 171 1
111, 149, 181 1
113, 149, 185 1
116, 149, 188 1
114, 146, 187 1
116, 145, 189 1
115, 144, 189 1
114, 143, 188 1
116, 140, 186 1
116, 147, 192 1
132, 156, 210 1
130, 154, 206 1
120, 143, 191 1
114, 123, 166 1
87, 98, 136 1
60, 73, 105 1
41, 55, 83 1
26, 44, 67 1
30, 51, 73 1
35, 56, 78 1
52, 75, 97 1
64, 87, 113 1
67, 88, 120 1
70, 89, 126 1
74, 92, 133 1
76, 96, 137 1
81, 101, 142 1
86, 107, 145 1
138, 161, 209 1
145, 168, 218 1
147, 173, 220 1
148, 174, 221 1
146, 175, 220 1
142, 168, 214 1
121, 141, 198 1
123, 142, 203 1
122, 140, 203 1
117, 134, 197 1
101, 119, 180 1
83, 101, 160 1
67, 84, 140 1
63, 81, 134 1
71, 90, 141 1
77, 96, 147 1
87, 101, 154 1
86, 100, 152 1
85, 100, 149 1
84, 100, 146 1
85, 102, 145 1
90, 107, 150 1
89, 105, 152 1
72, 86, 135 1
60, 74, 123 1
53, 65, 113 1
47, 60, 106 1
55, 67, 109 1
71, 83, 123 1
88, 101, 139 1
85, 102, 153 1
86, 103, 152 1
85, 101, 148 1
79, 95, 141 1
77, 95, 132 1
77, 93, 129 1
77, 95, 126 1
75, 91, 120 1
67, 83, 112 1
60, 74, 102 1
54, 68, 96 1
55, 69, 97 1
62, 76, 104 1
71, 83, 111 1
79, 93, 112 1
88, 102, 121 1
98, 112, 131 1
102, 117, 136 1
103, 119, 136 1
98, 114, 131 1
88, 104, 120 1
80, 96, 109 1
50, 61, 69 1
43, 49, 56 1
27, 43, 49 1
29, 47, 54 1
38, 59, 67 1
51, 76, 86 1
61, 90, 104 1
73, 106, 122 1
107, 141, 170 1
111, 144, 177 1
112, 144, 179 1
113, 142, 181 1
115, 143, 184 1
114, 142, 183 1
111, 143, 186 1
113, 144, 189 1
114, 147, 193 1
116, 147, 198 1
123, 151, 205 1
125, 152, 208 1
128, 154, 208 1
122, 128, 173 1
99, 107, 147 1
53, 67, 96 1
38, 53, 79 1
28, 46, 69 1
28, 49, 71 1
40, 64, 84 1
55, 78, 100 1
60, 83, 109 1
72, 91, 128 1
78, 96, 137 1
80, 100, 141 1
91, 114, 152 1
100, 122, 163 1
119, 141, 189 1
140, 163, 213 1
148, 173, 223 1
147, 175, 222 1
148, 177, 222 1
148, 177, 221 1
144, 171, 215 1
130, 156, 202 1
123, 141, 204 1
124, 141, 204 1
123, 139, 205 1
119, 136, 199 1
108, 126, 187 1
86, 102, 161 1
58, 75, 131 1
48, 66, 119 1
60, 79, 130 1
73, 93, 141 1
84, 98, 147 1
83, 99, 146 1
83, 99, 145 1
82, 99, 142 1
82, 100, 141 1
87, 105, 146 1
92, 110, 151 1
94, 111, 154 1
91, 106, 152 1
75, 89, 137 1
64, 76, 124 1
58, 68, 115 1
50, 62, 104 1
50, 61, 99 1
58, 70, 106 1
84, 96, 138 1
88, 100, 140 1
89, 102, 140 1
87, 99, 135 1
82, 94, 128 1
80, 91, 121 1
75, 86, 113 1
68, 80, 104 1
61, 72, 92 1
55, 65, 83 1
42, 52, 69 1
33, 41, 58 1
26, 35, 49 1
25, 32, 47 1
27, 34, 49 1
31, 38, 53 1
45, 49, 60 1
53, 63, 73 1
52, 63, 71 1
49, 60, 68 1
40, 42, 43 1
26, 39, 37 1
28, 40, 40 1
29, 41, 45 1
28, 42, 48 1
27, 45, 52 1
30, 53, 61 1
39, 65, 77 1
52, 81, 96 1
71, 103, 122 1
92, 124, 147 1
101, 134, 160 1
108, 139, 170 1
114, 142, 176 1
113, 137, 179 1
113, 136, 181 1
114, 140, 180 1
111, 140, 179 1
110, 141, 180 1
110, 140, 181 1
110, 142, 185 1
111, 144, 190 1
114, 145, 196 1
118, 149, 202 1
120, 147, 203 1
124, 148, 200 1
124, 130, 177 1
105, 112, 155 1
86, 95, 132 1
66, 80, 109 1
50, 65, 91 1
37, 55, 78 1
32, 53, 75 1
37, 58, 80 1
41, 65, 85 1
48, 72, 92 1
52, 76, 98 1
57, 81, 105 1
75, 94, 131 1
81, 102, 140 1
90, 112, 153 1
96, 119, 157 1
99, 121, 162 1
114, 136, 184 1
143, 167, 219 1
144, 171, 221 1
145, 174, 219 1
144, 172, 213 1
135, 162, 206 1
126, 147, 202 1
127, 147, 205 1
125, 143, 206 1
48, 65, 121 1
33, 51, 104 1
46, 65, 116 1
65, 85, 133 1
79, 93, 141 1
80, 95, 141 1
81, 97, 140 1
81, 97, 139 1
81, 98, 137 1
84, 101, 140 1
87, 103, 145 1
87, 103, 146 1
89, 102, 148 1
80, 93, 139 1
73, 83, 130 1
65, 74, 118 1
57, 67, 107 1
50, 59, 96 1
47, 56, 89 1
55, 65, 95 1
74, 82, 112 1
87, 95, 124 1
100, 109, 136 1
105, 112, 137 1
99, 108, 128 1
85, 92, 111 1
64, 71, 86 1
29, 35, 40 1
27, 32, 35 1
28, 32, 33 1
30, 34, 35 1
35, 37, 37 1
38, 40, 40 1
40, 42, 42 1
33, 32, 34 1
34, 33, 35 1
32, 34, 35 1
29, 32, 36 1
29, 34, 37 1
31, 36, 39 1
30, 37, 40 1
32, 37, 38 1
40, 44, 45 1
45, 45, 45 1
49, 45, 44 1
24, 37, 35 1
28, 41, 39 1
30, 41, 45 1
31, 43, 47 1
28, 44, 50 1
27, 49, 55 1
30, 55, 65 1
31, 60, 74 1
44, 74, 91 1
61, 92, 113 1
94, 124, 153 1
112, 134, 176 1
112, 137, 177 1
110, 136, 176 1
106, 138, 181 1
107, 140, 186 1
109, 140, 191 1
113, 143, 198 1
119, 146, 202 1
120, 146, 200 1
112, 139, 190 1
127, 133, 180 1
113, 120, 163 1
99, 108, 145 1
81, 95, 124 1
52, 70, 93 1
45, 63, 86 1
40, 61, 82 1
44, 68, 88 1
52, 77, 97 1
59, 83, 107 1
69, 90, 121 1
79, 101, 136 1
91, 113, 154 1
110, 135, 175 1
117, 140, 186 1
118, 141, 189 1
128, 149, 204 1
140, 164, 216 1
140, 167, 217 1
142, 171, 216 1
143, 172, 216 1
127, 145, 208 1
114, 131, 194 1
43, 60, 116 1
22, 40, 93 1
36, 56, 104 1
57, 77, 125 1
73, 88, 134 1
77, 93, 135 1
79, 96, 135 1
78, 94, 136 1
84, 97, 143 1
87, 97, 144 1
80, 90, 137 1
68, 77, 120 1
60, 69, 107 1
46, 55, 89 1
32, 42, 72 1
32, 43, 71 1
40, 46, 69 1
50, 57, 77 1
59, 65, 84 1
61, 68, 85 1
61, 67, 80 1
56, 61, 70 1
43, 49, 54 1
32, 37, 40 1
41, 46, 45 1
39, 42, 40 1
38, 40, 34 1
39, 39, 33 1
38, 39, 30 1
40, 38, 30 1
40, 39, 29 1
41, 39, 29 1
40, 35, 34 1
41, 36, 35 1
41, 37, 36 1
40, 38, 37 1
38, 38, 38 1
34, 36, 36 1
32, 34, 34 1
38, 39, 37 1
47, 43, 42 1
34, 45, 37 1
37, 48, 40 1
39, 49, 43 1
40, 50, 44 1
39, 50, 47 1
41, 52, 50 1
45, 58, 60 1
61, 75, 81 1
72, 90, 97 1
94, 112, 123 1
109, 131, 143 1
117, 143, 157 1
119, 145, 161 1
116, 144, 161 1
111, 141, 160 1
115, 138, 164 1
108, 132, 162 1
107, 132, 164 1
111, 136, 170 1
116, 143, 180 1
116, 142, 182 1
115, 140, 182 1
117, 142, 186 1
115, 138, 186 1
118, 130, 178 1
114, 126, 174 1
106, 119, 165 1
97, 109, 151 1
87, 97, 137 1
76, 88, 124 1
69, 79, 113 1
64, 75, 107 1
58, 69, 101 1
57, 70, 102 1
58, 73, 106 1
60, 76, 112 1
67, 85, 122 1
80, 99, 137 1
93, 113, 154 1
94, 124, 159 1
106, 136, 171 1
117, 145, 180 1
121, 147, 183 1
122, 148, 185 1
114, 139, 179 1
119, 145, 192 1
122, 148, 202 1
136, 161, 217 1
141, 165, 219 1
144, 166, 218 1
146, 165, 216 1
147, 167, 215 1
148, 165, 214 1
143, 160, 209 1
134, 153, 204 1
125, 145, 200 1
123, 142, 199 1
129, 150, 211 1
128, 149, 210 1
84, 105, 156 1
41, 61, 108 1
21, 40, 83 1
34, 53, 91 1
56, 75, 112 1
70, 86, 133 1
76, 92, 138 1
70, 85, 124 1
72, 88, 124 1
78, 93, 125 1
77, 93, 122 1
74, 91, 117 1
86, 102, 125 1
94, 105, 127 1
82, 89, 109 1
64, 65, 85 1
49, 45, 64 1
42, 34, 51 1
39, 29, 46 1
51, 39, 39 1
40, 40, 40 1
44, 46, 46 1
40, 46, 41 1
42, 48, 43 1
45, 50, 49 1
48, 53, 56 1
38, 44, 49 1
39, 49, 56 1
75, 91, 103 1
95, 112, 125 1
111, 130, 143 1
118, 140, 152 1
108, 132, 152 1
113, 136, 158 1
116, 138, 163 1
114, 137, 163 1
112, 136, 164 1
112, 136, 166 1
110, 135, 167 1
108, 136, 167 1
111, 138, 172 1
107, 135, 170 1
109, 135, 175 1
116, 131, 177 1
112, 127, 173 1
109, 122, 166 1
105, 119, 161 1
102, 114, 154 1
93, 107, 143 1
80, 95, 128 1
68, 83, 115 1
70, 85, 118 1
72, 89, 122 1
75, 94, 129 1
79, 98, 135 1
86, 105, 142 1
93, 114, 152 1
99, 120, 158 1
98, 129, 162 1
115, 143, 177 1
126, 154, 188 1
131, 158, 192 1
131, 157, 194 1
116, 143, 199 1
145, 164, 215 1
146, 163, 214 1
141, 158, 209 1
132, 150, 203 1
124, 143, 200 1
120, 138, 197 1
121, 140, 201 1
126, 144, 207 1
130, 149, 210 1
124, 144, 202 1
86, 105, 156 1
43, 61, 108 1
22, 41, 84 1
35, 53, 94 1
56, 75, 113 1
69, 85, 131 1
76, 90, 132 1
72, 85, 123 1
72, 85, 117 1
71, 85, 113 1
69, 82, 108 1
66, 80, 102 1
70, 84, 103 1
72, 84, 102 1
68, 78, 95 1
60, 65, 80 1
49, 50, 64 1
44, 40, 52 1
43, 34, 47 1
42, 32, 44 1
48, 36, 36 1
50, 38, 34 1
48, 46, 46 1
51, 51, 51 1
49, 46, 48 1
46, 45, 47 1
41, 42, 46 1
39, 45, 50 1
47, 56, 60 1
58, 69, 73 1
66, 77, 81 1
73, 92, 105 1
83, 102, 117 1
95, 113, 130 1
103, 123, 141 1
107, 128, 149 1
110, 133, 155 1
115, 139, 163 1
118, 143, 169 1
117, 142, 168 1
118, 145, 172 1
115, 141, 171 1
110, 138, 169 1
113, 140, 174 1
108, 134, 174 1
117, 133, 175 1
114, 130, 172 1
107, 124, 163 1
103, 121, 158 1
96, 115, 150 1
89, 105, 141 1
79, 98, 131 1
81, 100, 133 1
86, 105, 140 1
90, 110, 145 1
108, 138, 167 1
124, 154, 183 1
143, 171, 201 1
153, 179, 209 1
156, 181, 213 1
147, 171, 207 1
124, 149, 193 1
135, 156, 208 1
144, 159, 215 1
140, 155, 211 1
133, 150, 207 1
128, 144, 203 1
126, 144, 209 1
132, 150, 215 1
120, 138, 199 1
113, 130, 187 1
45, 62, 111 1
26, 42, 88 1
37, 54, 97 1
73, 89, 131 1
77, 92, 131 1
77, 90, 128 1
74, 85, 117 1
65, 76, 104 1
54, 65, 87 1
48, 58, 76 1
36, 45, 58 1
36, 45, 55 1
36, 39, 47 1
44, 38, 43 1
47, 38, 41 1
49, 38, 41 1
57, 53, 52 1
59, 54, 55 1
58, 49, 52 1
57, 49, 50 1
58, 47, 49 1
59, 48, 50 1
59, 49, 49 1
58, 48, 48 1
57, 48, 45 1
54, 47, 44 1
47, 46, 42 1
43, 44, 40 1
41, 42, 38 1
30, 42, 46 1
35, 47, 53 1
40, 53, 61 1
53, 69, 81 1
63, 80, 93 1
75, 94, 109 1
84, 104, 121 1
88, 110, 128 1
99, 123, 143 1
116, 140, 162 1
123, 147, 171 1
119, 144, 170 1
122, 146, 174 1
121, 145, 175 1
114, 137, 169 1
117, 137, 172 1
110, 130, 165 1
98, 118, 153 1
131, 157, 181 1
159, 184, 210 1
172, 196, 224 1
162, 186, 216 1
153, 178, 212 1
122, 149, 199 1
119, 144, 200 1
129, 152, 208 1
133, 156, 212 1
143, 157, 216 1
138, 154, 213 1
135, 150, 212 1
132, 147, 210 1
134, 150, 216 1
130, 146, 212 1
117, 132, 194 1
107, 123, 182 1
86, 101, 157 1
31, 47, 94 1
40, 55, 101 1
58, 74, 117 1
78, 90, 130 1
80, 91, 129 1
69, 77, 106 1
58, 64, 87 1
44, 48, 66 1
37, 41, 52 1
41, 44, 52 1
30, 33, 38 1
31, 35, 36 1
35, 35, 35 1
39, 37, 36 1
44, 39, 36 1
50, 41, 38 1
56, 41, 38 1
61, 53, 54 1
62, 51, 53 1
60, 49, 51 1
60, 48, 48 1
59, 47, 47 1
61, 48, 46 1
62, 49, 47 1
62, 50, 46 1
60, 49, 41 1
57, 50, 41 1
58, 53, 44 1
40, 43, 41 1
41, 44, 42 1
40, 45, 44 1
42, 47, 48 1
44, 51, 54 1
45, 54, 58 1
74, 90, 102 1
87, 104, 117 1
101, 120, 135 1
122, 142, 159 1
134, 153, 174 1
134, 152, 175 1
132, 153, 175 1
124, 145, 172 1
119, 140, 167 1
110, 132, 160 1
110, 131, 162 1
95, 116, 147 1
80, 101, 129 1
54, 78, 96 1
74, 98, 116 1
110, 134, 152 1
150, 174, 194 1
177, 199, 224 1
176, 200, 228 1
154, 179, 213 1
128, 155, 199 1
124, 151, 201 1
139, 154, 216 1
137, 152, 214 1
136, 151, 214 1
133, 147, 213 1
125, 141, 208 1
133, 149, 215 1
130, 145, 208 1
114, 129, 191 1
105, 119, 177 1
87, 103, 156 1
58, 72, 124 1
38, 54, 101 1
42, 57, 103 1
57, 73, 116 1
82, 93, 131 1
83, 92, 129 1
77, 85, 115 1
66, 70, 95 1
52, 53, 73 1
42, 39, 54 1
38, 35, 44 1
45, 40, 42 1
45, 41, 40 1
46, 41, 38 1
48, 42, 37 1
50, 42, 35 1
57, 44, 36 1
54, 38, 32 1
57, 41, 35 1
64, 52, 50 1
63, 51, 49 1
63, 50, 48 1
62, 47, 44 1
61, 46, 43 1
63, 47, 41 1
65, 46, 41 1
65, 51, 39 1
67, 53, 41 1
68, 54, 42 1
56, 49, 40 1
51, 45, 40 1
47, 45, 44 1
46, 46, 46 1
45, 47, 48 1
39, 44, 45 1
37, 44, 47 1
42, 51, 55 1
48, 58, 65 1
56, 67, 75 1
76, 85, 98 1
101, 112, 126 1
118, 129, 143 1
119, 137, 154 1
123, 143, 161 1
127, 146, 167 1
124, 145, 167 1
118, 139, 166 1
115, 137, 165 1
110, 134, 164 1
102, 125, 157 1
97, 118, 146 1
69, 84, 110 1
53, 69, 92 1
31, 49, 60 1
23, 41, 52 1
28, 46, 57 1
37, 54, 67 1
120, 138, 155 1
161, 182, 204 1
173, 194, 221 1
162, 185, 217 1
141, 166, 210 1
137, 162, 212 1
126, 152, 206 1
130, 154, 212 1
138, 153, 215 1
133, 150, 213 1
130, 147, 210 1
125, 143, 204 1
112, 128, 187 1
101, 118, 174 1
67, 82, 131 1
46, 62, 108 1
43, 59, 102 1
55, 71, 114 1
85, 94, 132 1
85, 94, 128 1
78, 81, 112 1
59, 58, 84 1
46, 42, 61 1
44, 36, 47 1
45, 35, 41 1
51, 38, 40 1
76, 51, 41 1
65, 47, 36 1
66, 48, 37 1
65, 48, 39 1
64, 48, 41 1
44, 38, 33 1
45, 40, 37 1
42, 38, 37 1
39, 37, 37 1
37, 36, 38 1
37, 38, 42 1
46, 46, 52 1
61, 60, 69 1
78, 91, 99 1
96, 111, 120 1
115, 131, 143 1
122, 138, 154 1
118, 138, 156 1
114, 135, 162 1
108, 129, 157 1
104, 122, 151 1
89, 104, 130 1
79, 92, 114 1
65, 76, 96 1
50, 60, 78 1
39, 47, 64 1
31, 40, 44 1
36, 45, 49 1
31, 41, 48 1
33, 44, 52 1
151, 168, 187 1
176, 196, 221 1
163, 184, 216 1
148, 171, 209 1
137, 160, 216 1
130, 155, 211 1
139, 157, 216 1
139, 157, 218 1
138, 156, 217 1
131, 150, 211 1
122, 140, 199 1
110, 129, 186 1
100, 118, 171 1
90, 107, 156 1
74, 92, 139 1
54, 71, 114 1
43, 61, 102 1
52, 70, 111 1
81, 88, 127 1
86, 92, 127 1
74, 76, 107 1
52, 48, 73 1
45, 35, 52 1
51, 37, 49 1
56, 41, 45 1
59, 41, 42 1
57, 38, 35 1
73, 51, 39 1
77, 53, 41 1
76, 52, 40 1
76, 49, 39 1
63, 47, 40 1
59, 46, 38 1
52, 41, 37 1
52, 42, 42 1
40, 48, 48 1
56, 63, 66 1
72, 81, 85 1
81, 92, 100 1
90, 102, 114 1
103, 118, 137 1
101, 115, 137 1
95, 109, 132 1
87, 100, 122 1
79, 90, 112 1
72, 79, 98 1
62, 66, 84 1
50, 53, 67 1
43, 43, 55 1
38, 39, 49 1
44, 45, 43 1
39, 41, 41 1
43, 47, 48 1
40, 44, 49 1
46, 53, 62 1
68, 77, 90 1
116, 130, 148 1
144, 159, 185 1
158, 176, 207 1
157, 176, 213 1
156, 178, 220 1
150, 173, 219 1
142, 165, 215 1
145, 167, 219 1
142, 161, 218 1
144, 163, 220 1
145, 164, 221 1
142, 162, 220 1
140, 160, 218 1
138, 158, 216 1
136, 156, 214 1
133, 153, 211 1
120, 140, 197 1
98, 119, 170 1
89, 109, 156 1
79, 98, 143 1
57, 76, 119 1
42, 62, 103 1
51, 70, 108 1
85, 91, 128 1
92, 96, 131 1
79, 79, 109 1
51, 45, 68 1
43, 31, 49 1
55, 38, 49 1
62, 42, 47 1
58, 36, 31 1
56, 37, 30 1
71, 48, 33 1
73, 47, 33 1
59, 42, 39 1
45, 42, 37 1
44, 43, 39 1
45, 46, 44 1
55, 59, 64 1
60, 67, 76 1
66, 74, 87 1
71, 78, 93 1
71, 78, 95 1
66, 71, 86 1
59, 62, 76 1
55, 55, 67 1
52, 48, 59 1
51, 44, 51 1
50, 43, 48 1
52, 43, 46 1
54, 45, 41 1
43, 42, 44 1
39, 43, 48 1
82, 90, 107 1
110, 123, 145 1
137, 151, 180 1
146, 162, 198 1
151, 170, 208 1
148, 167, 210 1
151, 172, 217 1
149, 167, 220 1
152, 173, 225 1
158, 178, 233 1
159, 179, 234 1
152, 172, 229 1
147, 167, 224 1
142, 165, 221 1
139, 162, 218 1
121, 142, 197 1
95, 116, 167 1
86, 109, 155 1
81, 102, 147 1
71, 91, 132 1
64, 85, 123 1
94, 99, 132 1
92, 95, 126 1
72, 71, 97 1
50, 43, 64 1
50, 37, 51 1
58, 39, 48 1
54, 45, 36 1
47, 42, 39 1
48, 43, 44 1
50, 46, 51 1
52, 50, 56 1
52, 51, 60 1
60, 57, 66 1
56, 53, 62 1
57, 50, 57 1
56, 49, 54 1
58, 47, 50 1
59, 45, 47 1
61, 45, 46 1
65, 47, 46 1
62, 46, 39 1
58, 46, 40 1
49, 44, 45 1
42, 41, 45 1
34, 35, 45 1
44, 49, 64 1
65, 72, 92 1
100, 111, 138 1
129, 143, 172 1
156, 171, 204 1
160, 176, 212 1
164, 181, 230 1
158, 175, 224 1
156, 173, 224 1
158, 177, 228 1
163, 184, 236 1
162, 183, 238 1
151, 172, 227 1
100, 123, 173 1
92, 115, 161 1
90, 111, 156 1
84, 104, 145 1
100, 104, 132 1
89, 90, 116 1
67, 65, 85 1
50, 43, 58 1
51, 37, 48 1
58, 38, 43 1
72, 45, 31 1
67, 48, 35 1
54, 42, 36 1
53, 44, 41 1
52, 44, 44 1
53, 45, 46 1
52, 44, 45 1
53, 42, 44 1
56, 44, 44 1
60, 45, 43 1
62, 44, 43 1
64, 43, 41 1
67, 45, 40 1
56, 44, 38 1
51, 43, 43 1
46, 41, 43 1
40, 38, 44 1
42, 44, 55 1
47, 52, 67 1
59, 66, 86 1
91, 101, 125 1
134, 145, 172 1
153, 167, 209 1
167, 181, 223 1
178, 194, 237 1
175, 191, 237 1
160, 177, 226 1
134, 156, 208 1
102, 124, 172 1
92, 112, 159 1
91, 109, 150 1
90, 107, 146 1
89, 106, 145 1
98, 102, 121 1
77, 79, 97 1
56, 53, 68 1
50, 41, 51 1
53, 39, 43 1
56, 38, 37 1
56, 37, 34 1
57, 37, 36 1
60, 40, 39 1
66, 47, 32 1
63, 44, 39 1
65, 45, 40 1
65, 54, 50 1
43, 38, 40 1
38, 40, 50 1
38, 41, 55 1
55, 60, 75 1
77, 86, 119 1
114, 123, 156 1
153, 165, 199 1
170, 183, 221 1
162, 178, 220 1
146, 165, 208 1
131, 153, 201 1
127, 149, 197 1
116, 139, 185 1
99, 118, 161 1
94, 112, 153 1
96, 113, 152 1
96, 112, 148 1
90, 104, 140 1
83, 84, 98 1
64, 62, 74 1
50, 45, 54 1
51, 42, 45 1
54, 40, 41 1
60, 41, 38 1
74, 47, 33 1
72, 46, 32 1
64, 51, 43 1
43, 38, 39 1
45, 44, 48 1
43, 43, 49 1
40, 44, 63 1
54, 59, 80 1
78, 86, 109 1
110, 121, 148 1
140, 153, 185 1
153, 169, 205 1
146, 165, 203 1
118, 138, 179 1
108, 128, 169 1
102, 120, 157 1
95, 111, 147 1
95, 108, 140 1
88, 99, 129 1
72, 82, 112 1
66, 62, 73 1
53, 48, 57 1
49, 39, 45 1
54, 41, 43 1
57, 39, 38 1
80, 48, 35 1
71, 48, 40 1
67, 44, 42 1
69, 47, 42 1
61, 42, 27 1
62, 43, 28 1
60, 41, 28 1
57, 39, 28 1
63, 50, 42 1
57, 46, 42 1
53, 46, 43 1
54, 49, 48 1
48, 48, 54 1
42, 44, 52 1
49, 56, 71 1
77, 88, 108 1
106, 122, 145 1
127, 145, 174 1
139, 159, 190 1
128, 149, 181 1
123, 144, 176 1
117, 136, 169 1
107, 121, 149 1
97, 109, 133 1
81, 92, 114 1
59, 67, 90 1
56, 47, 57 1
51, 40, 48 1
52, 38, 44 1
56, 39, 42 1
80, 48, 37 1
66, 42, 42 1
64, 41, 45 1
67, 46, 45 1
70, 47, 45 1
64, 44, 27 1
59, 37, 25 1
71, 52, 37 1
62, 46, 33 1
61, 49, 39 1
55, 44, 36 1
60, 50, 43 1
38, 36, 28 1
40, 40, 34 1
33, 40, 43 1
105, 126, 148 1
114, 134, 159 1
116, 136, 161 1
117, 134, 160 1
115, 131, 154 1
104, 118, 137 1
88, 98, 116 1
72, 81, 95 1
54, 61, 76 1
52, 38, 49 1
53, 38, 46 1
55, 37, 44 1
60, 39, 42 1
79, 47, 36 1
67, 42, 38 1
65, 41, 43 1
61, 37, 45 1
63, 40, 45 1
66, 44, 46 1
67, 46, 44 1
65, 45, 27 1
67, 47, 29 1
69, 49, 32 1
69, 48, 33 1
64, 46, 39 1
62, 46, 40 1
74, 52, 40 1
65, 42, 27 1
67, 44, 28 1
63, 44, 29 1
61, 49, 37 1
48, 45, 31 1
47, 45, 34 1
44, 45, 36 1
40, 45, 43 1
37, 46, 49 1
28, 40, 50 1
20, 37, 50 1
20, 40, 58 1
43, 64, 85 1
54, 73, 94 1
59, 76, 97 1
50, 63, 79 1
39, 48, 61 1
37, 43, 54 1
50, 33, 46 1
52, 35, 46 1
57, 36, 44 1
61, 40, 43 1
55, 45, 35 1
56, 47, 37 1
50, 47, 39 1
48, 44, 39 1
46, 43, 38 1
39, 38, 34 1
44, 41, 37 1
45, 42, 38 1
46, 43, 39 1
58, 37, 39 1
62, 39, 37 1
54, 44, 37 1
56, 47, 43 1
46, 40, 35 1
47, 40, 37 1
53, 41, 39 1
75, 50, 40 1
71, 49, 38 1
64, 47, 34 1
57, 44, 30 1
58, 45, 31 1
58, 46, 36 1
61, 47, 35 1
55, 43, 33 1
56, 46, 36 1
57, 47, 37 1
57, 45, 33 1
64, 38, 31 1
80, 48, 42 1
76, 48, 41 1
59, 38, 30 1
61, 38, 30 1
79, 46, 37 1
81, 48, 39 1
53, 37, 30 1
78, 45, 36 1
54, 37, 28 1
69, 39, 34 1
68, 49, 42 1
67, 48, 41 1
70, 40, 35 1
58, 36, 30 1
61, 37, 31 1
66, 37, 32 1
59, 35, 29 1
78, 52, 40 1
62, 37, 27 1
63, 43, 38 1
61, 36, 32 1
68, 41, 37 1
69, 42, 38 1
65, 40, 36 1
76, 50, 38 1
69, 46, 31 1
66, 45, 30 1
62, 40, 29 1
60, 38, 27 1
62, 45, 32 1
71, 40, 37 1
70, 41, 37 1
63, 41, 30 1
