72, 46, 34 168
71, 45, 33 163
70, 46, 34 149
69, 45, 33 145
73, 47, 35 131
70, 44, 32 119
70, 44, 37 116
69, 43, 36 111
71, 47, 35 107
69, 44, 34 106
71, 43, 36 106
72, 44, 37 101
68, 44, 32 98
69, 43, 37 87
71, 44, 34 85
67, 44, 36 84
68, 43, 33 83
72, 45, 35 81
68, 45, 37 80
68, 42, 35 77
67, 45, 33 75
70, 42, 35 75
70, 45, 35 74
59, 41, 34 69
68, 42, 36 68
74, 48, 36 67
66, 43, 35 67
70, 43, 33 62
58, 40, 33 61
71, 45, 38 61
66, 42, 36 61
55, 39, 32 57
62, 40, 34 56
71, 46, 36 54
56, 40, 33 53
66, 44, 32 53
67, 41, 35 53
63, 41, 35 52
65, 41, 35 52
67, 41, 34 51
63, 42, 34 50
69, 43, 31 50
106, 130, 166 49
60, 41, 34 49
64, 43, 35 49
67, 43, 37 49
73, 45, 38 48
68, 44, 38 48
57, 41, 34 47
64, 42, 36 47
67, 43, 31 47
67, 45, 34 46
64, 40, 34 46
57, 39, 32 44
61, 42, 35 43
59, 40, 33 43
68, 46, 34 43
69, 46, 38 43
71, 42, 37 41
65, 42, 34 41
73, 45, 34 41
65, 43, 37 40
59, 40, 32 40
65, 44, 36 40
67, 42, 32 39
66, 40, 34 39
73, 46, 36 39
70, 44, 38 38
66, 44, 33 36
61, 42, 34 35
72, 48, 36 35
58, 42, 35 33
60, 41, 33 33
66, 44, 38 33
58, 39, 31 33
66, 40, 33 33
61, 39, 33 33
62, 43, 36 32
62, 41, 33 32
69, 41, 34 32
64, 41, 33 32
69, 47, 35 32
65, 39, 33 32
68, 46, 35 31
72, 43, 36 31
63, 39, 33 30
60, 42, 35 30
65, 43, 31 30
107, 131, 167 29
72, 43, 34 29
54, 38, 31 28
58, 41, 32 28
62, 43, 35 28
72, 44, 33 28
73, 44, 35 26
65, 39, 32 26
70, 41, 36 25
63, 44, 37 25
61, 43, 36 24
61, 40, 32 24
72, 47, 37 24
75, 49, 37 24
66, 45, 37 23
59, 42, 33 22
57, 40, 31 22
71, 45, 39 22
72, 46, 32 22
74, 46, 35 22
73, 44, 37 22
60, 43, 34 21
70, 47, 39 21
69, 47, 36 21
88, 112, 142 20
105, 129, 165 20
84, 108, 136 20
60, 38, 32 20
64, 45, 32 20
68, 42, 30 20
104, 130, 167 19
58, 39, 32 19
63, 44, 36 19
69, 45, 39 19
62, 38, 32 19
87, 111, 141 18
106, 129, 167 18
59, 43, 36 18
67, 45, 39 18
71, 43, 32 18
72, 46, 39 18
68, 40, 33 18
105, 131, 168 17
101, 129, 164 17
72, 43, 38 17
65, 46, 33 17
66, 41, 31 17
74, 45, 36 17
90, 114, 144 16
76, 50, 38 16
86, 110, 140 15
109, 130, 181 15
69, 46, 31 15
71, 45, 31 15
75, 47, 36 15
69, 40, 35 15
105, 130, 164 14
103, 127, 163 14
85, 109, 137 14
98, 122, 158 14
62, 44, 37 14
53, 37, 30 14
57, 38, 30 14
64, 44, 33 14
63, 40, 32 14
70, 48, 36 14
108, 132, 168 13
106, 132, 168 13
97, 122, 156 13
56, 38, 31 13
65, 45, 34 13
65, 43, 32 13
66, 47, 34 13
70, 47, 32 13
73, 49, 37 13
57, 39, 28 13
74, 45, 38 13
66, 42, 30 13
104, 128, 164 12
109, 133, 169 12
109, 131, 179 12
90, 113, 139 12
83, 107, 135 12
68, 45, 30 12
64, 42, 30 12
67, 46, 38 12
60, 39, 31 12
69, 42, 32 12
71, 42, 33 12
74, 47, 37 12
58, 40, 29 12
70, 46, 40 12
65, 40, 30 12
96, 120, 156 11
83, 109, 139 11
103, 129, 165 11
82, 109, 136 11
103, 128, 168 11
61, 44, 35 11
74, 46, 39 11
76, 48, 37 11
73, 47, 33 11
70, 41, 32 11
73, 48, 38 11
75, 46, 39 11
65, 41, 29 11
104, 129, 169 10
107, 130, 168 10
118, 140, 192 10
108, 130, 178 10
114, 135, 190 10
102, 125, 157 10
110, 131, 182 10
112, 133, 184 10
105, 127, 168 10
128, 152, 194 10
85, 107, 135 10
66, 46, 35 10
57, 38, 31 10
61, 37, 31 10
68, 41, 31 10
69, 42, 38 10
73, 43, 38 10
107, 132, 166 9
102, 124, 160 9
92, 116, 146 9
110, 132, 180 9
107, 130, 176 9
114, 135, 187 9
99, 121, 156 9
106, 128, 169 9
98, 123, 157 9
99, 124, 158 9
126, 149, 194 9
129, 152, 197 9
105, 128, 174 9
100, 130, 165 9
60, 44, 37 9
61, 43, 32 9
59, 41, 30 9
68, 46, 40 9
71, 48, 33 9
64, 44, 39 9
65, 46, 38 9
64, 38, 32 9
71, 42, 35 9
60, 42, 31 9
89, 113, 143 8
101, 124, 156 8
110, 134, 170 8
103, 129, 166 8
108, 131, 177 8
108, 132, 174 8
108, 133, 177 8
105, 130, 172 8
116, 138, 190 8
87, 110, 142 8
115, 137, 189 8
105, 128, 166 8
102, 130, 165 8
88, 111, 137 8
115, 136, 188 8
107, 129, 170 8
95, 121, 157 8
102, 127, 167 8
102, 123, 168 8
83, 103, 128 8
58, 39, 34 8
67, 46, 31 8
67, 48, 35 8
59, 38, 30 8
62, 39, 31 8
63, 44, 31 8
64, 42, 31 8
67, 38, 33 8
68, 41, 37 8
68, 39, 34 8
67, 39, 32 8
64, 38, 31 8
73, 44, 39 8
99, 120, 151 7
97, 116, 151 7
89, 115, 145 7
84, 110, 140 7
102, 126, 162 7
96, 116, 151 7
107, 132, 172 7
108, 133, 173 7
105, 127, 163 7
108, 131, 169 7
107, 132, 176 7
115, 136, 191 7
89, 114, 140 7
111, 132, 184 7
102, 128, 164 7
130, 155, 199 7
100, 123, 155 7
97, 120, 152 7
81, 108, 135 7
106, 129, 174 7
120, 142, 194 7
102, 128, 165 7
102, 126, 168 7
101, 126, 166 7
100, 126, 162 7
136, 163, 207 7
137, 164, 208 7
56, 37, 34 7
57, 38, 35 7
57, 38, 33 7
60, 41, 36 7
67, 42, 38 7
72, 46, 40 7
59, 40, 35 7
62, 42, 31 7
63, 43, 32 7
63, 45, 38 7
64, 45, 38 7
70, 41, 34 7
71, 49, 37 7
72, 42, 37 7
104, 125, 156 6
106, 131, 165 6
102, 121, 158 6
96, 115, 150 6
91, 115, 145 6
110, 135, 167 6
108, 133, 167 6
90, 116, 152 6
100, 124, 160 6
105, 131, 167 6
108, 134, 170 6
103, 127, 169 6
108, 134, 171 6
93, 117, 147 6
85, 109, 139 6
89, 110, 138 6
108, 133, 175 6
107, 132, 174 6
102, 127, 169 6
104, 130, 166 6
108, 132, 178 6
106, 131, 171 6
107, 131, 177 6
130, 156, 203 6
106, 128, 163 6
100, 124, 154 6
93, 114, 145 6
130, 154, 200 6
101, 123, 158 6
103, 126, 158 6
89, 112, 138 6
92, 116, 144 6
134, 160, 207 6
133, 158, 208 6
99, 122, 154 6
86, 111, 137 6
86, 110, 138 6
80, 102, 127 6
132, 158, 204 6
117, 139, 191 6
129, 153, 195 6
126, 150, 192 6
107, 130, 178 6
128, 151, 196 6
130, 153, 201 6
132, 155, 200 6
100, 125, 165 6
104, 126, 168 6
84, 106, 134 6
129, 152, 198 6
128, 151, 207 6
121, 148, 199 6
100, 124, 166 6
101, 127, 163 6
102, 125, 170 6
135, 162, 206 6
100, 129, 166 6
120, 146, 200 6
55, 42, 34 6
55, 37, 30 6
66, 44, 39 6
68, 47, 32 6
65, 46, 31 6
67, 47, 36 6
64, 45, 37 6
63, 41, 29 6
64, 39, 29 6
107, 132, 164 5
101, 123, 159 5
97, 121, 157 5
42, 53, 57 5
91, 112, 144 5
104, 126, 162 5
91, 117, 153 5
93, 119, 155 5
107, 133, 170 5
87, 114, 148 5
99, 120, 165 5
88, 115, 149 5
109, 132, 178 5
109, 132, 177 5
106, 132, 169 5
97, 121, 151 5
94, 118, 148 5
106, 130, 176 5
100, 120, 155 5
89, 114, 148 5
92, 118, 148 5
105, 132, 176 5
105, 128, 160 5
87, 112, 138 5
83, 110, 137 5
113, 133, 188 5
91, 115, 143 5
123, 147, 199 5
111, 132, 183 5
110, 133, 179 5
104, 129, 163 5
82, 108, 138 5
88, 110, 138 5
93, 111, 134 5
125, 149, 191 5
121, 145, 199 5
124, 148, 190 5
122, 146, 200 5
120, 144, 198 5
99, 123, 159 5
126, 150, 204 5
96, 121, 155 5
130, 154, 208 5
95, 123, 153 5
125, 148, 193 5
118, 138, 193 5
120, 140, 195 5
111, 135, 177 5
98, 124, 161 5
84, 106, 131 5
103, 126, 171 5
101, 125, 167 5
130, 157, 201 5
124, 144, 202 5
103, 124, 169 5
83, 109, 145 5
101, 128, 162 5
143, 167, 209 5
99, 129, 164 5
97, 123, 160 5
85, 109, 133 5
110, 144, 190 5
112, 145, 191 5
59, 37, 31 5
61, 45, 38 5
62, 45, 36 5
70, 48, 37 5
55, 38, 29 5
56, 39, 30 5
74, 44, 33 5
68, 43, 39 5
66, 45, 30 5
66, 47, 32 5
60, 39, 37 5
61, 39, 34 5
70, 44, 30 5
73, 47, 40 5
75, 47, 40 5
66, 39, 35 5
67, 40, 30 5
67, 41, 29 5
63, 37, 30 5
41, 52, 56 4
87, 109, 137 4
95, 114, 149 4
88, 114, 144 4
103, 122, 159 4
100, 119, 156 4
85, 111, 141 4
86, 113, 140 4
85, 112, 139 4
92, 118, 154 4
110, 135, 169 4
98, 117, 154 4
89, 115, 151 4
85, 112, 146 4
99, 118, 161 4
95, 115, 150 4
84, 111, 145 4
96, 119, 164 4
104, 128, 170 4
84, 109, 141 4
112, 135, 183 4
104, 129, 171 4
91, 117, 147 4
83, 107, 137 4
87, 112, 144 4
45, 62, 71 4
125, 147, 195 4
85, 108, 140 4
126, 147, 192 4
127, 147, 194 4
127, 150, 196 4
105, 129, 171 4
105, 130, 170 4
111, 135, 171 4
52, 70, 81 4
124, 151, 202 4
120, 147, 198 4
118, 144, 198 4
118, 138, 195 4
113, 134, 189 4
111, 131, 186 4
111, 130, 181 4
105, 127, 162 4
86, 109, 135 4
106, 131, 175 4
77, 104, 131 4
64, 83, 98 4
126, 150, 202 4
122, 146, 198 4
112, 132, 187 4
110, 131, 183 4
87, 111, 139 4
66, 86, 103 4
116, 137, 192 4
111, 134, 180 4
108, 131, 176 4
100, 121, 152 4
94, 118, 146 4
78, 104, 134 4
131, 156, 200 4
117, 138, 190 4
79, 99, 124 4
133, 159, 205 4
107, 128, 173 4
98, 120, 155 4
82, 103, 130 4
90, 114, 136 4
95, 122, 149 4
107, 129, 177 4
105, 128, 173 4
107, 129, 171 4
90, 117, 144 4
94, 117, 143 4
108, 131, 181 4
106, 129, 179 4
96, 123, 157 4
92, 120, 150 4
96, 117, 148 4
123, 148, 190 4
125, 149, 203 4
96, 122, 159 4
109, 131, 166 4
98, 121, 153 4
123, 147, 189 4
128, 152, 206 4
122, 146, 188 4
93, 121, 151 4
98, 123, 155 4
134, 157, 205 4
129, 149, 206 4
106, 127, 172 4
100, 126, 163 4
79, 105, 135 4
101, 126, 160 4
100, 126, 156 4
123, 149, 189 4
129, 152, 208 4
117, 137, 192 4
97, 124, 151 4
123, 145, 187 4
121, 141, 196 4
123, 145, 193 4
124, 153, 204 4
123, 143, 201 4
99, 125, 161 4
83, 106, 132 4
140, 169, 206 4
105, 127, 169 4
100, 125, 159 4
104, 127, 172 4
97, 123, 153 4
136, 164, 205 4
122, 141, 198 4
101, 124, 169 4
101, 128, 165 4
133, 160, 204 4
103, 131, 166 4
82, 102, 127 4
144, 168, 210 4
94, 115, 153 4
137, 165, 206 4
127, 155, 202 4
130, 152, 210 4
99, 128, 165 4
135, 161, 207 4
130, 153, 209 4
97, 126, 165 4
138, 168, 209 4
96, 124, 165 4
132, 158, 205 4
133, 159, 206 4
98, 127, 166 4
85, 105, 130 4
142, 170, 211 4
115, 143, 197 4
156, 187, 220 4
110, 139, 190 4
118, 149, 204 4
116, 147, 202 4
113, 146, 192 4
73, 92, 127 4
113, 143, 190 4
149, 175, 222 4
54, 41, 33 4
51, 40, 32 4
54, 42, 38 4
58, 44, 38 4
55, 40, 31 4
65, 43, 38 4
65, 44, 29 4
62, 46, 34 4
68, 48, 37 4
64, 39, 35 4
57, 46, 32 4
69, 49, 32 4
71, 42, 38 4
74, 47, 33 4
63, 37, 31 4
63, 41, 30 4
75, 48, 38 4
74, 48, 34 4
72, 45, 31 4
70, 42, 31 4
74, 43, 34 4
76, 46, 35 4
75, 44, 35 4
62, 45, 32 4
46, 56, 63 3
107, 133, 163 3
103, 125, 161 3
92, 111, 144 3
86, 112, 142 3
93, 117, 153 3
90, 114, 150 3
42, 58, 65 3
45, 61, 68 3
74, 93, 126 3
106, 131, 163 3
49, 67, 74 3
55, 69, 81 3
79, 101, 137 3
98, 120, 156 3
88, 114, 150 3
52, 69, 78 3
79, 96, 122 3
84, 103, 130 3
89, 111, 152 3
91, 113, 154 3
94, 116, 157 3
98, 120, 161 3
85, 113, 148 3
52, 71, 79 3
99, 121, 157 3
106, 126, 173 3
98, 119, 164 3
106, 128, 164 3
104, 123, 160 3
99, 118, 155 3
95, 119, 149 3
84, 104, 129 3
111, 133, 174 3
107, 133, 173 3
106, 132, 172 3
109, 132, 170 3
98, 118, 153 3
61, 78, 91 3
64, 81, 94 3
114, 135, 186 3
111, 134, 182 3
101, 121, 156 3
93, 119, 149 3
84, 108, 138 3
86, 109, 141 3
81, 107, 137 3
66, 85, 98 3
66, 83, 96 3
60, 77, 90 3
51, 63, 75 3
125, 146, 191 3
119, 141, 193 3
113, 136, 186 3
111, 134, 184 3
109, 134, 178 3
106, 131, 173 3
90, 116, 146 3
88, 111, 143 3
81, 105, 135 3
89, 114, 146 3
79, 103, 131 3
75, 93, 110 3
75, 91, 108 3
127, 151, 203 3
117, 137, 194 3
110, 130, 185 3
110, 129, 180 3
102, 129, 173 3
102, 129, 166 3
101, 121, 152 3
94, 115, 147 3
89, 111, 139 3
91, 116, 142 3
71, 87, 104 3
129, 154, 198 3
129, 154, 204 3
101, 125, 155 3
99, 123, 153 3
98, 122, 152 3
89, 110, 137 3
86, 113, 139 3
90, 115, 141 3
77, 105, 135 3
79, 99, 116 3
130, 154, 190 3
130, 154, 196 3
127, 153, 200 3
85, 112, 138 3
84, 111, 137 3
88, 113, 139 3
130, 156, 202 3
125, 150, 200 3
113, 134, 186 3
88, 112, 132 3
135, 159, 205 3
117, 142, 192 3
107, 130, 175 3
110, 132, 174 3
108, 130, 165 3
91, 118, 144 3
89, 113, 141 3
132, 156, 198 3
129, 155, 202 3
111, 133, 175 3
102, 124, 159 3
91, 116, 148 3
80, 109, 136 3
74, 91, 110 3
129, 155, 201 3
122, 145, 195 3
94, 119, 151 3
92, 112, 137 3
105, 128, 154 3
91, 115, 139 3
126, 148, 189 3
130, 153, 198 3
127, 152, 196 3
131, 158, 202 3
127, 154, 198 3
123, 146, 196 3
94, 119, 153 3
94, 122, 153 3
93, 121, 152 3
91, 119, 149 3
89, 109, 134 3
125, 152, 196 3
121, 142, 197 3
108, 131, 179 3
97, 119, 155 3
95, 122, 156 3
100, 117, 144 3
132, 157, 201 3
126, 153, 197 3
123, 151, 192 3
110, 134, 180 3
82, 104, 129 3
108, 131, 163 3
126, 151, 193 3
122, 150, 191 3
106, 128, 180 3
105, 127, 179 3
109, 132, 182 3
107, 131, 173 3
121, 146, 188 3
121, 149, 190 3
131, 154, 202 3
109, 129, 184 3
106, 130, 172 3
101, 125, 161 3
90, 112, 140 3
127, 150, 195 3
131, 155, 201 3
133, 156, 204 3
93, 117, 145 3
112, 138, 175 3
134, 158, 210 3
123, 143, 200 3
93, 120, 147 3
117, 143, 180 3
117, 141, 183 3
91, 118, 145 3
118, 143, 183 3
131, 154, 200 3
86, 108, 136 3
112, 137, 177 3
114, 136, 178 3
101, 126, 168 3
98, 123, 165 3
128, 160, 209 3
128, 158, 207 3
122, 141, 202 3
101, 123, 165 3
100, 123, 161 3
94, 127, 153 3
120, 142, 190 3
126, 159, 208 3
94, 124, 151 3
142, 169, 206 3
126, 154, 195 3
127, 160, 206 3
127, 157, 206 3
122, 145, 201 3
106, 128, 170 3
100, 128, 163 3
96, 121, 153 3
96, 122, 152 3
81, 103, 128 3
79, 103, 127 3
134, 159, 201 3
123, 146, 192 3
88, 114, 151 3
100, 133, 172 3
121, 140, 197 3
145, 171, 211 3
139, 164, 206 3
98, 119, 157 3
93, 116, 154 3
85, 108, 146 3
69, 95, 131 3
104, 125, 170 3
100, 126, 166 3
95, 116, 147 3
72, 103, 126 3
147, 173, 213 3
135, 163, 204 3
126, 149, 195 3
106, 138, 174 3
127, 154, 204 3
99, 125, 165 3
101, 129, 163 3
146, 170, 212 3
135, 164, 208 3
101, 131, 166 3
146, 168, 209 3
139, 166, 210 3
138, 165, 209 3
122, 143, 181 3
132, 154, 212 3
93, 120, 164 3
98, 127, 164 3
94, 121, 158 3
100, 127, 164 3
99, 127, 162 3
102, 130, 161 3
75, 101, 125 3
129, 152, 200 3
95, 121, 151 3
87, 109, 134 3
140, 168, 209 3
125, 150, 206 3
129, 151, 209 3
97, 126, 163 3
100, 129, 168 3
154, 182, 216 3
127, 151, 209 3
128, 152, 212 3
111, 135, 181 3
143, 172, 211 3
128, 157, 202 3
127, 151, 205 3
123, 148, 198 3
89, 115, 155 3
98, 126, 167 3
127, 156, 201 3
85, 112, 149 3
111, 141, 190 3
91, 117, 157 3
76, 99, 121 3
100, 126, 172 3
104, 130, 176 3
110, 133, 171 3
139, 162, 208 3
128, 152, 210 3
99, 122, 168 3
81, 107, 143 3
101, 124, 172 3
65, 86, 124 3
97, 119, 160 3
89, 105, 141 3
132, 161, 205 3
127, 155, 209 3
121, 148, 198 3
115, 145, 200 3
92, 115, 161 3
129, 155, 209 3
118, 148, 195 3
121, 151, 198 3
64, 84, 119 3
116, 146, 193 3
94, 117, 167 3
106, 125, 176 3
119, 148, 199 3
41, 62, 90 3
114, 142, 189 3
98, 118, 166 3
100, 115, 171 3
115, 145, 194 3
114, 150, 196 3
111, 145, 191 3
116, 144, 191 3
114, 143, 188 3
59, 84, 110 3
109, 141, 182 3
107, 140, 179 3
39, 37, 36 3
102, 135, 174 3
48, 43, 40 3
38, 46, 45 3
125, 143, 206 3
134, 152, 215 3
60, 38, 33 3
62, 40, 35 3
56, 37, 30 3
56, 43, 35 3
61, 48, 40 3
59, 46, 38 3
58, 42, 36 3
62, 46, 39 3
63, 45, 34 3
71, 48, 40 3
65, 46, 39 3
67, 45, 40 3
63, 44, 39 3
56, 37, 29 3
61, 42, 37 3
51, 43, 44 3
66, 41, 37 3
75, 45, 34 3
68, 46, 41 3
65, 47, 40 3
61, 48, 34 3
51, 41, 41 3
65, 45, 40 3
64, 47, 34 3
67, 49, 32 3
58, 44, 32 3
63, 44, 29 3
70, 43, 39 3
61, 41, 36 3
63, 46, 33 3
62, 44, 33 3
72, 49, 41 3
76, 48, 41 3
67, 40, 36 3
72, 49, 34 3
74, 51, 36 3
73, 50, 35 3
75, 52, 37 3
75, 49, 35 3
72, 43, 39 3
77, 51, 39 3
73, 44, 40 3
76, 47, 38 3
75, 46, 37 3
74, 45, 40 3
69, 40, 33 3
77, 49, 38 3
73, 42, 33 3
73, 43, 32 3
61, 41, 30 3
75, 43, 37 3
60, 40, 29 3
66, 40, 28 3
63, 38, 28 3
77, 46, 37 3
40, 57, 54 2
40, 54, 60 2
43, 59, 66 2
50, 66, 73 2
54, 67, 75 2
49, 62, 70 2
37, 52, 54 2
46, 59, 61 2
43, 55, 57 2
40, 51, 55 2
46, 55, 64 2
67, 81, 100 2
70, 85, 104 2
75, 90, 109 2
80, 96, 119 2
74, 91, 118 2
71, 92, 120 2
106, 127, 158 2
103, 129, 159 2
105, 131, 161 2
101, 120, 157 2
97, 116, 153 2
94, 114, 149 2
87, 113, 143 2
82, 110, 140 2
92, 116, 152 2
51, 60, 63 2
41, 55, 61 2
41, 57, 64 2
57, 73, 80 2
47, 60, 68 2
41, 60, 65 2
28, 47, 50 2
43, 54, 58 2
49, 60, 64 2
45, 54, 63 2
58, 70, 82 2
64, 77, 93 2
74, 88, 110 2
82, 99, 125 2
68, 87, 120 2
75, 96, 128 2
95, 118, 150 2
107, 130, 162 2
105, 130, 162 2
109, 134, 166 2
108, 133, 165 2
84, 111, 138 2
85, 109, 145 2
87, 111, 147 2
85, 111, 147 2
43, 61, 68 2
45, 63, 70 2
60, 76, 83 2
53, 69, 76 2
29, 48, 53 2
45, 55, 62 2
49, 58, 67 2
56, 72, 84 2
59, 75, 88 2
73, 88, 107 2
80, 97, 123 2
88, 107, 142 2
88, 107, 145 2
91, 110, 147 2
90, 109, 146 2
77, 96, 133 2
83, 105, 141 2
93, 115, 151 2
104, 131, 165 2
109, 134, 168 2
82, 108, 144 2
84, 110, 146 2
33, 49, 48 2
46, 60, 66 2
46, 64, 71 2
61, 78, 87 2
32, 51, 56 2
53, 70, 83 2
66, 84, 101 2
96, 115, 148 2
94, 113, 158 2
87, 109, 150 2
101, 127, 164 2
107, 133, 169 2
108, 135, 169 2
106, 125, 162 2
32, 48, 47 2
47, 65, 72 2
50, 67, 76 2
58, 73, 82 2
51, 66, 75 2
46, 61, 70 2
37, 55, 62 2
35, 53, 60 2
59, 72, 88 2
75, 94, 115 2
97, 117, 152 2
100, 120, 161 2
98, 122, 164 2
87, 112, 146 2
86, 111, 145 2
50, 65, 74 2
55, 73, 84 2
58, 76, 87 2
61, 79, 90 2
47, 64, 73 2
45, 60, 69 2
42, 57, 66 2
42, 60, 67 2
51, 60, 73 2
50, 61, 75 2
112, 133, 171 2
109, 135, 172 2
107, 129, 165 2
108, 130, 166 2
86, 113, 147 2
88, 113, 147 2
82, 107, 139 2
33, 48, 50 2
47, 62, 71 2
59, 77, 88 2
63, 80, 93 2
52, 68, 80 2
49, 64, 73 2
50, 59, 72 2
52, 61, 75 2
55, 65, 82 2
121, 143, 185 2
123, 140, 196 2
103, 128, 170 2
108, 134, 174 2
83, 106, 138 2
82, 105, 137 2
35, 50, 52 2
49, 65, 78 2
43, 60, 69 2
111, 131, 166 2
115, 134, 171 2
122, 144, 186 2
125, 148, 194 2
124, 145, 196 2
110, 133, 181 2
80, 104, 134 2
47, 58, 66 2
53, 65, 75 2
61, 77, 89 2
67, 86, 101 2
71, 90, 105 2
68, 84, 100 2
55, 72, 85 2
48, 65, 74 2
115, 135, 170 2
129, 151, 199 2
103, 125, 160 2
78, 102, 132 2
89, 112, 144 2
33, 52, 57 2
64, 80, 96 2
69, 85, 101 2
55, 70, 86 2
48, 66, 73 2
110, 133, 165 2
127, 150, 188 2
128, 153, 197 2
126, 151, 201 2
112, 138, 192 2
109, 130, 182 2
109, 127, 180 2
104, 131, 175 2
103, 127, 157 2
92, 113, 145 2
87, 110, 136 2
90, 111, 139 2
87, 115, 139 2
73, 103, 132 2
64, 80, 93 2
67, 83, 99 2
79, 97, 114 2
54, 71, 80 2
114, 137, 169 2
129, 154, 194 2
122, 149, 200 2
116, 140, 194 2
116, 136, 193 2
108, 129, 181 2
106, 133, 177 2
102, 122, 153 2
91, 114, 140 2
71, 88, 101 2
70, 86, 102 2
74, 92, 109 2
56, 72, 88 2
61, 79, 96 2
64, 86, 104 2
79, 104, 124 2
125, 147, 182 2
131, 154, 192 2
129, 153, 199 2
130, 155, 205 2
118, 142, 194 2
115, 139, 191 2
112, 133, 188 2
109, 133, 175 2
90, 111, 143 2
75, 103, 133 2
73, 101, 131 2
71, 91, 108 2
74, 94, 112 2
74, 97, 119 2
84, 108, 130 2
131, 155, 197 2
128, 153, 203 2
127, 152, 202 2
120, 145, 195 2
116, 141, 191 2
110, 133, 178 2
91, 112, 143 2
92, 118, 142 2
82, 109, 135 2
76, 104, 134 2
76, 102, 132 2
78, 100, 118 2
69, 92, 108 2
64, 82, 99 2
123, 145, 181 2
129, 151, 187 2
132, 156, 192 2
116, 137, 189 2
113, 134, 185 2
112, 134, 176 2
96, 119, 151 2
98, 120, 148 2
98, 119, 150 2
92, 119, 146 2
79, 103, 123 2
87, 111, 131 2
69, 93, 111 2
65, 82, 95 2
88, 109, 136 2
124, 146, 182 2
122, 148, 195 2
118, 144, 191 2
97, 119, 154 2
96, 120, 150 2
94, 121, 148 2
93, 120, 146 2
86, 108, 133 2
85, 109, 131 2
65, 85, 103 2
129, 152, 190 2
130, 152, 193 2
134, 159, 203 2
126, 152, 198 2
114, 136, 188 2
113, 135, 187 2
108, 129, 174 2
109, 130, 175 2
108, 130, 172 2
93, 118, 150 2
95, 120, 152 2
94, 120, 150 2
88, 108, 133 2
92, 116, 140 2
86, 110, 132 2
82, 106, 128 2
129, 151, 192 2
128, 155, 199 2
124, 147, 197 2
123, 145, 197 2
89, 118, 145 2
97, 114, 140 2
107, 126, 153 2
110, 131, 159 2
102, 124, 152 2
68, 89, 110 2
129, 151, 193 2
124, 147, 192 2
122, 147, 191 2
121, 144, 192 2
124, 148, 200 2
97, 125, 156 2
90, 119, 146 2
89, 116, 143 2
84, 101, 122 2
115, 133, 162 2
116, 137, 165 2
83, 105, 123 2
82, 103, 131 2
94, 115, 146 2
107, 128, 159 2
125, 147, 189 2
127, 151, 193 2
122, 143, 198 2
120, 141, 196 2
109, 131, 183 2
105, 128, 178 2
107, 130, 180 2
94, 120, 156 2
88, 116, 146 2
83, 108, 140 2
124, 145, 177 2
120, 144, 186 2
124, 149, 191 2
131, 156, 198 2
127, 151, 197 2
129, 153, 205 2
85, 108, 134 2
88, 112, 136 2
115, 140, 174 2
119, 143, 185 2
122, 147, 189 2
126, 147, 202 2
111, 132, 187 2
95, 123, 154 2
134, 156, 191 2
134, 157, 207 2
132, 156, 208 2
127, 148, 203 2
96, 124, 155 2
90, 113, 145 2
131, 156, 190 2
118, 144, 181 2
121, 145, 187 2
117, 142, 184 2
136, 159, 209 2
129, 153, 207 2
116, 136, 191 2
115, 135, 190 2
96, 124, 154 2
129, 157, 188 2
129, 155, 192 2
115, 141, 178 2
101, 126, 158 2
102, 127, 159 2
111, 137, 174 2
116, 140, 182 2
115, 139, 181 2
111, 136, 180 2
113, 131, 184 2
107, 127, 174 2
109, 130, 168 2
107, 128, 166 2
77, 103, 133 2
130, 159, 190 2
110, 136, 166 2
117, 142, 182 2
120, 146, 186 2
128, 151, 197 2
126, 148, 190 2
131, 155, 207 2
132, 156, 210 2
128, 148, 205 2
106, 125, 168 2
106, 126, 167 2
108, 128, 169 2
98, 126, 157 2
91, 112, 139 2
101, 128, 149 2
118, 144, 168 2
138, 168, 203 2
123, 154, 193 2
111, 136, 176 2
122, 144, 192 2
123, 144, 195 2
128, 148, 195 2
99, 124, 166 2
107, 141, 184 2
121, 156, 200 2
122, 156, 202 2
90, 120, 149 2
89, 122, 148 2
92, 125, 151 2
115, 141, 165 2
140, 168, 203 2
128, 159, 198 2
120, 148, 189 2
121, 147, 187 2
121, 143, 191 2
127, 148, 193 2
120, 142, 184 2
112, 134, 175 2
92, 117, 159 2
99, 125, 162 2
98, 124, 160 2
93, 123, 150 2
83, 104, 131 2
83, 105, 130 2
80, 104, 128 2
77, 105, 129 2
73, 104, 129 2
138, 167, 206 2
128, 153, 195 2
122, 145, 190 2
121, 144, 190 2
113, 135, 176 2
82, 108, 148 2
121, 154, 199 2
125, 158, 204 2
123, 153, 202 2
121, 141, 199 2
118, 139, 191 2
100, 122, 164 2
100, 123, 168 2
98, 124, 154 2
143, 169, 209 2
133, 158, 200 2
132, 157, 199 2
104, 126, 167 2
76, 102, 139 2
118, 150, 191 2
122, 152, 201 2
104, 127, 173 2
105, 126, 171 2
102, 126, 156 2
78, 104, 128 2
141, 166, 208 2
138, 163, 207 2
132, 159, 203 2
133, 162, 206 2
137, 162, 204 2
124, 147, 193 2
127, 149, 197 2
116, 148, 189 2
121, 152, 197 2
127, 157, 204 2
125, 152, 202 2
100, 125, 169 2
100, 125, 167 2
92, 113, 144 2
79, 101, 126 2
143, 168, 212 2
141, 166, 210 2
134, 163, 207 2
126, 148, 196 2
131, 153, 201 2
117, 139, 180 2
105, 126, 164 2
91, 112, 150 2
94, 116, 152 2
123, 154, 199 2
126, 157, 202 2
124, 142, 201 2
123, 142, 199 2
101, 122, 167 2
100, 124, 170 2
104, 132, 167 2
72, 100, 124 2
81, 109, 133 2
139, 168, 207 2
149, 175, 215 2
145, 169, 211 2
136, 165, 209 2
134, 161, 205 2
134, 156, 204 2
87, 108, 146 2
110, 139, 176 2
114, 144, 185 2
118, 148, 189 2
124, 151, 201 2
125, 144, 201 2
105, 125, 172 2
99, 124, 168 2
98, 125, 159 2
78, 102, 126 2
149, 171, 212 2
146, 168, 210 2
136, 160, 206 2
130, 153, 199 2
82, 103, 141 2
83, 104, 142 2
98, 117, 155 2
80, 99, 136 2
63, 85, 120 2
121, 150, 194 2
123, 152, 197 2
125, 154, 199 2
128, 147, 204 2
126, 145, 202 2
124, 144, 199 2
93, 119, 165 2
102, 132, 167 2
93, 120, 157 2
99, 126, 163 2
98, 126, 161 2
100, 128, 162 2
100, 128, 158 2
92, 114, 142 2
76, 104, 128 2
151, 177, 214 2
136, 166, 207 2
135, 155, 202 2
127, 150, 206 2
125, 146, 201 2
106, 129, 177 2
95, 125, 160 2
99, 127, 161 2
100, 128, 159 2
82, 109, 130 2
153, 179, 215 2
152, 178, 215 2
134, 160, 206 2
139, 160, 205 2
76, 95, 132 2
87, 106, 143 2
97, 115, 152 2
86, 107, 138 2
130, 151, 206 2
128, 149, 204 2
126, 148, 200 2
99, 121, 163 2
94, 120, 166 2
96, 123, 167 2
96, 125, 164 2
86, 106, 131 2
80, 107, 128 2
150, 177, 214 2
145, 174, 213 2
144, 173, 212 2
138, 166, 207 2
131, 157, 204 2
137, 158, 203 2
142, 163, 208 2
80, 101, 133 2
98, 116, 153 2
111, 140, 184 2
114, 137, 185 2
96, 122, 168 2
97, 124, 168 2
94, 122, 157 2
97, 125, 160 2
108, 129, 161 2
87, 107, 132 2
154, 183, 214 2
153, 181, 215 2
152, 180, 215 2
145, 164, 207 2
96, 112, 148 2
65, 82, 115 2
90, 117, 151 2
121, 147, 201 2
124, 149, 205 2
131, 154, 210 2
104, 129, 173 2
92, 119, 156 2
92, 120, 155 2
90, 117, 154 2
87, 114, 151 2
110, 130, 165 2
107, 128, 160 2
130, 158, 205 2
135, 156, 201 2
72, 89, 115 2
80, 108, 143 2
98, 128, 169 2
108, 138, 185 2
119, 146, 202 2
125, 149, 207 2
115, 140, 190 2
112, 138, 185 2
91, 116, 158 2
91, 119, 154 2
89, 117, 152 2
101, 128, 172 2
151, 180, 211 2
140, 167, 211 2
131, 156, 206 2
67, 89, 114 2
97, 126, 170 2
117, 141, 193 2
114, 139, 189 2
109, 135, 182 2
95, 120, 164 2
90, 115, 159 2
156, 187, 218 2
154, 186, 221 2
146, 177, 216 2
126, 155, 200 2
87, 106, 133 2
85, 101, 130 2
108, 136, 190 2
113, 137, 189 2
111, 136, 186 2
104, 127, 175 2
102, 126, 172 2
101, 124, 170 2
72, 98, 138 2
109, 134, 184 2
149, 181, 217 2
141, 168, 212 2
125, 151, 197 2
106, 134, 188 2
115, 141, 195 2
105, 130, 180 2
108, 137, 188 2
107, 134, 184 2
104, 131, 181 2
100, 128, 175 2
150, 181, 220 2
146, 176, 217 2
130, 160, 209 2
125, 156, 207 2
59, 84, 100 2
38, 50, 78 2
75, 94, 131 2
60, 84, 126 2
80, 106, 152 2
120, 144, 196 2
119, 150, 205 2
94, 117, 162 2
97, 120, 165 2
95, 123, 158 2
78, 104, 141 2
69, 89, 136 2
110, 129, 174 2
115, 135, 176 2
114, 132, 169 2
133, 160, 210 2
129, 158, 209 2
125, 153, 207 2
129, 158, 203 2
77, 97, 132 2
86, 112, 148 2
90, 112, 160 2
108, 127, 172 2
114, 133, 171 2
97, 116, 154 2
140, 168, 215 2
118, 147, 198 2
120, 147, 197 2
112, 143, 196 2
98, 121, 171 2
97, 118, 169 2
100, 123, 173 2
108, 128, 185 2
99, 126, 170 2
103, 132, 177 2
106, 135, 180 2
73, 97, 125 2
76, 101, 127 2
130, 157, 208 2
117, 146, 197 2
117, 147, 196 2
146, 171, 213 2
76, 93, 119 2
56, 79, 117 2
117, 148, 203 2
99, 124, 174 2
95, 117, 165 2
93, 115, 163 2
103, 123, 171 2
61, 78, 127 2
102, 123, 161 2
124, 152, 206 2
46, 72, 86 2
19, 30, 57 2
41, 61, 92 2
115, 146, 199 2
111, 142, 195 2
97, 116, 167 2
113, 132, 183 2
103, 121, 174 2
106, 124, 177 2
109, 135, 181 2
77, 104, 125 2
142, 168, 214 2
106, 125, 163 2
39, 65, 79 2
24, 40, 63 2
33, 53, 78 2
70, 94, 130 2
94, 115, 166 2
96, 118, 160 2
95, 117, 158 2
93, 113, 148 2
31, 47, 53 2
121, 157, 203 2
132, 159, 210 2
36, 60, 78 2
61, 80, 113 2
69, 88, 123 2
111, 139, 186 2
113, 144, 197 2
98, 120, 162 2
45, 59, 111 2
105, 119, 177 2
92, 121, 158 2
95, 115, 156 2
120, 159, 198 2
118, 157, 202 2
114, 147, 192 2
113, 146, 191 2
41, 59, 82 2
47, 67, 98 2
90, 110, 145 2
104, 127, 165 2
84, 109, 143 2
99, 111, 169 2
91, 110, 161 2
50, 77, 97 2
27, 55, 66 2
33, 59, 73 2
42, 66, 84 2
90, 106, 142 2
116, 144, 198 2
93, 112, 169 2
83, 105, 153 2
84, 108, 144 2
100, 116, 163 2
90, 109, 152 2
29, 45, 52 2
114, 145, 190 2
128, 155, 206 2
88, 104, 140 2
114, 148, 194 2
23, 49, 63 2
56, 80, 110 2
56, 79, 111 2
77, 99, 135 2
99, 111, 135 2
111, 143, 184 2
110, 143, 188 2
109, 142, 187 2
109, 141, 184 2
112, 141, 185 2
132, 155, 211 2
78, 101, 139 2
139, 164, 208 2
144, 170, 217 2
90, 106, 152 2
24, 36, 42 2
114, 140, 186 2
128, 147, 208 2
57, 75, 122 2
86, 106, 147 2
62, 65, 73 2
109, 140, 179 2
122, 140, 205 2
83, 100, 139 2
40, 37, 39 2
37, 36, 38 2
36, 36, 36 2
44, 39, 38 2
107, 139, 168 2
101, 136, 169 2
127, 145, 210 2
30, 47, 96 2
43, 38, 35 2
42, 40, 30 2
47, 44, 40 2
42, 41, 37 2
43, 40, 36 2
32, 40, 39 2
105, 136, 169 2
60, 36, 30 2
35, 47, 47 2
47, 39, 49 2
45, 38, 35 2
57, 43, 37 2
37, 43, 50 2
109, 134, 176 2
99, 122, 148 2
119, 140, 201 2
55, 42, 40 2
52, 40, 36 2
53, 38, 35 2
52, 38, 32 2
46, 51, 49 2
46, 46, 46 2
95, 119, 147 2
126, 146, 204 2
129, 148, 209 2
54, 40, 41 2
53, 53, 47 2
50, 47, 42 2
107, 127, 144 2
40, 36, 41 2
42, 37, 39 2
52, 42, 42 2
56, 41, 38 2
54, 43, 35 2
55, 47, 40 2
61, 50, 42 2
58, 47, 39 2
50, 46, 41 2
58, 46, 36 2
59, 44, 35 2
65, 47, 36 2
67, 49, 38 2
59, 47, 37 2
62, 49, 41 2
57, 45, 41 2
54, 45, 41 2
138, 156, 219 2
130, 148, 211 2
106, 126, 181 2
49, 38, 40 2
51, 39, 35 2
66, 48, 37 2
71, 49, 38 2
66, 48, 41 2
51, 40, 42 2
48, 39, 42 2
135, 153, 216 2
54, 39, 30 2
57, 42, 33 2
56, 41, 32 2
55, 40, 38 2
51, 39, 29 2
52, 43, 40 2
48, 40, 40 2
46, 40, 41 2
64, 41, 39 2
56, 44, 34 2
79, 51, 40 2
50, 42, 42 2
56, 39, 36 2
56, 40, 34 2
45, 40, 41 2
60, 40, 35 2
68, 47, 39 2
68, 49, 34 2
59, 46, 30 2
60, 45, 29 2
62, 43, 28 2
59, 39, 34 2
59, 38, 36 2
61, 38, 36 2
63, 41, 36 2
70, 51, 36 2
70, 50, 33 2
63, 43, 38 2
59, 45, 33 2
65, 48, 35 2
46, 45, 35 2
61, 36, 32 2
58, 35, 33 2
59, 37, 32 2
66, 50, 34 2
68, 49, 36 2
71, 46, 42 2
71, 43, 42 2
68, 40, 39 2
53, 40, 32 2
59, 38, 37 2
62, 40, 29 2
66, 47, 39 2
56, 44, 42 2
49, 39, 39 2
53, 41, 37 2
61, 38, 30 2
66, 37, 32 2
68, 51, 32 2
74, 44, 39 2
68, 40, 40 2
66, 43, 28 2
75, 48, 34 2
71, 44, 30 2
76, 53, 38 2
78, 52, 38 2
67, 44, 29 2
73, 46, 32 2
64, 46, 39 2
76, 50, 36 2
70, 41, 37 2
76, 44, 33 2
59, 39, 28 2
62, 36, 29 2
75, 51, 39 2
65, 38, 28 2
69, 40, 31 2
66, 38, 31 2
68, 49, 42 2
76, 45, 36 2
65, 40, 36 2
34, 51, 48 1
45, 54, 58 1
40, 52, 56 1
38, 52, 58 1
40, 56, 62 1
37, 53, 60 1
36, 52, 59 1
55, 68, 76 1
43, 62, 67 1
40, 59, 62 1
37, 56, 59 1
37, 54, 57 1
36, 54, 55 1
41, 54, 56 1
43, 57, 56 1
49, 61, 63 1
53, 62, 71 1
65, 75, 85 1
63, 73, 83 1
59, 68, 81 1
58, 67, 81 1
61, 71, 88 1
68, 78, 96 1
72, 84, 102 1
75, 87, 105 1
65, 79, 98 1
77, 94, 115 1
79, 94, 120 1
78, 95, 122 1
76, 93, 120 1
72, 91, 118 1
71, 90, 117 1
70, 89, 116 1
70, 91, 119 1
74, 95, 123 1
77, 98, 126 1
104, 130, 160 1
106, 132, 162 1
108, 134, 164 1
98, 117, 152 1
83, 111, 141 1
81, 109, 139 1
84, 112, 142 1
86, 114, 144 1
95, 119, 155 1
89, 113, 149 1
88, 112, 148 1
35, 52, 49 1
38, 49, 53 1
41, 53, 57 1
45, 57, 61 1
40, 56, 63 1
51, 67, 74 1
56, 72, 79 1
34, 53, 58 1
34, 51, 54 1
40, 55, 57 1
43, 58, 60 1
52, 65, 67 1
45, 57, 59 1
50, 60, 67 1
51, 60, 69 1
65, 74, 83 1
58, 70, 80 1
58, 69, 83 1
71, 83, 101 1
69, 83, 102 1
72, 85, 107 1
69, 83, 106 1
76, 92, 115 1
84, 101, 127 1
84, 101, 128 1
81, 99, 128 1
81, 99, 130 1
79, 97, 128 1
76, 96, 127 1
78, 97, 130 1
77, 96, 129 1
79, 100, 132 1
85, 106, 138 1
104, 127, 159 1
106, 129, 161 1
94, 113, 148 1
83, 107, 143 1
35, 51, 50 1
36, 52, 51 1
43, 55, 59 1
48, 60, 64 1
45, 59, 65 1
42, 58, 64 1
61, 77, 84 1
40, 59, 64 1
35, 54, 59 1
29, 48, 51 1
34, 53, 56 1
40, 57, 60 1
44, 59, 61 1
44, 57, 59 1
49, 61, 65 1
47, 58, 62 1
53, 62, 72 1
60, 69, 79 1
68, 78, 88 1
68, 82, 100 1
77, 93, 116 1
86, 103, 130 1
88, 106, 135 1
92, 110, 141 1
89, 108, 141 1
88, 106, 143 1
89, 108, 146 1
84, 103, 140 1
87, 109, 145 1
105, 124, 161 1
87, 114, 141 1
48, 57, 60 1
44, 56, 60 1
47, 61, 67 1
57, 74, 83 1
64, 79, 88 1
47, 63, 70 1
39, 57, 64 1
36, 54, 61 1
36, 55, 60 1
43, 60, 63 1
42, 59, 62 1
41, 56, 59 1
42, 54, 58 1
48, 58, 65 1
47, 57, 64 1
43, 52, 61 1
47, 56, 66 1
58, 67, 80 1
65, 74, 87 1
64, 76, 88 1
61, 77, 93 1
75, 92, 111 1
78, 96, 119 1
90, 108, 137 1
95, 115, 146 1
94, 113, 150 1
90, 110, 151 1
91, 110, 153 1
97, 116, 161 1
103, 122, 165 1
93, 112, 155 1
87, 106, 149 1
85, 107, 148 1
101, 124, 162 1
102, 125, 163 1
95, 114, 151 1
82, 109, 143 1
30, 46, 45 1
44, 56, 62 1
46, 62, 69 1
55, 74, 82 1
63, 80, 89 1
62, 79, 88 1
42, 61, 66 1
41, 57, 63 1
40, 52, 58 1
50, 59, 69 1
44, 53, 63 1
47, 56, 69 1
59, 70, 84 1
64, 75, 89 1
55, 75, 92 1
66, 86, 104 1
82, 100, 123 1
85, 104, 131 1
85, 106, 134 1
101, 120, 163 1
99, 119, 166 1
101, 121, 169 1
104, 123, 174 1
109, 129, 176 1
101, 121, 168 1
96, 115, 152 1
89, 116, 150 1
83, 108, 142 1
82, 110, 141 1
29, 45, 44 1
44, 54, 61 1
43, 55, 61 1
45, 57, 63 1
62, 80, 91 1
59, 75, 87 1
53, 69, 81 1
40, 58, 65 1
44, 62, 69 1
44, 57, 65 1
41, 54, 62 1
50, 60, 70 1
48, 57, 70 1
61, 75, 93 1
64, 85, 107 1
76, 97, 119 1
93, 113, 144 1
95, 116, 148 1
104, 125, 163 1
113, 135, 177 1
115, 136, 181 1
115, 135, 183 1
115, 134, 185 1
116, 134, 187 1
118, 136, 189 1
116, 138, 186 1
114, 136, 184 1
99, 119, 154 1
81, 106, 138 1
30, 45, 47 1
40, 50, 57 1
46, 57, 65 1
45, 58, 66 1
57, 73, 85 1
47, 63, 75 1
45, 61, 73 1
50, 62, 72 1
49, 66, 75 1
46, 58, 68 1
61, 73, 91 1
68, 82, 101 1
76, 97, 124 1
96, 116, 147 1
101, 122, 154 1
106, 126, 161 1
113, 133, 174 1
122, 143, 188 1
123, 143, 190 1
124, 144, 191 1
124, 143, 194 1
124, 142, 195 1
123, 141, 194 1
121, 142, 193 1
119, 140, 191 1
116, 137, 188 1
113, 137, 183 1
82, 106, 136 1
39, 48, 57 1
49, 60, 68 1
48, 60, 70 1
54, 70, 83 1
47, 63, 76 1
55, 67, 77 1
55, 70, 79 1
49, 61, 73 1
59, 71, 89 1
63, 77, 96 1
86, 103, 124 1
92, 112, 143 1
105, 124, 157 1
118, 139, 177 1
122, 142, 183 1
121, 142, 187 1
126, 146, 193 1
126, 144, 197 1
124, 141, 197 1
122, 139, 195 1
110, 133, 183 1
102, 122, 157 1
79, 103, 133 1
88, 113, 145 1
40, 49, 58 1
53, 63, 73 1
72, 91, 106 1
69, 88, 103 1
62, 79, 92 1
51, 67, 80 1
42, 59, 68 1
54, 65, 79 1
62, 72, 89 1
66, 78, 96 1
69, 84, 103 1
80, 97, 118 1
96, 113, 134 1
103, 122, 155 1
122, 141, 178 1
126, 145, 183 1
127, 147, 188 1
130, 149, 192 1
129, 150, 195 1
128, 150, 198 1
128, 149, 200 1
130, 148, 201 1
127, 144, 200 1
112, 135, 185 1
106, 133, 167 1
103, 123, 158 1
76, 100, 130 1
85, 110, 144 1
85, 106, 137 1
83, 104, 135 1
82, 103, 134 1
27, 44, 47 1
42, 53, 61 1
45, 57, 67 1
56, 70, 82 1
59, 73, 85 1
76, 94, 111 1
78, 94, 111 1
62, 77, 93 1
50, 69, 82 1
53, 72, 80 1
52, 70, 77 1
48, 65, 78 1
52, 71, 86 1
52, 75, 91 1
56, 81, 97 1
65, 91, 108 1
79, 107, 124 1
92, 120, 137 1
119, 142, 174 1
126, 148, 183 1
126, 150, 186 1
127, 152, 192 1
128, 152, 198 1
119, 145, 199 1
107, 128, 180 1
108, 129, 180 1
105, 130, 174 1
110, 135, 177 1
103, 130, 167 1
93, 114, 142 1
91, 117, 141 1
78, 106, 136 1
75, 105, 134 1
76, 105, 132 1
26, 45, 50 1
44, 56, 66 1
52, 64, 74 1
60, 72, 82 1
63, 77, 89 1
70, 89, 104 1
80, 98, 115 1
65, 81, 97 1
59, 75, 91 1
60, 75, 91 1
58, 77, 90 1
50, 68, 75 1
54, 72, 79 1
50, 66, 78 1
57, 76, 91 1
59, 82, 98 1
64, 88, 106 1
73, 99, 116 1
86, 113, 133 1
100, 127, 147 1
122, 145, 177 1
129, 151, 186 1
129, 153, 189 1
130, 153, 191 1
125, 152, 203 1
95, 114, 147 1
72, 102, 131 1
71, 101, 130 1
72, 100, 130 1
47, 59, 69 1
64, 78, 90 1
68, 84, 97 1
68, 87, 102 1
82, 102, 119 1
70, 88, 105 1
63, 82, 97 1
58, 75, 84 1
55, 71, 83 1
52, 69, 82 1
70, 94, 114 1
92, 119, 140 1
105, 132, 153 1
117, 140, 172 1
131, 153, 188 1
92, 117, 143 1
70, 98, 128 1
33, 51, 58 1
38, 56, 63 1
48, 62, 74 1
60, 73, 87 1
66, 82, 95 1
78, 94, 110 1
76, 96, 114 1
79, 101, 119 1
84, 106, 124 1
80, 102, 120 1
69, 89, 106 1
58, 74, 86 1
56, 72, 85 1
55, 71, 87 1
59, 75, 92 1
61, 81, 99 1
67, 88, 109 1
95, 121, 145 1
107, 133, 157 1
120, 142, 177 1
127, 149, 184 1
132, 155, 193 1
133, 155, 196 1
93, 118, 144 1
90, 116, 140 1
90, 114, 138 1
81, 108, 134 1
83, 110, 136 1
71, 99, 129 1
36, 53, 62 1
41, 58, 67 1
53, 69, 82 1
64, 79, 95 1
81, 99, 116 1
78, 98, 116 1
74, 96, 114 1
85, 106, 127 1
82, 106, 124 1
76, 98, 116 1
70, 92, 110 1
67, 89, 107 1
72, 90, 107 1
56, 75, 90 1
57, 74, 87 1
63, 79, 91 1
61, 76, 92 1
61, 77, 94 1
63, 80, 99 1
66, 85, 106 1
73, 94, 116 1
103, 126, 152 1
111, 136, 162 1
134, 157, 195 1
133, 158, 198 1
133, 157, 199 1
136, 162, 209 1
121, 146, 196 1
91, 114, 146 1
92, 119, 145 1
89, 115, 139 1
87, 113, 137 1
83, 113, 138 1
79, 102, 128 1
40, 56, 68 1
45, 62, 75 1
60, 76, 93 1
69, 85, 102 1
78, 95, 114 1
82, 102, 120 1
83, 102, 123 1
79, 100, 121 1
91, 114, 136 1
95, 119, 139 1
73, 97, 117 1
71, 95, 113 1
76, 93, 112 1
65, 83, 100 1
56, 74, 91 1
58, 74, 90 1
66, 82, 98 1
68, 83, 102 1
68, 85, 106 1
72, 90, 113 1
109, 131, 159 1
115, 139, 167 1
127, 151, 187 1
133, 156, 194 1
132, 157, 197 1
107, 129, 164 1
94, 117, 149 1
92, 117, 149 1
88, 116, 140 1
85, 110, 136 1
79, 106, 133 1
46, 63, 76 1
81, 98, 119 1
84, 103, 124 1
88, 107, 128 1
87, 108, 130 1
86, 109, 131 1
99, 121, 146 1
100, 124, 148 1
81, 105, 127 1
76, 101, 121 1
78, 102, 122 1
75, 99, 119 1
60, 78, 95 1
72, 88, 104 1
69, 86, 105 1
71, 87, 110 1
75, 92, 118 1
95, 116, 144 1
105, 127, 155 1
112, 136, 166 1
119, 143, 173 1
123, 146, 184 1
132, 156, 202 1
123, 149, 195 1
121, 144, 194 1
121, 143, 195 1
104, 126, 161 1
89, 116, 142 1
53, 69, 85 1
65, 81, 98 1
76, 93, 114 1
82, 99, 120 1
88, 106, 129 1
95, 115, 140 1
95, 117, 142 1
95, 116, 143 1
94, 118, 142 1
73, 92, 113 1
68, 88, 106 1
75, 94, 109 1
77, 95, 112 1
71, 88, 109 1
71, 89, 112 1
76, 96, 121 1
86, 107, 135 1
100, 121, 149 1
111, 132, 163 1
116, 140, 170 1
122, 146, 176 1
128, 150, 191 1
124, 151, 195 1
125, 148, 198 1
112, 134, 186 1
103, 128, 162 1
88, 115, 142 1
62, 80, 97 1
91, 109, 132 1
101, 118, 144 1
105, 122, 148 1
109, 128, 155 1
108, 130, 158 1
97, 119, 147 1
95, 118, 144 1
86, 110, 134 1
72, 93, 114 1
66, 88, 106 1
71, 91, 109 1
74, 94, 111 1
76, 96, 113 1
77, 97, 114 1
77, 97, 115 1
72, 92, 117 1
77, 96, 123 1
103, 124, 155 1
111, 135, 165 1
118, 141, 173 1
121, 144, 176 1
131, 153, 195 1
125, 150, 194 1
123, 150, 194 1
120, 143, 191 1
109, 132, 180 1
94, 121, 155 1
92, 120, 151 1
81, 110, 137 1
73, 90, 111 1
107, 124, 151 1
108, 127, 154 1
111, 130, 157 1
118, 138, 169 1
115, 136, 167 1
113, 134, 165 1
108, 129, 160 1
100, 122, 150 1
99, 121, 149 1
96, 118, 146 1
92, 115, 141 1
78, 101, 123 1
75, 96, 117 1
81, 103, 121 1
83, 104, 125 1
78, 99, 121 1
76, 98, 123 1
120, 143, 175 1
120, 145, 177 1
123, 148, 192 1
122, 146, 192 1
122, 145, 193 1
123, 146, 194 1
125, 148, 196 1
126, 149, 199 1
125, 149, 201 1
90, 118, 148 1
87, 104, 125 1
119, 140, 168 1
123, 143, 174 1
126, 146, 177 1
119, 140, 172 1
118, 139, 171 1
114, 135, 167 1
111, 132, 164 1
109, 130, 162 1
84, 108, 132 1
81, 104, 126 1
84, 107, 129 1
87, 110, 132 1
81, 102, 129 1
114, 139, 171 1
118, 143, 177 1
120, 145, 179 1
125, 149, 195 1
126, 150, 196 1
128, 151, 199 1
129, 152, 202 1
128, 152, 204 1
123, 147, 201 1
123, 144, 199 1
89, 117, 147 1
85, 110, 142 1
94, 114, 139 1
99, 116, 142 1
111, 133, 161 1
121, 143, 171 1
124, 145, 176 1
127, 148, 179 1
130, 151, 183 1
132, 153, 185 1
130, 150, 185 1
122, 144, 179 1
121, 143, 178 1
117, 139, 174 1
116, 138, 173 1
114, 136, 171 1
119, 144, 178 1
119, 145, 181 1
130, 154, 206 1
104, 126, 178 1
86, 111, 143 1
80, 107, 134 1
93, 113, 138 1
96, 113, 139 1
104, 121, 148 1
118, 142, 172 1
127, 151, 181 1
129, 153, 183 1
130, 153, 185 1
132, 155, 187 1
127, 149, 185 1
121, 143, 179 1
119, 141, 177 1
114, 136, 172 1
92, 115, 147 1
88, 112, 140 1
116, 142, 178 1
121, 147, 183 1
123, 149, 185 1
107, 128, 183 1
107, 129, 181 1
108, 130, 182 1
112, 128, 157 1
123, 149, 179 1
130, 156, 186 1
130, 155, 187 1
129, 154, 186 1
133, 158, 192 1
135, 159, 195 1
124, 147, 185 1
121, 144, 182 1
119, 142, 180 1
115, 139, 175 1
93, 118, 152 1
123, 149, 186 1
124, 151, 188 1
118, 143, 185 1
120, 145, 187 1
135, 159, 211 1
117, 138, 193 1
96, 123, 150 1
80, 106, 136 1
103, 120, 147 1
119, 137, 166 1
124, 154, 183 1
128, 157, 188 1
131, 158, 192 1
132, 158, 194 1
133, 159, 195 1
128, 154, 191 1
122, 148, 185 1
119, 145, 182 1
113, 139, 176 1
110, 136, 173 1
101, 127, 157 1
114, 139, 179 1
118, 144, 184 1
122, 148, 188 1
111, 136, 178 1
115, 140, 184 1
119, 144, 188 1
134, 158, 212 1
114, 134, 189 1
108, 128, 176 1
109, 129, 170 1
95, 124, 151 1
105, 122, 149 1
125, 143, 172 1
126, 156, 185 1
133, 161, 195 1
135, 163, 197 1
134, 162, 197 1
132, 159, 196 1
127, 154, 191 1
123, 148, 188 1
119, 144, 184 1
116, 142, 179 1
117, 140, 178 1
113, 137, 173 1
113, 137, 179 1
114, 138, 180 1
113, 138, 182 1
116, 141, 185 1
119, 136, 192 1
116, 133, 189 1
115, 132, 188 1
115, 133, 186 1
112, 130, 183 1
110, 130, 178 1
107, 126, 171 1
108, 129, 167 1
106, 127, 165 1
95, 122, 148 1
74, 102, 132 1
125, 152, 186 1
133, 160, 194 1
134, 162, 196 1
136, 164, 199 1
137, 167, 202 1
134, 166, 201 1
130, 162, 198 1
126, 158, 194 1
118, 149, 188 1
115, 146, 185 1
117, 146, 185 1
117, 145, 186 1
115, 143, 184 1
115, 141, 181 1
114, 140, 180 1
113, 139, 179 1
112, 135, 180 1
114, 137, 182 1
118, 141, 187 1
127, 147, 195 1
124, 145, 190 1
124, 146, 188 1
119, 141, 183 1
110, 134, 176 1
106, 134, 175 1
115, 150, 193 1
125, 159, 205 1
127, 160, 209 1
128, 161, 210 1
119, 143, 197 1
119, 142, 198 1
119, 140, 192 1
102, 124, 165 1
92, 122, 151 1
91, 121, 150 1
90, 120, 147 1
95, 128, 154 1
87, 120, 146 1
87, 118, 143 1
86, 117, 142 1
84, 105, 132 1
81, 105, 129 1
78, 106, 130 1
74, 105, 130 1
74, 108, 132 1
81, 113, 136 1
98, 125, 146 1
127, 153, 189 1
136, 162, 198 1
138, 166, 201 1
140, 170, 205 1
135, 167, 203 1
131, 162, 201 1
119, 145, 185 1
117, 140, 185 1
118, 141, 186 1
119, 142, 188 1
125, 146, 197 1
129, 149, 196 1
117, 139, 181 1
99, 123, 165 1
93, 118, 160 1
90, 115, 157 1
108, 143, 183 1
117, 151, 194 1
123, 157, 200 1
122, 157, 201 1
124, 158, 204 1
127, 159, 208 1
121, 144, 200 1
94, 124, 153 1
96, 126, 155 1
91, 121, 148 1
87, 116, 143 1
73, 107, 131 1
80, 112, 135 1
97, 124, 145 1
124, 152, 187 1
135, 163, 198 1
139, 168, 205 1
136, 165, 204 1
134, 163, 202 1
130, 158, 199 1
127, 155, 196 1
127, 152, 194 1
129, 154, 196 1
126, 147, 198 1
131, 152, 197 1
130, 151, 196 1
128, 149, 194 1
115, 137, 179 1
93, 118, 158 1
86, 111, 151 1
85, 111, 151 1
95, 121, 161 1
103, 138, 178 1
113, 148, 188 1
120, 154, 197 1
122, 155, 200 1
128, 161, 207 1
115, 136, 187 1
112, 134, 182 1
103, 125, 167 1
82, 105, 131 1
73, 107, 130 1
81, 112, 135 1
99, 126, 147 1
121, 148, 185 1
134, 161, 198 1
144, 171, 208 1
140, 166, 206 1
139, 165, 205 1
138, 164, 204 1
133, 161, 202 1
130, 155, 197 1
123, 146, 191 1
122, 145, 191 1
132, 153, 198 1
134, 156, 198 1
132, 154, 196 1
103, 126, 164 1
97, 120, 158 1
81, 107, 144 1
77, 104, 141 1
88, 115, 152 1
110, 142, 183 1
119, 153, 196 1
120, 153, 198 1
123, 156, 201 1
102, 127, 161 1
104, 124, 159 1
74, 105, 128 1
75, 107, 130 1
83, 114, 137 1
100, 127, 148 1
120, 146, 170 1
137, 163, 203 1
146, 172, 212 1
144, 170, 210 1
141, 167, 207 1
131, 160, 204 1
135, 160, 202 1
124, 146, 194 1
133, 155, 197 1
138, 160, 201 1
136, 158, 199 1
115, 137, 178 1
105, 125, 166 1
97, 118, 156 1
92, 115, 153 1
75, 101, 138 1
72, 98, 134 1
100, 132, 168 1
108, 141, 180 1
119, 151, 194 1
124, 154, 201 1
128, 158, 205 1
125, 145, 203 1
100, 121, 166 1
101, 126, 170 1
100, 127, 161 1
100, 122, 157 1
104, 125, 157 1
102, 123, 154 1
84, 107, 133 1
73, 105, 128 1
82, 113, 136 1
122, 148, 172 1
125, 154, 193 1
134, 163, 208 1
134, 162, 203 1
135, 160, 204 1
135, 157, 198 1
140, 162, 203 1
134, 156, 197 1
77, 101, 137 1
68, 92, 128 1
65, 89, 125 1
98, 130, 166 1
113, 144, 183 1
116, 146, 187 1
118, 150, 193 1
124, 147, 203 1
129, 149, 207 1
128, 148, 206 1
124, 143, 200 1
112, 133, 185 1
104, 124, 171 1
98, 123, 167 1
105, 133, 168 1
100, 122, 158 1
78, 100, 125 1
102, 127, 147 1
120, 147, 168 1
127, 156, 195 1
148, 173, 213 1
140, 165, 209 1
134, 158, 204 1
138, 161, 199 1
141, 164, 202 1
126, 149, 187 1
89, 110, 148 1
84, 106, 142 1
71, 93, 129 1
59, 84, 118 1
58, 83, 117 1
69, 94, 128 1
97, 127, 162 1
104, 134, 169 1
111, 142, 181 1
120, 152, 195 1
123, 155, 198 1
124, 155, 200 1
131, 151, 209 1
107, 128, 179 1
97, 124, 158 1
100, 125, 157 1
91, 113, 141 1
85, 106, 133 1
97, 122, 142 1
116, 143, 164 1
127, 156, 193 1
147, 176, 213 1
152, 178, 218 1
152, 177, 217 1
149, 174, 214 1
140, 165, 207 1
137, 166, 210 1
135, 167, 210 1
139, 167, 208 1
136, 156, 203 1
141, 165, 201 1
140, 164, 200 1
91, 110, 148 1
53, 75, 110 1
54, 76, 111 1
69, 92, 124 1
107, 135, 169 1
110, 138, 173 1
112, 141, 180 1
126, 154, 201 1
119, 140, 195 1
106, 129, 175 1
94, 122, 163 1
98, 125, 162 1
104, 132, 163 1
103, 131, 162 1
99, 125, 155 1
81, 101, 126 1
85, 112, 133 1
95, 121, 138 1
113, 140, 160 1
127, 157, 192 1
145, 174, 211 1
151, 178, 215 1
154, 180, 217 1
151, 174, 212 1
150, 172, 213 1
146, 171, 211 1
136, 168, 209 1
141, 169, 210 1
131, 157, 203 1
145, 165, 212 1
146, 168, 204 1
137, 159, 195 1
82, 104, 140 1
85, 104, 141 1
94, 113, 151 1
82, 101, 138 1
68, 88, 123 1
53, 73, 108 1
47, 67, 102 1
56, 77, 109 1
104, 132, 166 1
106, 135, 172 1
111, 140, 179 1
115, 145, 186 1
120, 149, 193 1
128, 150, 208 1
127, 149, 207 1
95, 122, 166 1
96, 126, 161 1
96, 122, 162 1
99, 127, 158 1
98, 126, 156 1
97, 118, 149 1
93, 115, 143 1
80, 106, 130 1
89, 115, 132 1
110, 138, 155 1
121, 152, 185 1
135, 166, 199 1
146, 174, 209 1
151, 179, 214 1
155, 181, 217 1
153, 179, 216 1
147, 173, 210 1
147, 172, 212 1
137, 167, 208 1
133, 154, 199 1
146, 167, 212 1
145, 167, 202 1
91, 113, 148 1
79, 98, 135 1
100, 118, 155 1
90, 108, 145 1
77, 95, 132 1
60, 79, 114 1
48, 67, 100 1
46, 65, 98 1
56, 76, 107 1
72, 93, 124 1
102, 128, 158 1
101, 129, 160 1
104, 131, 168 1
107, 136, 175 1
113, 142, 181 1
117, 147, 188 1
117, 146, 190 1
120, 149, 194 1
125, 153, 200 1
126, 153, 203 1
116, 139, 189 1
102, 124, 166 1
97, 125, 166 1
95, 124, 161 1
93, 123, 158 1
99, 128, 167 1
103, 128, 160 1
104, 129, 161 1
104, 128, 158 1
98, 119, 151 1
77, 101, 125 1
83, 108, 124 1
107, 133, 150 1
118, 149, 180 1
136, 167, 198 1
149, 177, 211 1
155, 183, 217 1
154, 181, 215 1
154, 180, 216 1
142, 173, 212 1
140, 170, 211 1
139, 162, 194 1
70, 90, 125 1
76, 96, 131 1
86, 102, 138 1
70, 86, 122 1
52, 69, 102 1
45, 62, 95 1
50, 68, 99 1
61, 82, 110 1
78, 99, 127 1
91, 112, 140 1
92, 119, 153 1
96, 122, 158 1
106, 135, 174 1
112, 140, 181 1
115, 144, 189 1
121, 149, 196 1
123, 150, 200 1
123, 149, 203 1
131, 152, 207 1
129, 150, 205 1
129, 151, 203 1
128, 150, 202 1
118, 141, 191 1
109, 133, 179 1
97, 121, 163 1
95, 124, 163 1
93, 122, 159 1
94, 123, 162 1
99, 120, 152 1
76, 100, 124 1
72, 98, 112 1
98, 124, 140 1
117, 146, 177 1
137, 166, 197 1
150, 179, 210 1
148, 175, 212 1
139, 169, 210 1
132, 155, 203 1
134, 155, 200 1
138, 159, 204 1
144, 163, 206 1
129, 153, 181 1
74, 95, 126 1
69, 90, 121 1
84, 103, 136 1
84, 100, 136 1
47, 65, 96 1
43, 61, 92 1
51, 69, 98 1
63, 82, 109 1
79, 98, 125 1
90, 115, 147 1
104, 132, 173 1
104, 134, 175 1
110, 139, 183 1
115, 143, 190 1
118, 145, 195 1
115, 141, 188 1
113, 136, 184 1
91, 119, 160 1
92, 118, 158 1
96, 124, 159 1
92, 120, 161 1
100, 128, 169 1
101, 129, 170 1
111, 132, 177 1
109, 131, 167 1
102, 121, 154 1
98, 117, 150 1
100, 121, 153 1
77, 99, 124 1
80, 104, 126 1
61, 87, 99 1
86, 113, 127 1
106, 136, 165 1
129, 159, 188 1
145, 175, 204 1
152, 181, 212 1
156, 184, 218 1
156, 184, 219 1
153, 183, 218 1
149, 178, 215 1
146, 175, 214 1
142, 171, 210 1
133, 156, 202 1
138, 160, 202 1
143, 162, 205 1
141, 161, 202 1
120, 143, 169 1
71, 93, 121 1
73, 93, 124 1
83, 101, 132 1
92, 109, 142 1
94, 109, 142 1
85, 100, 132 1
64, 79, 111 1
46, 62, 91 1
47, 64, 91 1
59, 76, 103 1
84, 102, 125 1
96, 120, 148 1
81, 108, 142 1
91, 120, 159 1
104, 133, 177 1
104, 128, 174 1
92, 119, 163 1
82, 109, 146 1
80, 106, 146 1
88, 116, 157 1
115, 135, 182 1
112, 132, 179 1
108, 128, 175 1
111, 131, 172 1
113, 135, 171 1
113, 133, 168 1
107, 127, 162 1
105, 124, 159 1
103, 124, 156 1
77, 101, 123 1
81, 106, 126 1
54, 80, 92 1
79, 105, 119 1
99, 129, 158 1
122, 152, 181 1
140, 170, 199 1
156, 185, 216 1
154, 185, 218 1
156, 186, 221 1
155, 184, 221 1
151, 180, 217 1
147, 176, 215 1
132, 160, 201 1
128, 154, 200 1
137, 160, 206 1
136, 159, 205 1
142, 161, 204 1
143, 163, 204 1
138, 158, 199 1
109, 133, 157 1
69, 90, 117 1
73, 94, 122 1
85, 103, 132 1
93, 109, 138 1
91, 106, 138 1
79, 95, 124 1
60, 74, 103 1
44, 58, 86 1
51, 66, 92 1
70, 86, 109 1
89, 108, 129 1
92, 112, 130 1
73, 100, 134 1
73, 100, 137 1
79, 108, 147 1
90, 120, 161 1
101, 131, 178 1
106, 136, 185 1
112, 140, 194 1
117, 144, 200 1
121, 148, 205 1
124, 150, 210 1
112, 137, 187 1
105, 129, 175 1
103, 127, 173 1
102, 125, 171 1
86, 114, 149 1
81, 109, 144 1
78, 105, 142 1
76, 102, 142 1
80, 105, 147 1
107, 133, 179 1
112, 134, 170 1
111, 133, 169 1
110, 132, 168 1
106, 127, 159 1
76, 100, 122 1
78, 103, 123 1
52, 77, 87 1
74, 100, 112 1
117, 145, 175 1
136, 166, 195 1
150, 182, 218 1
143, 174, 213 1
129, 157, 198 1
129, 157, 204 1
134, 159, 209 1
136, 159, 207 1
140, 160, 207 1
142, 162, 203 1
134, 152, 193 1
98, 123, 143 1
71, 95, 117 1
63, 86, 108 1
76, 95, 122 1
91, 107, 136 1
72, 86, 114 1
53, 67, 95 1
41, 56, 82 1
52, 68, 91 1
72, 89, 110 1
85, 102, 121 1
87, 104, 123 1
85, 103, 120 1
81, 104, 130 1
74, 99, 133 1
65, 91, 127 1
65, 92, 129 1
70, 99, 138 1
79, 109, 150 1
88, 117, 161 1
94, 124, 171 1
100, 130, 179 1
114, 141, 197 1
118, 144, 204 1
122, 148, 208 1
126, 151, 207 1
107, 132, 182 1
101, 125, 171 1
96, 121, 165 1
93, 118, 162 1
77, 103, 139 1
77, 102, 144 1
98, 124, 170 1
108, 134, 180 1
111, 137, 183 1
106, 132, 179 1
103, 129, 176 1
99, 125, 171 1
98, 125, 169 1
104, 130, 170 1
85, 107, 132 1
78, 102, 124 1
48, 73, 83 1
70, 96, 108 1
87, 115, 145 1
109, 137, 167 1
130, 160, 189 1
148, 177, 208 1
154, 187, 220 1
144, 175, 214 1
141, 171, 212 1
125, 153, 194 1
122, 149, 193 1
128, 156, 203 1
137, 162, 212 1
137, 160, 208 1
141, 162, 207 1
141, 163, 205 1
146, 165, 208 1
140, 160, 201 1
129, 147, 188 1
89, 114, 134 1
67, 91, 111 1
62, 85, 107 1
67, 90, 112 1
77, 97, 122 1
88, 105, 132 1
81, 98, 125 1
61, 75, 103 1
47, 62, 88 1
40, 55, 81 1
54, 70, 93 1
75, 92, 113 1
88, 105, 124 1
89, 107, 124 1
86, 104, 121 1
73, 97, 121 1
73, 98, 132 1
61, 87, 123 1
56, 83, 120 1
57, 86, 125 1
72, 102, 143 1
82, 111, 155 1
89, 119, 166 1
96, 126, 175 1
112, 139, 195 1
115, 141, 201 1
120, 146, 206 1
123, 147, 207 1
129, 153, 211 1
102, 128, 175 1
103, 126, 174 1
99, 123, 169 1
97, 120, 166 1
97, 122, 166 1
94, 119, 161 1
79, 105, 141 1
72, 98, 135 1
67, 93, 133 1
71, 96, 138 1
85, 110, 154 1
97, 123, 169 1
97, 125, 172 1
95, 124, 169 1
96, 125, 169 1
103, 131, 172 1
105, 134, 173 1
109, 135, 175 1
110, 137, 174 1
77, 100, 122 1
83, 108, 128 1
70, 87, 100 1
77, 108, 133 1
99, 133, 157 1
120, 153, 179 1
134, 168, 198 1
145, 178, 211 1
143, 172, 216 1
139, 168, 212 1
136, 165, 210 1
134, 162, 209 1
121, 152, 203 1
121, 146, 202 1
138, 163, 205 1
139, 163, 205 1
142, 164, 205 1
148, 167, 205 1
140, 158, 195 1
125, 141, 178 1
71, 92, 113 1
63, 90, 104 1
71, 101, 112 1
84, 110, 126 1
90, 114, 134 1
60, 74, 102 1
33, 45, 69 1
47, 61, 83 1
84, 109, 125 1
81, 107, 123 1
72, 87, 113 1
77, 94, 121 1
89, 105, 134 1
87, 106, 139 1
57, 82, 126 1
70, 97, 141 1
92, 118, 165 1
110, 135, 185 1
124, 155, 210 1
124, 154, 209 1
120, 150, 205 1
119, 147, 201 1
110, 134, 186 1
106, 131, 181 1
95, 118, 163 1
76, 98, 139 1
77, 99, 141 1
69, 90, 135 1
82, 104, 152 1
97, 119, 167 1
104, 130, 177 1
110, 138, 185 1
112, 131, 182 1
113, 131, 178 1
108, 127, 170 1
116, 135, 173 1
96, 115, 153 1
94, 112, 149 1
92, 108, 144 1
83, 102, 137 1
75, 95, 130 1
74, 97, 129 1
83, 103, 134 1
43, 61, 72 1
68, 99, 124 1
115, 147, 176 1
132, 163, 196 1
142, 174, 209 1
146, 178, 214 1
147, 177, 218 1
145, 174, 218 1
142, 171, 216 1
138, 167, 212 1
135, 163, 210 1
119, 150, 203 1
124, 149, 199 1
144, 166, 207 1
144, 165, 203 1
133, 151, 188 1
89, 107, 130 1
57, 82, 98 1
61, 88, 102 1
70, 97, 111 1
80, 106, 122 1
84, 108, 128 1
57, 71, 99 1
34, 46, 70 1
48, 61, 83 1
62, 77, 96 1
77, 102, 118 1
79, 104, 120 1
69, 84, 110 1
69, 86, 113 1
77, 95, 124 1
83, 102, 135 1
61, 83, 124 1
59, 84, 126 1
63, 88, 132 1
72, 98, 144 1
84, 110, 156 1
93, 121, 168 1
102, 129, 179 1
111, 135, 187 1
116, 140, 192 1
122, 153, 208 1
121, 152, 207 1
117, 147, 202 1
109, 137, 191 1
103, 130, 181 1
97, 124, 175 1
101, 126, 176 1
105, 128, 176 1
104, 126, 174 1
100, 123, 169 1
95, 118, 164 1
94, 117, 163 1
82, 108, 145 1
81, 103, 144 1
73, 95, 137 1
60, 81, 126 1
57, 77, 124 1
74, 94, 142 1
97, 120, 168 1
100, 126, 173 1
107, 133, 180 1
112, 131, 188 1
109, 129, 177 1
95, 113, 150 1
93, 109, 145 1
88, 107, 140 1
85, 104, 137 1
76, 97, 129 1
73, 97, 127 1
78, 99, 130 1
35, 52, 61 1
56, 74, 85 1
62, 91, 118 1
111, 140, 171 1
128, 158, 193 1
139, 171, 207 1
143, 173, 214 1
142, 174, 217 1
142, 173, 218 1
142, 170, 217 1
136, 163, 213 1
131, 158, 209 1
123, 151, 205 1
123, 151, 198 1
145, 170, 212 1
142, 163, 201 1
126, 145, 182 1
106, 124, 161 1
65, 84, 105 1
55, 78, 94 1
59, 85, 99 1
67, 94, 108 1
78, 104, 120 1
82, 106, 126 1
51, 65, 93 1
33, 44, 72 1
26, 37, 64 1
36, 49, 71 1
45, 60, 79 1
51, 71, 89 1
62, 84, 102 1
68, 92, 110 1
67, 84, 110 1
64, 81, 108 1
67, 85, 114 1
76, 95, 128 1
58, 80, 121 1
60, 85, 127 1
68, 95, 139 1
89, 117, 164 1
99, 127, 174 1
113, 140, 191 1
107, 135, 189 1
99, 126, 177 1
92, 119, 170 1
91, 116, 166 1
102, 125, 173 1
99, 121, 169 1
88, 111, 157 1
98, 121, 167 1
91, 117, 154 1
85, 111, 148 1
88, 111, 149 1
74, 93, 136 1
56, 75, 120 1
48, 66, 113 1
64, 84, 132 1
88, 108, 156 1
109, 129, 186 1
100, 129, 173 1
109, 136, 180 1
113, 136, 181 1
101, 122, 160 1
89, 109, 140 1
32, 49, 58 1
60, 87, 114 1
105, 134, 165 1
123, 153, 188 1
133, 164, 203 1
136, 168, 211 1
139, 170, 215 1
139, 169, 216 1
136, 166, 215 1
134, 163, 214 1
133, 160, 211 1
122, 149, 205 1
118, 145, 201 1
120, 150, 197 1
125, 156, 201 1
131, 160, 205 1
144, 169, 209 1
141, 162, 200 1
125, 144, 181 1
61, 79, 102 1
50, 72, 90 1
53, 79, 93 1
63, 89, 103 1
75, 100, 116 1
81, 102, 123 1
50, 62, 90 1
29, 40, 68 1
18, 27, 54 1
19, 31, 55 1
21, 35, 57 1
22, 39, 58 1
29, 48, 69 1
36, 57, 78 1
39, 58, 85 1
38, 57, 84 1
41, 59, 88 1
52, 72, 103 1
61, 83, 119 1
58, 83, 123 1
60, 86, 126 1
69, 94, 136 1
77, 104, 148 1
85, 114, 159 1
96, 124, 171 1
105, 132, 182 1
115, 144, 195 1
102, 129, 180 1
95, 122, 173 1
98, 121, 169 1
107, 127, 175 1
89, 112, 150 1
90, 113, 151 1
91, 114, 152 1
92, 112, 153 1
77, 96, 139 1
55, 74, 119 1
43, 61, 108 1
89, 108, 159 1
100, 121, 172 1
104, 125, 176 1
107, 127, 185 1
109, 130, 185 1
96, 128, 171 1
100, 131, 176 1
103, 134, 179 1
107, 136, 181 1
110, 137, 181 1
112, 137, 181 1
91, 111, 142 1
87, 108, 139 1
74, 99, 125 1
79, 106, 127 1
86, 110, 130 1
33, 49, 56 1
38, 55, 64 1
57, 82, 108 1
118, 148, 183 1
131, 163, 206 1
132, 165, 211 1
131, 163, 212 1
132, 163, 214 1
132, 161, 212 1
130, 159, 210 1
126, 154, 208 1
121, 149, 203 1
118, 146, 200 1
112, 144, 193 1
113, 145, 194 1
114, 147, 193 1
123, 153, 200 1
125, 155, 202 1
126, 156, 203 1
130, 160, 207 1
139, 168, 213 1
143, 170, 214 1
137, 159, 200 1
60, 78, 101 1
45, 67, 85 1
54, 80, 94 1
66, 91, 107 1
74, 95, 116 1
52, 64, 92 1
32, 43, 71 1
23, 35, 59 1
26, 40, 62 1
25, 42, 63 1
28, 47, 68 1
34, 55, 77 1
34, 53, 80 1
36, 55, 82 1
34, 55, 83 1
55, 76, 108 1
62, 82, 117 1
58, 80, 116 1
64, 90, 127 1
80, 108, 149 1
89, 116, 160 1
98, 127, 172 1
104, 134, 183 1
114, 143, 194 1
105, 132, 183 1
99, 126, 176 1
92, 113, 164 1
113, 132, 177 1
93, 113, 154 1
80, 99, 142 1
59, 75, 121 1
43, 58, 107 1
61, 75, 127 1
90, 107, 158 1
105, 125, 183 1
105, 125, 182 1
108, 128, 183 1
96, 126, 167 1
94, 126, 167 1
97, 129, 172 1
100, 132, 175 1
104, 133, 178 1
110, 136, 182 1
88, 109, 140 1
81, 106, 132 1
77, 103, 127 1
81, 108, 128 1
86, 111, 127 1
32, 48, 54 1
38, 54, 61 1
51, 78, 99 1
71, 97, 121 1
92, 121, 148 1
114, 143, 174 1
125, 157, 193 1
128, 160, 201 1
128, 161, 206 1
125, 158, 207 1
129, 162, 211 1
130, 161, 212 1
128, 159, 210 1
122, 151, 202 1
125, 155, 204 1
138, 166, 213 1
141, 164, 209 1
136, 158, 200 1
83, 100, 127 1
57, 78, 100 1
41, 63, 81 1
70, 91, 112 1
71, 88, 114 1
53, 65, 93 1
35, 46, 74 1
20, 32, 56 1
25, 39, 62 1
26, 44, 67 1
36, 57, 84 1
43, 63, 94 1
56, 75, 108 1
60, 82, 118 1
88, 114, 154 1
112, 143, 194 1
114, 145, 200 1
115, 146, 201 1
108, 135, 186 1
100, 125, 175 1
91, 114, 164 1
98, 119, 170 1
115, 132, 181 1
110, 128, 175 1
104, 122, 169 1
93, 115, 157 1
96, 118, 159 1
95, 114, 157 1
86, 102, 148 1
62, 78, 125 1
45, 60, 109 1
60, 74, 126 1
92, 106, 159 1
105, 120, 176 1
105, 122, 178 1
110, 127, 183 1
105, 124, 181 1
102, 121, 178 1
101, 122, 174 1
93, 124, 163 1
95, 125, 166 1
102, 131, 175 1
107, 134, 178 1
110, 135, 179 1
101, 121, 162 1
82, 106, 134 1
79, 106, 132 1
82, 108, 125 1
88, 111, 126 1
45, 71, 88 1
61, 88, 108 1
83, 111, 135 1
105, 135, 164 1
118, 151, 184 1
122, 158, 196 1
125, 160, 203 1
124, 160, 208 1
124, 156, 205 1
120, 152, 201 1
117, 150, 196 1
117, 147, 194 1
119, 149, 198 1
125, 154, 205 1
126, 155, 206 1
128, 156, 210 1
137, 164, 215 1
142, 165, 215 1
124, 143, 186 1
110, 128, 169 1
86, 105, 132 1
58, 79, 101 1
34, 60, 74 1
40, 66, 78 1
51, 77, 91 1
68, 86, 109 1
49, 64, 90 1
35, 48, 74 1
20, 33, 59 1
20, 34, 57 1
25, 41, 64 1
26, 43, 69 1
44, 65, 93 1
48, 68, 99 1
53, 73, 104 1
67, 86, 119 1
69, 89, 124 1
78, 100, 136 1
86, 110, 146 1
95, 121, 158 1
108, 135, 179 1
113, 142, 193 1
113, 144, 199 1
112, 143, 198 1
114, 144, 199 1
109, 140, 193 1
107, 136, 187 1
104, 131, 182 1
98, 125, 175 1
90, 115, 165 1
89, 112, 162 1
102, 123, 174 1
105, 123, 176 1
111, 129, 182 1
116, 132, 185 1
115, 132, 183 1
112, 129, 180 1
106, 123, 172 1
98, 118, 165 1
94, 115, 160 1
87, 106, 151 1
65, 81, 128 1
58, 72, 125 1
90, 103, 159 1
104, 119, 175 1
108, 122, 180 1
105, 122, 179 1
100, 117, 173 1
97, 115, 168 1
97, 117, 165 1
96, 123, 160 1
94, 123, 160 1
102, 122, 169 1
91, 113, 149 1
86, 108, 143 1
76, 103, 129 1
78, 105, 126 1
84, 108, 126 1
91, 112, 127 1
38, 65, 79 1
53, 79, 95 1
72, 102, 121 1
94, 125, 150 1
109, 143, 173 1
116, 152, 188 1
120, 157, 201 1
122, 158, 204 1
121, 155, 201 1
117, 151, 197 1
116, 149, 195 1
120, 150, 199 1
128, 154, 208 1
132, 157, 213 1
133, 158, 214 1
138, 162, 216 1
139, 161, 213 1
137, 158, 209 1
127, 146, 191 1
116, 133, 176 1
60, 82, 107 1
31, 57, 71 1
33, 59, 71 1
42, 68, 82 1
54, 77, 93 1
56, 77, 98 1
51, 69, 92 1
43, 58, 84 1
34, 50, 73 1
37, 53, 76 1
40, 60, 85 1
47, 66, 93 1
40, 61, 89 1
59, 76, 109 1
66, 83, 116 1
68, 87, 122 1
111, 138, 182 1
114, 144, 193 1
116, 145, 196 1
113, 143, 198 1
110, 141, 194 1
100, 129, 180 1
93, 120, 171 1
84, 111, 162 1
83, 107, 159 1
84, 106, 158 1
94, 115, 167 1
106, 127, 179 1
107, 125, 178 1
111, 127, 180 1
114, 130, 183 1
115, 130, 186 1
112, 128, 181 1
93, 113, 160 1
96, 117, 162 1
87, 105, 152 1
65, 80, 129 1
44, 58, 110 1
55, 69, 122 1
87, 100, 156 1
103, 115, 173 1
102, 116, 174 1
103, 117, 175 1
96, 112, 165 1
94, 114, 162 1
97, 118, 163 1
104, 124, 172 1
100, 120, 168 1
96, 116, 163 1
92, 114, 156 1
83, 107, 131 1
90, 111, 132 1
95, 111, 128 1
27, 45, 52 1
31, 49, 56 1
29, 55, 67 1
41, 67, 83 1
60, 90, 109 1
82, 113, 138 1
100, 134, 164 1
113, 151, 186 1
119, 158, 202 1
116, 155, 200 1
119, 155, 201 1
118, 154, 200 1
116, 150, 196 1
114, 149, 193 1
110, 143, 189 1
112, 142, 189 1
126, 153, 204 1
131, 156, 212 1
132, 156, 214 1
136, 158, 216 1
138, 161, 217 1
139, 160, 215 1
138, 159, 211 1
140, 157, 208 1
132, 148, 195 1
120, 136, 183 1
104, 126, 154 1
68, 92, 116 1
37, 63, 80 1
24, 51, 65 1
22, 50, 61 1
30, 56, 68 1
39, 64, 80 1
51, 73, 91 1
51, 72, 94 1
52, 70, 93 1
46, 64, 87 1
43, 61, 84 1
44, 65, 87 1
47, 67, 92 1
47, 68, 95 1
50, 71, 98 1
44, 64, 95 1
53, 72, 105 1
62, 79, 112 1
67, 84, 117 1
75, 91, 127 1
82, 98, 134 1
82, 101, 136 1
89, 108, 143 1
121, 146, 190 1
120, 151, 204 1
117, 148, 201 1
107, 138, 191 1
103, 131, 185 1
101, 129, 183 1
90, 118, 172 1
80, 106, 160 1
78, 102, 154 1
67, 91, 143 1
64, 86, 138 1
63, 84, 136 1
70, 91, 143 1
86, 104, 157 1
101, 117, 170 1
107, 123, 176 1
105, 121, 174 1
108, 123, 179 1
107, 122, 178 1
90, 113, 159 1
90, 113, 158 1
89, 107, 154 1
72, 89, 138 1
39, 53, 106 1
74, 87, 143 1
107, 119, 177 1
99, 116, 173 1
96, 113, 169 1
93, 111, 164 1
89, 109, 156 1
89, 112, 157 1
90, 115, 155 1
93, 119, 156 1
95, 115, 162 1
92, 113, 158 1
81, 103, 138 1
79, 102, 134 1
95, 111, 134 1
102, 113, 133 1
30, 48, 55 1
39, 56, 65 1
24, 50, 62 1
33, 59, 75 1
67, 98, 123 1
86, 120, 150 1
103, 139, 175 1
113, 152, 191 1
115, 154, 198 1
115, 154, 199 1
114, 153, 198 1
116, 152, 198 1
113, 147, 193 1
117, 145, 192 1
135, 157, 215 1
140, 160, 218 1
140, 160, 217 1
142, 159, 215 1
142, 158, 211 1
135, 149, 201 1
123, 138, 187 1
76, 99, 125 1
42, 67, 87 1
23, 50, 64 1
21, 49, 60 1
47, 68, 89 1
49, 70, 92 1
50, 71, 93 1
50, 73, 95 1
55, 78, 100 1
57, 79, 104 1
55, 78, 104 1
56, 78, 106 1
59, 79, 110 1
63, 82, 115 1
81, 97, 133 1
95, 111, 148 1
93, 111, 148 1
96, 114, 151 1
115, 136, 174 1
126, 151, 195 1
130, 157, 207 1
105, 133, 187 1
95, 123, 177 1
90, 116, 170 1
85, 111, 165 1
86, 110, 164 1
91, 115, 169 1
82, 103, 158 1
69, 89, 144 1
64, 81, 137 1
68, 86, 139 1
83, 99, 152 1
95, 111, 164 1
100, 116, 169 1
98, 116, 169 1
89, 112, 158 1
98, 121, 166 1
103, 123, 170 1
92, 110, 157 1
71, 88, 137 1
50, 64, 116 1
40, 54, 107 1
60, 71, 128 1
91, 102, 159 1
102, 115, 171 1
101, 114, 170 1
96, 113, 170 1
90, 110, 165 1
85, 106, 158 1
87, 110, 156 1
90, 114, 156 1
82, 106, 142 1
103, 125, 166 1
85, 105, 140 1
85, 105, 136 1
84, 102, 131 1
91, 106, 132 1
96, 106, 130 1
93, 100, 120 1
40, 55, 64 1
26, 49, 64 1
31, 56, 72 1
42, 69, 89 1
56, 86, 111 1
75, 106, 137 1
93, 127, 163 1
106, 142, 182 1
112, 149, 193 1
114, 150, 198 1
112, 148, 196 1
112, 145, 194 1
110, 143, 192 1
109, 143, 189 1
118, 146, 193 1
138, 158, 216 1
139, 159, 217 1
140, 159, 216 1
141, 158, 214 1
135, 151, 204 1
126, 140, 192 1
117, 138, 170 1
53, 77, 99 1
27, 53, 69 1
23, 51, 62 1
46, 70, 90 1
52, 75, 97 1
56, 79, 101 1
59, 83, 105 1
62, 86, 108 1
60, 83, 109 1
55, 77, 105 1
53, 74, 105 1
54, 75, 107 1
62, 83, 115 1
67, 87, 122 1
82, 100, 137 1
92, 110, 147 1
104, 121, 160 1
110, 131, 169 1
120, 142, 183 1
133, 158, 202 1
137, 163, 210 1
139, 164, 214 1
106, 132, 186 1
95, 120, 176 1
93, 118, 174 1
99, 122, 178 1
103, 126, 182 1
98, 118, 175 1
89, 109, 166 1
77, 97, 152 1
67, 84, 140 1
64, 82, 135 1
72, 88, 141 1
83, 100, 151 1
89, 106, 157 1
89, 105, 158 1
91, 107, 160 1
89, 109, 157 1
85, 108, 154 1
88, 111, 156 1
94, 112, 159 1
67, 84, 133 1
53, 67, 119 1
44, 57, 109 1
50, 63, 115 1
84, 96, 150 1
105, 117, 171 1
98, 111, 163 1
91, 110, 167 1
93, 113, 168 1
92, 112, 167 1
85, 107, 159 1
82, 105, 155 1
84, 108, 154 1
86, 110, 152 1
85, 107, 142 1
88, 109, 141 1
95, 117, 153 1
106, 120, 162 1
103, 117, 159 1
100, 115, 154 1
93, 109, 146 1
89, 106, 139 1
94, 109, 141 1
95, 109, 138 1
99, 112, 138 1
103, 113, 137 1
99, 104, 125 1
86, 88, 106 1
23, 39, 46 1
28, 50, 62 1
32, 55, 70 1
41, 67, 84 1
53, 81, 105 1
70, 100, 129 1
86, 118, 153 1
112, 147, 191 1
115, 149, 195 1
112, 146, 192 1
109, 142, 191 1
112, 143, 188 1
118, 144, 190 1
120, 146, 193 1
126, 149, 205 1
133, 155, 213 1
137, 157, 214 1
138, 157, 214 1
140, 157, 213 1
133, 151, 204 1
126, 142, 195 1
118, 138, 173 1
59, 83, 107 1
32, 58, 75 1
28, 53, 69 1
37, 61, 79 1
42, 65, 87 1
49, 73, 95 1
55, 79, 101 1
60, 84, 106 1
61, 87, 111 1
68, 90, 125 1
74, 96, 131 1
104, 122, 163 1
110, 130, 171 1
112, 132, 173 1
128, 150, 192 1
135, 159, 201 1
140, 164, 210 1
141, 167, 214 1
143, 168, 218 1
136, 160, 212 1
108, 132, 186 1
104, 127, 183 1
107, 129, 187 1
112, 134, 192 1
115, 137, 195 1
111, 131, 189 1
104, 124, 182 1
81, 98, 154 1
71, 89, 142 1
71, 88, 139 1
77, 94, 145 1
84, 101, 150 1
88, 102, 154 1
90, 107, 156 1
91, 108, 157 1
85, 105, 152 1
80, 103, 148 1
83, 106, 151 1
92, 115, 160 1
91, 109, 156 1
73, 89, 136 1
63, 77, 126 1
54, 65, 115 1
43, 54, 104 1
59, 70, 120 1
85, 97, 145 1
95, 107, 155 1
90, 109, 160 1
90, 111, 162 1
88, 109, 160 1
78, 101, 147 1
76, 99, 144 1
77, 99, 140 1
81, 100, 133 1
82, 100, 129 1
92, 109, 136 1
103, 121, 150 1
104, 122, 151 1
102, 120, 151 1
100, 110, 144 1
100, 111, 143 1
101, 112, 142 1
99, 110, 140 1
94, 106, 134 1
96, 109, 135 1
96, 107, 129 1
101, 108, 128 1
96, 100, 119 1
83, 83, 101 1
68, 65, 80 1
22, 36, 42 1
24, 37, 45 1
23, 43, 54 1
29, 51, 63 1
39, 62, 78 1
52, 77, 97 1
66, 93, 119 1
80, 109, 140 1
91, 123, 158 1
115, 147, 188 1
114, 148, 191 1
112, 146, 189 1
116, 143, 187 1
116, 142, 188 1
135, 155, 212 1
135, 155, 210 1
133, 150, 206 1
125, 143, 196 1
65, 86, 114 1
41, 65, 85 1
23, 48, 64 1
18, 41, 57 1
18, 42, 60 1
26, 50, 70 1
37, 60, 82 1
45, 69, 93 1
52, 76, 100 1
55, 81, 105 1
61, 85, 113 1
62, 85, 117 1
66, 88, 123 1
70, 95, 129 1
76, 101, 135 1
76, 100, 136 1
133, 156, 201 1
142, 166, 212 1
143, 169, 215 1
145, 171, 218 1
148, 171, 221 1
143, 166, 216 1
110, 134, 188 1
115, 138, 194 1
120, 142, 200 1
117, 138, 199 1
118, 137, 198 1
116, 135, 196 1
106, 124, 183 1
95, 112, 168 1
80, 98, 151 1
69, 86, 137 1
70, 87, 136 1
80, 97, 146 1
86, 100, 148 1
84, 103, 146 1
78, 100, 142 1
80, 102, 144 1
88, 110, 152 1
96, 112, 158 1
80, 95, 141 1
65, 78, 124 1
56, 69, 115 1
48, 58, 105 1
44, 55, 99 1
62, 73, 117 1
88, 99, 143 1
91, 107, 153 1
89, 108, 153 1
86, 105, 150 1
82, 101, 144 1
77, 97, 138 1
74, 93, 131 1
76, 94, 125 1
78, 93, 119 1
81, 94, 116 1
83, 94, 114 1
77, 89, 107 1
67, 79, 97 1
64, 76, 94 1
73, 87, 106 1
91, 95, 119 1
94, 101, 121 1
102, 109, 129 1
106, 113, 132 1
105, 112, 131 1
106, 114, 131 1
104, 111, 128 1
98, 103, 118 1
81, 84, 99 1
71, 71, 85 1
62, 58, 70 1
55, 50, 59 1
26, 37, 45 1
19, 39, 44 1
25, 47, 53 1
34, 56, 67 1
44, 69, 85 1
57, 84, 104 1
71, 98, 124 1
83, 113, 142 1
94, 125, 156 1
111, 141, 176 1
115, 147, 182 1
116, 148, 184 1
112, 143, 182 1
109, 142, 181 1
107, 142, 182 1
109, 144, 184 1
110, 140, 181 1
111, 141, 182 1
113, 141, 182 1
113, 140, 184 1
125, 151, 205 1
127, 153, 207 1
132, 153, 208 1
130, 150, 205 1
118, 134, 177 1
96, 113, 152 1
75, 95, 126 1
54, 74, 99 1
31, 52, 73 1
19, 41, 59 1
19, 40, 61 1
24, 45, 67 1
36, 58, 83 1
43, 66, 92 1
49, 72, 98 1
50, 75, 101 1
55, 79, 107 1
59, 83, 113 1
69, 91, 127 1
71, 98, 132 1
76, 103, 137 1
76, 102, 138 1
77, 103, 140 1
83, 107, 149 1
89, 113, 155 1
94, 119, 163 1
136, 161, 205 1
146, 172, 218 1
147, 173, 220 1
150, 173, 223 1
145, 168, 218 1
125, 147, 199 1
120, 138, 201 1
118, 136, 199 1
123, 141, 204 1
119, 137, 198 1
113, 131, 190 1
106, 123, 180 1
84, 102, 155 1
71, 89, 136 1
84, 97, 141 1
87, 103, 146 1
86, 104, 145 1
80, 100, 141 1
78, 98, 139 1
78, 100, 141 1
102, 119, 162 1
85, 101, 144 1
62, 75, 119 1
57, 68, 112 1
60, 69, 112 1
47, 57, 97 1
52, 60, 100 1
73, 82, 120 1
86, 100, 136 1
85, 102, 135 1
80, 95, 127 1
77, 89, 117 1
77, 90, 112 1
72, 82, 100 1
64, 72, 85 1
53, 57, 68 1
42, 47, 56 1
34, 40, 47 1
30, 36, 43 1
27, 35, 42 1
27, 34, 43 1
52, 52, 64 1
54, 56, 67 1
59, 61, 71 1
62, 64, 74 1
60, 63, 71 1
55, 57, 65 1
57, 55, 61 1
49, 45, 51 1
47, 41, 46 1
47, 40, 43 1
22, 34, 38 1
20, 40, 41 1
24, 45, 47 1
26, 48, 54 1
29, 54, 64 1
65, 93, 117 1
80, 110, 135 1
103, 133, 162 1
111, 141, 170 1
113, 144, 175 1
111, 142, 175 1
108, 140, 175 1
106, 141, 175 1
106, 140, 176 1
108, 142, 178 1
110, 141, 180 1
109, 139, 180 1
124, 150, 204 1
120, 135, 181 1
105, 121, 163 1
70, 87, 114 1
49, 67, 90 1
34, 53, 74 1
27, 46, 67 1
26, 46, 71 1
32, 53, 80 1
37, 60, 86 1
41, 64, 90 1
43, 67, 95 1
50, 74, 104 1
57, 80, 112 1
63, 85, 121 1
70, 91, 129 1
73, 101, 135 1
87, 115, 156 1
90, 117, 161 1
122, 148, 194 1
141, 167, 213 1
145, 171, 217 1
148, 174, 221 1
149, 171, 219 1
146, 167, 218 1
130, 151, 203 1
118, 139, 194 1
126, 144, 207 1
131, 149, 214 1
126, 143, 206 1
120, 138, 199 1
111, 128, 185 1
79, 97, 150 1
44, 61, 110 1
40, 58, 105 1
61, 80, 125 1
81, 96, 135 1
85, 100, 139 1
80, 101, 139 1
90, 109, 147 1
94, 110, 152 1
91, 105, 147 1
76, 88, 130 1
68, 78, 118 1
64, 72, 112 1
48, 57, 95 1
41, 50, 87 1
47, 56, 90 1
72, 83, 110 1
83, 96, 122 1
91, 103, 131 1
93, 105, 133 1
92, 105, 131 1
85, 97, 121 1
76, 85, 105 1
70, 77, 92 1
42, 44, 54 1
42, 42, 48 1
41, 40, 42 1
41, 39, 38 1
41, 42, 40 1
44, 45, 43 1
35, 35, 35 1
34, 34, 34 1
35, 33, 33 1
49, 44, 45 1
45, 37, 37 1
49, 40, 37 1
21, 32, 36 1
21, 31, 38 1
22, 41, 38 1
21, 42, 40 1
18, 39, 41 1
14, 38, 44 1
17, 44, 54 1
28, 54, 70 1
43, 73, 92 1
60, 91, 112 1
90, 120, 145 1
101, 131, 158 1
108, 138, 165 1
107, 138, 169 1
105, 138, 171 1
102, 137, 171 1
105, 136, 175 1
106, 136, 177 1
108, 137, 181 1
109, 140, 185 1
111, 141, 188 1
119, 131, 179 1
114, 127, 171 1
102, 118, 154 1
69, 87, 110 1
51, 70, 91 1
35, 53, 76 1
29, 49, 74 1
33, 54, 81 1
36, 57, 85 1
37, 59, 87 1
39, 63, 91 1
47, 71, 101 1
55, 77, 112 1
62, 84, 120 1
69, 90, 128 1
80, 111, 144 1
84, 114, 149 1
101, 127, 173 1
118, 147, 192 1
124, 153, 198 1
133, 162, 207 1
137, 166, 211 1
143, 171, 218 1
146, 174, 221 1
151, 173, 221 1
150, 171, 222 1
139, 160, 212 1
122, 142, 200 1
122, 140, 203 1
123, 141, 206 1
132, 150, 215 1
128, 145, 208 1
123, 141, 202 1
113, 130, 187 1
73, 91, 144 1
24, 43, 88 1
50, 69, 114 1
77, 90, 128 1
77, 93, 130 1
74, 92, 129 1
73, 91, 128 1
74, 96, 132 1
79, 98, 136 1
90, 105, 144 1
87, 97, 137 1
81, 89, 129 1
71, 80, 118 1
59, 67, 104 1
45, 54, 88 1
30, 39, 72 1
38, 47, 67 1
52, 63, 85 1
63, 74, 96 1
64, 75, 97 1
67, 76, 96 1
63, 70, 89 1
49, 56, 71 1
42, 44, 55 1
45, 45, 51 1
44, 42, 42 1
45, 39, 32 1
44, 38, 31 1
40, 38, 30 1
46, 41, 38 1
46, 43, 39 1
45, 44, 40 1
41, 38, 34 1
50, 45, 42 1
49, 42, 39 1
47, 38, 34 1
49, 39, 32 1
30, 41, 39 1
27, 41, 40 1
31, 45, 44 1
30, 43, 45 1
36, 49, 51 1
36, 48, 52 1
34, 45, 49 1
41, 51, 58 1
63, 72, 85 1
83, 94, 108 1
104, 117, 133 1
114, 130, 147 1
118, 140, 158 1
119, 144, 164 1
112, 142, 161 1
105, 137, 156 1
109, 136, 163 1
104, 132, 162 1
104, 133, 164 1
101, 138, 172 1
106, 143, 177 1
105, 141, 177 1
102, 138, 174 1
104, 140, 178 1
109, 134, 174 1
75, 94, 132 1
63, 80, 119 1
52, 70, 107 1
44, 63, 98 1
46, 66, 101 1
46, 67, 99 1
46, 70, 100 1
49, 73, 101 1
52, 77, 103 1
70, 96, 120 1
88, 116, 151 1
115, 138, 184 1
117, 141, 195 1
122, 148, 202 1
142, 172, 221 1
140, 170, 217 1
144, 173, 218 1
146, 175, 220 1
150, 170, 218 1
149, 169, 217 1
141, 159, 212 1
131, 148, 204 1
125, 142, 205 1
128, 144, 210 1
130, 146, 213 1
140, 153, 221 1
132, 146, 212 1
128, 140, 204 1
118, 129, 189 1
80, 91, 148 1
26, 38, 92 1
14, 25, 77 1
44, 55, 105 1
56, 76, 124 1
76, 95, 138 1
76, 95, 133 1
71, 89, 120 1
75, 92, 119 1
82, 97, 123 1
91, 105, 128 1
98, 111, 133 1
98, 105, 124 1
84, 87, 102 1
61, 61, 75 1
45, 39, 50 1
35, 27, 37 1
43, 41, 40 1
44, 42, 41 1
42, 37, 34 1
46, 40, 35 1
50, 41, 37 1
51, 41, 34 1
51, 37, 31 1
59, 35, 29 1
54, 36, 29 1
24, 32, 31 1
36, 48, 48 1
37, 49, 49 1
34, 46, 48 1
37, 46, 50 1
39, 48, 52 1
44, 52, 59 1
44, 51, 60 1
46, 55, 65 1
54, 63, 76 1
67, 80, 94 1
83, 99, 115 1
97, 117, 134 1
109, 134, 150 1
121, 147, 163 1
115, 139, 163 1
112, 138, 162 1
105, 132, 158 1
100, 129, 156 1
102, 132, 161 1
104, 136, 165 1
101, 135, 165 1
98, 134, 164 1
100, 135, 168 1
99, 137, 169 1
104, 139, 173 1
106, 139, 178 1
108, 138, 179 1
109, 138, 182 1
112, 138, 184 1
114, 140, 187 1
110, 135, 175 1
102, 122, 163 1
95, 114, 152 1
84, 103, 141 1
73, 92, 129 1
65, 84, 121 1
59, 79, 114 1
54, 77, 109 1
62, 86, 114 1
69, 93, 121 1
96, 120, 144 1
92, 120, 154 1
112, 139, 176 1
125, 151, 191 1
135, 158, 203 1
127, 150, 200 1
135, 162, 212 1
141, 169, 216 1
144, 166, 214 1
145, 166, 217 1
140, 161, 213 1
131, 151, 206 1
125, 143, 202 1
124, 142, 205 1
132, 148, 214 1
136, 152, 218 1
130, 144, 210 1
123, 138, 200 1
112, 126, 185 1
78, 91, 147 1
28, 42, 94 1
16, 30, 79 1
45, 59, 107 1
62, 82, 130 1
70, 88, 135 1
72, 89, 132 1
71, 89, 126 1
73, 88, 121 1
73, 87, 116 1
73, 88, 114 1
75, 89, 112 1
70, 84, 106 1
77, 91, 110 1
84, 94, 112 1
78, 85, 102 1
66, 67, 81 1
52, 48, 59 1
45, 37, 44 1
48, 39, 35 1
49, 40, 36 1
52, 41, 37 1
52, 40, 34 1
58, 36, 30 1
33, 40, 37 1
39, 46, 43 1
43, 51, 50 1
38, 46, 46 1
44, 52, 52 1
44, 49, 52 1
48, 53, 56 1
48, 52, 57 1
41, 44, 52 1
36, 45, 54 1
39, 49, 59 1
56, 73, 82 1
72, 90, 101 1
85, 108, 124 1
96, 119, 135 1
105, 129, 147 1
109, 134, 154 1
110, 137, 158 1
109, 137, 161 1
107, 138, 161 1
108, 139, 164 1
107, 141, 165 1
109, 142, 168 1
105, 135, 170 1
105, 134, 171 1
113, 138, 180 1
115, 140, 180 1
109, 131, 172 1
92, 113, 151 1
75, 97, 133 1
66, 91, 125 1
68, 93, 125 1
92, 124, 153 1
105, 137, 166 1
119, 150, 181 1
137, 165, 200 1
149, 176, 213 1
122, 147, 197 1
135, 159, 213 1
135, 156, 211 1
137, 160, 210 1
139, 162, 212 1
137, 159, 211 1
130, 150, 207 1
131, 149, 212 1
127, 145, 206 1
118, 136, 195 1
106, 123, 179 1
75, 91, 144 1
20, 36, 83 1
46, 62, 108 1
60, 78, 125 1
69, 85, 131 1
72, 88, 130 1
77, 91, 127 1
78, 89, 119 1
67, 79, 103 1
56, 67, 87 1
49, 59, 77 1
46, 54, 71 1
44, 51, 66 1
42, 48, 61 1
43, 45, 56 1
42, 41, 51 1
43, 36, 43 1
41, 34, 39 1
46, 35, 38 1
51, 38, 36 1
50, 37, 35 1
53, 39, 33 1
42, 46, 41 1
44, 48, 43 1
45, 50, 48 1
49, 54, 52 1
46, 49, 47 1
47, 50, 48 1
44, 47, 45 1
47, 47, 47 1
48, 48, 48 1
50, 49, 51 1
47, 49, 50 1
41, 45, 46 1
34, 41, 44 1
34, 43, 46 1
38, 47, 50 1
34, 50, 57 1
41, 59, 66 1
51, 68, 77 1
57, 75, 86 1
61, 80, 93 1
66, 89, 104 1
81, 106, 122 1
97, 123, 139 1
108, 136, 153 1
114, 141, 161 1
113, 142, 163 1
115, 143, 167 1
119, 146, 173 1
118, 143, 175 1
116, 141, 175 1
116, 140, 176 1
113, 136, 174 1
103, 124, 162 1
96, 119, 157 1
86, 109, 147 1
78, 105, 139 1
81, 109, 140 1
98, 121, 147 1
100, 121, 148 1
104, 124, 149 1
102, 134, 157 1
112, 144, 167 1
131, 162, 187 1
154, 183, 210 1
166, 194, 225 1
163, 190, 224 1
141, 165, 207 1
133, 157, 203 1
127, 150, 198 1
116, 139, 195 1
132, 151, 212 1
133, 157, 209 1
133, 157, 211 1
123, 145, 203 1
121, 142, 204 1
129, 150, 212 1
134, 153, 214 1
127, 147, 205 1
117, 136, 193 1
100, 121, 173 1
72, 91, 142 1
33, 53, 100 1
21, 40, 85 1
42, 61, 104 1
61, 77, 124 1
68, 84, 127 1
73, 85, 125 1
75, 86, 118 1
68, 77, 104 1
54, 61, 81 1
40, 45, 60 1
30, 33, 47 1
31, 33, 43 1
30, 31, 41 1
31, 30, 39 1
35, 33, 39 1
40, 34, 39 1
43, 34, 37 1
50, 37, 39 1
58, 39, 36 1
57, 41, 35 1
52, 39, 31 1
58, 58, 52 1
59, 59, 53 1
57, 54, 49 1
58, 55, 50 1
54, 51, 46 1
52, 49, 44 1
53, 49, 44 1
58, 52, 47 1
55, 49, 44 1
52, 46, 41 1
51, 44, 41 1
44, 43, 39 1
35, 43, 42 1
37, 45, 45 1
40, 48, 48 1
44, 53, 56 1
52, 64, 70 1
57, 70, 78 1
61, 79, 86 1
69, 88, 96 1
80, 100, 111 1
93, 112, 125 1
121, 142, 163 1
127, 148, 170 1
127, 147, 172 1
128, 149, 176 1
121, 142, 174 1
101, 121, 146 1
92, 108, 131 1
93, 122, 137 1
84, 113, 128 1
91, 119, 136 1
118, 143, 163 1
145, 172, 193 1
164, 189, 215 1
168, 192, 222 1
160, 185, 219 1
141, 163, 204 1
130, 151, 202 1
124, 145, 207 1
126, 146, 211 1
133, 153, 218 1
125, 146, 207 1
120, 141, 202 1
122, 143, 204 1
128, 149, 210 1
130, 149, 210 1
124, 144, 201 1
72, 94, 142 1
41, 62, 107 1
24, 46, 88 1
38, 60, 101 1
67, 81, 129 1
78, 91, 135 1
80, 91, 129 1
74, 82, 112 1
63, 67, 91 1
52, 52, 68 1
44, 43, 53 1
39, 37, 43 1
45, 39, 40 1
49, 41, 42 1
54, 41, 39 1
58, 41, 38 1
57, 35, 30 1
63, 57, 50 1
60, 54, 47 1
64, 56, 49 1
63, 55, 48 1
54, 46, 39 1
49, 41, 34 1
55, 48, 39 1
59, 50, 41 1
60, 47, 39 1
55, 44, 36 1
55, 45, 35 1
54, 45, 35 1
47, 44, 36 1
49, 46, 42 1
49, 47, 46 1
38, 40, 40 1
32, 36, 37 1
37, 42, 45 1
36, 45, 49 1
39, 49, 56 1
62, 74, 86 1
80, 91, 105 1
97, 109, 127 1
112, 124, 142 1
119, 136, 163 1
120, 139, 166 1
121, 139, 168 1
118, 136, 165 1
112, 132, 163 1
110, 131, 163 1
99, 123, 151 1
103, 124, 151 1
107, 125, 148 1
104, 118, 140 1
89, 103, 122 1
75, 86, 106 1
54, 70, 82 1
32, 50, 61 1
24, 42, 53 1
36, 53, 66 1
150, 171, 192 1
178, 199, 226 1
173, 194, 226 1
151, 172, 210 1
141, 164, 214 1
134, 157, 213 1
129, 152, 214 1
130, 152, 217 1
130, 154, 220 1
132, 152, 210 1
134, 154, 212 1
135, 155, 213 1
131, 152, 213 1
127, 148, 209 1
120, 140, 197 1
79, 99, 146 1
52, 73, 118 1
31, 53, 95 1
38, 58, 99 1
63, 78, 124 1
82, 94, 136 1
85, 93, 130 1
72, 76, 105 1
54, 55, 75 1
46, 42, 54 1
45, 39, 44 1
45, 37, 38 1
51, 42, 39 1
53, 41, 39 1
53, 42, 38 1
57, 42, 39 1
55, 36, 31 1
59, 48, 40 1
57, 46, 38 1
57, 44, 36 1
63, 51, 41 1
68, 53, 44 1
56, 44, 38 1
56, 45, 41 1
55, 48, 45 1
48, 43, 42 1
42, 37, 38 1
35, 35, 41 1
38, 37, 46 1
45, 46, 56 1
53, 53, 65 1
82, 93, 113 1
94, 108, 127 1
112, 125, 147 1
122, 136, 159 1
125, 140, 166 1
124, 141, 168 1
121, 140, 167 1
117, 138, 165 1
110, 131, 158 1
106, 128, 153 1
104, 125, 147 1
104, 121, 142 1
100, 114, 133 1
92, 100, 117 1
72, 79, 94 1
57, 62, 77 1
39, 42, 50 1
37, 40, 48 1
32, 40, 47 1
31, 40, 49 1
47, 57, 67 1
82, 95, 109 1
123, 139, 156 1
180, 196, 219 1
175, 193, 224 1
160, 179, 216 1
144, 167, 212 1
142, 164, 216 1
136, 160, 218 1
134, 159, 221 1
132, 159, 223 1
134, 152, 213 1
139, 157, 218 1
140, 158, 219 1
128, 146, 209 1
128, 146, 207 1
120, 139, 196 1
95, 114, 165 1
86, 106, 154 1
65, 84, 129 1
39, 58, 101 1
35, 54, 97 1
62, 75, 121 1
84, 96, 138 1
88, 97, 131 1
69, 72, 100 1
48, 46, 65 1
43, 35, 45 1
55, 41, 35 1
58, 45, 37 1
62, 47, 38 1
64, 49, 40 1
69, 50, 42 1
67, 50, 41 1
65, 48, 39 1
67, 51, 39 1
59, 46, 44 1
56, 44, 44 1
48, 38, 44 1
27, 31, 42 1
43, 49, 60 1
68, 74, 87 1
89, 98, 112 1
107, 117, 134 1
119, 131, 149 1
124, 138, 157 1
125, 140, 159 1
119, 134, 153 1
110, 125, 144 1
99, 113, 131 1
93, 102, 116 1
80, 86, 99 1
66, 68, 79 1
52, 51, 61 1
44, 41, 50 1
49, 38, 41 1
48, 41, 44 1
47, 42, 44 1
43, 42, 44 1
35, 38, 42 1
39, 45, 50 1
63, 72, 81 1
119, 130, 144 1
162, 176, 198 1
166, 182, 211 1
149, 168, 205 1
147, 170, 215 1
142, 167, 217 1
135, 163, 217 1
136, 165, 222 1
140, 155, 217 1
146, 161, 223 1
149, 164, 227 1
145, 162, 225 1
142, 159, 222 1
138, 155, 218 1
133, 151, 212 1
123, 141, 200 1
96, 114, 167 1
90, 110, 158 1
72, 90, 137 1
42, 61, 106 1
31, 50, 95 1
53, 66, 112 1
83, 92, 135 1
91, 97, 132 1
71, 72, 98 1
51, 46, 61 1
46, 35, 43 1
52, 38, 39 1
54, 38, 32 1
52, 35, 26 1
53, 38, 29 1
72, 52, 41 1
67, 48, 40 1
63, 44, 41 1
58, 40, 39 1
55, 37, 38 1
44, 41, 43 1
43, 42, 46 1
46, 46, 52 1
51, 53, 61 1
55, 57, 67 1
56, 60, 71 1
61, 67, 80 1
66, 74, 87 1
76, 85, 98 1
70, 79, 89 1
62, 68, 79 1
58, 61, 69 1
59, 57, 63 1
59, 53, 58 1
58, 49, 52 1
58, 47, 49 1
63, 42, 44 1
60, 39, 41 1
53, 44, 41 1
45, 43, 42 1
43, 45, 46 1
43, 49, 56 1
75, 83, 96 1
118, 129, 149 1
139, 153, 181 1
146, 165, 200 1
144, 170, 216 1
152, 166, 225 1
153, 167, 226 1
154, 170, 229 1
164, 179, 241 1
163, 181, 242 1
148, 166, 229 1
117, 137, 195 1
103, 123, 180 1
91, 112, 164 1
92, 111, 162 1
82, 102, 150 1
41, 60, 105 1
66, 79, 123 1
92, 102, 142 1
93, 98, 131 1
63, 63, 87 1
44, 37, 52 1
49, 37, 43 1
54, 42, 32 1
52, 40, 30 1
58, 43, 34 1
72, 42, 31 1
78, 52, 40 1
73, 50, 42 1
62, 39, 37 1
43, 38, 40 1
41, 39, 45 1
43, 43, 49 1
55, 55, 61 1
52, 52, 58 1
49, 48, 52 1
50, 45, 47 1
54, 46, 46 1
60, 48, 46 1
63, 48, 45 1
65, 48, 45 1
69, 44, 42 1
61, 40, 38 1
54, 44, 37 1
52, 44, 37 1
43, 41, 41 1
44, 45, 49 1
44, 48, 59 1
66, 74, 91 1
125, 141, 170 1
144, 163, 196 1
151, 171, 206 1
146, 160, 212 1
151, 167, 220 1
158, 173, 229 1
166, 183, 239 1
164, 183, 240 1
154, 174, 232 1
149, 170, 231 1
147, 171, 231 1
131, 155, 213 1
121, 143, 201 1
106, 129, 185 1
90, 112, 164 1
84, 105, 156 1
85, 105, 153 1
80, 100, 147 1
82, 101, 146 1
85, 95, 135 1
98, 107, 144 1
88, 92, 121 1
58, 57, 77 1
46, 40, 51 1
51, 40, 43 1
54, 39, 36 1
53, 41, 31 1
70, 45, 41 1
72, 45, 41 1
62, 48, 42 1
60, 48, 44 1
57, 45, 43 1
50, 44, 45 1
51, 39, 37 1
71, 44, 40 1
60, 45, 36 1
57, 47, 37 1
61, 51, 44 1
56, 49, 46 1
38, 35, 44 1
44, 45, 59 1
61, 68, 85 1
96, 107, 127 1
122, 135, 157 1
149, 165, 207 1
158, 174, 217 1
164, 180, 226 1
168, 188, 235 1
169, 191, 239 1
157, 181, 233 1
144, 170, 224 1
133, 161, 215 1
130, 157, 213 1
106, 133, 184 1
95, 120, 170 1
86, 109, 157 1
82, 105, 151 1
83, 104, 149 1
99, 109, 143 1
95, 103, 133 1
71, 75, 100 1
48, 47, 63 1
54, 41, 43 1
71, 47, 41 1
68, 49, 41 1
70, 51, 43 1
68, 51, 42 1
60, 43, 40 1
59, 44, 41 1
59, 44, 42 1
53, 40, 38 1
55, 40, 37 1
61, 47, 35 1
62, 49, 35 1
63, 49, 37 1
63, 51, 47 1
37, 31, 36 1
34, 31, 40 1
40, 41, 51 1
57, 61, 72 1
82, 96, 124 1
120, 134, 163 1
153, 171, 202 1
170, 190, 225 1
164, 187, 225 1
148, 173, 215 1
113, 140, 190 1
104, 132, 179 1
91, 114, 159 1
83, 105, 147 1
84, 104, 145 1
92, 111, 149 1
99, 106, 133 1
79, 84, 109 1
53, 54, 74 1
43, 39, 51 1
47, 40, 45 1
54, 35, 27 1
67, 48, 33 1
66, 46, 41 1
65, 46, 41 1
60, 46, 34 1
62, 47, 31 1
64, 48, 32 1
59, 47, 43 1
57, 49, 49 1
42, 40, 40 1
25, 34, 48 1
44, 54, 71 1
69, 83, 101 1
107, 123, 146 1
142, 163, 190 1
159, 182, 214 1
152, 178, 214 1
135, 164, 203 1
114, 142, 183 1
96, 117, 155 1
91, 109, 146 1
95, 111, 147 1
99, 113, 149 1
85, 89, 108 1
59, 61, 79 1
43, 41, 53 1
46, 39, 46 1
71, 50, 35 1
72, 51, 36 1
64, 42, 37 1
59, 46, 32 1
60, 47, 33 1
69, 48, 33 1
72, 50, 38 1
66, 51, 42 1
56, 48, 41 1
48, 42, 35 1
38, 43, 42 1
34, 39, 42 1
26, 34, 41 1
38, 50, 60 1
105, 126, 148 1
128, 150, 178 1
131, 156, 188 1
116, 135, 170 1
110, 125, 158 1
107, 118, 150 1
99, 109, 139 1
88, 96, 126 1
65, 67, 78 1
47, 46, 56 1
43, 39, 45 1
52, 44, 45 1
54, 42, 40 1
55, 39, 33 1
56, 35, 33 1
58, 36, 31 1
57, 35, 29 1
64, 46, 29 1
65, 42, 27 1
55, 43, 31 1
54, 46, 33 1
53, 47, 34 1
46, 47, 38 1
38, 42, 37 1
34, 42, 42 1
45, 56, 64 1
68, 83, 99 1
101, 120, 141 1
120, 141, 168 1
132, 153, 181 1
137, 157, 188 1
133, 151, 182 1
128, 141, 173 1
125, 135, 165 1
117, 123, 152 1
100, 103, 131 1
78, 79, 105 1
51, 49, 55 1
44, 40, 45 1
56, 42, 36 1
57, 36, 34 1
60, 37, 35 1
58, 37, 29 1
73, 53, 42 1
63, 45, 28 1
68, 48, 31 1
69, 41, 40 1
65, 40, 38 1
56, 45, 31 1
60, 47, 31 1
62, 46, 30 1
64, 45, 30 1
72, 49, 33 1
63, 47, 31 1
50, 43, 28 1
55, 50, 35 1
48, 43, 28 1
51, 48, 34 1
37, 42, 40 1
32, 41, 44 1
28, 40, 50 1
29, 45, 62 1
28, 46, 69 1
55, 74, 101 1
74, 90, 119 1
85, 99, 128 1
91, 102, 130 1
90, 97, 124 1
73, 77, 102 1
52, 52, 76 1
33, 30, 55 1
42, 39, 41 1
47, 39, 39 1
49, 38, 34 1
62, 41, 39 1
58, 37, 35 1
61, 39, 28 1
52, 36, 29 1
48, 40, 41 1
50, 42, 43 1
53, 42, 44 1
52, 41, 43 1
50, 41, 32 1
58, 46, 42 1
50, 38, 36 1
50, 40, 40 1
48, 38, 38 1
53, 41, 41 1
52, 40, 40 1
54, 42, 42 1
50, 39, 31 1
64, 48, 41 1
61, 46, 37 1
57, 45, 39 1
58, 46, 40 1
49, 37, 33 1
50, 38, 34 1
51, 38, 30 1
63, 47, 40 1
64, 37, 33 1
64, 35, 30 1
64, 36, 29 1
61, 35, 28 1
68, 38, 33 1
67, 50, 31 1
66, 49, 30 1
66, 48, 31 1
67, 47, 30 1
65, 36, 31 1
74, 48, 41 1
75, 46, 42 1
64, 39, 37 1
63, 42, 40 1
64, 43, 41 1
69, 43, 29 1
74, 44, 43 1
70, 40, 39 1
65, 39, 39 1
61, 37, 37 1
62, 41, 40 1
64, 43, 42 1
68, 39, 32 1
77, 48, 39 1
77, 48, 41 1
76, 47, 40 1
66, 47, 40 1
79, 47, 36 1
81, 49, 38 1
79, 53, 39 1
70, 43, 29 1
68, 41, 27 1
66, 39, 25 1
69, 40, 36 1
78, 50, 39 1
75, 49, 42 1
64, 38, 26 1
62, 38, 26 1
65, 39, 27 1
60, 37, 29 1
75, 50, 40 1
58, 38, 27 1
64, 40, 28 1
56, 38, 27 1
62, 37, 27 1
66, 39, 29 1
62, 43, 30 1
63, 35, 28 1
65, 37, 30 1
74, 48, 42 1
74, 52, 41 1
71, 41, 30 1
69, 41, 30 1
66, 49, 36 1
73, 47, 41 1
70, 51, 38 1
71, 40, 31 1
78, 47, 38 1
61, 42, 29 1
69, 47, 41 1
60, 38, 26 1
60, 44, 31 1
65, 38, 34 1
63, 38, 34 1
